\relax 
\@writefile{toc}{\contentsline {section}{Problem 1}{2}}
\@writefile{toc}{\contentsline {section}{Problem 2}{2}}
\@writefile{lot}{\contentsline {table}{\numberline {1}{\ignorespaces Resulting matrix from problem statement.}}{3}}
\newlabel{my-label}{{1}{3}}
\@writefile{toc}{\contentsline {section}{Problem 3}{3}}
\@writefile{toc}{\contentsline {section}{Problem 4}{5}}
\@writefile{toc}{\contentsline {section}{Problem 1 Code}{10}}
\@writefile{toc}{\contentsline {section}{Problem 3 Code}{10}}
\@writefile{toc}{\contentsline {section}{Problem 4 Code}{12}}
