,Diameter,MGD,Total_Nodes,Biggest_Cluster
American75,9,2.7659693378420247,6386,6370
Amherst41,7,2.4036611329083373,2235,2235
Auburn71,7,2.675469522140996,18448,18448
BC17,9,2.7918373224575985,11509,11498
BU10,9,3.027826611350825,19700,19666
Baylor93,7,2.6675292345431396,12803,12799
Berkeley13,7,2.9399059206452636,22937,22900
Bingham82,8,2.820404379562044,10004,10001
Bowdoin47,6,2.4287151820562225,2252,2250
Brandeis99,7,2.4907866211732075,3898,3887
Brown11,9,2.6961558555658254,8600,8586
Bucknell39,6,2.507091793012344,3826,3824
Cal65,8,2.945358888868336,11247,11243
Caltech36,6,2.3378480449470755,769,762
Carnegie49,8,2.7380666934057203,6637,6621
Colgate88,6,2.4565714164082,3482,3482
Columbia2,9,2.836523663589642,11770,11706
Cornell5,8,2.875888350303363,18660,18621
Dartmouth6,8,2.767929834878965,7694,7677
Duke14,8,2.71214107931213,9895,9885
Emory27,8,2.7165848067611638,7460,7449
FSU53,8,3.01995229450708,27737,27731
GWU54,9,2.825785383745178,12193,12164
Georgetown15,11,2.7568827225678896,9414,9388
Hamilton46,6,2.362846413796511,2314,2312
Harvard1,11,2.8854296728806768,15126,15086
Haverford76,6,2.2278663967417573,1446,1446
Howard90,7,2.4174042005935936,4047,4047
Indiana69,8,2.9612991458461773,29747,29732
JMU79,7,2.829871882830701,14070,14070
Johns Hopkins55,8,2.710212139442153,5180,5157
Lehigh96,6,2.625050990553689,5075,5073
MIT8,8,2.7202753728586515,6440,6402
MSU24,8,3.0434207285097137,32375,32361
MU78,7,2.849498367485558,15436,15425
Maine59,7,2.931364631919417,9069,9065
Maryland58,7,2.9368861018079278,20871,20829
Mich67,7,2.8394297810185662,3748,3745
Michigan23,9,3.055328456736814,30147,30106
Middlebury45,7,2.5065405707833266,3075,3069
Mississippi66,7,2.62201341550556,10521,10519
NYU9,8,3.0071115354704343,21679,21623
Northeastern19,9,3.0361457664201192,13882,13868
Northwestern25,9,2.723483809339746,10567,10537
Notre Dame57,8,2.739745853490274,12155,12149
Oberlin44,7,2.5794220201138502,2920,2920
Oklahoma97,9,2.7678616043331017,17425,17420
Penn94,8,3.1216515038832418,41554,41536
Pepperdine86,9,2.4997222353712885,3445,3440
Princeton12,9,2.676091527749019,6596,6575
Reed98,6,2.461460580087011,962,962
Rice31,6,2.467679650198124,4087,4083
Rochester38,7,2.642654927166634,4563,4561
Rutgers89,8,3.0966991337838508,24580,24568
Santa74,8,2.485804514995735,3578,3578
Simmons81,7,2.5703588622788653,1518,1510
Smith60,7,2.4976571599003394,2970,2970
Stanford3,9,2.818565439321086,11621,11586
Swarthmore42,6,2.3181765836052,1659,1657
Syracuse56,7,2.8624115466708693,13653,13640
Temple83,8,3.048216736671211,13686,13653
Tennessee95,7,2.7519497119155,16979,16977
Texas80,8,3.0522886536034415,31560,31538
Texas84,7,2.893728534457911,36371,36364
Trinity100,6,2.4275852449379913,2613,2613
Tufts18,10,2.7651125239817143,6682,6672
Tulane29,8,2.809903629157063,7752,7740
UC33,8,3.0279446409791966,16808,16800
UC61,8,2.9868832499858478,13746,13736
UC64,8,3.0149921639947475,6833,6810
UCF52,8,2.9199883121449868,14940,14936
UCLA26,8,3.019381381358236,20467,20453
UCSB37,8,2.996593872884866,14935,14917
UCSC68,8,3.028758645795413,8991,8979
UCSD34,9,3.0067326384337485,14948,14936
UChicago30,10,2.8076941628469783,6591,6561
UConn91,8,2.918080488200439,17212,17206
UF21,8,2.9264644987515323,35123,35111
UGA50,8,2.8498133168512916,24389,24380
UIllinois20,8,2.9854252345533707,30809,30795
UMass92,8,2.933624682134013,16516,16502
UNC28,7,2.8013603951043136,18163,18158
UPenn7,9,2.864076535803104,14916,14888
USC35,9,2.8008272544770736,17444,17440
USF51,8,3.132693446727695,13377,13367
USFCA72,7,2.6909074961271764,2682,2672
UVA16,8,2.806389228061012,17196,17178
Vanderbilt48,7,2.6129539969490447,8069,8063
Vassar85,8,2.462171860181288,3068,3068
Vermont70,7,2.9034712510896035,7324,7322
Villanova62,7,2.7441987471951417,7772,7755
Virginia63,9,2.869331223415873,21325,21319
Wake73,9,2.514146750500806,5372,5366
WashU32,8,2.635222294957065,7755,7730
Wellesley22,8,2.5851341528000336,2970,2970
Wesleyan43,7,2.5529847521930793,3593,3591
William77,8,2.60508718273159,6472,6472
Williams40,6,2.4159885593030563,2790,2788
Wisconsin87,9,2.9549913202798,23842,23831
Yale4,9,2.677439283994904,8578,8561
