status	gender	major	dorm	year
1	1	289	88	2005
1	1	249	0	2006
1	2	264	93	2007
2	1	277	0	2005
1	1	242	88	2007
1	2	242	89	2008
1	1	262	87	2009
1	2	251	93	2006
1	1	275	0	2006
1	2	254	94	2006
1	2	251	90	2007
1	2	266	0	2007
1	0	0	0	0
1	2	251	96	2006
1	1	0	86	2009
1	1	242	93	2007
2	2	248	0	2005
1	1	279	86	2008
1	1	236	96	2007
1	2	242	87	2008
1	0	279	88	2008
1	0	284	0	2007
1	1	0	0	2006
1	1	242	86	2009
1	1	262	91	2007
1	0	0	0	0
1	1	271	0	2007
1	1	278	87	2009
1	1	266	87	2008
1	2	284	90	2007
1	1	284	0	2008
1	1	236	95	2008
2	1	290	0	2005
1	2	251	0	2006
2	1	238	0	2004
1	1	291	93	2007
1	1	284	93	2007
1	2	283	86	2009
1	1	291	91	2007
1	2	248	0	2006
1	2	284	86	2009
1	1	283	88	2007
1	2	0	87	2009
1	1	249	86	2009
1	2	251	93	2005
2	1	262	0	2005
2	1	238	0	2005
2	1	283	0	2005
2	1	254	0	2004
1	2	0	86	2009
1	2	281	87	2008
1	2	289	86	2009
1	1	0	96	2007
1	0	264	0	2006
5	1	278	0	2005
4	0	0	0	0
1	1	268	86	2009
1	1	284	0	2007
1	1	0	87	2009
1	2	0	86	0
1	1	278	96	2007
1	1	289	93	2007
1	1	0	95	2008
1	1	264	91	2007
2	2	0	92	2002
1	2	235	0	2006
1	1	283	88	2007
1	2	283	91	2007
1	2	240	90	2008
1	2	266	88	2008
1	2	0	0	0
1	2	251	0	2007
1	1	0	0	2007
2	0	0	0	0
1	1	249	86	2009
1	1	236	93	2007
4	0	0	0	0
1	1	238	0	2006
1	1	0	87	2008
1	1	291	93	2007
1	1	275	91	2007
1	1	251	93	2007
1	1	0	0	2008
1	2	245	88	2008
1	2	257	0	2006
1	1	284	86	2008
1	1	289	87	2007
1	2	274	0	2005
1	1	240	88	2008
1	2	283	91	2007
1	2	251	86	2008
1	1	0	86	2009
1	1	283	88	2008
1	0	0	0	0
1	0	0	0	0
1	1	0	89	0
1	1	254	93	2007
4	0	0	0	0
1	2	0	86	2008
1	2	240	95	2007
1	0	0	86	2008
1	2	264	0	2006
1	2	270	94	2008
1	1	262	95	2008
1	1	0	86	2009
1	2	0	86	2009
2	1	274	0	2005
1	1	0	86	2009
1	2	283	90	2007
2	2	275	0	2003
1	1	270	0	2006
1	1	242	86	2008
1	1	251	91	2006
1	1	283	93	2007
1	0	0	0	0
1	2	266	93	2006
1	1	251	92	2006
1	1	251	86	2009
1	2	0	0	2009
1	2	283	93	2006
1	2	291	93	2007
1	1	284	90	2008
5	1	278	0	2006
2	1	236	0	2004
1	1	0	0	0
1	2	257	0	2006
1	1	266	87	2009
1	2	0	86	2009
1	0	0	0	0
1	2	264	86	2008
4	0	0	0	0
1	1	247	86	2008
2	2	251	0	2004
1	1	283	87	2009
5	2	283	0	2004
1	1	249	86	2009
2	1	251	94	2003
1	1	236	0	2007
1	1	239	0	2009
3	2	291	0	0
1	1	0	86	2004
2	1	251	0	2002
2	1	279	0	2003
1	2	262	88	2008
1	2	283	94	2006
1	2	0	0	2009
1	1	242	88	2008
1	2	283	92	2005
1	1	283	0	2006
1	2	248	0	2005
1	2	283	90	2008
1	0	0	0	0
1	2	264	0	2007
2	1	0	0	2004
1	1	251	88	2007
1	0	0	0	0
1	0	0	0	2006
2	1	242	0	2004
2	1	0	0	2005
1	1	0	88	2008
1	1	247	87	2007
2	2	264	0	2003
1	1	238	0	2006
1	1	242	93	2007
1	1	236	0	2007
2	2	251	0	2004
1	2	0	86	2009
1	2	244	90	2008
5	2	251	0	2007
1	1	238	87	2009
2	2	278	0	2005
1	2	242	87	2009
1	1	254	86	2008
1	2	243	86	2009
1	2	246	96	2007
2	1	284	0	2005
1	1	279	0	2007
2	2	284	0	0
1	2	283	0	2006
1	2	0	87	2008
2	2	251	0	2005
1	2	0	86	2009
1	1	289	88	2007
1	1	264	88	2008
1	2	0	0	2006
1	1	279	88	2008
1	1	0	90	2008
1	1	279	90	2008
1	1	279	0	2006
1	2	0	90	2007
1	2	0	86	2009
1	2	292	0	2006
1	1	284	88	2008
1	2	291	0	2005
2	2	284	0	2002
2	1	277	0	2004
2	2	264	0	2004
2	1	289	92	2005
2	0	0	0	0
1	2	284	0	2006
2	1	284	0	2005
1	2	264	86	2009
1	1	0	96	0
1	1	0	88	2008
1	2	0	87	2009
2	2	243	0	0
1	2	280	86	2008
1	1	266	88	2008
5	0	0	0	0
1	2	0	86	2009
1	1	278	88	2007
1	2	240	90	2007
1	2	238	0	2006
5	1	244	0	2005
1	2	254	92	2006
1	2	262	87	2009
1	1	264	90	2008
2	1	251	0	2003
1	2	251	93	2006
1	2	283	87	2009
1	2	0	86	2009
1	1	0	86	2009
1	2	0	88	2008
1	1	242	0	2006
2	2	248	93	2003
1	1	0	88	2008
1	2	0	86	2009
2	2	278	0	2005
1	0	0	0	0
1	1	284	0	2006
2	2	264	0	2004
1	2	239	86	2008
1	1	289	89	0
1	1	238	89	2008
1	1	281	0	2005
2	1	254	0	2001
1	1	242	88	2007
2	1	278	0	2004
2	0	0	0	2005
1	1	242	94	2007
2	2	268	0	2005
1	0	0	0	0
2	0	0	0	0
2	1	0	0	2004
1	0	0	90	0
1	1	284	88	2008
2	1	289	0	2004
1	2	242	87	2009
1	2	251	93	2007
2	2	251	0	2005
1	1	277	87	2008
1	2	281	92	2006
1	1	238	93	2006
2	0	0	0	0
1	0	0	0	0
1	2	266	92	2006
2	1	254	0	2005
1	0	266	87	2008
1	1	264	91	2007
1	1	0	89	2008
1	1	284	91	2007
1	1	284	87	2009
1	0	0	0	0
1	1	273	89	2008
1	1	284	87	2009
1	1	271	0	2006
1	2	0	86	2005
2	1	259	0	2004
1	2	283	0	2007
1	1	0	88	2008
1	1	238	92	2006
1	1	266	93	2007
1	1	262	88	2008
1	1	240	87	2008
1	2	242	86	2009
1	1	0	86	2009
1	2	0	0	0
1	1	266	0	2007
1	1	251	0	2009
1	1	254	94	2006
1	1	0	86	2009
1	1	250	86	2009
1	1	0	86	2009
1	1	0	87	2009
1	1	266	89	2008
2	2	248	0	0
1	2	264	92	2006
1	2	242	86	2009
2	2	251	0	2005
1	1	262	87	2008
2	2	254	0	2004
1	1	242	94	2006
2	0	0	0	0
1	1	262	96	2006
1	1	0	91	2006
1	1	262	93	2007
2	2	258	0	2005
1	1	251	0	2006
2	0	264	0	0
1	1	279	93	2007
1	1	284	90	2008
2	1	0	0	0
1	2	248	0	2007
1	2	0	86	2008
2	1	242	93	2004
1	2	240	86	2009
1	2	264	87	2009
1	1	0	86	2009
1	1	254	0	2007
1	2	283	0	2007
1	1	240	86	2009
1	1	257	0	0
2	2	251	0	2004
1	1	274	86	2009
1	2	0	87	2009
1	1	284	93	2006
1	2	280	0	2008
1	1	266	0	2007
2	2	251	93	2005
2	2	251	0	2004
1	2	0	0	0
1	2	284	0	2006
1	0	0	0	0
1	2	264	89	2007
2	1	257	0	2005
1	2	283	88	2008
4	1	0	0	0
1	2	283	89	2008
2	1	242	0	2004
1	1	289	93	2006
1	1	281	0	0
1	1	249	87	2009
1	2	0	87	2009
1	1	0	0	0
1	1	283	93	2007
1	1	256	0	2007
1	2	0	0	2009
4	1	249	96	2004
1	1	266	88	2008
1	2	0	87	2009
1	2	0	87	2009
1	1	266	87	2009
2	1	236	0	2005
1	2	0	87	2009
1	1	284	87	2009
1	1	284	86	2009
1	2	242	86	2008
1	2	0	86	2008
1	1	271	0	2007
1	1	0	0	2007
1	2	0	86	2008
1	0	0	0	0
2	1	284	0	2005
1	2	266	0	2007
2	2	280	0	1973
1	0	0	0	0
1	1	0	88	2007
1	1	284	93	2006
1	0	251	86	2008
1	2	284	0	2009
2	2	236	0	2004
1	1	274	0	2006
1	1	0	87	2009
1	1	278	88	2008
2	2	291	0	2005
2	1	250	92	2005
1	1	289	0	0
1	2	254	88	2007
1	1	254	90	2008
1	1	266	86	2008
1	1	254	93	2007
2	1	283	0	2005
1	1	262	92	2006
1	2	291	86	2009
1	0	0	0	0
2	1	283	0	2005
2	1	262	0	2005
1	2	264	0	2006
1	1	266	86	2009
1	2	241	93	2007
1	2	240	89	2008
2	2	241	0	2005
2	2	248	0	2004
1	2	0	0	0
1	2	283	88	2008
1	1	284	89	2008
1	1	0	90	2008
1	2	264	89	2008
2	2	254	0	2004
1	1	240	87	2009
1	2	264	0	2007
1	2	251	89	2008
1	1	242	93	2007
1	2	0	87	2009
1	1	238	94	2007
1	2	284	0	2007
1	2	291	88	2008
1	2	266	0	2006
1	2	283	88	2009
1	1	278	93	2007
2	2	236	88	2003
2	1	259	0	2005
1	1	279	89	2008
1	1	289	0	2005
1	1	284	93	2006
1	1	266	89	2008
1	0	0	0	0
1	1	266	0	2006
1	1	281	86	2006
1	1	236	92	2006
1	1	259	0	2007
1	1	266	88	2007
1	1	283	92	2006
1	1	284	96	2007
5	1	252	0	0
1	1	264	86	2009
2	1	251	0	2005
1	2	0	88	2008
2	1	278	0	2004
1	2	277	86	2009
1	1	264	86	2008
1	1	283	86	2008
1	2	248	95	2008
1	2	0	86	2009
1	1	254	94	2007
1	2	240	86	2009
1	2	292	92	2005
1	2	248	94	2006
2	2	289	0	2003
1	1	0	0	2007
1	1	251	87	2009
2	1	243	0	2005
1	0	0	0	0
1	2	284	87	2009
1	1	0	87	2009
2	1	283	0	2005
1	2	254	0	2007
1	2	238	86	2009
1	1	275	0	2008
1	2	242	86	2008
1	0	251	0	0
1	1	0	87	2009
1	2	0	86	2009
1	1	266	96	2009
1	2	240	90	2008
1	1	274	94	2007
5	0	0	0	0
1	1	277	0	2006
1	1	278	86	2009
2	1	242	0	2005
2	2	283	0	2005
1	2	254	90	2007
1	1	0	88	2008
1	1	0	0	0
1	1	0	93	2007
1	2	0	86	2009
2	2	251	0	2005
1	2	254	87	2009
1	2	251	0	2008
2	2	254	0	2005
1	0	279	0	2006
1	1	0	88	2008
1	1	254	0	2006
1	2	251	0	2005
1	1	264	0	2007
1	1	239	0	2007
1	1	283	93	2006
1	1	283	86	2009
2	1	238	0	2005
2	2	289	0	2005
1	1	0	86	2009
2	2	277	0	2005
1	2	283	0	2007
1	2	264	93	2007
1	2	251	93	2005
2	2	289	0	2004
2	1	251	0	2004
1	1	0	86	2009
1	1	284	87	2009
1	1	242	87	2009
2	1	251	0	2004
2	1	236	0	2004
2	0	0	0	0
1	1	254	0	0
1	2	0	87	2009
2	1	284	0	2005
1	1	242	96	2006
1	2	284	86	2006
1	1	291	0	2006
1	1	284	91	2007
1	1	278	88	2008
1	1	283	0	2007
1	1	279	93	2006
1	0	254	0	2006
1	2	244	87	2005
1	1	266	93	2006
1	1	0	86	2008
1	2	251	96	2005
1	1	0	87	2009
1	2	251	90	2008
2	2	248	0	1999
1	2	282	87	2009
1	1	264	89	2008
1	2	254	0	2006
1	1	284	90	2008
1	2	283	0	2006
1	1	283	0	2006
1	1	251	90	2007
2	1	252	0	2003
1	1	283	0	2007
2	1	242	0	2004
1	1	238	88	2008
1	2	292	87	0
1	2	248	96	2007
1	1	264	90	2008
2	2	244	0	2005
1	1	236	91	2007
1	2	251	88	2008
1	0	0	0	0
1	1	0	0	2009
1	1	283	0	2009
1	0	0	0	0
2	1	0	0	2003
1	1	0	87	2008
2	1	279	0	2005
1	2	251	94	2006
1	1	259	93	2006
1	1	242	93	2007
1	1	0	94	2008
2	1	264	0	2005
1	1	236	93	2006
1	2	0	86	2009
2	2	283	92	2005
1	1	283	87	2009
1	1	284	0	2006
1	2	251	87	2009
1	1	289	0	2006
1	0	0	0	0
1	2	240	88	2008
1	1	0	87	2009
2	2	246	88	2002
1	2	278	0	2007
1	2	0	87	2009
1	1	264	0	0
1	1	242	88	2007
1	1	238	90	2007
3	0	292	0	0
1	1	254	93	2006
1	2	251	0	2008
1	1	251	0	2007
1	1	284	88	2008
1	1	284	87	2009
1	2	251	92	2006
2	2	284	0	2005
2	1	0	0	2004
2	1	251	0	2004
4	2	0	0	0
1	1	259	88	2008
2	1	0	0	2005
1	0	0	0	0
2	2	284	0	2005
1	2	0	88	2008
1	1	266	0	0
2	1	283	0	2005
2	1	279	0	2003
1	1	266	0	2007
1	2	282	88	2007
2	2	242	88	2002
2	2	248	0	2004
1	2	251	0	2006
4	1	0	0	0
1	1	266	87	2009
5	2	282	0	0
1	2	251	96	2007
2	2	251	0	2004
1	1	284	87	2008
1	2	281	0	2006
1	1	282	88	2008
1	2	0	87	2009
1	2	283	0	2006
2	1	251	93	2005
1	1	251	92	2006
1	2	251	0	2007
1	1	284	88	2008
1	2	279	0	2009
5	2	243	0	2004
1	1	283	87	2009
2	2	254	88	2004
2	2	283	0	2005
1	1	264	90	2007
1	1	0	89	2008
2	1	291	0	2005
2	1	251	0	2004
1	2	257	0	2006
1	1	283	0	2009
1	2	244	90	2008
2	1	239	0	2003
1	1	254	87	2009
1	1	236	88	2008
1	2	251	94	2005
2	2	281	0	2002
1	2	291	88	2008
5	1	278	0	0
1	2	283	86	2008
1	1	242	96	2006
1	2	251	93	2006
1	2	273	87	2009
1	1	0	86	2009
2	1	292	0	2005
1	2	283	93	2007
1	1	0	0	2007
2	1	238	0	2005
1	1	278	91	2007
2	0	240	0	2003
1	2	283	92	2006
2	1	284	0	2005
2	1	251	0	2005
1	2	283	96	2007
1	1	259	88	2008
1	2	283	0	2009
2	2	251	92	2005
1	1	259	0	2006
2	2	0	0	0
1	1	259	90	2008
1	2	240	88	2008
2	0	240	0	2004
1	0	0	0	0
1	2	262	87	2008
2	2	0	0	0
2	1	279	0	0
1	1	291	90	2008
1	1	291	88	2008
1	1	289	0	2006
1	2	251	93	2006
1	2	242	88	2008
1	1	291	93	2007
1	1	289	95	2008
1	1	242	0	2006
1	1	254	87	2005
2	2	240	0	2004
1	1	0	0	2007
1	0	0	0	0
1	2	277	0	2005
1	0	266	0	2008
1	1	238	91	2007
1	1	240	86	2009
1	1	262	0	2006
1	2	240	0	2008
1	2	274	86	2008
2	1	284	0	2005
1	2	0	89	2008
1	0	242	96	2006
1	2	251	87	2009
1	1	0	0	2009
2	2	279	0	2005
1	1	262	91	2006
1	1	284	91	2007
1	1	240	87	2009
1	2	284	0	2007
1	2	282	89	2008
1	2	0	86	2007
1	1	283	87	2009
1	2	251	0	2007
2	2	284	0	2005
1	2	0	88	2008
1	1	279	86	2009
1	1	266	90	2008
1	1	0	88	2008
1	1	251	94	2006
5	2	242	94	2005
1	1	0	86	2009
1	1	291	86	2009
1	1	279	91	2007
1	2	262	0	2006
1	1	266	88	2008
1	2	274	86	2009
1	2	264	87	2008
1	1	242	86	2009
1	1	266	94	2005
2	1	251	92	2005
1	1	262	86	2009
2	1	284	92	2003
1	1	245	94	2006
1	1	281	0	0
1	1	0	0	2009
1	2	275	0	2006
1	2	0	87	2009
1	1	0	86	2009
1	1	242	0	2006
2	1	242	0	2005
2	2	284	0	2005
1	1	283	0	2006
1	1	242	86	2009
1	1	279	86	2009
1	2	251	87	2008
1	1	283	0	2007
2	2	248	0	2005
1	2	0	0	2006
2	2	281	0	2005
1	0	264	94	0
1	0	283	0	2007
1	1	240	86	2009
1	1	284	93	2007
1	1	266	87	2009
1	1	283	0	0
1	1	290	0	2008
1	2	251	92	2005
2	2	236	92	2004
1	1	239	87	2009
1	1	289	87	2008
1	2	251	93	2006
1	1	279	86	2009
1	1	251	88	2007
2	2	243	0	2005
1	1	251	0	2006
1	2	236	88	2008
1	1	0	88	2008
1	2	251	87	2009
1	2	251	87	2008
1	1	266	86	2009
1	2	251	87	2008
1	0	262	0	2008
1	1	242	91	2006
1	2	251	88	2007
2	2	283	0	2005
1	1	264	93	2007
1	1	251	0	2006
1	2	0	87	2009
1	0	0	0	0
1	1	242	86	2009
1	2	283	93	2007
1	2	244	93	2007
1	2	251	91	2007
1	1	266	0	2008
1	2	242	87	2009
1	1	262	90	2008
1	2	251	93	2006
1	2	0	86	2008
1	1	289	88	2008
5	1	279	0	0
5	2	242	0	0
1	0	0	88	2008
1	0	266	0	2007
1	1	254	88	2008
1	2	244	86	2009
1	1	239	93	2005
1	1	251	0	2006
2	1	0	0	0
1	1	240	86	2009
1	1	274	88	2008
2	2	284	0	2004
2	0	0	0	0
1	1	283	86	2009
1	0	0	0	0
1	2	251	86	2009
1	0	0	0	0
1	2	282	86	2008
1	2	242	86	2009
1	1	244	0	2006
1	1	254	87	2009
1	2	243	0	2006
1	2	243	86	2009
2	0	0	0	0
1	1	0	86	2008
1	2	266	94	2006
1	1	254	86	2009
1	1	0	87	2008
1	1	268	88	2008
1	2	251	88	0
2	2	283	0	2005
1	2	0	0	0
1	2	284	87	2009
1	2	251	87	2009
1	1	242	0	2006
2	2	283	96	2004
1	1	257	86	2009
1	1	284	0	0
1	2	278	96	2007
1	1	242	86	2009
1	1	251	94	2007
2	2	283	0	2005
1	2	284	86	2008
1	2	264	86	2008
1	2	251	0	2006
1	2	283	87	2009
1	1	0	88	2008
1	2	282	0	2008
1	2	242	92	2006
1	1	266	0	2006
1	2	283	0	2009
1	1	283	93	2007
1	1	251	87	2008
1	0	0	0	2008
1	1	0	89	2008
1	1	251	86	2009
1	1	289	94	2007
1	1	262	91	2006
1	1	279	94	2007
5	0	0	0	2007
1	2	279	94	2006
1	2	251	87	2008
1	1	0	0	2009
1	0	0	0	0
1	1	0	87	2009
1	2	0	86	2009
2	2	284	0	2003
1	2	282	94	2008
1	2	249	86	2009
1	2	251	91	2007
1	1	0	0	2009
1	1	266	0	2007
1	2	252	86	2009
1	0	0	0	0
1	2	242	88	2007
2	2	251	0	2003
1	2	277	0	2007
1	2	254	91	2007
1	2	252	86	2009
1	2	251	86	2008
1	1	264	0	2006
2	1	254	94	2005
2	2	254	0	1980
2	1	277	0	2005
2	2	281	0	2005
1	1	284	0	2006
1	1	283	0	2006
1	1	279	95	2007
1	2	238	94	2006
1	1	291	86	2009
1	0	0	0	0
1	1	284	92	2006
5	2	266	0	0
1	1	236	96	2007
2	1	289	0	2005
2	2	268	93	2005
3	2	281	0	0
2	1	289	0	2004
1	1	284	96	2007
2	2	251	0	2004
5	1	284	94	2007
1	2	0	86	2009
5	0	0	0	0
1	2	276	91	2006
1	2	0	87	2009
1	1	250	87	2008
1	1	249	87	2009
2	1	251	0	2005
1	1	242	96	2006
1	2	0	86	2008
1	2	0	90	2008
1	2	264	93	2007
1	1	0	90	2008
1	1	0	87	2009
1	1	242	89	2007
1	1	0	87	2009
1	2	284	0	0
1	1	283	86	2009
1	1	244	88	2008
1	2	279	86	2009
1	2	251	87	2008
1	2	248	0	2008
1	2	282	88	2006
1	1	279	96	2006
2	1	264	0	2004
1	1	254	88	2008
2	0	0	0	0
2	1	264	0	2004
1	1	243	93	0
1	1	257	0	2007
2	1	251	0	0
5	1	283	0	0
1	2	0	88	2008
2	1	281	0	2005
1	1	242	88	2008
1	1	259	93	2006
2	2	283	0	2005
1	1	275	86	2009
2	1	256	0	2004
1	2	0	86	2009
2	1	274	0	0
1	2	281	96	2006
1	2	278	88	2007
1	1	283	87	2009
1	2	280	88	2008
2	2	240	0	2005
1	2	243	89	2008
1	1	251	94	2006
1	1	0	86	2009
1	1	242	96	2007
1	2	0	87	2009
1	2	275	86	2009
1	1	275	87	2007
1	0	0	0	0
1	2	283	92	2006
1	1	254	86	2009
1	1	284	0	2006
1	1	259	88	2007
1	2	251	86	2009
1	2	242	87	2009
1	2	283	92	2006
1	1	266	86	2009
2	1	242	0	2005
2	1	260	92	2003
1	1	284	88	2007
1	1	242	93	2007
2	2	236	0	2005
1	2	240	96	2007
1	1	279	87	2007
1	1	254	93	2007
1	1	275	87	2009
2	2	251	0	2005
1	1	0	89	0
1	2	250	86	2009
1	2	245	96	2007
2	2	281	0	0
1	1	0	90	2008
1	2	283	93	2006
1	0	0	0	0
1	1	284	0	2006
1	0	290	96	2006
1	1	0	0	2006
1	2	242	0	2005
1	0	0	0	0
1	2	262	87	2008
1	2	266	93	2007
2	1	0	0	0
1	2	240	88	2008
1	0	242	92	2006
1	2	0	86	2009
2	1	284	0	2005
1	2	279	91	2007
1	2	0	87	2009
1	2	284	0	0
2	1	262	0	2004
2	1	289	0	2005
1	1	0	87	2009
1	1	0	88	2008
5	1	238	0	0
2	1	236	0	2004
1	1	238	93	2006
1	1	0	87	2009
1	0	239	92	2006
1	2	240	0	2007
1	1	251	0	2007
2	1	238	0	0
1	0	0	0	0
1	1	242	86	2009
2	2	248	0	2005
1	1	236	92	2006
1	1	244	86	2009
1	2	278	91	2006
1	1	278	0	2006
1	1	242	86	2009
1	0	282	0	2007
1	2	251	89	2007
1	1	0	0	2009
5	1	251	0	2006
1	1	238	0	2009
1	1	240	93	2007
2	2	283	0	2004
1	0	0	0	0
1	1	242	88	2007
2	2	254	0	2005
1	2	251	91	2007
1	1	279	89	2008
2	1	264	0	2005
1	2	242	0	2006
1	2	0	0	2010
1	1	283	93	2007
1	2	251	90	2008
1	1	259	91	2007
1	1	236	95	2007
1	2	289	94	2007
2	2	289	0	2002
3	0	264	0	0
1	2	240	87	2009
1	1	254	94	2008
1	1	262	86	2009
1	1	289	93	2006
1	1	242	91	2006
1	2	282	87	2008
1	2	283	87	2009
2	2	251	0	2003
1	1	254	93	2007
1	2	251	88	2008
1	1	284	92	2006
1	2	236	93	2007
1	1	239	96	2007
5	0	251	0	0
1	2	289	92	2006
2	1	238	0	2005
1	2	240	86	2009
2	2	281	0	2005
1	2	251	93	2006
1	2	242	94	2009
1	2	279	86	2009
1	2	251	87	2009
1	2	251	94	2007
1	0	251	0	2006
1	1	242	0	2006
1	1	0	88	2008
1	2	283	0	2006
1	0	292	0	0
1	2	0	86	2009
1	1	266	86	2009
1	0	284	0	2006
2	1	242	0	2005
1	2	251	87	2009
1	1	283	0	2008
1	1	283	94	2007
1	2	0	86	2009
1	2	251	96	2005
1	1	262	0	2005
1	1	242	89	2008
2	1	244	0	2005
2	1	284	0	2005
1	2	251	88	2007
1	1	270	0	2009
1	1	291	0	2007
1	1	264	87	2009
2	1	236	0	2004
1	1	0	94	2007
1	2	240	93	2007
1	2	283	0	2007
2	1	0	0	0
1	2	259	89	2007
1	1	0	88	2008
1	2	264	89	2008
2	0	0	0	2005
2	1	236	0	2005
1	2	250	86	2008
1	2	251	0	2006
1	2	0	0	2009
1	1	284	96	2007
1	1	262	93	2007
1	1	264	94	2006
1	0	0	86	2008
5	2	242	0	2005
2	2	251	92	2002
1	2	268	0	2006
1	1	284	0	2006
1	2	281	0	2005
1	2	0	0	2007
1	1	0	86	2009
1	2	251	91	2006
5	2	252	0	0
1	1	281	88	2007
1	2	251	90	2008
2	1	283	0	2005
1	1	0	0	2009
1	1	0	87	2009
2	1	238	0	2004
1	2	251	90	2007
1	1	0	0	2008
1	0	259	0	2008
1	1	274	90	2008
1	2	260	86	0
1	0	0	0	0
2	1	238	0	2003
2	1	284	0	2004
1	2	0	94	2008
2	1	281	0	2005
2	2	284	0	2005
2	1	289	0	2005
1	1	291	86	2009
1	1	279	0	2006
1	1	251	0	2006
1	1	242	88	2007
1	1	262	94	2007
1	2	248	86	2009
2	2	282	0	2005
1	1	0	86	2009
1	2	251	87	2008
2	2	248	0	2004
1	1	238	92	2006
1	1	284	0	2006
1	2	250	87	2009
1	2	0	86	2009
1	2	250	87	2009
1	1	266	0	2007
1	1	242	88	2008
2	1	0	0	2005
1	1	259	94	2005
2	2	278	0	2005
1	2	275	88	2008
1	2	0	88	2008
2	1	242	0	2005
1	2	251	86	2009
1	2	236	93	2007
1	2	0	86	2009
1	1	244	94	2006
1	1	251	94	2006
1	2	242	95	2006
1	1	284	88	2007
1	2	283	86	2009
1	0	0	0	0
1	1	283	0	2007
1	0	0	0	0
1	2	264	93	2007
1	2	272	90	2007
1	1	274	96	2006
1	1	284	88	2007
1	2	262	86	2008
1	2	241	94	2009
1	2	251	90	2007
1	2	283	0	2008
1	2	0	86	2009
4	0	0	0	0
1	0	0	0	0
1	1	236	91	2007
1	1	292	91	2007
2	2	282	0	2005
5	1	251	0	0
1	2	284	89	2008
1	1	0	87	2009
1	2	283	87	2009
1	1	0	86	0
1	2	249	88	2008
2	1	0	0	2007
2	2	242	0	2004
1	1	284	94	2007
1	1	242	91	2007
1	2	236	93	2007
1	0	239	0	2006
1	1	242	88	2008
1	2	284	89	2007
1	1	278	0	2006
1	1	291	87	0
1	1	245	96	2007
1	1	292	91	2007
2	2	284	0	2005
1	2	251	86	2009
1	1	266	90	2007
2	2	283	0	2005
1	1	0	88	2008
2	1	283	0	2005
1	1	0	86	2009
2	1	289	0	2005
1	2	251	88	2007
1	1	262	88	2008
5	1	259	0	0
2	1	242	0	2005
1	1	242	0	2006
1	1	283	86	2008
1	2	286	90	2008
1	1	251	0	2007
1	2	291	87	2008
2	1	278	0	2004
1	1	0	86	2009
2	2	240	0	2005
1	1	242	0	2007
1	2	251	88	2008
1	2	251	0	2005
1	1	271	0	0
1	2	283	91	2006
1	2	245	0	2007
1	2	0	87	2009
1	2	251	96	2006
1	1	249	93	2007
1	1	283	0	2009
1	2	254	88	2007
1	2	235	93	2007
1	2	251	86	2008
2	2	256	0	2004
2	2	242	0	2004
1	2	264	87	2008
1	2	279	92	2006
1	1	284	87	2009
1	1	284	0	2006
1	2	248	0	2008
1	1	281	89	2007
1	1	251	91	2007
1	1	291	86	2009
1	2	271	87	2009
2	1	0	0	2005
1	1	253	86	2008
2	1	238	0	2005
2	1	284	0	2003
2	2	236	0	2005
1	2	254	86	2009
1	1	0	88	2008
1	1	0	93	0
2	0	0	0	0
1	1	273	87	2009
2	2	278	0	2003
1	1	251	88	2007
1	1	266	93	2006
1	2	251	88	2007
1	1	279	0	2007
5	0	0	0	0
1	2	275	94	2007
1	1	0	86	2008
1	2	0	0	2009
1	2	242	87	2009
1	2	248	0	2009
1	1	278	0	2008
1	0	0	0	0
1	0	0	0	0
1	1	256	93	2007
1	2	282	92	2005
4	2	0	0	0
1	1	251	89	2008
2	2	254	0	2005
1	2	242	87	2008
2	0	0	0	0
6	0	0	0	0
1	1	266	0	2007
1	2	256	87	2009
1	1	266	0	2008
1	2	240	92	2006
1	2	277	91	2006
2	2	251	0	2005
2	1	283	94	2004
2	0	0	0	0
2	1	283	0	2005
1	2	289	86	2009
1	2	282	87	2008
1	1	0	86	2009
1	1	240	87	2009
3	0	242	0	0
1	1	279	94	2006
1	2	240	86	2009
2	2	236	0	2003
1	0	0	0	0
1	0	0	0	0
1	1	240	87	2008
5	0	0	0	0
1	2	251	87	2009
1	1	284	89	2008
1	0	0	0	0
1	1	284	91	2006
2	0	0	0	0
2	2	248	0	2005
2	1	242	0	2005
1	1	242	0	2006
1	2	251	87	2009
1	2	270	0	2009
1	1	238	87	0
1	1	254	93	2007
1	2	283	0	2006
1	1	0	86	2009
1	2	248	93	2006
1	1	284	88	2007
1	2	240	87	2009
1	1	238	0	2005
1	1	0	86	2009
1	1	281	92	2005
1	2	240	89	2006
1	2	242	93	2007
1	2	247	89	0
2	1	251	92	2004
1	1	291	88	2007
1	1	242	93	2006
1	0	0	0	0
1	2	242	92	2006
1	1	289	87	2009
1	1	244	94	2006
2	1	283	92	2005
2	1	242	0	0
1	2	0	86	2009
1	2	283	94	2006
1	2	0	86	2008
1	2	242	86	2009
1	2	242	93	2006
2	1	262	0	2005
2	2	283	0	2003
1	1	266	94	2006
2	1	0	0	2003
2	2	289	0	2005
1	1	260	88	2008
1	1	279	88	2008
2	2	0	0	0
1	2	283	87	2008
2	2	242	0	2005
2	1	248	0	2005
1	2	242	93	2006
1	1	236	91	2007
1	2	251	90	2008
1	1	259	0	2006
1	1	257	89	2008
1	1	279	87	2009
1	2	242	0	2009
1	2	283	90	2007
1	1	264	86	2009
1	1	284	0	2007
1	2	251	92	2006
1	2	251	91	2007
1	2	251	88	2008
1	2	0	86	2009
1	1	291	86	2009
1	0	280	86	2008
1	0	0	0	0
1	1	251	94	2007
2	1	242	0	2005
1	2	251	86	2009
1	0	0	0	0
1	2	283	88	2008
1	0	0	0	0
2	1	284	0	2005
1	0	259	0	2006
1	1	254	0	2007
2	1	251	0	2005
3	0	0	0	0
1	1	266	93	2007
1	1	0	0	2008
1	2	266	87	2009
2	1	254	0	0
1	2	283	89	2008
1	2	0	86	2009
1	2	238	91	2006
1	1	291	93	2004
2	1	284	0	2005
1	2	260	92	2006
1	0	0	0	2007
1	2	282	90	2007
2	1	273	0	2004
1	0	251	94	2006
1	1	264	89	2008
1	2	249	88	2008
1	1	263	88	2007
2	1	251	0	2004
1	1	242	96	2007
2	0	0	0	0
1	2	0	0	2007
1	1	284	86	2009
1	1	236	0	2005
1	1	255	0	2006
1	2	248	94	2007
1	2	277	89	0
1	1	242	87	2007
1	1	242	94	2008
1	2	0	87	2008
1	1	262	87	2008
1	1	251	93	2006
2	1	242	0	2005
1	1	242	88	2008
1	2	249	86	2009
1	2	0	0	2007
1	2	264	0	2008
1	2	264	88	2008
1	1	240	0	2006
1	1	264	0	2008
2	0	0	0	0
1	2	251	86	2009
1	1	281	94	2007
2	1	239	0	2005
2	1	279	0	2005
2	1	284	0	2005
1	1	0	86	2009
2	1	251	0	2005
2	1	259	0	2005
1	1	236	87	2008
1	0	0	0	2006
1	0	242	93	2007
1	2	0	86	2009
1	2	242	93	2007
1	2	279	93	2007
1	1	266	93	2007
1	1	264	88	2008
1	2	248	93	2007
1	2	274	0	2006
1	1	239	0	2006
1	1	239	89	2008
1	2	236	91	0
5	1	242	0	2006
1	2	266	94	2007
1	1	289	87	2005
1	2	283	88	2006
1	1	266	94	2007
1	2	250	87	2009
1	2	242	91	2006
1	1	262	87	0
2	1	242	0	2005
1	1	251	88	2007
1	1	236	90	0
1	1	283	95	2007
2	1	264	0	2005
1	2	0	90	2007
1	2	251	0	2006
2	1	268	0	2005
1	2	0	95	2008
1	2	283	86	2009
1	1	284	88	2008
1	1	244	86	2009
1	2	291	0	2008
2	1	236	0	2005
1	2	251	87	2007
1	2	251	96	2006
2	1	239	0	2003
1	2	0	87	2009
1	1	259	87	2009
3	2	275	0	0
5	1	259	0	2004
1	1	242	89	2008
1	1	266	88	2008
2	1	291	0	2004
1	1	251	95	2008
1	2	242	90	2007
3	2	286	0	0
1	2	262	88	2008
1	1	283	0	2006
1	2	254	0	2007
1	2	0	93	2010
1	1	0	88	2008
1	2	244	93	2007
1	0	0	0	0
1	1	239	93	2007
1	2	283	86	2009
1	0	0	0	0
1	2	0	0	2006
1	2	243	86	2009
1	1	278	95	2008
1	1	0	86	2009
5	2	248	0	2005
1	1	278	87	2009
2	1	284	0	2005
2	1	0	0	0
1	2	242	88	2008
1	0	279	0	2009
1	0	0	0	0
1	1	290	93	2006
5	2	251	0	0
1	0	0	90	0
1	2	243	90	2008
1	2	242	88	2007
1	1	289	94	2007
1	2	243	86	2009
2	1	256	0	2004
2	2	251	87	2005
2	1	262	0	2005
2	1	254	0	2005
1	2	240	91	2006
1	1	0	87	2008
2	2	251	0	2004
1	2	0	89	2008
1	1	277	94	2007
1	2	242	87	2009
2	2	264	92	2005
1	1	0	87	2009
2	2	284	0	2004
1	2	282	87	2009
1	1	251	87	2009
1	1	238	96	2007
1	2	283	94	2007
1	1	0	86	2009
1	2	242	93	2006
1	2	251	88	2007
1	1	281	0	2007
1	1	266	86	2009
1	1	242	87	2008
5	0	0	0	0
1	0	264	94	2006
1	2	238	93	2007
1	2	244	87	2008
1	1	246	87	2007
1	2	284	88	2007
1	2	242	86	2009
2	1	0	0	0
1	1	281	0	2008
1	1	278	0	2007
1	2	242	87	2009
2	2	283	88	2004
1	1	0	0	2009
2	2	264	0	2005
1	1	259	92	2006
1	1	283	86	2009
1	2	279	0	0
1	2	240	88	2008
2	1	236	0	2004
1	1	0	87	2009
2	1	251	0	2004
1	1	278	88	2008
2	1	242	0	2005
1	1	259	88	2008
1	1	262	90	2008
1	2	283	88	2008
1	1	271	91	2007
1	2	254	87	2008
1	1	264	90	2008
2	2	279	0	2004
1	1	236	93	2006
1	1	254	0	0
1	1	252	86	2009
1	1	0	0	2009
1	1	279	87	2009
1	2	262	86	2009
1	1	236	89	2008
1	2	282	87	2009
1	1	262	90	2008
1	1	284	88	2007
1	2	282	0	2009
1	2	248	87	2009
1	2	246	88	2007
2	2	248	0	2004
1	2	0	0	0
1	1	275	96	0
1	1	238	91	2007
1	2	240	87	2008
1	2	248	90	2007
2	1	251	0	2005
2	1	283	0	2004
1	1	285	86	2009
2	0	0	0	2003
2	1	238	0	2005
1	0	0	0	0
1	1	256	0	2006
1	1	278	94	2007
2	1	242	0	2005
6	1	0	96	2007
1	2	282	93	2006
1	1	276	90	2008
1	1	279	88	2008
1	2	251	86	2009
1	1	236	94	2007
1	1	0	88	2008
2	1	242	0	2005
1	1	0	87	2008
1	1	0	88	2008
1	1	242	87	2009
1	2	244	86	2008
1	1	266	91	2007
4	0	0	0	0
1	0	0	0	0
1	2	283	0	2007
1	2	0	89	2007
1	2	0	86	2009
1	1	264	88	2008
1	1	259	94	2005
2	2	251	92	2004
2	1	284	0	2004
1	1	284	87	2009
2	2	289	0	2005
2	2	281	0	2004
1	1	243	94	2005
5	2	275	0	0
1	2	254	96	2007
1	1	291	86	2009
1	1	278	0	2007
1	1	0	86	2009
1	2	282	86	2009
1	1	0	90	2008
1	2	284	0	2006
1	1	236	0	2006
1	2	283	96	2006
2	2	279	0	2005
2	1	0	0	0
1	2	284	93	2007
1	2	240	89	2008
1	1	266	89	2007
1	1	239	91	2007
1	2	0	0	2008
2	1	283	0	2005
1	2	279	86	2005
2	1	251	0	2003
1	1	0	86	2009
1	2	283	94	2006
2	1	0	0	0
5	2	243	0	2006
1	1	259	86	2009
1	0	0	0	0
1	2	264	96	2006
1	1	254	0	2006
1	1	0	87	2008
1	1	251	96	2005
2	0	291	0	1999
1	2	242	93	2007
1	1	0	87	2009
1	1	283	91	2006
1	1	266	86	2009
1	1	284	86	2009
2	2	283	0	2002
1	2	0	87	2008
1	0	0	0	0
1	1	254	0	2007
2	2	244	0	2004
1	1	242	88	2007
1	1	0	88	2008
1	0	0	0	0
1	2	281	86	2009
2	1	0	0	2004
1	1	243	86	2009
1	2	242	0	2007
1	1	275	89	2008
4	1	0	0	0
1	1	251	86	2008
1	1	291	86	2009
1	2	0	0	2007
1	2	281	88	2007
1	2	251	86	2009
5	2	243	0	0
1	1	289	88	2008
2	1	251	0	2005
1	1	251	0	2007
2	2	251	0	0
1	2	251	96	2005
1	1	251	88	2008
1	1	262	94	2006
1	1	264	0	2006
1	0	236	0	0
4	0	0	0	0
1	2	236	88	2008
1	1	281	91	2007
1	1	251	0	2006
1	1	289	94	2008
1	0	0	0	0
1	2	279	88	2008
1	1	242	93	2006
1	1	254	89	2007
1	1	236	92	0
1	1	278	92	2005
1	2	277	0	2005
1	2	283	0	2004
1	2	251	86	2009
1	1	0	86	2008
1	2	280	90	2008
1	2	254	96	2007
2	0	0	0	0
1	1	0	86	2009
1	1	281	86	2009
1	0	0	0	2005
1	2	251	88	2008
1	2	264	96	2007
1	2	281	93	2007
1	2	251	86	2008
1	1	284	86	2009
2	1	0	0	0
1	1	284	89	2007
1	1	266	87	2009
1	0	0	93	2007
1	2	0	87	2009
1	2	283	87	2009
1	1	283	89	2007
1	1	284	86	2009
4	2	0	0	0
1	2	264	86	2009
1	2	242	93	2006
1	1	292	88	2008
1	1	289	88	2007
1	1	283	93	2006
1	0	0	0	0
1	2	248	89	2007
1	2	283	89	2008
1	1	284	0	0
1	1	248	92	2006
1	1	242	87	2009
1	1	251	0	2007
1	0	264	0	2007
1	1	254	0	2006
2	2	254	0	2005
1	1	289	94	2007
1	1	268	96	2006
1	2	242	0	2006
1	1	278	93	2007
1	1	284	0	2007
1	2	0	0	0
2	1	289	94	2003
1	2	284	0	2005
1	2	242	0	2006
2	2	242	94	2005
1	1	283	0	2008
1	2	251	0	2005
1	2	284	0	2005
2	2	251	93	2003
1	0	0	0	0
1	1	251	0	2007
1	1	262	88	2008
1	2	242	93	2007
1	2	240	93	2006
1	1	236	94	2007
1	0	0	0	0
1	1	0	86	2009
1	2	283	0	2007
1	1	251	87	2009
1	1	251	87	0
3	1	259	89	0
2	2	264	0	2004
1	1	0	0	2005
2	2	0	0	0
1	2	264	93	2006
1	1	242	94	2007
1	1	275	0	2008
1	2	283	0	2007
1	1	266	86	2009
1	1	0	86	2008
1	1	249	94	2007
1	2	0	87	2008
1	0	242	0	2006
1	2	284	88	2007
2	1	254	0	2005
2	1	279	0	2005
1	0	254	89	2007
1	1	242	90	0
1	1	0	86	2009
2	0	0	0	0
1	2	259	96	2004
1	0	0	0	0
2	2	284	0	2005
1	0	289	0	0
1	1	242	86	2009
1	1	0	87	2009
1	1	245	0	2009
1	1	254	88	2008
1	2	279	86	2008
1	1	266	86	2009
1	1	0	0	2009
1	2	241	86	2009
1	0	0	0	0
2	2	251	0	2004
1	2	0	86	2009
1	2	274	96	2007
4	1	289	0	2005
1	2	270	87	2008
1	2	240	86	2009
1	1	242	86	2009
2	2	251	0	2004
1	1	282	87	2009
1	2	236	0	2006
2	1	242	0	2004
2	2	238	0	0
1	1	264	96	2006
1	0	0	0	0
1	1	239	86	2009
2	1	256	0	2005
1	1	239	86	2009
1	1	279	94	2006
3	1	262	92	2006
1	1	284	93	2007
2	1	284	0	2005
1	1	238	88	2008
1	2	0	87	2009
2	2	283	0	2005
1	2	0	0	2008
1	0	0	0	0
1	2	277	0	2008
1	1	255	86	2009
1	2	250	0	2007
1	2	251	0	2009
1	1	0	0	0
1	0	0	90	2008
1	0	282	89	2007
2	1	278	0	2004
1	0	0	0	0
1	2	284	86	2008
2	2	264	0	2004
1	2	256	86	2009
5	2	283	0	2006
2	2	291	0	0
2	2	289	86	2004
2	2	252	0	2003
1	1	242	0	2007
1	2	0	0	0
1	2	282	0	2005
1	2	242	93	2006
1	1	289	88	2008
2	2	0	0	2003
2	1	291	0	2004
1	2	251	86	2009
5	2	0	0	0
1	1	239	87	0
2	2	283	0	2005
1	1	284	0	2008
1	2	0	88	2008
1	1	254	86	2009
1	1	254	88	2008
1	1	284	93	2007
1	1	239	86	2009
1	1	249	86	2009
1	1	0	86	0
1	1	242	92	0
1	2	284	91	2007
1	2	279	87	2009
1	1	242	88	2008
1	2	238	89	0
2	1	251	0	2004
2	1	251	0	2005
1	2	0	86	2008
1	1	0	86	2009
2	1	242	0	2005
1	1	284	87	2009
1	0	0	0	0
1	2	279	90	2008
2	1	284	0	2001
1	0	0	0	0
1	2	279	86	2009
1	1	242	96	2007
1	1	266	0	2008
1	2	0	87	2008
2	2	291	0	2004
1	2	0	0	2007
1	2	0	0	2009
1	1	242	87	2009
1	0	264	0	0
2	2	274	94	2005
1	1	278	93	2006
1	1	283	86	2009
2	1	278	0	2004
1	1	0	86	2009
1	1	244	88	2008
1	2	251	0	2006
1	2	0	0	0
1	1	251	0	2006
2	1	242	92	2005
1	2	251	86	2008
1	1	284	88	2008
1	2	283	0	0
1	1	266	87	2009
1	1	242	0	2006
1	1	289	0	2006
1	2	0	0	2007
1	1	284	0	2007
2	1	251	0	2005
1	1	251	0	2005
1	2	264	92	2006
2	1	236	0	2004
1	2	252	87	2009
1	2	273	90	2008
1	1	281	86	2007
2	1	290	0	2004
1	2	284	90	2008
1	1	251	86	2009
1	1	283	86	2009
1	1	283	86	2009
1	2	283	92	2006
1	1	289	0	2007
2	1	284	0	2005
2	1	242	0	2004
1	1	0	87	2009
1	2	251	0	2007
1	2	289	0	2006
1	1	240	93	2007
1	1	239	0	2006
1	1	242	88	0
1	1	242	86	2009
1	0	0	0	0
1	2	251	94	2007
1	1	251	0	2007
2	1	242	0	2005
1	1	0	89	2008
1	1	0	86	2009
1	1	244	86	2009
2	2	242	0	2005
1	0	0	0	0
1	2	251	93	2006
2	1	251	0	2005
1	2	251	96	2007
2	1	289	0	2005
1	2	0	89	2008
1	1	266	91	2007
1	1	0	88	2008
1	1	254	88	2008
1	1	243	0	2008
1	1	283	94	2006
2	1	289	0	2004
1	1	284	0	2007
1	2	242	86	2009
1	1	248	95	2007
2	1	251	0	2005
2	1	236	0	2002
2	1	254	0	2004
1	1	284	0	2006
2	2	242	0	2004
1	1	284	0	2006
1	1	259	90	2007
1	1	282	92	2006
4	1	0	0	0
1	1	0	90	2008
1	1	279	87	2007
1	1	262	88	2008
1	1	284	88	2008
1	1	259	96	2006
1	1	0	87	2009
5	1	278	0	2007
1	1	266	87	2009
2	1	283	0	2005
1	1	0	0	2007
1	2	242	93	2007
1	1	283	87	2009
1	0	0	0	0
1	2	240	86	2009
1	2	264	92	2006
1	2	264	0	2006
1	1	278	93	2007
1	1	0	87	2009
1	1	0	0	2008
1	2	251	0	2008
1	2	0	0	2006
1	2	248	93	2006
1	1	0	86	2009
1	1	283	0	2006
1	1	0	87	2009
1	1	284	92	2006
1	1	236	93	2007
1	2	240	90	2007
1	1	268	91	2007
1	1	236	88	2008
1	2	251	94	2005
2	1	260	0	2005
1	1	264	93	2006
1	1	266	88	2008
1	2	279	90	2008
1	0	0	0	0
2	1	264	0	0
1	1	251	88	2008
1	2	283	86	2009
1	2	251	88	2008
2	2	242	0	2004
1	0	0	0	0
1	2	0	88	2008
2	2	251	0	2005
1	1	284	88	2008
1	2	283	86	2009
1	1	279	87	2009
1	1	284	89	2008
1	1	249	86	2009
1	2	242	86	0
1	2	262	87	2008
1	1	284	0	2007
1	2	262	88	2008
1	2	242	86	2008
5	1	254	92	2005
1	2	240	88	2008
1	1	281	0	2007
1	1	283	96	2006
1	1	279	87	2008
2	1	251	0	2005
1	2	235	88	2008
1	1	242	0	2005
1	0	289	90	2007
1	1	0	86	2009
1	2	242	0	2006
2	1	292	0	0
1	2	251	90	2007
2	1	281	0	2005
1	2	282	0	2009
1	2	240	93	2006
1	0	251	92	2006
1	1	284	93	2006
1	1	283	0	2006
1	1	289	0	2007
2	2	236	0	1959
1	1	0	86	2009
1	2	260	0	2006
1	1	238	96	2006
1	1	0	87	2008
1	2	264	0	2007
1	1	262	87	2007
1	1	290	87	2008
1	2	0	88	2008
1	2	283	93	2007
1	1	284	86	2009
1	2	284	92	2006
2	1	242	0	2005
1	0	0	0	0
2	1	279	0	2003
2	2	251	94	2003
1	1	240	96	2006
2	2	236	0	2005
1	2	251	0	0
2	1	289	0	2004
2	1	251	0	2005
1	1	289	91	2006
2	2	289	0	2003
1	1	0	90	2008
1	2	251	0	2006
1	1	277	86	2009
1	2	236	0	2005
2	2	269	0	2004
1	0	0	0	0
1	1	238	94	2006
2	1	249	0	2005
1	1	254	91	2007
1	1	0	87	2009
1	0	0	0	0
1	1	284	93	2007
1	2	244	88	2008
2	1	278	0	2005
1	1	0	86	2008
2	1	289	0	2005
1	2	0	86	2008
1	2	264	86	2007
1	2	243	87	2009
1	2	264	92	2006
1	2	266	0	2009
1	1	249	87	2009
1	1	291	86	2009
1	2	254	93	2007
1	1	289	88	2007
2	1	242	0	0
1	1	278	0	2010
1	1	284	88	2008
2	2	0	0	2005
1	1	0	87	2009
1	2	0	0	2008
3	2	292	0	2007
1	2	251	91	2006
2	2	291	0	2004
1	2	264	0	2006
2	1	238	0	2005
1	0	254	0	2006
2	2	236	94	2005
1	1	251	88	2008
2	2	242	0	2004
1	1	236	0	2006
1	1	0	87	2009
1	1	242	0	2006
2	1	289	0	2004
1	1	266	90	2007
1	2	279	86	2008
1	1	0	86	2009
1	2	251	87	2009
1	1	284	0	2006
1	1	258	0	2005
2	2	251	0	2005
2	0	251	0	2005
2	2	251	0	2005
1	1	284	88	2007
1	2	265	0	2008
1	2	242	92	2006
2	1	283	0	2005
1	1	238	88	2008
1	1	242	0	2008
1	1	239	93	2007
1	1	239	87	2006
1	1	284	0	2006
1	2	237	90	2008
1	2	242	86	2009
1	2	273	88	2008
1	2	242	89	2008
1	2	275	0	2008
1	1	262	90	2008
1	1	242	0	2009
2	1	251	0	2005
1	1	291	91	2007
1	0	262	91	2007
2	0	0	0	0
1	1	242	0	2006
1	2	283	86	2008
2	2	242	0	2005
1	1	0	86	2009
1	2	275	87	2009
1	1	262	96	2006
1	2	251	0	2007
1	1	284	95	2008
1	2	0	87	0
2	0	275	0	2005
2	2	248	0	2005
1	1	0	88	2008
1	2	242	93	2006
1	1	0	94	2006
2	1	236	0	2004
1	1	251	88	2008
2	1	283	93	2005
1	2	283	87	2009
1	2	281	92	2006
2	2	281	0	2005
3	0	0	0	0
1	1	242	87	2009
1	1	0	86	2009
1	2	242	94	2008
1	1	266	88	2008
1	1	239	0	2007
1	2	251	0	2006
1	2	266	87	2009
1	2	283	87	2007
1	1	238	87	2008
1	2	242	96	2006
1	1	262	88	2008
1	1	284	94	2006
1	2	242	0	2007
1	0	0	0	0
1	1	242	0	2007
2	1	0	0	2005
2	0	0	0	0
1	1	291	93	2007
2	1	0	0	2005
1	2	278	0	2007
1	2	236	0	2006
1	2	281	96	2007
1	0	0	0	0
2	1	279	0	2004
1	1	284	0	2006
2	2	292	0	2004
1	0	251	0	2005
1	2	0	90	2008
2	2	284	93	2005
1	2	251	93	2007
1	1	0	0	0
1	2	242	86	2009
1	1	291	86	2008
2	2	283	0	2003
1	1	264	91	2007
2	0	0	0	0
1	1	251	88	2007
2	0	0	0	0
2	2	251	0	2004
1	2	242	92	2006
2	1	0	0	2004
1	1	266	90	2008
1	1	284	96	2006
2	1	283	0	2004
1	2	251	90	2007
1	2	251	94	2006
1	1	283	92	2006
2	1	258	0	2004
2	1	251	0	2003
1	1	256	86	2009
1	1	0	87	2009
2	2	251	0	2005
2	2	0	0	0
1	2	251	86	2009
1	1	283	88	2007
1	2	242	87	2009
2	2	251	0	2005
2	1	0	0	2001
1	2	251	93	2005
1	2	282	88	2008
1	2	279	87	2008
2	2	282	96	2005
1	2	0	90	2008
2	1	254	0	2005
2	1	251	0	2004
1	0	291	0	0
1	2	248	89	2008
2	1	275	0	2005
1	2	240	87	2008
1	1	266	93	2006
1	0	0	0	0
2	2	282	92	2005
1	1	291	88	2008
1	2	236	0	0
1	0	0	0	0
1	2	251	93	2007
1	2	242	0	2006
1	2	284	88	2007
1	2	251	87	2009
1	2	281	89	2008
1	2	242	93	2007
1	2	242	86	2009
4	0	0	0	0
1	1	251	92	2006
1	1	236	93	2007
2	2	284	0	2005
1	2	281	87	2009
5	2	252	0	2006
1	1	0	86	2008
1	1	0	87	2009
1	2	0	87	2009
1	1	242	92	2006
1	1	283	86	2009
1	0	0	0	0
1	1	284	0	2006
1	2	283	96	2006
2	2	264	93	0
1	2	242	0	2006
2	0	281	0	2005
1	1	262	0	2007
1	2	0	93	2006
1	2	284	88	2007
1	2	284	0	2009
1	2	248	87	2008
1	2	0	90	2008
2	1	283	0	2001
1	1	291	0	2006
1	1	264	96	2007
1	0	251	0	2008
1	2	242	0	0
1	1	242	93	2007
1	1	249	92	2006
2	1	284	0	2004
1	0	0	0	0
2	1	283	92	2005
1	1	242	88	2008
1	2	283	0	2007
2	1	242	0	2004
1	1	262	93	2007
2	1	254	0	2005
1	2	275	87	2009
1	2	251	90	2007
1	1	249	89	2008
1	2	251	86	2009
1	2	262	87	2007
1	1	264	96	2007
1	2	283	93	2006
1	1	0	0	0
1	1	262	87	2009
5	1	251	94	0
1	1	0	87	2009
1	1	283	87	2009
1	1	281	93	2006
1	1	240	93	2007
1	1	242	96	2006
1	2	264	0	2006
2	1	262	0	2005
1	2	281	89	2007
2	0	0	0	2004
1	2	264	86	2009
1	0	0	95	2008
1	2	275	86	2008
1	1	262	0	2007
1	2	264	87	2008
1	0	0	0	0
1	2	251	0	2007
2	0	0	0	0
1	1	0	86	2008
1	1	254	88	2007
1	1	254	94	2007
1	1	284	90	2007
1	2	282	0	2006
2	2	242	0	2004
1	2	284	90	2008
1	2	244	0	0
2	2	283	0	2004
2	1	290	0	2004
1	2	251	86	2008
1	1	0	94	2004
1	2	282	88	2008
1	1	262	89	2008
1	1	251	90	2008
1	0	283	96	2006
1	1	262	88	2008
1	2	0	86	2008
1	2	254	87	2009
1	2	291	88	2008
1	2	0	87	2009
1	1	0	90	2008
1	2	289	0	2007
1	1	283	86	2009
1	1	266	86	2009
2	1	242	0	2005
2	1	257	86	2004
2	1	283	92	2005
1	1	0	0	2009
1	0	0	0	0
1	2	283	86	2009
2	2	242	0	2004
1	1	0	87	2009
2	1	251	0	2005
1	1	0	88	2008
2	2	281	0	2005
1	1	277	93	2006
4	2	0	0	0
1	1	279	0	2006
2	2	0	0	0
1	2	242	90	2008
1	1	266	88	2008
3	0	0	0	0
1	2	283	96	2006
2	2	264	0	2000
2	2	254	0	2005
1	1	236	88	2007
1	2	277	0	2008
1	1	264	96	2007
1	1	0	87	2009
1	1	291	87	2009
1	1	266	88	2007
1	2	283	87	2008
1	1	238	96	2006
1	2	236	0	2007
1	2	0	94	2006
2	0	0	0	0
1	1	283	91	2007
1	2	0	88	2008
2	1	242	0	2005
1	2	245	95	2007
1	2	283	0	2007
1	1	254	87	2007
1	1	292	88	2007
1	1	264	96	2007
1	0	0	0	0
1	2	251	88	2008
1	2	244	86	2009
1	1	291	91	2006
2	0	289	0	2004
1	1	268	0	2007
1	2	240	88	2007
1	1	289	0	2007
1	1	0	86	2009
5	2	251	0	0
1	1	238	0	2006
1	1	254	91	2006
2	1	283	93	2004
1	1	242	0	2006
1	2	251	96	2007
2	1	283	0	0
1	1	284	94	2006
1	0	0	0	0
1	1	263	87	2009
1	1	289	0	2005
2	1	291	0	2004
1	1	291	86	2009
1	1	275	94	2006
2	1	236	93	2003
1	1	262	88	0
1	1	242	0	0
1	2	283	86	2009
1	2	279	90	2007
1	2	251	90	2007
1	1	284	88	0
1	2	264	95	2008
1	1	284	90	2008
1	2	242	88	2008
2	1	254	0	2005
1	0	0	0	0
1	1	283	94	2007
1	1	238	0	2007
1	2	248	96	2007
2	2	251	92	2003
1	1	236	88	2008
1	1	242	92	2006
1	2	251	94	2007
2	1	266	0	2005
2	1	284	92	2005
1	1	284	0	2010
1	2	0	0	0
1	1	283	92	2006
1	2	259	0	2006
2	0	251	0	2005
1	1	242	87	2008
1	1	238	94	2006
2	2	283	0	2005
1	1	266	0	0
2	2	284	0	2005
1	0	254	93	0
1	1	284	95	2007
2	1	242	0	2003
1	1	291	91	2007
1	1	266	86	2009
1	1	283	0	2005
1	1	239	88	2008
1	2	239	91	2006
1	1	0	86	2009
1	2	0	87	2008
3	0	0	0	0
1	1	264	88	2008
1	1	266	0	2006
2	0	0	0	0
1	2	278	93	2006
1	2	0	0	2009
1	1	266	90	2008
2	2	236	0	2005
1	0	0	0	0
1	1	279	88	2008
1	1	283	90	2008
5	1	258	0	0
1	1	262	90	2008
1	1	0	86	2008
1	1	242	87	2009
1	1	283	87	2008
1	1	0	86	2009
1	1	289	0	2006
1	1	289	87	2009
1	2	240	87	2008
2	2	284	0	2004
1	1	277	88	2007
1	2	281	94	2008
1	1	257	0	2006
1	2	251	91	2007
1	2	242	86	2009
1	2	242	0	2005
1	1	283	88	2008
1	1	0	0	2008
1	1	284	93	2007
1	1	238	0	2006
1	1	266	0	2007
1	2	241	93	2006
1	2	251	93	2006
1	2	283	86	2009
1	1	282	89	2007
1	0	0	0	0
1	1	239	0	2006
1	1	262	86	0
1	0	0	0	2010
1	1	240	93	2007
1	0	0	0	0
2	1	291	0	2004
1	1	242	0	0
1	1	0	0	2005
1	1	254	93	2007
1	2	0	0	2009
5	2	243	94	2005
5	1	242	0	2004
1	2	0	0	2009
1	1	284	87	2008
1	2	283	86	2009
1	1	0	88	2008
5	2	282	94	2008
1	1	0	86	2008
1	1	242	93	2006
5	1	242	92	2006
5	2	251	0	2004
1	1	284	87	2009
1	1	279	93	2008
1	1	242	0	2006
1	1	264	0	2007
1	2	238	90	2008
2	1	283	0	2004
1	2	236	0	2007
1	1	250	86	2009
1	1	0	87	2009
1	2	286	87	2009
1	2	266	89	2008
1	1	0	86	2009
1	2	0	86	2008
2	2	251	0	2004
1	1	0	87	2009
2	2	283	0	2004
1	1	274	0	2007
1	1	278	92	2006
1	2	242	88	2008
2	0	0	0	0
1	1	257	88	2008
1	2	242	93	2007
5	2	251	0	2004
1	2	0	88	2008
1	1	284	93	2007
1	2	0	0	0
1	0	266	96	2007
2	0	248	0	2004
1	1	262	91	2007
1	2	282	88	2008
1	2	248	90	2007
2	2	251	0	2004
1	0	0	0	0
1	2	0	86	2008
1	1	275	88	2008
1	1	0	90	2007
1	0	0	0	0
1	2	284	88	2008
1	2	289	87	2008
1	2	251	89	2008
5	2	275	94	2005
1	1	264	96	2007
1	0	0	0	0
1	1	262	90	2008
2	0	0	0	0
2	0	264	0	2005
2	1	278	0	2004
1	1	0	0	0
2	1	283	0	2002
1	1	284	88	2008
1	2	264	93	2006
1	1	284	0	2006
1	2	262	91	2006
2	2	248	0	2003
1	1	284	0	2006
1	1	0	86	2009
1	1	244	95	2007
1	1	251	91	2005
1	2	251	87	0
1	2	251	86	2008
1	2	0	0	0
1	1	242	93	2006
2	1	284	93	2005
1	1	242	0	2007
1	1	266	90	2007
1	2	251	0	2007
2	2	251	0	2001
1	1	251	0	2006
1	1	289	92	2006
1	0	0	0	0
1	1	0	87	0
1	0	0	0	0
1	2	240	96	2006
2	2	251	93	2005
1	2	283	87	2009
2	2	251	0	2005
1	2	283	96	2006
1	2	251	0	2006
1	1	236	93	2006
1	1	284	0	2009
1	0	277	96	0
2	1	278	0	2004
2	0	248	0	0
1	2	283	88	2008
1	1	260	86	2009
1	1	242	0	2007
1	0	0	0	2007
1	1	242	88	2008
1	0	0	0	0
1	2	251	93	2007
1	1	0	88	2008
1	1	284	96	2007
1	2	240	0	2006
1	2	264	90	2008
2	1	239	92	2005
1	2	266	86	2009
1	1	248	0	2006
1	2	275	0	0
1	2	242	0	2006
1	1	284	87	2008
1	1	236	96	2007
1	2	266	86	2009
2	0	0	0	0
1	1	278	86	2008
2	1	236	0	2005
2	1	239	92	2005
1	2	242	88	2008
1	2	283	90	2008
1	2	251	92	2006
1	2	275	0	2007
1	1	284	88	2007
2	2	264	0	2004
1	1	251	94	2006
1	1	264	92	2006
2	2	251	0	2005
1	2	251	92	2006
1	1	259	88	2008
2	0	251	0	2004
2	1	289	0	2004
1	2	291	87	2009
2	1	258	87	0
1	1	242	86	2008
5	2	244	0	2008
1	1	0	86	2008
1	1	239	88	2008
2	1	242	0	2005
2	1	284	0	0
1	2	251	93	2007
1	2	251	94	2006
1	0	0	0	0
1	1	251	88	2007
1	1	289	93	2007
1	2	284	92	2006
1	0	0	0	0
1	1	266	94	2008
1	1	284	86	2009
1	0	0	0	0
1	1	251	94	2007
1	1	284	86	2009
2	1	264	0	2005
2	1	264	0	2005
1	1	261	87	2009
1	1	254	86	2009
2	1	277	0	2004
1	2	251	86	2008
1	1	264	88	2008
1	0	0	0	0
1	1	283	93	2007
2	2	279	0	2004
2	2	274	0	2001
1	1	0	0	2007
1	1	249	87	2009
1	0	0	0	0
1	2	292	0	0
1	1	283	87	2009
1	1	238	93	2007
1	2	266	0	2006
1	1	240	88	2007
1	2	266	0	2006
1	2	251	93	2006
1	1	262	0	2006
2	2	283	93	1999
1	1	235	0	2004
1	1	289	96	2007
1	1	0	87	2009
1	1	273	88	2008
5	2	278	0	0
1	1	268	88	2007
5	0	0	0	0
1	1	289	0	2007
2	2	257	0	2005
1	2	0	88	2008
1	1	0	87	2008
1	1	0	89	2008
1	0	242	94	2008
2	1	284	0	2005
1	2	249	0	2009
1	1	289	93	2006
1	2	266	96	2007
1	1	0	87	2009
1	2	242	86	2009
1	1	266	0	2007
1	2	281	86	2009
1	2	0	0	2008
2	1	242	0	2005
2	1	254	0	2005
1	1	242	94	2007
1	1	242	94	2007
1	1	257	92	2006
1	1	279	93	2006
1	1	284	88	2008
1	2	284	88	2008
1	1	254	88	2008
1	2	274	88	2008
1	1	0	86	2009
2	2	274	94	2005
1	1	0	87	2008
1	1	264	93	2006
1	1	0	86	2009
1	1	240	87	0
2	2	248	0	2002
1	1	282	87	2009
5	2	240	0	0
1	1	242	88	2008
1	2	291	0	2009
1	1	254	0	2006
1	1	284	87	2009
1	1	0	88	2007
1	2	0	0	2009
2	2	251	0	2005
1	1	244	96	2007
1	1	238	0	2007
1	1	251	86	2009
1	1	284	96	2006
1	1	284	88	2007
1	1	0	0	0
1	1	251	93	2006
2	1	262	0	2004
1	1	279	88	2008
2	1	251	0	2005
1	2	283	86	2009
1	2	284	96	2006
1	1	264	88	2008
1	1	291	87	2009
2	1	242	0	2004
1	1	251	88	2008
1	2	0	86	2009
1	0	0	0	0
2	0	251	0	0
1	2	0	0	2007
1	2	244	88	2008
1	1	283	0	2006
2	0	242	0	2005
1	2	0	86	2008
1	1	284	86	2008
1	1	289	93	2007
1	2	238	0	2006
1	1	289	0	2006
2	1	251	0	2004
1	2	251	93	2007
2	1	264	0	2004
1	1	0	0	2006
1	2	0	86	2009
1	2	0	88	2008
1	1	283	87	2008
1	2	243	93	2006
1	2	0	87	2007
1	2	251	86	2009
2	1	289	0	2005
1	1	0	89	2008
1	2	283	86	2009
1	2	0	88	2008
1	0	0	0	0
1	0	291	92	2006
1	2	251	87	2008
1	1	242	86	2009
1	2	251	86	2009
1	1	283	93	2006
1	1	289	0	2005
1	1	0	0	2008
1	1	261	89	2007
1	2	236	0	2008
1	1	283	94	2007
1	2	0	86	2009
1	1	252	88	2007
1	2	0	0	2009
1	2	248	92	2006
2	2	277	0	2004
1	1	0	90	2008
1	1	284	0	2006
1	2	289	92	2006
1	2	0	91	2006
1	2	284	96	2005
1	2	246	96	2007
1	2	0	88	2007
1	2	283	90	2008
2	0	0	0	0
1	1	281	88	2007
2	1	251	92	2005
1	1	0	88	2008
1	1	291	87	2009
1	1	242	92	2006
2	2	248	93	2002
1	1	0	88	2008
1	2	283	0	2006
1	1	262	0	2007
2	2	283	0	2005
1	1	251	87	2009
1	2	0	90	2008
2	1	242	0	2005
2	1	0	0	0
2	2	242	0	2004
1	1	0	95	2008
1	2	251	90	2007
1	1	249	0	2006
2	2	0	0	2005
1	1	284	93	2006
1	2	242	88	2008
1	2	283	90	2008
1	1	242	86	2009
2	0	0	0	0
1	1	266	96	2007
1	1	283	0	2006
1	2	283	96	2006
1	2	284	88	2008
1	0	0	0	0
2	2	281	94	2004
1	1	289	87	2008
1	1	249	88	2008
2	0	0	0	0
2	2	283	0	2005
2	2	292	0	2004
1	2	254	94	2005
2	1	256	0	2005
1	2	0	0	2009
1	1	283	86	2009
1	1	0	86	2009
5	2	243	0	1982
1	2	264	0	2007
1	1	242	86	2008
1	1	0	0	2009
1	0	262	92	0
1	2	0	0	2007
1	2	251	0	2006
2	2	242	0	2004
2	1	264	0	2005
1	0	0	0	0
1	0	279	94	2006
1	1	249	88	2008
1	0	0	0	0
1	2	251	94	2006
1	2	0	0	2007
1	2	251	0	2006
1	1	284	93	2007
2	1	251	0	2005
1	1	289	93	2007
1	1	0	89	2008
1	1	284	87	2009
4	2	0	0	0
1	2	0	87	2009
1	2	240	87	2008
1	1	262	87	2008
1	0	0	0	0
5	2	275	0	2003
1	1	266	0	2007
1	2	236	90	2007
1	1	266	0	2009
1	0	0	0	0
1	1	284	0	2006
5	1	238	0	0
1	1	0	88	2008
1	2	246	86	2009
1	2	242	93	2005
1	2	278	0	0
1	1	262	86	2008
1	0	0	0	0
2	2	241	0	2005
1	2	249	87	2009
1	1	242	0	2005
3	2	278	88	2007
2	2	264	88	2000
1	1	0	86	2009
1	1	291	0	2008
1	1	266	88	2007
1	1	284	95	2007
1	1	264	86	2009
1	2	284	92	2006
2	1	252	0	2005
1	1	249	93	2007
1	2	255	87	2006
1	1	0	87	2008
1	0	0	0	0
1	1	251	96	2006
1	2	0	86	2009
1	1	242	0	2006
1	0	287	0	0
1	1	292	90	2007
1	1	249	86	2009
1	0	0	89	2008
1	1	0	0	2009
1	1	279	88	2008
1	2	264	94	2009
1	2	275	90	2007
1	2	282	90	2008
2	2	291	0	2004
1	2	0	0	2009
2	2	242	0	2005
1	2	251	86	2008
5	1	251	0	0
1	1	284	96	2007
2	2	277	0	0
2	1	0	0	2005
1	1	283	93	2006
1	2	283	0	2006
2	2	291	0	2004
1	1	0	0	2009
1	2	242	93	2007
1	2	0	86	2009
1	1	275	96	2007
1	0	283	0	2008
1	0	0	0	0
1	2	283	0	2006
2	1	242	0	2004
1	1	0	88	2007
2	2	273	0	2005
1	1	0	0	2009
1	0	0	87	0
1	1	242	87	2009
1	1	289	91	2006
1	2	242	86	2006
1	2	283	0	2009
1	2	0	86	2009
1	1	255	86	2009
1	1	0	87	2009
1	1	266	87	2009
1	1	262	92	2006
2	1	256	0	0
1	2	0	90	2008
1	2	0	93	2007
2	1	0	0	2005
2	1	264	0	2005
1	2	251	0	2006
1	2	251	90	2008
1	1	279	90	2008
2	2	281	96	2005
1	2	275	86	2009
1	1	0	0	2009
1	2	262	94	2007
1	1	283	87	2009
1	1	266	96	2007
1	1	251	93	2006
2	0	281	0	2004
1	2	251	88	2008
1	2	251	96	2006
2	1	264	0	2002
1	1	244	87	2009
1	2	264	86	0
1	2	242	88	2008
1	2	279	86	2008
2	1	278	0	2004
1	2	236	0	2006
2	2	289	0	2005
1	1	0	87	2008
2	2	251	0	2005
1	2	251	90	0
2	2	264	96	2005
1	2	283	87	2007
1	2	284	88	2008
1	1	0	0	2005
1	0	251	87	2008
2	0	0	0	0
1	1	284	88	2007
1	2	0	87	2008
1	1	289	96	2006
2	1	284	0	2005
1	2	0	86	2009
1	2	254	0	2007
1	1	0	0	2006
1	2	283	94	2006
1	0	277	87	2008
1	1	251	93	2006
5	1	291	0	2007
1	2	249	86	2009
1	2	289	92	2005
1	0	0	0	0
1	1	0	94	2008
2	0	0	0	0
2	1	289	0	2005
1	1	284	93	2006
1	1	251	96	2006
1	1	236	96	2007
2	1	0	0	0
1	0	283	0	2005
2	2	251	0	2004
1	0	0	0	0
1	2	266	0	2008
2	1	284	0	0
1	2	283	89	2008
1	1	0	90	2008
1	1	242	96	2007
1	1	242	86	2009
1	1	0	86	2009
1	2	264	86	2009
2	2	284	0	2004
1	2	281	93	2007
1	1	242	0	2006
1	1	259	89	2008
1	2	283	88	2007
1	1	264	93	2007
2	2	264	93	2005
1	2	242	93	2006
1	2	283	96	2007
1	1	254	0	0
1	1	251	89	2007
2	1	240	0	2005
1	1	266	88	2008
1	2	251	96	2006
2	1	242	0	2004
1	1	268	96	2006
1	1	266	88	2007
1	0	260	88	0
1	1	266	89	2008
1	2	251	93	2007
1	1	242	96	2006
1	1	240	0	2009
1	2	277	86	2009
2	0	0	0	0
1	1	291	0	2006
2	2	248	0	0
2	1	283	0	2004
1	1	251	91	2006
1	1	0	90	2007
1	2	0	86	2009
1	1	289	90	2008
1	0	264	0	2008
1	2	283	96	2006
1	1	0	86	2009
1	1	279	86	2008
1	2	248	87	2009
2	1	254	0	2004
1	1	0	88	2008
1	2	283	86	2007
1	0	251	88	2007
2	1	251	92	2005
1	1	236	88	2008
1	0	280	93	2006
1	1	0	86	2009
1	2	278	88	2008
2	1	251	0	2005
1	2	262	92	2006
1	1	0	90	2008
1	1	271	93	2006
1	1	284	92	2006
2	1	289	0	2004
1	2	242	88	2007
1	2	0	87	2009
1	1	242	0	2005
1	1	266	0	0
1	1	270	88	2007
1	0	0	0	0
1	2	283	88	2007
1	1	249	94	2006
5	2	251	92	2007
1	2	0	87	2008
1	1	248	86	2009
2	1	0	0	2005
1	1	251	90	2007
1	1	254	0	0
1	1	242	86	2009
1	1	236	93	2007
1	2	266	87	2009
1	1	238	89	2008
1	2	0	87	2009
1	2	236	90	2007
3	2	292	0	0
1	2	248	86	2008
1	2	251	0	2006
1	1	262	0	2007
1	1	284	88	2008
1	2	289	0	2006
1	1	284	87	2009
2	1	236	0	2004
2	1	283	0	2004
1	1	242	88	2008
1	0	242	0	2006
1	1	242	86	2009
2	1	289	0	2005
1	2	243	86	2008
1	1	251	86	2008
1	1	284	87	2008
1	1	0	86	2009
2	0	0	0	0
1	1	279	94	2006
1	2	251	86	2009
1	1	264	86	2008
1	2	275	0	2006
2	1	289	0	2005
1	0	0	0	0
1	2	251	94	2007
1	2	283	90	2008
1	2	0	0	2006
1	1	283	0	2008
1	2	264	0	2007
1	1	288	0	2010
1	0	0	0	0
1	1	251	88	2007
1	1	242	89	2007
1	1	242	87	2009
1	2	0	86	2009
1	1	283	87	2009
1	2	251	91	2007
1	2	243	90	2008
1	2	283	87	2009
1	2	238	90	2008
1	1	281	93	2007
1	2	0	0	2007
1	1	278	88	2008
2	2	248	0	2002
1	1	238	88	2008
4	0	0	0	0
1	2	251	87	2008
1	1	275	87	2009
2	2	283	0	2005
1	2	245	87	2009
1	2	284	0	2006
1	2	244	93	2006
1	2	0	90	2008
1	1	251	91	2007
2	1	236	0	2005
1	2	0	87	0
1	1	252	0	0
1	1	254	91	2007
1	1	238	94	2006
1	1	0	89	2008
1	1	284	87	2008
1	1	289	0	2006
2	1	251	93	2005
1	0	240	91	2007
1	1	0	87	2009
1	1	0	87	0
1	0	237	94	0
2	2	242	0	2005
2	2	264	0	2004
1	2	240	96	2007
1	2	283	93	2007
1	1	242	89	2007
1	0	238	91	2006
1	1	279	91	2006
1	2	283	92	2005
1	2	278	86	2008
1	1	269	88	2008
1	1	0	86	2008
1	2	242	93	2007
1	1	284	90	2007
1	0	0	0	0
2	2	251	0	2004
1	1	284	87	2008
1	2	249	91	2007
1	0	284	90	2008
2	1	254	0	2005
1	1	283	93	2007
2	1	242	92	2005
2	0	0	0	0
1	1	240	93	2007
1	2	268	0	2009
1	1	0	88	2008
2	1	281	0	2005
1	2	283	0	2007
1	1	281	0	2006
2	1	289	0	2002
1	1	260	87	2009
1	1	282	87	2008
1	1	242	0	2007
2	1	239	0	2005
1	1	242	89	2008
1	1	244	89	2008
2	1	242	0	2005
1	1	251	86	2009
2	1	283	0	2004
1	2	0	90	2008
1	1	290	88	2007
1	1	283	0	2009
1	2	281	89	2007
2	1	290	0	2004
1	1	290	93	2006
5	2	243	94	0
3	0	0	0	0
1	2	264	88	2008
1	0	0	0	0
1	1	284	0	2007
1	1	283	90	2008
1	2	266	86	2009
2	2	277	0	1957
4	1	0	0	0
1	1	0	87	2009
1	0	0	0	0
1	2	242	88	2007
1	2	252	87	2009
1	2	281	92	2006
1	1	242	0	2006
1	2	289	91	2007
1	1	242	90	2008
1	0	0	0	0
1	1	262	88	2008
1	1	238	0	2007
1	2	251	86	2009
1	2	259	0	2006
1	1	244	0	2007
1	0	0	0	0
1	2	242	93	2007
1	2	264	0	2007
1	1	251	87	2007
2	2	248	0	0
1	2	251	93	2005
1	1	262	88	2007
1	1	284	88	2006
1	0	0	0	0
1	2	273	0	2009
2	1	259	0	0
2	1	251	0	2004
2	2	283	0	2003
1	1	254	94	2008
1	2	282	90	2008
1	1	0	87	2009
1	1	0	90	2008
1	2	240	94	2005
5	1	251	0	2006
1	1	262	0	2006
1	2	251	96	2007
2	1	289	0	2005
1	2	240	88	2008
1	2	240	0	2007
1	2	279	86	2009
1	1	242	90	2008
1	1	283	87	2009
2	0	251	0	2005
1	0	0	0	0
2	1	239	0	2005
1	2	264	90	2007
2	1	281	0	2004
1	1	251	86	2009
1	1	283	0	2006
2	1	251	96	2005
1	0	266	0	2008
1	0	0	87	0
2	1	264	88	2004
1	2	270	88	2008
1	2	266	87	2009
1	1	283	96	2007
1	2	279	0	2009
1	1	284	88	2008
1	2	264	94	2008
1	2	283	87	2008
5	2	251	0	2008
2	2	242	0	2005
1	1	0	88	2008
1	0	0	0	0
1	2	242	95	2006
1	1	284	0	2007
1	1	283	96	2008
1	1	244	0	2007
1	2	0	87	2009
1	2	251	90	2008
1	0	0	0	0
1	2	0	87	2008
1	1	242	87	2009
1	2	291	86	2009
1	0	266	0	0
1	2	0	90	2004
1	2	264	88	2007
1	2	242	86	2009
1	1	284	94	2006
2	1	236	0	2005
1	2	264	0	2007
1	2	264	96	2007
1	2	283	96	2006
1	1	251	0	2007
1	1	251	0	2004
1	1	239	92	2006
1	2	263	92	2006
1	2	283	0	2006
1	1	273	87	2009
3	2	279	0	0
1	0	0	0	0
1	1	291	86	2008
1	1	289	96	2006
2	2	248	0	2005
5	2	0	94	2006
1	1	266	0	2007
1	1	283	88	2007
2	2	277	93	2004
1	1	266	0	2006
1	1	254	94	2007
1	1	254	0	2006
1	2	257	0	2006
2	1	283	92	2003
1	1	0	0	2006
1	1	242	87	2008
1	2	248	0	2006
1	0	0	0	0
1	2	251	94	2008
1	2	250	89	2008
1	1	281	88	2008
2	2	243	87	2001
5	1	278	0	2006
1	2	283	94	2006
1	1	240	92	2010
1	1	281	90	2007
2	2	236	0	2004
1	2	248	87	2009
1	2	243	93	2006
1	1	266	87	2009
1	1	252	86	2009
2	2	283	0	0
1	1	262	93	2007
1	1	254	89	2007
5	1	289	0	2005
2	1	283	0	2004
1	2	0	0	0
1	1	0	0	2009
1	1	256	90	2008
1	1	266	88	2007
1	2	240	86	2008
1	2	244	0	2006
2	1	283	0	2005
1	2	277	93	2007
2	0	0	0	0
2	1	249	0	2005
2	2	292	0	1958
1	2	279	86	2009
2	1	242	0	2005
1	1	251	0	2004
1	1	254	95	2008
1	1	251	88	2008
1	0	0	0	2008
1	2	0	86	2009
1	2	0	86	2008
1	2	283	0	2006
1	1	284	90	2008
5	1	283	0	0
1	2	284	0	2009
1	2	251	90	2007
1	1	262	86	2008
1	1	266	92	2006
2	1	284	93	2005
2	2	254	0	2004
1	2	243	86	2004
1	1	251	0	2006
2	1	239	0	0
1	1	242	90	2008
2	1	278	0	2005
1	2	273	86	2009
1	1	264	88	2007
1	1	242	91	2006
1	1	254	95	2008
1	2	264	93	2007
1	1	284	90	2007
1	2	254	86	2007
1	1	282	93	2007
2	2	251	0	2005
1	2	251	86	2008
1	2	0	86	2009
1	1	0	0	2009
1	2	282	0	2006
1	2	259	88	2008
1	2	0	86	2009
1	1	264	96	2007
5	2	282	0	2008
1	1	0	87	2008
1	1	264	90	2007
1	2	283	93	2005
2	0	0	0	0
1	2	277	88	2007
1	2	0	0	2009
1	2	262	86	2008
1	2	0	86	2009
1	2	279	88	2004
1	1	249	88	2007
1	2	236	96	0
1	0	0	0	0
1	1	277	0	0
1	2	236	89	2007
1	2	264	86	2007
1	2	240	91	2006
1	1	264	89	2008
1	1	266	86	2009
1	2	284	86	2008
2	1	251	0	2005
1	2	0	0	2009
1	1	283	88	2008
2	2	0	0	2004
1	2	251	0	2007
1	2	243	87	2009
2	2	279	0	2005
1	1	284	93	2006
1	1	254	0	2005
1	1	279	88	2007
1	1	0	86	2009
2	2	283	92	2005
1	0	0	87	2008
1	1	0	87	2009
2	2	259	0	2005
1	1	279	0	2009
1	1	266	86	2009
1	2	251	0	2006
1	1	284	94	2006
1	2	0	88	2008
2	2	258	0	2004
1	1	278	87	2009
1	2	251	86	2009
1	1	244	89	2008
1	2	0	89	2008
1	1	238	89	2008
1	2	235	0	2006
1	2	279	0	2005
1	0	0	0	0
1	2	0	90	2007
1	1	254	89	2008
1	0	0	0	0
1	1	289	87	2009
1	2	283	90	2007
1	1	0	86	2009
2	2	0	0	0
1	0	0	0	0
1	1	264	88	2008
1	2	264	0	2007
1	0	278	0	2006
1	1	254	0	2006
2	2	283	0	2005
1	1	291	93	2006
1	1	242	95	2008
5	0	0	0	0
2	1	284	0	2005
1	2	264	0	2005
1	2	242	92	2006
2	1	279	0	2004
1	2	277	90	2008
1	1	284	87	2009
1	2	0	0	2005
1	1	283	87	2008
5	0	0	0	0
1	2	251	93	2007
1	0	279	90	2008
1	1	242	96	2006
2	1	251	0	2004
1	0	0	0	0
1	1	289	0	2006
1	1	0	0	0
2	0	0	0	0
1	2	248	90	2008
1	2	283	86	2009
1	1	0	88	2008
2	2	0	0	2004
2	1	266	0	2005
1	2	281	90	2007
1	2	284	0	2006
1	2	251	96	2006
1	1	242	0	2009
2	2	283	0	2005
1	1	249	86	2009
1	1	284	0	2010
1	1	0	87	2009
1	1	264	92	2006
1	1	0	86	2009
2	2	251	0	2005
1	1	242	89	2008
1	2	283	86	2009
1	1	281	0	2006
1	1	284	91	2007
1	2	275	89	2008
1	2	243	86	2009
1	1	259	0	2007
1	1	242	0	2007
1	0	268	0	2008
1	2	275	86	2009
1	0	0	0	0
2	1	284	0	2005
2	2	244	0	2005
2	2	240	92	2003
1	2	242	89	2007
1	1	255	90	2007
1	1	254	0	2007
1	1	284	86	2009
2	1	251	0	2004
1	2	0	86	2009
1	1	282	88	2007
1	1	284	89	2007
1	1	254	0	2006
2	2	283	93	2002
1	2	283	96	2007
1	2	242	87	0
1	2	275	86	2008
5	1	254	0	0
1	1	242	0	2006
1	1	278	0	2009
1	1	248	96	2006
2	0	254	0	2005
1	0	0	0	0
2	1	284	0	2004
4	0	0	0	0
1	2	279	86	2008
2	0	279	0	2005
1	0	0	90	2008
2	2	242	0	2005
1	2	242	89	2008
1	2	254	93	2006
1	1	0	88	2008
1	1	240	87	2008
2	1	289	0	2005
1	1	281	86	2008
1	2	284	86	2008
2	1	251	94	2005
1	1	0	90	2008
1	2	284	90	2008
1	1	238	0	2006
1	0	0	0	0
1	2	279	89	2008
2	1	284	0	2004
1	1	242	94	2007
1	1	275	87	2008
2	2	285	0	0
2	1	284	0	2004
1	0	266	0	2008
1	1	242	94	2008
1	1	279	0	2005
1	2	249	86	2008
2	0	0	0	0
1	2	251	88	2007
1	2	0	86	2009
2	2	251	94	2004
2	1	283	0	2005
1	1	289	94	2006
1	1	251	0	2005
1	1	283	0	2006
1	1	242	86	2009
1	1	279	96	2007
1	2	242	0	2007
1	2	241	87	2009
1	0	238	0	2006
1	2	248	0	2006
1	2	242	94	2005
1	1	0	86	2009
1	1	0	89	2008
2	1	284	0	2005
2	2	275	0	2004
1	1	236	0	0
1	1	289	89	2007
1	0	0	0	0
2	2	281	0	2005
1	2	243	86	2009
5	1	238	0	2007
1	0	0	0	0
1	2	235	0	2010
1	1	283	96	2006
2	1	283	0	2005
5	2	264	0	2004
1	2	0	90	2008
1	1	251	90	2007
1	2	283	86	2009
1	1	242	87	2009
2	2	251	0	2005
1	2	251	94	0
1	2	0	86	2009
2	0	0	0	0
2	2	254	0	2001
1	2	292	93	2006
1	0	0	0	0
1	1	0	0	0
1	2	242	0	2007
1	0	0	0	0
2	0	0	0	0
1	2	264	93	2006
1	2	282	87	2008
2	1	283	0	2005
1	1	284	88	2008
1	1	277	90	2008
1	1	254	93	2007
1	1	252	88	2007
2	1	284	0	2005
1	1	262	94	2007
1	2	0	86	2008
1	1	283	88	2007
1	2	281	0	2004
1	1	284	0	2008
1	1	264	86	2009
1	1	254	94	2007
1	2	242	96	2007
1	0	0	0	0
2	2	251	0	0
1	2	0	0	2007
1	2	0	96	2007
1	1	0	90	2008
1	0	0	0	0
1	1	284	88	2008
1	2	242	93	2007
2	2	0	0	2005
1	2	0	89	2008
1	1	0	0	2009
1	1	242	0	2006
2	2	256	93	2002
1	2	284	93	2006
2	2	238	0	2005
1	1	264	86	2008
2	1	242	0	2005
1	2	278	0	2004
1	0	0	0	0
5	2	243	0	0
1	1	270	94	2007
1	2	244	93	2006
2	2	0	0	0
2	2	277	91	1995
1	1	266	88	2007
1	1	0	0	2007
1	2	268	88	2007
1	2	249	89	2008
1	1	279	94	2007
2	1	284	92	2005
1	1	266	93	2007
1	1	0	87	2009
1	2	282	96	2006
1	2	0	88	2008
1	2	242	0	2006
2	1	284	0	2004
5	2	248	0	2006
2	1	278	0	0
1	1	266	90	2007
1	2	284	93	2006
1	1	279	93	0
1	2	0	88	2008
1	1	279	86	2009
1	1	291	86	2009
1	2	243	0	2006
1	2	241	96	2007
2	0	264	0	0
1	1	240	0	2009
2	2	236	0	2005
1	0	0	91	0
1	1	251	0	2006
1	1	283	92	2006
1	1	0	0	2009
2	1	238	92	2005
2	0	0	0	0
2	1	236	0	2005
1	2	242	0	2010
1	1	240	0	2007
1	1	242	0	2007
1	1	0	86	2009
2	2	248	0	2004
1	2	264	0	2007
1	1	0	89	2008
0	0	0	0	0
1	2	238	88	2008
1	2	283	91	2007
1	1	236	0	2007
1	0	0	0	0
1	1	283	92	2006
1	1	0	87	2009
1	1	281	0	2006
1	1	251	0	2006
1	1	236	0	2007
2	1	254	92	2005
1	1	0	86	2009
2	1	242	0	2004
1	1	264	86	2008
1	1	266	87	2009
1	1	284	90	2008
1	2	274	0	2008
1	1	284	96	2006
5	1	235	89	2004
1	2	284	93	2007
2	2	251	0	2005
1	1	0	0	2008
1	1	278	93	2007
1	2	268	86	2008
1	1	0	0	2009
2	2	282	0	2005
1	2	281	87	2009
1	2	284	86	2009
1	1	0	88	2008
1	1	0	0	2009
1	0	242	96	2007
1	1	243	86	2008
1	2	0	88	2008
2	2	242	0	2005
1	1	284	0	2006
1	2	0	88	2008
1	1	266	87	2009
1	1	284	0	2007
1	1	266	90	2008
1	1	0	86	2008
2	1	254	0	2005
5	2	248	0	2005
1	0	284	0	2006
1	2	242	88	2008
2	1	282	0	2005
1	1	279	89	2007
2	2	283	0	2005
1	0	0	0	0
2	0	0	0	0
1	1	284	0	2009
1	1	242	87	2009
1	1	251	92	2006
1	1	251	94	2006
1	1	0	0	2009
1	2	275	86	2009
1	1	266	86	2008
1	0	0	0	0
1	1	238	93	2007
1	1	244	86	2009
1	1	249	86	2009
1	1	275	88	2007
1	1	262	88	2008
1	1	0	86	2009
1	2	275	0	2006
1	1	0	87	2008
1	1	284	93	2006
1	1	283	87	2008
1	2	289	91	2007
1	1	288	90	2008
2	2	242	0	2005
1	2	269	0	2006
1	0	238	0	2006
1	2	242	87	2009
1	1	249	87	2009
1	1	242	88	2008
5	2	279	0	0
1	1	264	0	2009
1	1	278	93	2006
1	1	284	0	2006
1	1	244	86	2009
1	0	0	0	0
1	1	283	94	2007
2	1	283	0	2005
1	1	289	86	2009
1	2	264	0	2006
1	2	284	88	2007
1	2	289	0	2006
1	2	240	93	2006
1	1	0	88	2008
1	1	284	90	2008
1	1	0	88	2008
1	2	236	88	2008
2	2	236	92	2005
1	1	242	93	2007
1	2	242	91	2006
1	2	251	87	2009
1	1	242	87	2009
1	2	254	94	2006
5	1	251	0	2005
1	1	279	86	2009
1	1	251	0	2005
1	1	251	88	2007
2	2	285	0	0
1	1	262	87	2009
1	0	0	0	0
1	1	254	96	2007
1	2	264	87	2009
1	1	242	0	2007
2	1	251	0	2005
2	2	251	0	2004
1	2	0	86	2008
1	1	283	86	2009
1	1	242	93	2006
2	2	251	0	2003
1	2	242	96	2006
2	1	251	0	0
1	2	240	89	2008
1	1	243	90	2008
1	1	264	88	2008
2	0	0	0	0
1	1	251	86	2009
1	2	0	86	2009
1	2	283	0	2006
2	2	251	0	2004
1	2	0	86	2008
1	1	251	93	2007
1	1	251	86	2009
1	1	242	90	2008
1	2	264	0	2007
1	1	289	0	2006
1	1	242	86	2009
1	0	0	0	0
1	2	251	94	2007
1	2	281	93	2006
2	2	281	0	2005
1	0	278	0	2006
1	0	236	0	0
1	0	259	0	2006
1	1	254	86	2009
1	2	251	0	0
1	2	236	89	2008
2	1	250	0	2005
1	1	274	96	2007
1	1	290	86	2009
1	1	0	90	2007
1	1	242	0	2007
1	1	262	96	2006
1	1	289	0	2007
1	0	251	90	0
1	1	283	96	2006
1	1	279	86	2008
1	1	0	89	2008
1	1	0	88	2008
1	2	268	0	2007
1	1	251	0	2007
1	1	0	86	2009
1	2	0	87	2009
2	1	236	0	2005
1	2	283	90	2008
1	1	291	87	2007
1	1	0	86	2009
1	2	254	93	2006
1	1	254	0	2009
1	1	284	95	2007
1	1	284	89	2008
1	2	251	0	2009
1	1	289	0	2006
1	1	289	90	2008
1	1	236	93	2007
1	1	236	93	2007
1	1	236	93	2006
1	1	0	89	2008
2	2	289	0	2004
1	2	242	86	2008
1	1	236	0	2006
1	2	284	96	2005
5	1	284	0	2008
1	0	0	0	2007
1	2	0	86	2009
1	2	275	95	2006
2	2	284	0	2004
1	2	242	92	2006
1	2	242	88	2007
4	2	0	0	0
2	2	284	0	2005
1	1	264	88	2008
1	1	236	96	2007
5	2	278	0	0
1	2	282	87	2009
1	1	284	0	2006
2	1	291	0	0
1	1	0	87	2009
1	2	283	88	2007
2	1	243	0	2005
1	1	266	88	2008
1	2	264	0	2006
1	2	0	86	2009
5	2	243	88	2005
1	2	271	90	2008
1	1	284	87	2009
1	1	290	87	2009
2	1	251	0	2005
1	2	284	93	2007
1	2	262	89	2008
1	1	0	87	2009
1	2	242	0	2005
1	2	252	0	2005
2	1	240	0	2005
1	1	243	0	2008
1	0	0	0	0
2	2	251	96	2005
1	1	284	96	2007
1	1	251	94	2004
1	1	283	94	2006
1	1	279	93	2006
1	1	0	87	2008
2	1	236	0	2005
1	1	289	96	2007
2	2	284	0	2004
1	1	252	86	2009
1	1	283	0	2006
1	1	289	0	2006
1	2	251	92	2006
2	1	242	0	2003
1	1	236	0	2007
1	2	242	86	2007
1	2	278	88	2007
1	1	284	93	2006
2	1	264	0	2005
1	1	240	87	2009
1	1	266	88	2008
2	2	277	0	2005
1	1	287	88	2007
1	0	0	0	0
3	2	273	0	0
2	2	251	0	2004
1	0	0	0	0
2	1	251	0	2005
1	2	0	88	2008
1	1	262	86	2009
2	2	281	0	2005
1	1	283	94	2006
1	2	264	88	2007
1	1	242	86	2009
1	2	251	0	2006
1	2	264	88	2007
2	0	283	0	2004
2	0	0	0	0
1	2	268	94	2006
1	1	283	87	2009
1	1	291	86	2009
2	0	0	0	0
1	2	248	87	2009
1	1	291	0	2006
1	1	0	87	2008
2	2	236	0	1991
1	1	251	0	2007
1	1	266	94	2006
1	2	240	94	2007
1	1	264	94	2007
1	2	264	96	2006
2	2	0	0	0
1	2	257	91	2007
1	1	0	0	0
1	1	279	93	2007
1	2	240	87	2009
2	2	0	0	2004
1	1	283	89	2008
1	1	291	0	2006
1	1	264	93	2006
1	1	0	0	2008
1	0	0	0	0
1	1	239	88	2008
2	1	242	0	2005
1	1	0	88	2008
1	2	0	0	2009
1	2	283	0	2009
1	2	242	0	2006
5	1	251	0	0
1	2	273	88	2008
1	1	242	86	2009
2	1	254	0	2004
2	1	0	0	2004
1	1	284	86	2009
1	1	0	86	2009
1	2	264	87	2009
1	1	240	87	2009
1	2	283	88	2008
1	1	0	0	2009
1	1	283	89	2007
1	2	264	92	2006
2	1	269	0	2004
1	1	240	87	2009
1	2	240	86	2009
2	2	283	0	2005
1	1	278	95	2008
1	0	0	0	0
1	2	279	88	2007
1	2	283	87	2009
1	1	0	90	2008
1	2	0	0	2006
1	1	291	87	2008
1	1	242	0	2008
1	1	264	90	2008
1	1	281	0	2007
1	1	289	0	2006
4	2	0	0	0
1	2	291	87	2009
1	1	264	96	2007
1	2	241	94	2007
1	2	248	88	2007
2	1	254	0	2005
1	1	238	96	2006
1	1	254	87	0
1	1	254	93	2007
1	1	266	0	2007
2	1	278	0	2005
1	2	242	93	2006
1	1	279	90	2008
1	1	262	88	2008
2	0	0	0	0
2	2	236	0	2005
1	1	249	95	2008
1	1	284	86	2008
1	2	283	86	0
1	2	245	86	2009
1	1	0	86	2009
2	1	239	0	2005
2	2	289	0	2005
1	2	283	0	2006
2	1	236	0	2005
1	2	251	88	0
1	0	0	0	2006
1	1	284	88	2007
2	1	254	0	2005
2	1	236	92	2005
2	1	289	0	2005
1	2	255	0	2006
1	2	264	92	2006
2	1	262	0	2005
1	2	284	90	2008
1	2	0	89	2008
1	1	269	86	2009
1	2	279	86	2009
2	2	251	0	2005
1	2	262	87	2008
2	2	239	0	2004
1	1	0	86	2009
1	2	251	87	2009
5	2	251	0	2004
2	2	283	94	0
2	1	242	0	2005
1	2	0	87	2009
1	2	236	88	2008
1	2	251	90	2008
1	1	242	0	2006
5	1	284	0	0
2	1	284	0	2004
1	1	264	93	2006
1	1	283	87	2009
1	2	242	88	2008
2	1	278	92	2005
1	1	270	0	2007
1	1	283	91	2007
5	1	266	94	0
1	2	282	87	2009
1	1	0	86	2009
1	2	275	88	2008
1	1	289	90	2007
1	2	280	88	2007
1	1	0	88	0
1	2	0	86	2009
1	1	242	87	2008
1	2	251	90	2008
1	1	0	88	2008
1	1	0	86	2009
1	1	291	87	2009
1	2	0	86	2009
