status	gender	major	dorm	year
2	1	23	0	2005
1	2	57	320	2007
2	1	53	0	2005
1	0	21	0	2007
2	2	20	0	2005
1	2	57	291	2008
1	2	26	334	2007
1	1	0	315	2009
2	2	26	0	2005
2	1	23	0	2003
1	2	9	315	2008
2	1	7	336	2005
1	1	27	319	0
1	1	37	322	2006
1	1	0	313	2009
1	2	9	309	2007
2	2	23	340	2003
1	1	45	328	2009
1	1	9	338	2007
1	1	61	326	2008
1	1	75	315	2008
1	2	53	304	2009
1	2	23	291	2008
2	2	0	0	2001
1	2	23	291	2008
2	1	9	0	2005
1	2	0	328	2009
1	1	68	323	2009
1	1	68	0	2007
1	1	30	324	2007
2	1	74	292	2004
1	2	57	313	2008
2	1	26	300	0
1	2	26	0	2007
1	1	46	313	2009
1	2	2	291	2008
1	1	27	304	2007
1	2	16	302	2009
1	2	53	0	2007
1	2	14	304	2007
1	1	9	319	2008
2	1	16	0	2005
1	2	0	304	2007
1	2	9	302	2006
1	1	9	0	2007
1	2	23	328	2006
2	1	63	0	2005
1	2	62	304	2008
1	1	10	304	2009
1	1	63	304	2007
1	2	53	301	2007
1	1	0	0	2006
1	1	16	323	2009
1	1	0	304	2009
1	1	68	304	2008
1	2	17	304	2007
1	2	26	305	2007
1	2	28	317	2008
1	1	26	328	2009
1	1	0	315	2009
1	1	20	324	2007
1	2	53	309	2007
1	2	24	328	2008
5	1	68	0	2007
1	1	53	0	2006
1	0	0	0	0
2	1	53	0	2005
1	2	54	315	2008
1	1	27	304	2008
1	2	61	0	2006
2	1	74	0	2005
1	0	0	0	2006
2	1	26	330	2002
1	2	74	315	2006
1	1	26	0	2006
1	2	28	335	2008
1	1	68	324	2007
1	2	0	302	2009
1	2	53	315	2007
1	2	26	328	2006
1	1	68	0	2006
2	0	16	0	2005
1	1	68	0	2007
1	2	53	291	2007
1	2	9	313	2009
1	1	0	302	2009
1	2	14	305	2006
1	2	53	301	2007
1	0	0	0	0
1	1	34	313	2009
2	1	26	0	2005
1	2	0	291	2008
2	1	53	290	2005
1	2	45	0	2007
1	2	31	331	2006
2	2	6	0	2005
1	2	30	336	2008
1	2	20	297	2007
1	2	12	313	2009
1	2	0	302	2009
1	2	20	328	2006
1	1	0	315	2009
2	1	23	0	2005
1	2	0	313	2009
1	1	0	328	2009
1	2	1	0	2007
1	2	12	315	2009
1	1	9	326	2007
1	1	0	304	2009
1	2	23	310	2007
2	1	9	0	2005
2	1	9	0	2005
2	2	46	0	2005
2	2	28	0	2004
1	1	9	327	2008
1	2	29	302	2009
1	2	61	291	2008
1	2	54	0	2006
1	2	57	337	2007
1	2	16	327	2007
1	1	64	0	2006
1	1	17	324	2007
1	1	9	292	2007
1	2	0	313	2009
1	0	0	0	0
1	1	0	315	2009
1	1	27	328	2007
1	0	26	315	2006
1	1	63	292	2007
1	1	46	330	2008
1	1	68	318	2006
1	1	7	315	2007
2	2	23	318	2005
1	2	12	315	2009
1	2	1	309	2007
1	1	68	318	2006
1	2	26	339	2008
1	1	6	315	2008
1	1	46	0	2006
1	1	30	328	2009
2	1	12	293	2005
1	1	20	327	2007
2	1	9	0	2005
1	2	81	0	2008
1	2	0	0	2006
1	2	37	329	2008
1	2	62	315	2008
1	2	53	0	2007
1	2	45	313	2008
1	2	46	313	2008
1	2	1	328	2009
1	1	0	291	2008
1	1	68	329	2008
1	2	16	304	0
2	1	12	319	2005
1	2	5	311	2006
2	1	68	0	2005
2	1	17	0	2004
1	2	53	0	2006
1	1	68	304	2008
1	1	68	315	2008
1	2	16	315	2009
1	1	14	313	2009
2	1	0	0	2005
1	2	26	304	2009
1	1	0	328	2009
2	1	26	0	2005
1	1	54	315	2009
2	1	30	307	2001
1	1	0	313	2008
2	0	53	0	2005
1	1	1	291	2008
1	1	59	0	2006
1	2	20	311	2005
1	1	54	323	2009
1	1	27	326	2008
1	0	20	0	2008
2	2	12	305	2004
1	2	12	328	2009
1	2	53	315	2009
1	1	9	302	2009
1	1	46	325	2006
1	2	9	328	2009
2	1	0	0	2005
1	2	29	313	2009
1	2	53	0	2006
1	1	9	328	2009
1	2	26	291	2008
1	2	28	317	2008
1	1	0	0	2008
1	2	26	312	2007
1	1	0	291	2004
1	1	9	319	2006
1	1	7	315	2007
1	1	27	304	2008
1	1	7	307	2006
2	2	27	294	2003
1	2	12	304	2008
1	2	68	317	2007
2	1	76	0	2005
2	1	9	0	2004
1	1	12	304	2009
1	1	63	0	2007
1	2	16	291	2008
1	2	20	294	2006
1	2	57	323	2009
1	1	0	315	2009
1	2	9	315	2009
2	1	27	0	2005
1	2	16	310	2007
1	2	53	337	2007
3	1	0	0	0
5	1	17	0	0
1	2	12	294	2008
1	1	74	0	2006
2	1	63	0	2004
1	1	26	0	2006
1	2	0	291	2007
1	1	45	294	2005
1	1	14	304	2009
1	1	27	328	2008
1	2	20	302	2008
1	1	7	290	2006
1	1	68	328	2006
1	1	68	326	2006
2	2	28	314	2005
1	2	38	314	2007
1	2	0	328	2009
2	1	62	294	2005
2	2	9	0	2004
1	1	53	315	2007
1	1	9	304	2009
1	1	20	313	2008
1	2	61	0	2007
1	1	12	291	2008
1	2	29	328	2009
1	1	53	0	2007
1	1	45	313	2009
1	1	53	0	2007
1	2	38	327	2007
1	1	5	324	2007
1	2	53	302	2009
1	2	20	313	2007
1	1	9	328	2009
1	2	0	315	2009
2	1	46	300	2004
1	1	53	0	2006
1	1	30	0	2006
1	2	26	302	2009
2	1	53	293	2005
1	1	54	302	2006
1	2	63	0	2006
1	2	26	328	2009
1	2	0	302	2009
2	1	0	0	2005
1	0	0	0	0
2	1	53	0	2005
2	0	0	0	0
2	0	26	0	2005
1	2	12	0	2007
2	1	38	0	2005
1	2	57	315	2006
1	2	30	332	2006
1	2	63	325	2006
1	2	9	304	2007
1	1	18	290	2007
1	0	0	291	2008
2	1	28	0	2005
1	1	18	293	2006
1	0	71	0	2006
1	1	53	328	2009
2	2	26	0	2005
1	1	27	323	2008
1	1	12	328	2009
1	2	12	309	2006
1	1	22	0	2008
1	1	0	0	2008
2	2	28	0	2004
1	1	9	328	2009
1	0	26	0	2006
2	1	30	0	2005
1	1	57	326	2006
1	2	1	306	2006
1	1	33	326	2008
1	2	64	0	2008
1	1	68	327	2007
2	2	57	0	2004
1	0	26	0	2006
2	0	0	0	2004
1	2	28	304	2007
1	2	4	306	2007
5	1	9	0	0
1	1	18	313	2009
1	1	21	304	2007
1	2	20	309	2006
1	1	63	0	2006
1	1	30	325	2007
1	2	26	315	2008
1	1	0	315	2009
1	1	53	291	2008
1	1	18	328	2009
1	1	61	332	2007
1	1	27	0	2005
1	0	0	291	2008
2	2	28	0	2007
1	1	20	304	2009
1	1	9	315	2009
1	1	46	325	2006
1	1	16	320	2006
2	1	53	0	2005
1	1	63	0	2007
1	2	81	0	2006
1	2	30	304	2009
1	1	0	313	2009
1	1	53	291	2007
1	2	9	302	2009
1	1	24	315	2009
1	2	23	0	2007
1	2	81	291	2008
2	1	74	0	2005
1	1	0	313	2009
1	2	64	0	2005
1	2	12	302	2009
2	1	33	0	2005
1	0	67	329	2008
1	1	63	328	2007
1	1	26	0	2007
1	1	29	313	2009
2	1	69	293	2003
1	2	23	315	2006
2	2	38	0	2005
1	1	68	336	2006
2	1	34	0	2005
2	2	63	0	2005
1	2	16	323	2009
1	1	53	0	2007
1	1	9	304	2009
1	2	9	330	2007
1	2	26	320	2006
1	2	81	313	2007
1	2	30	313	2008
1	1	0	0	2004
1	2	63	291	2008
1	2	57	315	2009
1	1	27	0	2005
2	1	68	0	2005
1	1	9	304	2009
1	2	16	291	2007
1	1	0	313	2008
1	2	23	323	2008
1	2	9	302	2009
1	2	57	317	2008
1	2	9	328	2009
1	2	57	304	2009
1	2	53	326	2010
1	1	0	291	2008
3	0	0	0	0
1	1	30	0	0
1	2	23	313	2009
1	2	20	340	2007
1	1	27	291	2008
2	2	0	0	2005
1	2	20	291	2008
1	1	53	302	2009
1	2	45	301	2006
1	0	0	304	2008
1	1	16	324	2007
1	1	27	324	2007
2	2	57	0	2004
1	2	29	315	2009
5	2	27	0	2006
1	1	46	304	2009
1	1	29	302	2009
1	1	30	329	2008
1	2	9	0	2008
1	1	9	292	2007
1	2	57	291	2007
1	1	6	323	2008
1	2	30	0	2007
1	1	0	328	2009
1	1	16	313	2009
1	2	26	299	2007
1	1	45	328	2009
1	1	46	320	2006
2	1	0	0	2005
5	1	68	0	2007
1	1	33	291	2008
1	2	0	313	2009
1	2	46	305	2006
1	1	75	313	2009
2	1	1	300	2005
1	2	20	328	2008
1	1	51	295	2007
1	2	63	313	2009
2	1	53	0	2005
2	2	26	0	2005
1	2	20	291	2007
1	1	27	324	2007
1	1	54	315	2007
1	1	68	321	2006
1	2	9	323	2008
2	2	26	312	2004
2	1	17	0	2005
1	2	30	291	2008
1	1	9	324	2007
1	1	0	315	2009
1	2	53	291	0
1	1	0	328	2008
1	1	9	304	2009
2	2	23	0	2005
1	1	68	0	2007
1	1	46	298	2007
1	2	54	0	2006
1	1	9	330	2008
1	2	14	304	2008
1	1	68	304	2009
1	1	28	325	2008
1	1	53	320	2005
1	1	30	307	2006
1	1	26	324	2007
1	1	0	328	2009
1	2	26	291	2008
1	2	29	315	2009
1	2	0	291	2008
1	2	53	318	2006
2	1	68	319	2005
1	2	24	336	2006
1	2	29	323	2008
1	2	0	328	2009
2	2	20	0	2005
2	0	46	0	2005
1	1	68	323	2009
1	1	56	315	2008
2	1	30	0	2005
1	1	53	0	2006
1	2	29	313	2009
1	1	0	291	2008
1	2	62	313	2008
1	1	0	0	2007
1	1	10	315	2009
1	1	0	315	2009
1	2	20	322	2007
2	2	12	0	2004
2	1	61	327	2005
1	1	0	291	2008
1	2	57	313	2008
2	2	14	0	2005
1	1	4	337	2008
1	2	0	291	2008
1	2	53	291	2008
1	0	68	305	2006
1	2	62	310	2006
1	2	53	315	2008
1	2	0	328	2009
1	2	20	311	2006
2	1	45	0	2004
2	2	68	0	2005
2	2	6	0	0
2	2	28	0	2005
1	2	0	313	2009
1	1	82	324	2007
2	1	53	0	2005
1	2	28	325	2006
1	2	0	328	2008
1	1	30	0	2006
1	2	0	328	2008
1	1	53	329	2008
5	2	57	0	2007
1	2	26	0	0
1	1	27	300	2006
1	2	53	306	2007
2	0	9	0	2005
1	2	0	328	2009
1	1	14	326	2006
1	1	27	291	2008
1	2	12	315	2009
1	0	9	0	2006
1	1	0	326	2008
1	2	54	315	2008
2	1	1	0	2005
1	1	16	324	2006
1	1	0	313	2009
1	0	0	302	2008
2	1	38	0	2003
1	1	10	325	2008
1	1	9	291	2008
2	1	26	0	2005
1	1	68	304	2008
1	2	63	339	2008
2	1	23	0	2005
1	1	0	291	2008
1	2	68	313	2009
1	1	0	328	2009
2	2	26	309	2004
1	1	9	293	2007
2	1	0	0	2005
1	2	9	313	2008
2	1	9	0	2005
1	2	26	328	2009
2	1	76	0	2005
1	1	53	307	2006
1	1	63	327	2008
2	1	30	0	2005
1	2	1	291	2006
2	2	28	0	2005
1	2	54	315	2008
1	2	9	304	2009
1	2	0	0	2006
1	2	1	328	2009
1	0	1	0	2007
1	2	53	291	2008
1	0	12	315	2009
1	2	63	294	2006
1	1	9	324	2007
1	2	28	315	2008
1	1	68	324	2007
1	1	57	302	2009
1	2	23	313	2005
1	2	26	0	2005
1	1	26	322	2006
2	1	0	0	2005
1	1	0	315	2009
1	2	26	321	2006
1	2	0	309	2007
2	2	62	330	2005
1	1	34	337	2008
2	0	23	0	2005
1	1	74	304	2007
2	1	23	0	2005
1	2	25	0	2006
1	0	0	0	0
1	2	29	302	2009
1	1	14	323	0
1	1	68	291	2008
1	1	68	0	2007
1	2	53	0	2006
1	1	34	324	2007
1	1	68	307	2007
1	0	0	0	0
1	2	26	311	2005
1	1	46	298	2007
1	1	36	329	2008
2	1	17	0	2004
1	1	4	302	2009
1	1	0	0	2006
1	1	0	313	2009
1	2	28	304	2008
1	2	28	313	2009
1	2	53	291	2008
2	2	14	0	2005
1	2	16	326	2007
1	2	64	328	2009
1	2	9	327	2007
2	1	68	321	2005
1	2	68	305	2006
1	1	0	328	2009
1	1	26	326	2007
1	1	33	304	2007
1	0	0	0	0
2	2	0	0	2003
1	1	0	328	2009
1	1	26	294	2007
1	1	9	328	2009
1	1	27	324	0
1	1	68	328	2009
1	1	26	322	2006
1	1	9	315	2009
1	2	0	302	2009
1	0	0	0	2007
1	0	0	0	0
1	2	29	304	2008
1	1	69	325	2008
1	1	34	0	2007
1	1	74	292	2007
1	2	0	296	2009
2	1	46	0	2005
1	1	0	302	2009
1	2	63	0	2005
1	1	0	315	2009
2	1	27	0	2004
1	2	23	301	2006
1	2	57	0	2007
1	1	0	304	2009
1	1	10	328	2009
2	1	1	0	2005
1	1	14	0	2005
1	2	57	304	2009
1	2	54	0	2007
1	1	0	291	2008
2	1	53	0	2004
1	2	0	0	2007
1	1	9	313	2009
1	1	9	0	2007
1	1	34	327	2007
1	1	30	315	2008
1	1	0	324	2007
1	1	9	323	2008
1	1	1	298	2007
1	2	20	302	2009
1	1	0	302	2009
2	2	26	0	2005
1	2	57	0	2007
1	1	14	324	2007
1	1	5	296	2009
2	2	63	0	2005
2	2	57	0	2005
1	2	28	313	2009
1	1	54	0	2007
1	1	68	293	2006
1	1	53	326	2006
1	2	63	320	2006
1	2	26	299	2007
1	2	20	328	2009
2	2	53	305	2004
1	1	9	315	2008
1	1	0	313	2009
1	1	9	315	0
1	1	63	315	2009
2	0	0	0	2005
1	1	7	326	2008
1	1	68	324	2007
1	2	28	302	2008
1	1	20	337	2007
2	1	46	0	2004
1	1	29	323	2009
1	1	7	315	2008
2	1	34	0	2005
1	1	20	0	2007
2	0	0	0	0
1	2	30	304	2009
1	1	9	313	2009
1	1	0	328	2009
1	2	0	328	2009
2	0	68	307	2003
1	1	29	302	2009
1	1	1	302	2008
1	2	18	313	2009
1	1	82	0	2008
1	2	54	332	2008
1	2	34	317	2008
1	2	4	0	2007
1	2	57	314	2006
1	1	63	299	2007
1	2	45	0	2007
1	2	0	304	2009
1	0	0	0	0
1	1	64	323	2009
1	2	45	309	2007
2	1	26	293	2005
1	2	0	302	2009
1	1	68	313	2007
1	0	0	0	2007
1	2	21	304	2008
1	2	27	329	2008
1	2	68	304	2007
1	1	9	324	2007
1	2	9	335	2006
1	1	62	327	2007
1	1	27	328	2007
1	2	29	302	2009
1	2	45	0	2006
1	2	53	0	2007
1	2	53	328	2008
2	2	26	0	2005
1	1	63	0	2007
1	2	23	329	2008
1	2	29	313	2009
1	1	0	327	2008
2	2	53	0	2005
2	2	26	320	2005
1	0	0	0	0
2	1	68	0	2005
2	2	23	306	2004
1	1	26	326	2008
1	2	23	315	2009
1	1	0	315	2008
2	2	20	0	2005
2	2	53	0	2005
1	2	12	309	2005
1	2	28	314	2007
1	2	53	328	2009
1	2	16	315	2008
1	2	20	291	2008
1	2	46	315	2008
1	1	46	304	2009
2	1	0	315	2005
1	2	54	323	2008
1	1	14	313	2009
1	1	76	304	2008
1	1	0	291	2008
1	1	0	328	2008
1	1	0	0	0
1	1	9	329	2007
1	1	0	313	2009
1	1	0	0	2007
1	2	26	321	2006
1	2	61	302	2008
2	2	46	336	2005
1	2	0	315	2009
1	2	46	291	2008
1	1	53	293	2006
1	1	0	323	2009
1	1	9	315	2008
1	1	9	328	2009
1	2	30	310	2006
1	1	0	328	2009
2	0	22	298	2005
1	2	26	291	2007
1	1	54	327	2008
1	1	30	304	2007
1	2	0	302	2009
1	2	26	0	2006
1	1	9	302	2009
1	2	9	0	2008
1	2	20	322	2006
1	1	12	291	2008
1	2	0	315	2009
1	1	68	315	2009
1	1	17	325	2007
1	1	12	323	0
1	2	1	0	2005
1	0	53	0	2006
1	1	1	291	2008
2	1	26	0	2005
1	1	68	0	0
1	1	68	324	2007
1	1	53	0	2006
2	1	16	0	2004
1	1	53	313	2009
1	1	57	0	2007
1	2	1	313	2009
2	2	29	306	2005
2	1	46	328	2005
1	2	17	328	2007
1	2	28	317	2006
1	2	53	318	2007
2	1	53	0	2005
1	2	63	291	2008
1	2	0	315	2007
1	2	53	302	2009
2	1	26	0	2003
1	1	69	315	2009
2	1	28	0	0
1	1	68	324	2006
1	2	28	312	2007
1	1	46	324	2007
1	1	30	326	2008
1	1	14	325	2006
1	1	46	0	2007
1	1	9	315	2009
1	1	53	324	2007
1	1	12	307	2006
1	1	5	324	2007
1	1	7	304	2009
1	1	12	304	2009
1	0	63	310	0
2	2	26	0	2005
1	2	29	0	2009
1	1	0	327	2008
1	2	53	305	2006
2	1	0	0	2004
2	1	63	0	2005
2	2	12	0	2005
5	2	28	0	2004
1	2	24	310	2006
1	2	9	335	2008
1	2	20	319	2006
1	1	0	315	2008
1	2	9	315	2008
2	1	68	0	2005
1	1	63	0	2007
1	1	53	0	2008
1	1	34	324	2006
1	2	57	328	2008
1	2	62	317	2008
1	2	63	320	2006
1	1	54	315	2009
2	1	0	0	2005
1	2	53	291	2008
1	0	30	325	2007
1	1	9	322	2006
1	1	0	302	2009
1	2	0	299	0
1	2	53	291	2008
1	1	0	337	2008
1	2	66	305	2007
2	2	68	0	2004
1	1	9	318	2006
1	1	4	337	2008
2	0	0	0	0
1	2	20	326	2007
1	1	0	315	2009
1	2	34	315	0
1	1	45	0	2006
1	1	29	323	2009
1	1	59	304	2008
1	1	26	0	2006
1	1	46	304	2009
2	1	27	0	2005
1	1	0	323	2009
1	1	77	0	2006
1	2	16	0	2006
1	1	27	329	2008
1	1	0	328	2009
1	1	28	298	2007
1	2	53	328	2009
1	2	29	306	2007
1	2	28	0	2007
1	1	0	0	2006
2	2	23	0	2005
1	2	16	304	2008
1	0	61	0	0
1	2	54	294	2005
2	0	56	0	2005
1	1	68	315	2007
1	2	27	310	2006
1	2	1	291	2007
5	0	0	0	0
1	1	9	321	2007
1	1	16	324	2006
2	2	45	0	2005
3	0	0	0	0
1	2	40	340	2007
1	1	34	313	2009
1	1	0	0	0
2	0	0	0	2005
1	1	1	328	2009
2	2	4	0	2005
1	1	0	328	2009
1	2	26	321	2006
1	1	46	324	2007
2	1	53	0	2004
1	2	28	325	2007
1	1	26	321	2006
1	2	53	315	2008
1	1	82	325	2006
1	1	57	323	2009
2	1	68	0	2005
1	2	57	340	2007
1	1	0	328	2009
1	1	33	300	2007
2	2	26	0	2005
1	1	54	304	2007
1	1	9	313	2007
1	1	27	291	2007
1	1	0	304	2009
1	1	63	315	2008
1	2	18	328	2006
2	2	23	295	2005
1	2	53	313	2009
2	2	57	319	2005
1	1	27	326	2006
1	1	28	324	2007
1	1	63	315	2008
1	2	26	309	2006
2	2	16	0	2005
1	2	14	321	2008
1	0	0	0	0
1	2	29	313	2009
1	1	27	317	2008
1	2	61	0	2006
1	1	12	328	2009
1	2	0	296	2008
1	1	53	326	2007
1	0	27	291	2007
1	1	53	313	2008
1	2	23	328	2009
1	2	26	336	2008
1	2	26	313	2009
2	1	53	328	2005
2	2	53	291	2005
1	1	34	313	2008
1	1	63	325	2008
1	1	0	323	2009
2	1	16	0	2004
1	2	53	327	2007
2	1	9	0	2004
1	2	23	291	2007
1	2	45	0	2006
2	2	0	0	2005
4	2	60	0	1908
1	2	0	0	2006
1	1	10	313	2006
1	2	53	306	2007
2	1	9	0	2005
1	1	0	315	2009
1	2	0	301	2007
1	2	29	328	0
1	1	1	307	2006
1	1	82	324	2007
1	1	46	304	2009
1	1	9	0	2005
1	2	63	0	2005
1	2	12	313	2009
1	0	0	0	0
2	2	1	0	2005
1	2	16	0	2006
1	1	5	326	2007
1	1	4	304	2007
1	2	23	326	2007
1	2	16	326	2006
2	2	16	301	2005
1	1	27	291	2008
1	1	12	300	2006
1	2	9	327	2008
2	1	54	0	2004
2	2	23	0	2005
1	2	0	0	2008
1	1	14	304	2007
1	1	0	313	2009
2	1	74	0	2005
2	1	30	0	2004
1	1	20	300	2006
1	2	9	0	2006
1	1	30	304	2007
1	1	14	335	2007
1	0	0	0	0
1	2	68	323	2009
1	2	26	0	2008
1	1	7	324	0
1	1	53	337	2008
1	1	12	313	2009
1	1	29	302	2009
1	1	0	323	2009
1	1	14	302	2009
1	1	0	0	2008
1	1	30	327	2007
1	2	0	291	2008
1	2	1	313	2008
1	1	4	327	2007
1	2	63	291	2008
2	2	26	0	2005
1	1	0	304	2009
1	1	68	304	2008
1	1	0	317	2008
1	2	29	323	2008
1	2	53	291	2006
1	2	53	326	2007
1	2	16	323	2008
1	1	27	325	2008
1	2	26	313	2006
2	1	72	294	2005
1	2	23	294	2005
1	1	78	294	2007
1	1	68	326	2007
1	1	53	324	2007
2	2	17	0	2005
1	0	30	325	2008
1	1	27	331	2007
1	2	62	304	2009
2	2	28	0	2001
1	1	12	304	2009
1	1	53	321	2006
2	1	16	0	2005
1	2	34	330	2007
1	1	34	323	2009
1	1	53	325	2007
2	1	6	0	2004
1	1	7	329	2008
2	1	63	292	2005
2	1	26	0	2005
2	1	63	0	2005
1	1	1	0	2006
1	2	9	328	2009
1	2	63	0	2006
2	2	23	0	2003
1	1	63	0	2006
5	2	28	0	0
1	2	29	313	2009
2	2	53	0	2005
1	2	53	328	2009
1	1	45	307	2007
1	1	0	328	2009
1	2	0	291	2008
2	0	46	0	2005
1	2	14	327	2006
2	2	54	305	2005
1	1	20	326	2008
1	2	62	291	2008
2	2	62	0	2005
1	2	75	325	2007
1	0	66	0	2006
1	0	0	0	0
2	1	9	0	2005
1	1	1	322	2006
1	1	75	300	2007
1	2	10	313	2009
1	2	62	311	2006
2	1	30	0	2005
1	1	63	323	2008
1	0	30	294	2007
1	1	10	0	2007
1	2	23	328	2009
1	2	0	315	2009
1	1	68	315	2009
2	1	12	307	2004
2	1	36	0	2005
1	1	9	313	2008
2	1	68	326	2005
1	1	12	328	2009
2	2	23	0	2005
1	2	16	318	2006
1	1	0	291	2008
1	1	71	304	2008
1	2	45	321	2006
1	2	12	328	2009
1	2	26	328	2009
1	2	26	0	2005
5	2	28	0	0
2	1	30	0	2005
1	1	30	315	2009
1	1	0	291	2008
1	2	0	291	2008
2	2	26	0	2005
1	2	33	328	2009
1	1	53	324	2006
2	2	57	0	2005
1	1	0	328	2009
1	1	9	304	2009
1	1	0	0	2006
1	2	53	0	2007
1	1	9	322	2006
1	1	0	326	2008
1	2	53	328	2009
1	1	22	304	2008
1	2	26	299	2007
2	2	26	312	2004
1	2	12	294	2007
3	2	14	301	2007
1	1	63	329	2008
1	2	53	328	2009
1	1	0	328	2009
2	1	54	0	2001
1	1	1	291	2008
1	1	68	0	2006
1	1	30	321	2007
1	2	17	315	2009
1	1	0	326	2008
1	2	26	312	2007
1	2	27	318	2006
2	1	46	0	2005
1	1	0	326	2008
1	1	0	302	2009
2	2	23	314	2005
1	1	0	291	2008
1	1	53	0	2005
1	1	4	315	2009
1	1	17	304	2009
1	1	9	313	2009
1	1	9	324	2007
1	1	27	304	2006
1	1	34	323	2009
1	1	53	0	2007
1	1	45	294	2006
2	1	27	298	2005
2	2	23	306	2000
1	2	12	0	2007
2	0	0	0	0
1	0	19	302	2008
1	1	4	327	2007
2	1	0	0	2004
1	1	46	326	2008
2	2	46	0	2005
1	1	0	313	2009
1	2	0	304	2009
1	1	63	315	2007
1	2	0	315	2008
4	2	62	0	0
1	1	29	315	2009
1	1	14	339	2007
1	1	53	0	2006
2	2	66	0	2005
1	1	64	302	2009
1	1	10	304	2008
1	2	0	0	2007
1	1	75	329	2008
1	2	53	309	2006
1	1	27	0	2007
1	0	0	0	0
2	1	68	0	2005
1	1	53	315	2008
1	1	26	0	2006
1	2	28	291	2008
1	2	75	326	2008
2	1	25	0	0
1	1	9	0	2007
5	1	30	298	2004
1	1	68	336	2008
1	1	63	326	2007
1	2	9	340	2007
1	1	9	290	2007
1	2	63	0	2008
2	2	57	306	2004
1	2	57	291	2006
1	1	16	291	2007
2	1	53	0	2005
1	2	29	328	2008
1	1	53	0	2006
1	2	28	0	2006
1	2	30	0	2006
1	1	21	304	2008
1	2	0	328	2009
1	1	0	0	2006
1	2	53	335	2008
2	1	14	298	2005
2	1	7	0	2005
1	2	33	328	2009
1	2	53	315	2008
1	1	75	313	2008
2	1	46	0	2005
1	1	28	291	2008
1	1	53	315	2009
1	1	53	324	2007
2	0	0	0	0
1	2	0	311	2007
1	2	57	306	2006
1	1	0	315	2008
1	2	29	323	2009
1	1	0	304	2009
1	1	9	324	2007
1	1	68	293	2006
1	2	53	295	2007
1	1	0	313	0
1	1	12	296	0
2	1	68	293	2004
1	2	20	330	2008
2	2	26	312	2005
1	1	9	315	2008
1	2	9	328	2009
1	2	0	328	0
1	2	5	0	2007
1	2	53	309	2006
2	2	0	0	2007
1	1	27	328	2009
1	1	57	337	2008
2	1	74	292	2005
1	2	0	328	2009
1	1	0	328	2008
1	0	0	0	2008
1	1	59	304	2008
1	2	20	291	2007
1	2	29	304	2009
2	1	16	0	2005
1	2	63	322	2007
1	1	74	291	2008
1	2	74	291	2007
1	1	9	313	2009
1	2	29	315	2009
1	2	6	315	2008
1	2	53	315	2009
1	1	0	291	2008
1	2	5	324	2007
1	2	14	315	2009
1	2	53	332	2008
1	1	33	328	2009
1	1	10	325	2008
1	1	0	313	2009
1	0	53	0	2006
1	1	17	325	0
1	1	74	291	2008
1	1	0	304	2008
1	2	23	321	2006
1	2	23	328	2007
1	0	0	0	2008
1	2	0	0	2007
1	2	53	0	2006
1	1	53	326	2008
1	2	26	309	2006
1	2	45	312	2006
2	1	4	0	2005
1	1	14	304	2009
2	1	9	0	2005
1	2	57	327	2008
1	1	28	328	2006
1	2	53	328	2009
1	1	0	315	2009
1	2	13	318	2008
1	1	0	313	2009
5	2	30	0	2006
1	1	10	325	2008
1	1	16	304	2009
1	1	20	313	2009
1	1	0	313	2009
1	1	0	328	2009
1	2	12	291	2008
1	2	12	315	2008
1	1	59	313	2009
1	1	27	0	2007
1	2	0	315	2006
1	2	28	326	2006
1	1	68	304	2009
1	2	29	296	2008
1	1	0	315	2009
2	1	27	0	2005
2	2	20	0	2005
1	1	54	325	2006
1	1	0	328	2009
1	2	20	291	2007
1	2	57	305	2006
1	2	63	315	2009
1	1	63	315	2004
1	2	35	0	2007
1	0	0	0	0
1	1	4	313	2008
2	2	12	0	2005
1	1	0	328	2009
1	0	0	0	0
1	1	1	304	2007
1	0	45	340	2006
2	1	74	0	2005
1	0	20	312	0
2	1	68	0	2005
1	2	17	0	2006
2	1	26	0	2005
1	2	26	305	2005
1	1	0	315	2009
2	1	0	0	2003
1	1	68	0	2007
1	1	53	0	2006
2	2	63	0	2005
1	1	9	324	2006
1	1	9	315	2009
1	1	27	0	0
1	2	26	312	2006
1	2	0	328	2008
1	2	23	339	2008
1	2	28	313	2009
1	2	68	320	2006
1	1	68	315	2008
1	2	9	291	2008
1	2	53	0	0
1	1	68	0	2006
1	1	68	313	2008
1	2	12	299	2006
2	2	26	0	2005
1	1	9	327	2008
1	1	74	313	2009
1	2	63	313	2009
1	2	17	0	2007
1	2	29	313	2009
1	2	0	313	2009
1	2	1	326	2006
1	1	27	325	2008
1	1	1	307	2006
1	2	12	328	2009
1	1	9	0	2006
2	0	0	0	0
1	1	27	0	2007
1	1	27	0	2007
1	2	68	315	2008
1	1	26	304	2009
1	1	68	0	2006
1	1	34	337	2008
2	1	16	0	2004
1	1	17	0	2009
1	0	0	0	2007
1	2	68	291	2008
1	2	29	304	2009
1	1	9	323	2009
1	0	33	328	2007
1	2	26	0	2006
1	0	0	0	0
1	1	61	0	2006
1	2	53	328	2008
1	1	46	328	2008
1	2	68	328	2009
1	1	9	323	2009
1	1	53	315	2008
1	1	46	313	2009
1	2	20	313	2008
1	1	4	323	2006
1	2	12	313	2009
1	1	77	304	2009
2	1	68	0	2005
1	2	9	315	2009
1	2	20	315	2006
1	1	53	328	2009
1	0	68	291	2007
1	2	29	313	2009
1	0	53	0	2006
1	2	0	291	2008
1	1	27	293	0
2	2	28	0	2005
1	2	30	314	2006
2	2	68	0	2005
1	1	26	0	0
1	1	0	315	2009
1	2	0	296	2008
2	2	1	0	2005
2	2	23	0	2005
1	2	20	291	2008
2	1	20	293	2004
1	2	38	326	2007
1	2	20	313	2007
1	2	26	313	2005
1	1	53	0	2007
2	2	26	311	2002
1	1	53	328	2009
1	2	29	313	2009
1	1	64	318	2006
2	1	30	307	2005
1	1	26	327	2006
2	2	12	0	2005
1	0	0	0	0
1	2	57	321	2006
1	1	28	0	2008
2	2	17	0	2005
1	1	16	315	2008
1	0	0	0	0
1	2	0	304	2009
1	1	1	315	2007
1	2	57	0	2008
1	2	23	302	2007
1	1	53	328	2009
1	2	0	315	2008
1	1	63	0	2006
1	2	0	304	2008
2	2	26	0	2004
1	2	54	312	2006
1	1	0	0	0
1	1	53	291	2008
2	2	26	0	2005
1	2	26	326	2008
1	1	14	315	0
1	1	83	313	2009
2	1	74	0	2005
1	2	63	0	2006
1	1	20	324	2007
1	1	30	0	0
2	2	0	0	2005
5	2	20	0	2006
1	2	53	0	2007
1	2	28	314	2006
2	1	26	0	2005
1	0	1	325	2008
2	1	26	0	2005
2	2	53	0	2004
1	1	0	315	2009
1	1	68	315	2007
1	0	0	0	0
2	1	26	0	2005
1	1	53	324	2006
1	2	63	291	2007
2	1	0	0	2007
1	2	14	339	2008
1	2	28	329	2008
1	0	0	0	0
2	1	59	0	2005
2	1	68	0	2005
1	1	1	0	2006
1	1	0	0	2006
2	1	26	0	2001
1	2	10	338	2007
1	1	30	0	2006
1	2	1	304	2008
1	2	0	0	2008
1	1	27	313	2009
1	2	53	0	2008
1	1	68	319	2005
1	0	0	0	0
2	2	68	311	2004
2	1	20	0	2004
1	0	46	291	2007
1	0	27	326	2008
1	1	0	315	2009
1	1	16	291	2008
1	2	53	0	2006
1	2	53	304	2009
1	2	53	305	2005
1	1	0	339	2008
1	1	0	291	2008
1	2	0	328	2008
1	2	63	291	2008
1	2	63	313	2009
1	1	26	0	2006
2	1	26	290	2004
1	2	12	328	2009
1	2	23	326	2007
1	2	9	328	2009
1	0	33	318	2006
2	2	1	301	2004
1	2	54	314	2007
1	1	9	326	2007
1	2	23	327	2006
1	2	62	328	2009
1	2	0	315	2008
1	2	61	319	2006
1	1	57	0	0
1	1	74	326	2008
1	2	26	311	2006
1	2	53	309	2006
1	1	27	325	2008
1	1	54	317	2008
1	1	0	291	2008
1	2	16	328	2009
1	1	29	323	2009
1	2	0	291	2008
1	1	9	325	2008
2	2	54	0	2005
1	1	4	304	2007
1	1	0	328	2009
2	1	14	0	2005
1	1	32	0	2006
1	0	0	0	0
1	2	57	313	2007
2	1	68	0	2004
2	1	9	298	2005
1	1	68	328	2007
1	2	26	302	2009
1	2	57	327	2007
1	2	53	0	2007
1	2	29	291	2007
1	1	1	0	2006
1	2	38	328	2006
1	1	16	334	2007
1	1	27	304	2008
1	1	9	324	2007
1	1	82	321	2007
1	2	0	302	2009
2	1	54	0	2005
2	1	74	292	2004
1	1	9	0	2007
1	2	26	315	2009
1	2	44	0	0
2	1	46	322	2005
1	1	36	294	2008
1	1	9	313	2009
1	1	53	325	2007
1	1	63	291	2008
1	0	20	0	0
1	2	54	304	2008
2	2	53	0	0
1	1	34	313	2009
2	1	68	0	2005
1	2	20	291	2008
1	2	53	315	2006
2	0	16	0	2005
1	1	0	315	2009
2	2	9	0	2005
1	1	53	328	2006
2	1	1	0	2005
1	2	0	0	0
1	1	68	304	2007
1	1	76	328	2007
1	2	53	306	2006
1	1	9	315	2007
1	1	0	291	2008
1	0	0	0	0
1	1	68	328	2009
1	1	68	313	2009
1	1	26	313	2009
1	2	12	304	2008
2	1	4	293	2004
1	1	14	313	2008
2	0	20	306	2005
1	2	68	313	2009
2	2	53	0	2005
1	1	9	296	2008
1	1	9	315	2009
2	1	53	0	2004
1	2	46	336	2007
1	1	0	315	2008
1	1	53	329	2007
1	2	63	315	2009
1	1	5	339	2007
1	1	63	325	2007
1	2	45	328	2008
1	2	54	0	2006
1	1	26	328	2007
1	1	53	0	2006
1	1	0	313	2009
1	2	0	0	2008
5	1	30	0	2004
2	1	66	0	2004
1	2	12	291	2008
1	2	34	304	2007
2	2	6	0	2005
1	0	0	0	0
1	2	26	291	2008
1	1	40	296	2006
1	1	0	329	2004
1	2	26	339	2008
1	2	53	291	2008
1	2	12	313	2009
1	0	0	0	0
1	2	17	0	2006
2	0	0	0	0
2	1	5	0	2005
1	1	0	315	2009
2	2	23	0	2005
1	1	4	291	2008
1	2	1	301	2007
1	2	68	0	2005
1	1	9	325	2007
1	1	0	304	2008
1	1	30	296	0
1	2	26	328	2008
2	2	23	0	2004
1	2	26	302	2009
2	1	63	0	2004
1	2	26	0	2007
1	2	63	306	2007
1	2	68	315	2009
1	1	45	326	2008
1	0	46	0	2006
5	2	28	0	2005
2	1	57	0	2004
1	1	68	0	2006
1	1	0	315	2008
2	1	6	0	2005
1	1	74	317	2008
1	1	9	0	2006
1	0	0	0	0
1	1	16	330	2008
1	2	68	313	2009
1	0	0	0	0
1	2	26	313	2008
2	0	0	0	0
1	1	4	304	2009
1	2	28	310	2007
1	1	0	304	2009
2	1	13	307	2005
1	1	9	291	2008
1	1	7	326	2008
1	0	26	313	2007
1	1	0	328	2009
2	2	1	0	2005
2	2	12	0	2005
1	1	12	328	2009
1	2	45	309	2006
2	1	54	0	2004
1	1	68	295	2007
1	1	1	0	2006
1	1	63	329	2008
2	2	21	0	2005
2	1	5	0	2005
1	2	12	291	2004
1	1	9	315	2008
2	1	61	0	2005
1	2	20	317	2008
1	1	46	323	2009
2	2	1	0	2005
1	2	28	304	2008
1	1	0	304	2009
1	1	9	324	2007
1	2	45	309	2007
1	2	28	325	2008
1	2	9	309	2006
1	2	34	0	2007
1	1	53	0	2006
1	2	28	328	2005
1	2	24	326	2008
1	1	0	328	2009
1	0	24	310	2006
1	1	1	324	2006
1	1	68	328	2009
1	2	0	291	2008
1	2	10	340	2007
1	2	26	301	2007
1	2	26	326	2007
2	1	17	0	2005
1	2	9	0	2006
2	2	1	0	2005
1	2	0	304	2007
1	1	0	328	2009
2	1	46	0	2005
1	1	0	302	2009
2	1	26	0	2005
1	2	26	309	2007
1	1	12	302	2009
1	1	0	291	2008
1	2	9	313	2009
1	2	53	315	2008
1	1	54	323	2008
1	1	53	315	2006
1	1	68	296	2007
1	1	0	330	2007
1	1	9	302	2009
1	1	0	0	2007
2	2	53	314	2005
1	1	4	313	2008
1	2	28	327	2007
1	2	53	302	2009
1	2	9	312	2006
1	2	29	313	2008
1	2	46	332	2007
1	1	0	328	2009
1	1	63	0	2006
1	1	1	324	2007
1	2	26	339	2004
2	1	30	0	2005
1	1	53	304	2008
1	1	12	313	2009
1	1	30	326	2006
1	2	26	315	2009
2	1	16	0	2005
1	1	68	291	2008
1	1	68	0	2008
1	2	0	0	2006
1	1	1	329	2008
1	1	57	0	2006
1	1	5	298	2006
1	0	0	0	0
2	1	27	0	2004
1	2	54	310	2007
1	2	2	300	0
1	2	53	311	2006
1	2	26	302	2009
1	1	0	0	2008
1	2	57	0	2008
1	1	0	315	2009
1	2	61	0	2006
1	1	74	0	2005
1	1	33	291	2007
1	1	53	317	2008
2	2	26	0	2005
1	2	23	328	2008
1	2	20	328	2008
1	2	29	302	2005
1	2	67	339	2006
4	0	0	323	0
1	0	27	325	2008
1	1	53	324	2007
1	1	33	328	2007
1	2	46	326	2008
1	1	0	315	2009
1	2	62	304	2009
2	2	45	0	2004
1	1	68	322	2005
1	1	27	326	2008
1	1	33	313	2007
1	0	0	313	0
1	0	0	315	2007
1	1	68	291	2007
1	1	53	328	2006
1	2	12	294	2005
1	0	0	0	0
1	2	29	315	2009
1	2	17	291	2007
1	2	28	326	2008
1	0	46	309	2006
3	2	10	304	0
1	1	68	328	2009
1	1	9	304	2007
1	0	0	0	0
2	2	23	0	2005
1	2	26	313	2009
1	0	30	0	2006
2	2	23	0	2004
1	1	10	298	2007
1	1	9	300	2006
1	1	0	304	2009
2	2	26	0	2005
1	0	0	291	2008
1	2	26	313	2008
1	1	0	302	2009
1	1	0	304	2009
1	1	0	304	2009
1	1	14	315	2008
1	2	71	313	2007
1	1	21	298	0
2	1	68	300	2004
1	1	26	325	2007
1	2	20	326	2007
1	0	0	0	0
1	2	28	327	2006
1	1	0	328	2009
1	2	54	313	2009
1	2	53	313	2009
1	1	68	324	2008
1	1	45	291	2008
4	0	0	0	0
1	1	74	325	2008
1	2	25	336	2008
2	1	61	0	2005
1	1	30	294	2006
1	2	29	328	2009
1	0	0	0	0
1	1	21	304	2009
1	2	63	0	2007
1	1	7	328	2007
1	2	37	304	2009
1	2	63	340	2007
1	1	5	315	0
1	2	53	297	2006
2	1	1	0	2005
1	0	0	0	2005
1	2	22	328	2008
2	2	23	339	2004
1	2	57	312	2006
1	2	54	315	2007
1	2	1	313	2009
1	2	30	0	2006
2	2	28	0	0
1	1	0	324	2007
1	1	63	0	0
1	2	29	320	2006
5	2	9	0	2006
1	1	26	0	2006
1	2	30	327	2007
1	2	46	304	2009
1	1	68	0	2006
1	2	46	304	2009
1	1	74	325	2007
1	0	0	0	0
1	2	20	326	2007
1	1	0	315	2008
1	1	54	323	2009
2	2	0	0	2005
2	1	30	0	2003
1	2	12	315	2008
1	1	30	0	2007
1	2	9	305	2006
1	2	12	313	2008
1	2	53	315	0
1	1	26	315	2007
1	1	12	291	2007
1	2	53	312	2007
1	1	12	0	2006
1	2	12	328	2009
1	1	68	326	2007
1	1	9	327	2006
1	0	0	0	0
1	1	68	0	2007
1	2	12	0	2006
1	2	0	301	0
2	1	74	0	2005
1	1	9	315	2009
2	1	9	0	2004
1	1	0	330	2008
1	1	27	304	2009
1	1	53	0	2007
1	2	0	309	0
1	0	0	0	0
1	1	0	291	2008
1	1	53	330	2008
1	1	7	315	2008
1	1	7	291	2007
1	2	0	0	2004
1	1	75	0	2006
2	1	68	313	2003
1	2	68	304	2008
1	2	20	304	2007
1	2	0	313	0
1	2	1	315	2008
1	1	62	313	2008
2	2	23	0	2005
1	2	12	291	2008
2	0	59	0	2004
1	2	29	327	2006
1	0	28	0	2007
2	1	27	0	2005
1	2	23	327	2006
1	2	1	315	2009
1	2	53	315	2008
1	2	57	328	2009
1	1	48	313	2007
1	2	66	0	2006
1	2	10	304	2009
1	1	38	325	2006
1	2	53	328	2009
1	2	53	304	2009
2	2	11	0	2005
1	1	0	313	2009
1	1	9	315	2008
1	1	46	313	2009
1	1	0	304	2009
2	1	12	0	2005
1	2	20	331	2007
1	2	28	315	2009
2	2	20	0	2005
1	2	23	313	2008
1	1	17	328	2009
1	2	57	326	2007
1	2	12	313	2009
1	2	62	320	2006
1	2	61	297	2006
1	1	17	304	2007
1	1	22	304	2009
1	1	9	315	2009
1	2	54	0	2005
1	2	9	299	2007
2	1	9	0	2005
1	1	14	327	2006
1	1	0	291	2008
1	2	0	0	2009
1	2	78	328	2006
1	2	23	314	2006
2	1	9	0	2005
1	2	1	326	2007
1	1	59	315	2006
1	1	33	325	2007
2	0	16	0	2004
1	2	23	313	2009
1	1	63	328	2009
1	1	0	291	2008
1	1	0	328	2009
1	2	26	291	2008
1	2	68	328	2006
1	2	14	325	2006
1	2	9	328	2009
1	2	0	291	2008
1	1	21	302	2009
1	1	9	0	2005
2	2	23	0	2005
2	2	14	0	2005
1	1	0	328	0
1	1	74	324	2007
1	1	9	323	2009
1	1	0	302	2009
1	2	34	337	2006
1	2	84	0	2006
1	2	26	312	2006
1	2	1	311	2006
1	2	10	315	2008
1	2	17	328	2009
1	2	1	304	2007
2	1	30	0	2005
1	1	59	304	2009
1	1	33	0	2006
2	1	26	0	2003
1	2	0	328	2009
1	2	20	312	2006
1	1	0	328	2009
1	2	17	328	2009
2	1	27	0	2005
1	2	0	328	2009
2	1	26	0	2005
1	0	0	0	0
1	2	12	309	2005
1	2	68	313	2008
2	2	46	0	2005
1	1	0	313	2009
1	2	16	328	2008
2	1	46	0	2005
1	2	28	313	2009
1	1	33	304	2009
1	1	22	304	2007
2	1	38	0	2005
1	2	46	291	2008
1	1	36	298	2004
1	1	68	0	2007
1	2	28	304	2008
2	1	7	0	2004
2	1	14	0	2005
3	1	10	0	0
1	1	45	304	2007
1	1	68	0	2006
2	1	7	0	2005
2	1	74	0	2005
1	2	57	313	2009
1	2	61	322	2006
2	1	53	0	2005
1	1	14	304	2009
2	2	53	0	2005
1	1	7	0	2008
1	2	0	313	2009
1	1	53	298	2007
2	1	54	318	2005
2	1	16	0	2004
1	1	9	313	2008
1	2	54	321	2006
2	1	53	300	2005
1	2	68	0	2007
1	2	26	315	2006
1	1	68	325	2008
2	2	62	0	2005
1	1	46	328	2009
1	1	57	315	2006
1	2	23	0	2006
1	2	9	0	2006
1	2	57	306	2007
1	1	68	323	2009
1	2	53	291	2008
1	2	12	0	2008
1	2	1	312	2007
1	1	20	313	2008
1	1	9	293	2006
1	1	10	328	2009
1	1	27	321	2006
1	1	0	328	2009
2	1	0	300	2004
1	2	26	0	2005
2	1	53	0	2005
1	2	81	304	2009
1	1	6	0	2006
1	1	9	300	2007
1	2	20	0	2008
2	2	0	0	0
1	2	57	313	2009
1	1	10	323	2008
1	2	0	304	2008
1	1	23	326	0
2	2	23	312	2003
2	2	26	306	2005
2	1	0	0	2005
1	2	46	315	2009
1	1	30	330	2007
2	1	23	326	2005
1	1	5	326	2008
1	1	14	326	2008
1	2	14	313	2009
1	0	0	0	0
1	2	0	315	2008
2	1	68	300	2004
1	2	1	313	2009
2	1	14	0	2005
1	2	57	325	2007
1	1	26	313	2008
1	2	28	314	2007
2	1	0	0	2004
2	1	0	300	2004
1	2	1	306	2005
2	0	60	0	2004
1	2	9	296	2009
1	1	59	313	2009
1	2	0	313	2009
2	2	12	0	2004
1	1	0	304	2009
1	1	45	291	2008
1	2	16	302	2009
2	1	9	0	2005
2	1	9	324	2005
1	2	76	0	2007
1	2	0	302	2009
2	0	53	0	2005
1	1	7	0	2006
2	2	12	0	2005
1	1	63	294	2007
2	1	30	0	2005
1	2	81	291	2008
2	2	26	0	2005
1	2	67	327	2007
1	1	5	337	2007
1	2	63	0	2008
1	2	0	328	2009
1	1	20	324	2007
2	1	46	0	2005
1	2	26	339	2008
2	1	12	290	2005
1	2	26	309	2006
1	1	82	315	2009
1	2	57	340	2007
1	1	9	324	2006
2	2	68	0	2003
1	1	59	304	2009
1	1	9	328	2009
1	1	9	313	2009
1	0	17	314	2006
2	2	16	0	2005
1	1	16	0	2006
1	1	46	328	2009
2	2	0	0	0
1	2	54	325	2006
2	1	33	0	2005
1	2	53	304	2007
1	2	26	314	2005
1	0	0	0	0
1	0	68	0	2006
2	2	16	312	2005
1	1	84	304	2009
1	1	0	328	2009
1	2	28	314	2007
1	2	0	328	2009
1	1	20	0	2006
2	2	23	0	2005
2	2	1	0	2005
1	1	74	336	2005
1	1	9	302	2009
1	1	9	315	2008
2	1	9	298	2004
1	2	68	311	2007
1	2	26	301	2006
1	1	46	0	2007
1	1	32	291	2008
2	2	53	0	2005
1	1	74	315	2008
1	1	63	291	2008
1	1	0	291	2008
1	2	0	328	2008
1	1	5	322	2006
2	1	63	0	2005
1	1	26	0	2007
1	1	17	313	2009
1	1	0	0	2007
1	1	57	323	2008
2	1	17	0	2005
1	1	75	0	2007
1	2	0	315	0
1	1	53	0	2007
1	2	20	313	2009
1	2	53	328	2009
1	1	9	315	2009
1	2	24	0	2005
1	0	23	328	2007
1	2	57	315	2008
1	0	16	327	2006
1	2	45	325	2006
1	2	53	291	2007
1	2	26	291	2007
1	1	46	313	2009
1	2	1	313	2009
1	1	0	315	2008
2	2	57	327	2005
2	0	0	0	2001
1	1	31	313	2009
1	1	53	294	2007
1	1	53	313	2009
1	2	28	0	2006
2	1	16	0	2005
1	2	57	328	2009
1	2	12	302	2009
1	1	75	326	2006
1	0	0	0	2006
1	0	0	0	0
1	1	4	323	2008
1	1	30	315	2006
1	1	14	291	2008
1	2	0	0	2008
1	2	0	323	2008
1	1	7	324	2007
1	2	57	302	2009
1	1	28	328	2006
1	0	0	327	0
2	0	53	0	2005
1	1	74	0	2006
1	1	22	326	2007
1	1	7	326	2008
1	2	34	325	2008
1	2	26	296	2009
1	2	81	296	2008
2	0	0	0	2004
1	2	14	323	2008
1	1	76	336	2008
1	1	68	313	2009
1	2	26	0	2006
2	1	30	0	2005
1	1	40	337	2008
1	2	0	328	2009
1	1	17	325	2007
2	1	37	0	2005
1	0	0	0	0
2	1	1	0	2004
1	1	1	0	2006
1	2	12	315	2008
1	2	20	315	2009
1	1	4	313	2009
1	1	9	291	2008
1	1	30	304	2007
1	2	45	322	2006
2	1	34	0	2005
1	1	27	291	2008
1	2	63	315	2007
1	2	9	301	2007
1	1	26	324	2007
1	1	0	328	2009
1	2	57	306	2007
1	2	26	304	2009
1	2	53	291	2008
1	2	20	340	2007
2	2	53	0	2004
1	1	18	302	2009
1	2	17	328	2009
2	1	68	0	2005
2	2	5	0	2005
1	2	30	310	2006
1	0	28	326	2008
1	2	0	0	0
3	0	24	291	2008
1	2	9	0	2008
1	2	20	323	2009
1	1	0	0	2009
1	1	20	327	2008
1	2	0	328	2009
2	1	64	0	2005
1	1	10	313	2008
1	1	1	328	2009
1	1	38	327	2007
1	1	0	315	2008
1	1	0	326	2008
1	2	0	313	2009
1	1	68	317	2008
1	1	9	313	2008
1	0	62	327	2006
1	1	0	302	2009
1	2	63	332	2008
1	1	0	291	2008
1	1	0	302	2008
1	1	46	336	2005
1	2	0	302	2009
1	2	57	317	2008
1	1	27	329	2008
1	1	53	330	2007
1	1	0	0	0
2	1	9	0	2005
2	1	9	0	2005
1	2	0	328	2009
1	2	28	304	2006
1	1	68	315	2007
1	1	68	317	2008
2	2	28	0	2004
2	1	68	327	2004
1	1	21	318	2006
1	1	0	323	2009
1	2	16	304	2009
1	1	0	313	2009
1	1	23	291	2006
1	1	0	304	2008
1	1	54	304	2008
1	1	54	0	2006
1	2	68	311	2007
1	2	0	328	2008
1	0	53	0	2007
1	2	9	304	2008
1	2	56	309	2006
2	2	53	299	2004
1	1	0	0	2010
1	1	0	328	2009
1	2	16	302	2009
1	1	33	302	2008
2	2	6	0	2005
2	0	7	307	2005
1	2	53	291	2006
1	1	0	315	2009
1	1	0	328	2009
2	1	28	0	2005
2	0	7	0	2005
1	2	38	0	2006
1	1	14	325	2007
1	2	51	302	2009
1	2	28	330	2007
1	1	46	0	2006
1	2	9	304	2009
1	2	23	305	2006
1	2	74	0	2005
1	1	0	291	2008
1	2	26	328	2005
1	2	1	309	2007
1	2	57	312	2006
2	2	29	0	2005
1	1	61	328	2006
1	1	30	0	2007
1	2	45	304	2007
2	2	26	309	2005
1	1	9	315	2009
1	1	36	0	2007
1	1	12	328	2009
2	1	53	0	2005
2	2	29	0	0
1	0	0	0	0
1	2	29	312	2007
1	1	26	291	2008
1	2	12	315	2008
1	1	12	315	2009
1	0	26	0	2006
1	2	57	315	2008
1	1	9	328	2009
1	2	0	291	2008
2	0	0	0	0
1	1	0	328	2009
1	1	26	304	2007
1	1	0	328	2009
1	1	75	328	2009
1	2	45	302	2009
1	2	0	328	2008
1	2	4	326	2008
1	1	57	300	2006
1	2	28	314	2007
1	2	16	336	2008
1	2	0	0	2005
1	2	16	310	2007
1	1	12	315	2009
1	1	26	291	2008
1	1	0	315	2009
1	1	7	291	2008
1	2	0	328	2009
1	1	0	325	2008
1	1	16	328	2007
1	2	20	328	0
1	2	0	313	2009
2	2	16	0	2005
1	0	45	317	2007
1	2	12	313	2009
2	1	9	0	2005
1	2	1	315	2008
1	1	26	0	2006
1	2	57	315	2009
2	2	26	0	2005
1	1	27	0	2008
1	2	57	0	2008
1	1	9	326	2007
1	2	0	304	2008
2	0	1	0	2005
1	2	28	315	2008
1	1	33	0	2006
1	1	7	304	2006
1	2	26	315	2008
1	1	20	328	2007
1	1	68	293	2006
1	1	0	291	2008
1	1	26	315	2006
1	0	0	0	0
1	1	20	313	2007
1	2	46	326	2006
1	1	46	330	2008
1	1	30	323	2007
1	1	9	319	2007
1	2	19	315	2008
1	1	30	315	2007
1	2	1	0	2006
1	2	81	301	2007
2	2	26	299	2005
1	1	9	304	2009
2	2	20	299	2004
1	0	46	0	2007
1	2	0	328	2008
4	2	0	0	0
1	2	29	328	2009
1	1	66	304	2008
1	2	1	302	2007
2	1	4	331	2005
1	0	53	304	2009
1	1	0	326	2008
1	2	16	325	2007
1	1	54	329	2008
1	2	62	328	2006
1	2	0	304	2009
2	0	0	0	0
2	1	9	0	2005
2	2	12	312	2005
1	0	0	0	0
1	2	28	312	2007
1	1	34	313	2009
1	1	1	339	2008
1	1	14	291	2008
1	1	5	294	2006
1	2	53	296	2008
1	2	9	326	2008
1	2	57	339	2008
1	1	0	317	2008
1	2	62	302	2009
1	1	27	0	2006
1	1	0	315	2008
2	1	9	0	2005
1	1	4	313	2009
1	1	0	291	2008
2	2	16	0	2005
1	1	75	328	2007
1	2	9	328	2009
1	1	77	336	2008
1	1	0	327	2008
1	2	12	315	2008
1	1	0	313	2009
1	1	1	315	2009
2	1	46	0	2004
1	2	57	0	2006
1	1	26	291	2007
1	1	16	0	2006
1	1	10	325	2007
1	2	9	315	2009
1	1	20	0	2006
1	2	16	313	2009
1	1	9	323	2009
1	2	0	302	2009
1	1	7	314	2007
1	1	63	317	2008
1	2	53	328	2007
1	1	9	317	2007
1	1	53	328	2009
1	2	9	311	2006
1	1	9	304	2009
1	2	1	321	2006
1	2	0	0	2007
1	2	23	313	2008
1	2	20	0	2007
1	2	63	332	2007
1	2	26	322	2006
1	1	63	324	2006
2	2	53	0	2004
1	1	12	300	2007
1	2	20	312	2007
1	1	0	323	2009
1	2	26	315	2008
1	2	26	291	2008
1	1	46	326	2007
2	1	30	0	2005
2	2	26	0	2003
1	1	53	324	2006
2	1	7	0	2005
1	1	9	313	2007
1	1	68	291	2008
1	1	53	0	2006
1	1	80	324	2007
1	1	68	0	2006
1	2	30	325	2006
1	2	53	304	2008
1	1	0	324	2006
1	2	9	304	2008
1	1	23	304	2009
1	2	53	305	2005
1	2	57	323	2008
1	2	23	315	2007
1	2	53	0	2006
1	2	14	0	2008
1	1	1	315	2007
2	1	74	0	2004
1	2	79	0	2008
1	1	0	315	2008
1	1	76	292	2007
1	1	63	315	2008
1	2	7	299	2007
1	1	46	315	2009
1	1	29	302	2009
1	1	51	0	2007
1	2	23	310	2008
1	1	30	332	2007
1	2	53	326	2008
1	0	0	291	2008
1	1	46	0	2006
2	0	0	0	2005
1	2	0	302	2009
1	1	20	318	2008
1	1	0	329	2008
1	1	0	317	2008
1	1	26	0	2006
1	2	17	327	2006
1	2	10	302	2009
1	1	65	302	2008
1	2	0	315	2009
1	1	26	0	2006
2	1	68	293	2005
1	1	46	0	2006
1	2	26	0	2006
1	2	23	313	2009
1	1	63	324	2006
2	2	21	0	2005
1	1	26	326	2008
1	2	0	315	2008
1	1	0	337	2008
1	1	68	304	2009
2	2	14	0	2005
1	2	68	315	2009
2	0	0	0	0
1	1	64	0	2007
1	1	0	326	2008
1	1	53	304	2008
1	1	68	325	2007
1	2	12	315	2008
2	2	16	0	2004
1	2	0	291	2008
1	2	0	315	2009
1	1	27	0	2006
1	1	33	328	2009
1	1	30	0	2007
1	1	9	326	2007
1	1	5	313	2009
1	2	26	334	2007
1	1	18	304	2009
1	2	0	304	2009
1	2	24	301	2010
1	1	53	0	2006
1	1	62	0	2008
1	1	16	0	2007
2	1	16	319	2005
1	2	12	0	2006
1	1	12	304	2009
1	1	36	304	2007
1	2	61	0	2008
1	1	17	313	2008
1	1	68	328	2009
5	2	20	0	0
1	1	14	328	2009
1	1	45	323	2006
1	2	17	326	2008
1	2	57	291	2008
1	2	45	314	2006
1	2	57	302	2009
1	2	53	325	2007
1	1	30	318	2008
1	2	17	330	2008
2	1	9	0	2005
1	2	17	291	2007
1	1	10	325	2007
1	0	0	0	0
1	0	0	0	0
1	1	0	291	2008
1	2	29	313	2009
1	0	0	0	0
1	2	53	326	2007
1	1	10	325	2007
1	1	68	324	2007
5	2	57	0	2004
1	1	34	326	2006
1	1	30	336	2007
1	1	62	304	2008
2	2	57	0	2005
1	2	51	315	2008
1	0	74	326	2008
1	0	11	291	2008
2	1	46	315	2004
1	1	63	324	2006
1	2	29	304	2009
1	2	0	315	2008
1	2	35	339	2008
1	2	57	296	2009
1	1	68	324	2007
1	2	9	315	2008
1	2	20	320	2006
1	1	0	304	2009
1	1	12	328	2009
1	2	57	323	2009
1	2	53	291	2008
2	1	32	0	2004
1	1	34	332	2008
1	2	77	291	2008
1	1	36	0	2006
1	2	26	304	2006
1	1	68	315	2008
2	2	26	339	2003
1	2	53	0	2006
1	1	17	326	2006
1	1	9	304	2009
1	1	27	315	0
1	2	23	294	2007
1	1	46	304	2006
1	1	5	315	2007
1	2	28	0	2006
1	2	23	317	2007
1	1	27	328	2009
1	2	20	304	2009
1	2	0	328	2009
1	1	54	339	2008
2	2	14	0	2004
2	0	0	0	0
1	1	14	304	2007
1	2	26	315	2008
1	1	53	0	2006
1	2	63	299	2006
1	2	26	0	0
1	2	16	325	2007
1	2	28	339	2008
1	1	53	323	2009
1	1	68	304	2008
1	1	63	296	2008
2	2	26	0	2005
1	2	12	309	2006
5	2	14	0	2006
2	2	53	305	2005
1	1	17	0	2006
1	2	45	309	2010
1	1	18	291	2007
1	1	9	339	2008
1	1	53	324	2007
2	1	0	0	2004
1	1	14	324	2007
1	2	38	313	2008
1	1	12	323	2009
1	1	36	0	2006
1	2	57	304	2008
1	1	9	328	2009
1	2	9	0	2006
1	2	12	315	2008
1	1	57	0	2007
1	1	46	0	2006
2	1	0	307	2004
2	1	27	0	2005
1	1	74	315	2006
1	2	26	305	2007
1	1	68	0	2007
1	1	0	323	2009
1	1	59	324	2007
1	1	0	291	2008
1	1	1	315	2006
1	1	33	304	2005
1	1	63	0	2005
1	2	0	328	2008
1	2	23	328	2009
1	2	9	328	2009
1	2	1	321	2006
1	2	0	326	2008
1	2	23	313	2009
1	2	23	328	2009
1	1	9	300	2007
1	1	33	317	2007
1	1	51	339	2007
2	1	27	0	0
1	1	27	0	2007
1	2	9	291	2008
1	1	0	328	2009
1	1	0	0	2007
1	1	45	290	2007
1	1	0	313	2008
1	2	9	328	2006
1	2	12	315	2008
2	1	57	322	2005
1	1	63	0	2007
1	2	53	315	2006
1	2	27	323	2009
2	1	4	0	2005
2	1	0	0	2005
1	2	59	320	2007
1	1	23	313	2009
2	0	0	0	0
1	2	55	0	0
1	0	61	0	2007
1	1	17	304	2008
1	1	1	0	2007
1	1	72	0	2006
1	2	23	321	2008
1	2	12	315	2008
1	1	25	315	2008
1	2	57	313	2008
1	2	26	291	2008
2	1	74	298	2005
1	1	30	0	2006
1	1	0	291	2008
2	1	53	300	2004
1	2	28	315	2008
1	2	26	0	2007
2	2	28	301	2005
1	2	0	309	2006
1	2	1	328	2009
1	1	54	327	2006
1	2	0	302	2009
1	1	0	325	2008
2	2	23	0	2005
1	1	1	307	2007
1	0	68	0	2007
2	1	9	0	2005
1	1	30	320	2007
1	2	53	306	2007
1	1	46	0	2006
1	1	9	323	2009
2	1	46	0	2005
1	2	0	304	2009
5	1	68	0	2006
1	1	27	324	2007
1	0	26	0	2007
1	2	28	304	2009
1	1	74	321	2006
2	2	26	299	2005
1	1	68	0	2006
1	2	0	315	2008
1	1	29	302	2009
1	1	4	304	2007
1	2	9	317	2008
2	2	16	0	2005
2	1	68	0	2005
1	2	9	311	2006
1	2	10	315	2008
1	2	20	327	2007
1	1	10	302	2009
1	2	68	291	2008
1	0	0	0	0
1	1	5	320	2006
1	1	4	330	2007
1	2	1	291	2008
2	2	53	305	2005
1	1	53	0	2007
2	2	20	306	2005
2	1	1	0	2004
1	2	59	336	2007
1	1	67	328	2009
2	2	28	305	2003
1	1	46	0	2006
1	1	1	304	2009
2	1	20	0	2005
1	1	0	304	2009
1	1	63	325	2008
1	2	12	0	2005
3	2	16	0	0
2	1	68	0	2005
1	1	26	0	2005
1	1	27	326	2007
1	2	29	304	2009
1	2	0	313	2009
1	1	9	328	2009
1	1	6	0	2006
2	1	45	298	2004
2	1	28	319	2005
1	1	51	313	2009
1	2	57	314	2006
1	2	23	335	2007
1	1	27	318	2006
2	2	20	299	2005
2	1	30	0	2003
1	1	0	315	2009
1	2	0	315	2009
2	1	9	0	2004
2	1	17	0	2005
2	2	9	0	2004
1	1	53	304	2009
2	1	17	325	2005
1	1	9	339	2007
1	1	59	304	2006
2	2	12	0	2005
1	2	9	304	0
1	0	53	0	2007
2	0	68	300	2004
1	2	12	291	2008
2	1	68	0	0
1	1	66	0	2006
1	1	0	315	2009
1	2	57	302	2009
1	1	63	304	2009
2	1	46	0	2005
2	1	54	0	2004
1	2	1	305	2006
1	2	16	309	2006
1	2	29	327	2006
1	1	30	324	2007
1	1	24	0	0
2	1	12	0	2002
1	2	28	304	2008
2	2	53	0	2005
2	1	5	0	2004
1	1	18	313	2008
2	1	53	0	2005
1	2	16	313	2009
2	2	16	0	2004
1	2	1	291	2007
1	1	9	291	2008
1	2	18	315	2009
1	1	4	304	2008
1	1	29	313	2009
1	2	9	0	2007
1	2	57	313	2008
1	1	14	328	2008
1	1	1	334	2007
2	1	68	0	2005
1	2	12	328	2009
1	2	0	291	2008
1	1	0	328	2009
2	2	30	0	2005
1	1	62	0	2007
1	1	68	328	2007
1	2	57	336	2008
1	2	68	325	2008
1	1	0	302	2008
1	0	1	0	2007
1	1	27	328	2009
1	1	0	328	2009
1	2	0	313	2009
2	0	53	0	2005
2	1	12	300	2004
1	1	14	319	2006
1	1	68	326	2007
5	0	20	0	0
1	1	0	315	2008
1	1	0	328	2009
1	1	30	327	2007
1	1	9	313	2008
1	2	0	0	2008
1	1	9	0	2006
2	1	0	0	2004
2	1	4	0	2004
1	2	18	313	2009
1	1	63	0	2006
1	2	0	315	2009
1	2	30	291	2008
1	1	26	0	2006
2	0	59	0	2005
1	2	53	0	2006
1	2	9	315	2008
2	2	23	0	2005
2	1	53	290	2005
1	2	1	315	2008
1	2	61	299	2006
1	1	68	329	2008
2	2	53	304	2005
1	1	63	315	2008
1	2	0	315	2009
1	2	26	328	2009
2	1	12	0	2005
1	1	63	324	2006
1	1	53	328	2009
1	2	22	317	2006
1	1	82	292	2007
1	2	81	0	2007
2	1	0	0	2004
1	2	9	309	2006
1	2	53	299	2006
1	1	0	315	2008
1	1	0	328	2009
2	1	74	0	2005
1	1	7	315	2008
1	1	1	0	2006
1	2	57	325	2008
1	1	0	324	2007
1	2	26	0	2006
2	2	53	311	2004
1	2	40	301	2006
1	1	9	329	2008
1	1	1	324	2007
1	2	12	302	2009
1	2	1	313	0
1	0	0	0	0
1	2	26	304	2007
1	1	10	327	2007
2	2	28	306	2004
1	1	12	304	2009
1	1	59	328	2006
1	1	33	315	2008
1	1	10	291	2008
2	2	12	0	2003
2	2	28	0	2005
1	1	0	315	2009
1	2	0	313	2006
1	1	63	313	2006
1	1	4	304	2007
1	1	9	323	2009
1	2	29	291	2008
1	2	0	315	2008
1	1	46	313	2009
1	0	26	0	2006
2	0	53	0	0
1	2	54	340	2007
1	2	23	310	2007
1	0	0	0	0
1	2	20	326	2007
1	1	0	315	2009
1	1	4	304	2009
1	1	34	313	2008
1	2	16	304	2009
2	1	28	0	2003
1	2	62	326	2007
1	1	53	336	2008
1	1	74	0	2008
1	2	1	315	2006
2	2	26	321	2005
1	1	68	324	2006
1	1	45	295	2007
1	1	34	321	2007
1	1	46	329	2007
1	2	26	294	2006
1	1	0	328	2009
1	2	46	318	2008
1	1	9	304	2009
2	1	28	0	2005
1	2	68	0	2007
1	1	46	0	2006
1	2	74	328	2007
1	1	33	325	2008
1	1	68	0	2007
1	2	26	315	2009
1	2	14	304	2008
2	0	62	0	2004
1	1	9	320	2006
1	1	53	327	2008
1	2	53	291	2007
1	2	57	0	2006
1	1	1	0	2006
1	1	53	0	2007
2	1	66	0	2003
1	1	53	0	2005
1	1	9	323	2009
2	2	63	311	2004
1	2	20	326	2007
1	1	4	0	2007
1	0	0	0	0
1	1	46	313	2008
1	2	57	328	2007
1	2	9	323	2009
2	2	9	328	2005
1	2	62	301	2007
1	2	63	302	2007
1	0	30	330	2007
1	2	0	315	2009
1	0	16	313	2008
1	2	26	291	2007
1	1	10	304	2009
1	1	5	324	2007
1	1	7	304	2007
1	1	46	291	2007
2	2	68	301	2005
1	1	57	328	2009
1	2	0	0	2008
1	2	9	0	2007
1	2	12	313	2009
1	2	74	0	2006
1	2	12	315	2010
1	2	30	0	2005
2	2	53	0	2005
1	1	0	0	2007
1	1	26	291	2008
1	1	17	315	2008
1	2	23	327	2007
1	1	46	330	2008
1	2	1	315	2009
1	2	23	314	2006
1	1	53	300	2006
1	2	25	303	2006
1	2	0	291	2008
1	1	26	291	2008
1	1	30	304	2007
1	2	14	0	2006
1	2	53	336	2006
1	2	12	0	2008
1	0	0	0	0
1	2	20	0	0
2	2	12	0	2005
1	2	23	313	2009
1	1	4	339	2007
1	2	26	0	0
2	1	27	316	2004
1	1	9	328	2006
1	1	0	302	2009
1	2	53	315	2008
2	2	26	0	2004
1	2	62	323	2008
1	2	28	0	2006
1	2	27	311	2006
1	2	28	331	2007
1	2	63	312	2006
1	1	30	315	2007
1	2	53	318	2008
2	1	23	0	2005
1	0	0	315	0
1	0	0	0	0
1	1	0	315	2008
1	1	30	290	2007
1	1	14	304	2009
2	1	53	0	2004
2	1	12	307	2005
1	1	0	0	2009
1	1	27	315	2006
1	1	23	328	2008
1	1	0	291	2008
2	1	63	0	2004
2	1	1	0	2005
1	1	74	0	2007
1	2	17	315	2009
1	2	9	328	2009
2	1	63	0	2005
1	1	26	313	2009
1	2	29	315	2009
2	1	74	0	2005
1	2	0	313	2009
1	1	9	315	2009
1	2	58	0	2006
2	2	62	312	2005
2	1	16	0	2005
2	2	26	0	2004
1	1	63	0	2006
2	2	23	0	2005
1	1	9	0	2007
1	1	27	324	2006
1	2	0	0	0
1	2	9	313	2009
1	1	30	323	2007
1	1	63	328	2008
5	2	18	0	2005
2	1	68	0	2005
2	0	30	0	2005
2	2	53	320	2005
1	1	46	0	2007
1	0	53	0	2006
1	1	59	336	2008
1	2	16	313	2009
1	1	74	0	2007
1	2	26	0	2006
1	2	53	313	2009
1	1	63	304	2009
1	2	20	291	2008
1	1	53	0	2007
1	0	9	0	2009
1	2	45	291	2007
1	1	45	323	2009
1	2	26	297	2006
1	1	20	313	2009
1	1	16	304	2009
1	1	0	313	2009
1	1	1	291	2008
1	1	61	320	2006
1	2	29	315	2008
1	1	33	303	2006
1	1	68	0	0
1	0	0	0	0
1	1	75	328	2009
2	1	53	307	2005
1	1	53	317	2007
1	2	23	323	2009
1	1	9	320	2006
2	0	34	0	2005
2	1	68	0	2005
1	2	0	315	2008
2	2	21	0	2005
1	1	53	328	2008
1	2	26	309	2005
1	1	17	320	2006
1	1	68	332	2008
1	2	28	304	2008
4	2	0	0	2004
1	2	12	328	2009
1	2	0	0	2009
1	1	53	0	2006
2	0	0	0	0
1	2	12	0	2005
1	2	20	315	2008
1	1	6	324	2007
1	1	9	325	2006
2	2	61	0	2005
1	2	57	315	2008
1	1	26	336	2005
1	2	34	328	2008
1	1	0	323	2009
1	1	9	0	2006
1	2	62	315	2006
1	2	57	0	2007
1	2	0	291	2008
2	2	30	0	2005
1	1	53	0	2007
1	1	12	307	2007
1	2	26	0	2007
1	1	27	315	2008
1	1	34	313	2009
1	1	53	302	2009
1	2	12	0	2005
1	1	75	290	2006
1	2	9	324	2006
1	2	26	313	2009
1	2	54	0	2007
1	2	20	320	2006
2	2	26	319	2005
1	1	0	302	2009
1	0	1	305	2007
1	1	6	313	2009
1	1	53	0	2006
1	2	16	315	2009
1	1	9	324	2007
5	2	17	0	2006
1	1	0	304	2009
1	1	0	323	2009
1	2	0	304	2009
1	2	17	326	2008
1	2	61	328	2009
1	2	1	0	2007
1	1	4	329	2008
1	2	0	328	2009
1	1	53	291	2008
1	1	10	328	2008
1	2	16	317	2008
2	1	27	0	2005
1	2	9	328	2008
1	2	23	304	2007
1	2	63	325	2006
1	1	0	323	2009
2	0	68	0	0
1	2	57	319	2006
1	2	53	328	2009
1	1	68	317	2008
2	1	30	0	2005
1	0	9	324	2007
1	2	54	317	2007
1	1	68	328	2009
1	1	0	315	2009
1	1	27	296	2008
1	1	27	328	2009
1	1	5	304	2007
1	2	57	339	2008
1	2	53	315	2008
1	2	62	0	2008
1	0	0	0	0
1	1	9	0	2008
1	1	38	328	2008
2	1	20	0	2004
1	2	29	327	2006
1	1	68	325	2007
1	2	12	291	2008
1	2	0	0	0
1	2	0	302	2009
2	1	52	293	1981
1	2	16	304	2008
1	1	0	291	2008
1	1	0	328	2008
1	1	30	0	2008
1	2	54	327	2007
1	1	20	291	2008
2	1	21	0	2003
2	1	53	0	0
1	2	63	328	2009
2	1	0	0	2005
1	1	0	313	2009
1	2	9	0	2008
1	1	1	0	2006
1	1	68	0	2008
1	2	29	328	2009
1	1	33	328	2009
1	2	17	304	2008
1	2	16	304	2009
1	1	74	304	2008
1	2	0	302	2009
1	2	26	304	2007
2	2	28	309	2000
1	1	12	334	2007
1	2	0	328	2009
1	0	0	315	0
1	1	74	313	2007
1	0	38	0	2007
1	2	29	313	2009
1	2	34	328	2009
1	2	26	313	2009
1	1	68	313	2009
1	2	54	338	2006
2	2	28	319	2005
2	1	5	0	2005
1	1	0	315	2009
1	2	20	313	2009
1	2	26	0	0
1	1	46	0	2006
2	1	25	0	2005
1	2	23	315	2009
2	2	46	0	2004
1	1	9	0	2006
1	0	63	0	2007
1	1	9	0	2008
2	2	26	309	2005
1	1	26	324	2007
1	2	17	321	2006
1	2	0	330	2008
1	1	54	313	2009
1	1	75	313	2008
1	2	62	291	2008
1	2	14	339	2008
1	2	10	315	2008
1	1	46	323	2008
2	1	76	0	2005
1	1	1	329	2008
1	2	20	291	2007
1	2	54	0	2007
1	2	57	328	2007
1	1	82	328	2009
1	1	6	294	2006
2	2	53	0	2005
1	2	63	313	2009
1	2	63	313	2009
1	1	68	324	2007
1	1	10	328	2009
2	1	74	0	2005
1	2	28	302	2009
1	2	9	313	2009
1	1	9	0	2008
1	2	63	322	2007
1	0	9	315	2008
1	1	9	313	2008
1	2	53	291	2008
1	1	57	327	2008
1	1	0	304	2009
1	1	9	0	2006
1	1	36	315	2009
1	1	34	326	2006
1	2	30	320	2006
2	1	28	0	2005
2	1	53	0	2005
2	2	63	309	2005
2	2	45	0	2005
1	2	14	291	2008
1	0	63	329	2008
2	1	53	0	2005
1	1	33	315	2008
1	1	0	317	2008
1	1	26	327	2006
1	2	26	309	2007
1	1	68	302	2009
1	1	26	320	2006
1	2	9	0	2008
1	1	9	323	2008
2	2	46	0	2005
1	1	75	304	2007
1	1	27	315	2009
1	1	1	0	2006
2	1	76	0	2005
1	2	29	313	2009
2	2	30	0	0
2	2	17	310	2004
1	1	63	313	2009
1	2	75	328	2008
1	2	0	315	2008
2	1	4	0	2005
1	2	57	313	2008
1	1	46	323	2008
2	2	28	0	2005
1	1	17	304	2006
1	2	28	313	2008
1	1	0	302	2009
1	2	12	329	2008
2	1	46	0	2005
1	2	1	299	2007
1	1	68	315	2008
1	2	9	302	2009
2	0	53	0	2005
1	2	25	301	2007
2	1	68	0	2005
1	2	0	0	2008
1	1	27	0	2008
2	1	46	0	2005
1	1	27	315	2006
2	2	54	0	1997
1	1	9	328	2009
1	2	12	328	2009
1	2	20	311	2006
1	1	16	0	2006
2	1	12	0	2004
1	1	33	304	2009
2	1	26	0	2005
1	1	9	0	2006
1	1	30	0	2006
1	2	53	297	2006
2	2	0	0	2005
1	1	0	291	2008
1	2	23	315	2008
2	1	56	0	2004
1	2	62	301	2005
1	1	53	291	2008
1	2	18	291	2007
1	1	46	291	2008
1	1	68	318	2006
1	0	26	0	0
1	1	36	323	2008
1	1	38	313	2008
1	1	27	315	2005
1	2	16	320	2006
1	2	0	291	2008
1	1	9	304	2009
1	1	27	329	2008
1	2	10	0	2008
1	2	57	306	2006
1	1	82	304	2009
1	2	74	318	2007
1	2	30	328	2009
1	1	0	313	2009
1	1	38	315	2009
1	1	68	319	2006
5	1	0	0	0
1	2	23	314	2006
2	2	26	0	2005
1	2	57	336	2007
1	2	9	291	2008
1	0	30	324	2007
1	2	0	302	2009
2	2	26	312	2004
1	2	25	326	2006
2	1	26	0	2004
1	1	63	323	2009
2	2	12	0	2004
1	2	20	304	2008
1	2	11	0	2008
1	1	9	328	2007
1	1	16	315	2008
2	0	28	0	2005
1	2	63	315	2008
1	1	9	315	2009
1	1	0	313	2009
1	1	26	0	2007
1	2	26	0	0
2	1	27	0	2004
1	2	53	0	2006
1	1	26	304	2008
1	1	46	313	2009
1	1	68	313	2009
1	2	63	291	2007
1	2	9	328	2009
2	1	0	300	2004
2	1	0	0	0
1	2	10	313	2008
1	1	70	0	2007
1	2	53	312	2007
2	2	12	299	2005
1	1	46	324	2007
1	2	46	313	2009
1	1	17	0	2007
1	2	17	339	2008
1	2	12	315	2009
1	1	0	315	2009
2	1	68	0	2005
1	1	0	0	2010
1	1	71	294	2005
1	2	45	302	2009
1	1	9	291	2007
1	1	45	313	2009
2	2	53	301	2004
1	2	17	327	2007
1	1	9	325	2007
2	2	9	306	2004
1	2	1	306	2006
1	0	0	0	0
1	1	46	313	2009
1	2	28	304	2009
1	2	29	315	2009
1	2	14	327	2007
1	2	9	304	2009
1	2	29	327	2008
1	1	27	315	2008
1	2	0	291	2008
1	1	46	304	2008
1	1	26	315	2008
1	2	0	323	2009
1	0	22	304	2007
1	2	12	328	2008
1	2	14	315	2007
2	2	9	301	2005
5	2	27	0	2007
1	2	28	291	2008
1	2	57	291	2007
1	2	20	291	2008
1	1	0	328	2009
1	1	27	304	2008
1	1	68	329	2008
2	1	30	0	2003
2	1	23	0	2004
1	1	0	0	2008
1	2	29	313	2009
1	1	16	327	2008
1	1	0	328	2009
1	1	68	300	2006
1	1	9	0	2009
1	2	29	291	2008
1	1	45	328	2009
1	2	0	291	2008
1	2	57	302	2009
1	1	57	325	2006
1	2	29	340	2007
1	2	16	315	2008
2	1	12	319	2005
1	2	1	336	2006
1	1	54	324	2007
2	1	9	0	2005
1	1	46	329	2007
1	1	53	320	2006
1	1	20	298	2007
1	2	0	315	2009
1	2	53	291	2008
1	1	68	291	2007
1	1	14	325	2008
1	2	59	339	2007
1	1	17	317	2008
1	1	26	315	2007
1	2	82	304	2009
2	1	46	0	2005
1	2	29	315	2008
1	2	0	291	2008
2	1	20	0	2005
1	2	29	304	2009
1	2	0	315	2009
1	1	53	313	2009
2	1	12	294	2005
2	1	33	293	2005
1	1	0	304	2008
1	0	0	328	2009
1	2	54	309	2007
2	2	59	0	2005
1	2	23	313	2008
1	2	77	319	2007
2	2	26	0	0
1	1	0	291	2008
1	1	14	324	2006
2	2	29	0	2004
1	1	0	304	2008
1	2	0	315	2008
2	1	20	0	2005
1	2	68	291	2007
1	2	29	315	2009
5	2	12	0	2004
1	2	68	305	2006
2	2	57	301	0
1	2	16	323	2009
1	2	57	313	2008
1	1	63	315	2008
1	2	26	320	2006
1	1	1	291	2007
1	2	10	291	2007
1	1	0	0	0
1	1	9	330	2008
1	2	23	0	2007
2	1	17	0	2005
1	1	7	323	2009
1	2	63	312	2007
1	2	10	323	2008
1	2	1	312	2007
1	1	0	328	2009
1	2	17	325	2006
5	1	63	293	2004
2	1	9	318	2005
2	1	36	0	2005
1	1	74	315	2007
1	2	0	339	2008
1	1	1	315	2008
1	1	1	326	2007
1	2	29	304	2009
1	0	36	0	2006
2	1	27	0	2005
1	1	27	315	2006
1	1	54	326	2006
1	1	46	313	2009
1	1	54	323	2009
1	2	20	313	2008
2	1	14	0	2005
1	2	12	304	2009
3	0	16	0	0
1	1	68	291	2008
1	1	68	0	2006
1	1	70	323	2009
1	1	0	302	2009
1	2	26	0	0
1	2	63	325	2007
1	1	54	328	2009
1	0	0	0	0
1	1	0	315	2009
1	1	46	330	2008
1	1	64	0	2007
1	1	68	302	2009
2	2	57	0	2005
1	1	0	0	2005
4	0	0	0	0
1	1	70	0	2006
2	2	12	0	2005
1	2	1	299	2007
2	2	29	339	2004
1	0	0	0	0
1	2	68	332	2008
1	2	16	317	2007
1	1	0	304	2009
1	1	68	0	2007
1	1	68	315	2009
2	2	12	291	2005
1	1	46	324	2007
2	2	57	0	2005
1	1	53	0	2006
1	2	69	313	2008
1	1	0	315	2009
1	1	0	304	2009
1	2	0	0	2007
1	2	26	0	2008
1	2	16	0	2007
2	1	9	0	2004
1	2	9	313	2008
1	1	0	328	2009
1	2	0	311	2006
1	0	0	0	0
1	1	12	291	2008
1	1	74	0	2005
1	2	17	337	2008
1	1	30	304	2009
1	1	0	328	2009
1	1	16	313	2009
1	1	51	328	2007
1	1	53	313	2008
1	1	4	327	2006
1	2	14	321	2006
1	1	68	300	2007
1	1	30	0	2007
1	2	0	328	2008
1	1	9	315	0
1	1	9	304	2009
1	1	74	0	2004
1	2	61	328	2008
1	1	20	0	2006
1	2	53	315	2009
1	2	9	305	2007
2	1	9	0	2005
1	1	71	325	2007
5	2	16	0	2007
1	2	23	328	2008
1	1	63	0	2006
1	1	26	329	2008
1	0	34	311	2007
1	2	0	0	2006
1	1	30	0	2006
1	2	53	291	2008
1	2	28	302	2009
1	2	0	291	2008
2	1	68	0	2005
1	1	30	318	2006
1	1	34	313	2008
1	1	0	328	2009
1	1	17	326	2007
1	1	54	325	2007
1	1	68	290	2007
2	2	26	0	2005
1	1	27	315	2009
1	2	45	291	2007
1	1	17	323	2009
2	1	53	0	2005
1	1	17	315	2009
1	1	0	313	2009
1	2	26	291	2008
1	2	16	310	2006
1	2	23	291	2007
1	2	23	325	2007
1	1	9	315	2009
1	0	0	0	0
1	2	78	313	2007
1	2	9	309	2007
1	1	9	313	2009
2	2	11	299	2004
1	2	10	307	2007
1	0	53	0	2006
1	2	9	315	2008
1	1	53	325	2006
2	1	0	293	2005
1	0	0	291	2007
1	1	68	0	2007
1	1	7	326	2008
2	1	0	0	2003
1	1	45	0	2006
1	1	0	313	2009
1	1	26	0	2006
2	2	28	0	2005
1	2	0	315	2008
1	2	23	315	2007
2	1	12	300	2004
1	1	26	0	2006
1	1	9	0	2007
1	2	0	313	2009
1	1	12	324	2007
1	2	29	328	2009
1	2	0	313	2008
1	2	30	302	2007
5	0	9	0	2005
1	0	0	0	0
1	1	77	315	2008
1	2	63	0	2006
1	2	0	328	2008
1	1	1	0	2006
1	1	20	0	2006
1	2	30	0	2007
1	1	27	313	2009
1	2	57	313	2008
1	2	0	327	2008
1	2	38	336	2006
1	1	68	0	2005
1	2	30	304	2009
1	1	68	324	2007
2	2	35	318	2005
1	2	10	313	2009
2	2	57	0	2005
1	0	0	0	0
1	1	5	324	2007
1	2	30	319	2008
1	1	40	315	2007
1	1	0	323	2009
1	1	4	328	2009
2	1	63	293	2004
1	1	1	325	2007
1	2	16	0	2007
1	1	0	313	2009
1	1	46	0	2007
1	1	53	300	2006
1	1	9	327	2006
1	2	53	304	2007
1	1	68	328	2009
2	2	28	311	2005
1	1	0	328	2009
2	2	1	305	2005
1	1	51	0	0
1	1	75	291	2008
2	1	27	325	2005
1	1	0	304	2009
1	1	27	296	2009
1	2	23	313	2006
1	1	0	313	2009
1	1	82	317	2007
1	1	9	325	2006
1	1	30	0	2006
1	1	82	322	2006
1	1	1	327	2007
1	2	9	291	2008
1	2	75	315	2009
1	2	53	323	2009
2	2	26	321	2005
1	2	46	305	2006
1	2	63	315	2006
1	2	53	291	2007
1	2	26	315	2009
1	2	16	296	2008
1	0	62	323	2008
1	2	33	0	2008
2	1	53	0	2005
1	1	12	0	2006
1	1	70	315	2009
1	1	12	302	2009
1	2	46	301	2007
2	2	26	0	2005
2	2	0	0	2005
1	2	61	0	2008
2	1	74	294	2005
1	2	0	0	2009
1	0	68	315	2008
1	1	9	0	2009
1	1	0	328	2009
2	2	27	305	2003
1	1	1	328	2009
2	2	23	0	2005
5	1	53	0	2005
1	1	4	304	2007
1	1	0	315	2008
1	1	27	0	2006
2	2	64	0	2004
1	2	53	328	2009
1	2	30	327	2008
1	2	26	291	2007
1	1	0	304	2008
1	1	23	327	2007
2	2	53	0	2005
1	1	9	325	2008
1	1	0	313	2009
1	1	68	323	2007
1	0	0	291	2008
1	2	0	315	2008
1	2	68	0	2008
1	1	30	324	2007
1	1	20	337	2008
1	0	0	292	2006
1	1	0	304	2008
1	1	12	313	2009
5	2	17	0	0
5	2	57	0	2004
1	1	9	293	2007
1	1	26	290	2006
1	1	0	315	2008
1	2	57	306	2007
1	2	0	291	2008
1	2	63	291	2007
1	2	0	301	2007
1	2	0	328	2009
2	2	57	0	2004
1	2	1	309	2005
1	2	0	328	2009
1	2	53	309	2006
1	1	68	326	2006
1	1	10	327	2007
1	2	46	313	2008
1	1	0	326	2008
1	2	0	328	2009
1	1	68	0	2006
1	1	63	291	2007
1	1	63	313	2008
1	1	16	304	2007
1	1	33	315	2006
1	2	12	328	2009
1	2	57	313	2009
1	1	1	315	2008
1	1	36	304	2008
1	1	9	304	2008
1	1	4	315	2009
1	1	30	327	2006
2	2	12	305	0
1	2	45	309	2007
1	1	9	330	2008
1	2	57	0	2007
1	2	0	315	2009
2	2	53	0	2005
1	2	16	302	2008
1	2	36	0	2005
2	2	28	0	2005
1	1	6	339	2007
2	1	74	0	2005
1	1	20	0	2006
1	1	12	315	2009
2	1	68	326	2005
1	1	14	324	2007
1	2	17	323	2009
1	1	21	298	2006
2	2	63	0	2003
1	1	46	0	2007
1	1	9	315	2007
1	1	26	324	2007
1	1	34	322	2006
1	1	27	291	2006
1	1	63	315	2007
1	0	75	291	2007
1	2	29	328	2004
1	1	63	0	2008
1	2	2	330	2007
2	1	26	0	2005
2	1	75	298	2005
1	2	20	0	2008
1	2	53	291	2008
2	2	12	0	2003
1	1	27	326	2008
1	1	30	0	2006
1	1	9	0	2008
1	2	45	318	0
2	1	30	0	2005
1	2	53	318	2006
1	2	75	304	2009
1	2	6	328	2008
2	2	53	314	2005
1	1	53	313	2008
1	1	14	324	2007
1	1	53	0	2007
1	2	1	0	2007
1	2	26	311	2007
1	1	34	0	2006
2	2	63	0	2005
1	1	57	313	2009
1	2	0	313	2008
2	1	1	0	2005
1	1	53	323	2009
2	0	0	0	0
1	1	1	319	2006
1	2	29	323	2009
1	1	75	291	2008
1	2	17	313	2007
1	1	68	315	2008
1	2	23	313	2009
1	2	30	323	2008
2	1	26	293	2004
1	1	74	328	2006
1	2	62	294	2006
1	1	30	304	2008
1	1	27	0	2006
2	2	0	0	2005
1	1	14	323	2008
1	2	59	328	2007
1	1	9	304	2009
1	1	0	328	2009
1	1	0	315	2009
1	2	14	315	2009
1	1	84	323	2009
1	1	9	315	2008
1	2	53	296	2009
1	1	7	304	2009
2	0	0	0	0
2	1	61	293	2004
1	0	68	0	2009
1	1	74	0	2006
1	2	59	315	2007
1	2	63	291	2007
1	2	27	304	2009
1	2	0	313	2008
1	2	0	291	0
1	2	1	335	2005
2	1	9	0	2005
1	1	0	313	2009
1	1	30	328	2006
1	2	20	321	2008
2	1	15	0	2004
1	1	0	328	2009
1	2	20	326	2007
2	2	63	323	2002
2	2	26	0	2005
2	2	26	0	2004
1	2	0	0	2006
1	2	68	328	2008
1	1	53	325	2008
1	1	9	0	2007
1	2	4	313	2009
1	1	6	0	2006
2	1	9	318	2005
2	1	46	0	2005
1	1	0	315	2008
1	2	45	322	2006
1	2	16	323	2009
1	1	68	336	2008
1	2	20	315	2009
1	1	30	328	2009
1	1	14	328	2009
1	2	13	328	2009
1	2	26	299	2007
2	2	12	291	2005
1	2	14	328	2009
1	1	0	315	2008
1	1	30	0	2007
1	2	66	304	2007
1	1	0	313	2009
1	2	1	336	2008
1	1	0	0	0
1	2	23	315	2009
1	1	34	336	2008
1	1	0	291	2008
1	2	53	328	2008
1	2	53	291	2008
1	2	63	0	2008
1	2	20	327	2007
1	1	63	313	2007
1	2	46	305	2006
1	2	57	310	2007
1	2	0	315	2009
1	2	24	327	2006
1	2	57	328	2006
2	1	23	0	2005
2	2	23	0	2004
1	1	59	325	2006
1	2	0	315	2009
1	0	34	299	2007
2	2	57	306	2004
1	1	54	323	2009
1	1	14	324	2006
2	2	23	306	2003
1	2	20	291	2008
1	2	57	0	2005
2	1	45	0	2005
1	1	46	334	2007
1	1	68	315	2009
1	2	68	304	2009
1	1	9	326	2007
1	0	68	324	2007
1	1	0	328	2008
2	0	9	300	2005
2	1	30	293	2004
1	1	53	324	2007
2	2	28	0	2005
1	1	1	315	2008
1	2	23	0	2007
1	2	26	338	2006
1	2	26	299	2007
2	1	5	0	2005
1	2	16	304	2008
1	1	12	291	2008
1	2	0	339	2008
1	2	53	328	2009
1	2	12	328	2009
1	2	26	328	2008
1	1	1	327	2007
1	1	0	0	0
2	1	74	0	2005
1	0	0	0	0
1	1	0	315	2008
1	1	0	323	2009
1	1	53	291	2008
1	1	17	315	2008
1	2	0	328	2009
2	2	23	313	2001
1	1	63	313	2009
1	2	16	304	2009
2	2	57	311	2004
1	1	82	323	2009
1	2	14	305	2006
2	1	61	0	2004
2	2	54	327	2005
1	0	30	315	2007
1	1	63	304	0
1	1	21	291	2008
1	2	46	328	2009
1	1	23	313	2008
1	2	53	328	2009
1	1	6	304	2007
1	1	9	304	2009
1	1	68	0	2008
1	1	9	323	2008
1	1	46	0	0
2	1	1	0	2005
2	1	26	0	2005
1	1	72	325	2007
2	0	1	293	2004
1	2	61	328	2009
1	2	23	291	2008
1	1	14	325	2007
1	2	26	291	2007
2	1	20	0	2005
1	1	0	315	2009
1	2	10	313	2009
2	1	0	0	2004
1	0	14	320	2007
1	1	7	0	2006
1	1	0	313	2009
1	2	16	310	2007
2	0	0	0	0
1	2	16	310	2007
1	1	29	315	2008
2	0	9	0	2005
1	1	27	291	2007
2	2	61	0	2004
1	1	0	324	2008
1	1	0	315	2009
1	1	9	322	2006
1	1	68	0	2006
1	1	68	325	2008
1	1	9	328	2009
1	2	12	299	2006
1	2	12	304	2008
1	1	0	323	2009
2	1	48	0	2004
2	2	26	0	2005
1	2	27	291	2008
1	2	54	320	2006
2	2	57	0	2005
1	2	53	299	2006
1	2	74	0	2008
1	1	0	325	2008
1	2	26	312	2006
1	1	16	0	2008
1	1	46	325	2006
1	2	53	301	2006
1	1	62	327	2007
2	2	12	0	2004
2	2	23	0	2005
1	1	53	315	2008
1	2	53	0	2006
1	2	1	0	2006
1	1	29	323	2009
1	1	0	304	2009
2	2	23	0	2005
1	2	38	315	2008
1	2	34	299	2007
1	1	63	327	2007
2	0	53	0	2005
1	1	20	326	2006
1	2	30	291	2006
1	2	57	0	2008
1	1	0	328	2009
1	1	33	328	2009
1	1	7	304	0
1	0	30	326	2007
1	2	9	319	2006
2	2	26	0	2005
2	2	57	0	2005
1	1	0	0	2009
2	1	0	0	2004
1	2	12	302	2009
1	2	16	310	2007
1	1	54	0	2007
2	0	0	0	0
1	0	76	315	2008
1	2	16	313	2008
1	1	68	0	2006
1	0	46	304	2007
1	1	0	324	2007
2	1	30	0	2004
1	1	0	291	2008
1	2	23	315	2008
1	1	0	323	2009
1	1	20	326	2006
1	1	9	315	2007
2	1	1	0	2005
