status	gender	major	dorm	year
2	1	157	0	2005
1	2	130	54	2007
1	1	139	0	2005
1	1	122	0	2006
1	1	124	78	2007
1	1	122	79	2008
1	2	129	0	2006
1	2	137	54	2009
5	0	136	0	0
2	2	0	0	0
1	2	122	66	2009
1	1	118	63	2010
2	0	0	0	0
1	2	126	0	2007
1	1	142	53	2006
2	1	129	0	2005
1	1	141	52	2009
1	2	126	89	2006
2	1	132	0	2003
2	2	146	0	2004
1	2	125	90	2008
1	2	120	58	2007
1	2	137	0	2006
1	0	128	0	0
2	2	126	97	2004
1	2	118	66	2006
1	1	122	0	2005
2	2	122	89	2005
2	2	118	98	2004
1	1	133	0	2006
1	1	139	63	2009
1	1	129	63	0
1	1	139	0	2007
1	1	142	0	2007
1	1	0	0	2005
1	0	0	0	0
1	1	120	64	2007
1	2	132	52	2006
1	2	128	0	2006
1	2	139	52	2006
1	2	126	64	2006
1	2	123	0	2005
2	2	152	0	2005
1	2	134	64	2006
1	0	0	0	0
1	2	118	63	2009
1	2	137	63	2007
1	1	123	61	2009
1	2	130	57	2008
1	2	122	0	2006
1	1	128	0	0
2	2	135	0	2005
1	1	126	80	2006
1	1	122	66	2008
1	1	122	62	2008
2	2	126	0	2004
1	2	126	64	2008
2	2	123	0	2004
1	2	134	70	2008
1	2	152	58	2009
1	2	122	0	2005
1	2	143	0	2010
1	2	126	0	2010
1	2	126	64	2007
1	2	126	76	2006
1	2	126	89	0
1	2	0	67	2008
1	1	126	63	2007
2	2	123	66	2004
2	2	0	0	2005
1	2	137	57	2009
1	2	134	54	2008
1	2	121	64	2009
2	2	0	0	2005
1	1	125	63	2008
1	2	123	57	2008
1	1	124	64	2007
5	0	145	0	0
1	2	123	0	2007
1	2	134	64	2008
1	2	143	94	2007
1	1	120	66	2006
2	2	139	0	2004
1	1	0	63	2010
1	2	118	57	2008
1	0	0	0	0
1	2	141	75	2008
1	1	128	63	2008
1	2	122	0	2007
1	1	132	67	2007
1	1	118	63	2010
1	1	138	0	2006
1	2	139	0	2008
1	1	122	0	2006
1	1	152	54	2008
2	2	134	0	2005
1	2	118	68	2006
1	2	122	53	2006
2	2	140	97	2003
1	1	124	0	2006
1	2	131	57	2009
1	1	137	63	2007
1	1	124	54	2006
1	0	126	51	2008
1	1	122	62	2007
1	0	0	0	0
1	2	129	0	2005
5	2	0	0	0
1	0	0	0	0
1	2	125	0	2006
2	2	137	0	2003
1	1	120	55	2008
1	1	0	55	2008
2	1	135	0	2005
1	2	152	71	2007
1	2	137	63	2008
1	1	118	80	0
1	2	137	63	2008
5	2	152	0	2005
2	2	120	0	2005
2	1	133	81	2004
1	0	0	0	0
2	2	122	0	2004
1	2	126	85	2006
1	1	0	0	2008
2	2	123	76	2004
1	2	137	63	2007
1	2	118	0	2007
1	1	127	63	2009
1	2	136	95	2004
2	1	118	0	2004
1	2	126	67	2006
1	1	0	0	2008
1	1	121	78	2009
2	2	143	0	0
2	2	126	0	2003
1	1	122	62	2007
1	2	152	63	2009
1	2	152	64	2009
2	2	143	0	2005
1	0	0	0	0
2	2	139	0	2005
2	2	137	90	2005
1	1	0	76	2008
2	1	134	0	2005
5	2	130	0	0
5	2	134	0	0
1	2	126	85	2008
1	2	118	0	2010
1	1	0	63	2009
1	2	126	0	2006
1	1	120	63	2008
1	2	123	54	2009
1	2	122	0	2008
1	1	128	71	2006
1	2	130	87	2006
3	2	148	0	0
1	2	142	72	2004
2	2	134	89	2005
2	2	145	0	2005
5	2	130	0	0
1	2	122	70	2009
1	1	128	81	2006
1	1	130	78	2007
1	1	122	64	2007
1	1	143	62	2008
1	1	152	0	2006
2	1	126	0	2005
1	2	0	0	2009
1	1	119	63	2007
1	1	126	52	2009
2	1	152	76	2005
5	2	141	0	2006
2	1	135	0	2005
1	1	124	0	2006
1	2	123	0	2006
2	1	128	0	2005
1	0	0	0	0
1	0	0	0	0
1	1	125	0	2007
1	1	0	62	2009
1	2	137	0	2008
1	1	139	64	2008
1	1	139	0	2006
2	2	137	51	2004
1	1	122	67	2006
1	1	134	68	0
2	1	137	0	2002
1	2	0	0	2008
2	0	0	0	0
1	2	129	54	2009
1	2	127	0	2007
1	2	141	63	2006
1	2	152	66	2009
1	2	141	53	2008
5	2	145	0	2006
2	2	134	94	2005
1	1	134	78	2006
1	2	134	96	2007
2	1	136	63	2003
2	1	0	0	0
1	2	134	61	2007
1	1	143	76	2007
1	2	138	0	2005
5	2	152	67	2005
1	1	136	55	2006
1	0	0	0	0
2	1	126	0	2004
1	2	126	63	2006
1	2	130	64	2008
1	2	126	51	2008
1	2	152	63	2009
1	2	152	63	2009
1	1	132	76	2006
1	2	137	54	2009
1	2	126	70	2008
1	1	127	0	2008
1	2	126	0	2006
1	1	120	75	2008
1	1	126	63	2009
2	2	118	68	2005
1	2	126	0	2007
1	2	0	0	0
2	1	122	0	0
1	2	145	0	2006
1	2	139	88	2007
1	2	122	55	2006
2	1	125	84	2004
1	2	126	51	2007
5	2	136	0	2008
5	1	144	0	2009
5	2	122	0	2006
1	2	143	0	2006
1	2	118	63	2010
2	2	129	0	2005
2	2	139	0	2005
1	2	137	72	2008
1	2	126	63	2009
1	0	0	0	0
1	2	134	89	2007
2	1	150	0	2003
2	1	135	0	2004
1	2	137	0	2007
2	2	133	68	2004
2	2	122	98	2004
1	2	127	54	2008
2	2	118	0	2005
1	0	0	0	2006
2	0	0	0	0
2	2	126	0	2004
1	1	0	63	2008
1	1	137	0	2007
5	2	150	0	0
1	2	150	0	2005
1	2	136	64	2008
1	1	137	0	2006
1	1	139	64	2009
1	1	0	66	2008
5	1	0	0	0
5	2	134	78	2005
2	2	137	91	0
2	2	119	0	2005
1	2	126	70	2007
1	2	126	55	2006
2	2	141	55	2005
1	0	126	64	2009
1	2	137	63	2009
1	2	139	0	2007
1	2	137	64	2009
1	2	142	0	2009
1	2	132	71	2009
2	2	139	0	0
1	2	137	70	2008
2	2	122	0	2005
2	2	0	0	2005
1	2	143	63	2006
5	2	140	0	2009
1	1	119	53	2007
1	1	124	63	2007
1	1	120	75	0
1	2	137	67	2007
1	0	0	0	0
1	2	137	70	2007
1	1	142	0	2006
5	2	147	0	2006
1	0	0	0	0
1	2	123	63	2007
2	2	126	62	2000
1	2	120	75	2008
2	0	0	0	0
1	2	129	66	2008
2	0	126	0	2005
1	1	141	63	2009
1	2	125	87	2007
2	1	127	78	2004
1	2	133	52	2006
2	1	120	0	2005
2	2	0	57	0
1	1	132	0	2008
1	1	128	0	2008
1	2	120	78	2007
1	2	122	0	2007
1	1	122	63	2009
1	1	119	67	2008
1	2	119	71	0
1	0	0	0	0
2	1	152	0	2004
2	2	0	0	2005
1	2	134	96	2007
2	0	0	0	0
1	1	126	63	2008
1	2	137	0	2006
1	2	124	53	2007
5	1	155	0	2006
1	2	137	0	2006
2	2	118	0	2003
2	2	126	97	2004
1	2	121	66	2008
1	2	122	63	2008
1	0	0	0	0
1	1	120	54	2009
1	1	123	62	2008
5	1	120	0	0
1	2	137	97	2006
2	1	122	100	2005
1	2	122	0	2008
2	2	137	0	2005
1	1	0	66	2009
1	2	137	52	2007
1	1	126	63	2007
2	2	122	0	2005
1	2	0	0	0
2	1	134	0	2004
1	2	120	63	2006
1	0	0	63	2009
2	0	138	0	0
1	1	122	64	2008
1	2	126	55	2006
1	1	122	101	2006
5	2	0	0	2006
1	0	0	0	0
2	2	145	0	2002
2	2	122	0	2005
1	0	122	0	2006
1	2	140	76	2007
1	2	126	54	2009
1	2	135	89	2006
1	2	137	52	2007
5	2	123	0	0
1	0	0	0	0
1	1	127	81	2006
1	2	118	54	0
2	2	134	63	2004
2	2	130	0	2003
1	2	122	57	2009
1	1	124	0	0
1	2	126	77	2009
1	2	126	63	2007
1	2	134	64	2008
1	1	118	78	2009
1	2	125	53	2008
1	2	137	70	2007
1	2	141	64	2008
2	2	152	0	2005
1	1	142	0	2009
4	2	0	0	0
1	2	123	94	2007
1	2	129	66	2008
1	2	127	0	2007
1	2	120	54	2009
1	1	142	76	2006
1	1	120	64	2007
2	0	0	0	0
2	0	127	0	2004
1	0	0	0	0
1	1	126	63	2009
1	2	120	93	2008
1	2	126	57	2009
1	2	131	63	2009
1	2	125	0	2007
1	2	135	0	2005
2	2	152	0	2005
1	2	141	85	2008
1	1	139	76	2008
1	2	118	66	2010
1	2	120	0	2008
1	2	119	54	2008
1	1	143	63	2008
1	2	132	57	2009
1	2	126	68	2007
1	1	0	0	0
2	0	0	0	0
1	2	129	99	2007
1	2	0	63	2009
1	2	137	91	2006
1	2	139	96	2008
5	2	149	0	0
1	2	120	54	2009
1	0	0	0	0
1	2	122	0	2008
2	1	122	0	2005
1	1	122	64	2007
1	0	0	0	0
1	2	152	0	2007
1	1	126	78	2008
1	2	123	0	2007
1	1	153	83	2005
1	2	122	0	2006
2	2	126	0	2005
1	1	137	63	2009
1	1	122	0	2005
1	1	122	0	2007
1	2	127	58	2007
1	0	0	0	0
5	2	119	0	2005
1	2	150	74	2007
1	1	119	54	2009
1	1	0	54	2008
1	1	126	63	2007
1	1	132	71	2008
1	1	128	0	2008
1	1	123	54	2008
1	2	122	55	2008
3	2	128	0	2007
1	1	139	79	2007
1	1	127	0	2006
1	2	121	63	2009
1	2	141	0	2006
1	1	124	75	2008
1	2	123	0	2007
1	1	120	63	2009
1	2	142	0	2005
1	1	123	0	2007
1	2	152	0	2006
1	1	137	0	2007
1	2	126	71	2009
1	2	152	63	2009
2	0	137	0	0
2	1	128	52	2005
1	2	0	64	2008
1	1	128	0	2007
1	2	126	52	2007
1	2	124	76	2006
1	1	127	63	2008
1	0	0	0	0
1	1	122	78	2007
1	1	133	0	2006
1	2	137	76	2006
1	2	127	0	2008
1	2	126	66	2009
1	2	125	0	2007
1	2	137	0	2007
1	2	126	85	2006
1	2	118	63	2008
1	2	152	78	2008
1	2	142	55	2009
1	2	136	89	2006
1	1	119	53	2008
2	0	129	0	2003
1	2	152	78	2008
1	1	137	64	2008
1	2	134	78	2007
1	2	126	0	2008
2	2	126	0	2005
1	1	118	0	0
1	2	128	0	2008
1	1	119	78	2006
1	1	134	63	2009
1	1	119	72	2006
1	2	125	54	2009
1	2	126	66	2009
2	0	0	0	0
1	2	139	85	2008
5	2	127	0	2005
1	2	125	0	2006
1	2	152	0	2005
1	2	125	58	2006
1	0	0	55	0
4	0	0	0	0
1	2	118	85	2007
1	0	132	0	2007
1	2	120	0	2007
2	1	126	0	2005
1	1	123	89	2007
1	1	127	0	2007
1	2	130	76	2005
1	2	141	64	2007
1	1	128	54	2008
1	1	137	0	2007
1	2	125	0	2008
1	2	0	64	2008
1	0	125	62	2009
1	2	118	70	2010
1	2	128	0	2007
1	1	0	77	2009
2	1	142	0	2005
1	2	120	64	2009
1	2	129	54	2009
1	1	120	52	2007
4	2	0	0	0
1	2	148	63	2009
4	1	124	0	1996
1	2	152	64	2009
1	1	132	52	2009
1	2	134	90	2007
1	2	0	76	0
1	2	126	70	2009
1	2	137	63	2009
2	1	142	0	2005
1	2	139	63	2008
1	1	119	67	2006
1	2	126	57	2009
1	1	139	76	2008
1	2	128	76	2009
1	2	120	0	0
5	2	146	0	0
1	1	120	67	2008
1	2	134	95	2005
1	1	129	0	0
1	1	124	76	2008
2	1	152	0	2005
5	1	125	0	2005
1	1	120	53	2006
1	2	137	58	2008
1	1	132	0	2007
1	2	124	0	2006
1	2	142	0	2006
1	1	125	63	2006
1	2	136	78	2008
1	1	120	58	2008
1	1	121	63	2009
1	2	152	66	2009
1	2	126	0	2008
1	1	123	52	2006
1	2	135	86	0
2	1	123	83	2004
1	2	143	63	2007
1	2	152	78	2006
1	2	148	63	2007
1	1	122	62	2009
6	1	0	0	0
1	2	123	64	2007
1	2	137	0	0
1	1	142	67	2008
5	2	134	0	0
1	2	152	54	2007
1	1	141	0	2005
2	2	119	0	2005
1	1	139	0	2008
1	2	130	78	2005
2	2	127	68	2002
2	2	0	0	2004
1	1	0	0	2007
5	1	0	0	2007
1	1	134	0	2007
5	1	126	0	2005
1	1	142	68	2009
4	2	0	0	0
1	2	126	58	2009
2	1	122	0	2005
2	1	120	60	2003
1	1	119	66	2009
1	2	0	0	2008
1	2	122	76	2005
1	1	125	54	2008
1	2	0	98	2008
1	2	152	0	2009
1	2	118	54	2010
3	2	0	97	0
1	2	143	96	2007
1	2	130	76	2006
2	0	0	0	0
2	1	132	0	2004
2	1	122	0	2003
5	2	122	95	2005
1	1	126	76	2006
1	1	137	0	2007
1	2	136	78	2005
5	1	123	0	0
1	1	152	0	2005
1	2	141	64	2007
1	2	129	88	2006
1	2	121	0	2009
2	1	133	0	2005
1	2	118	70	2007
2	2	120	86	2004
1	1	0	55	2006
2	0	0	0	0
1	1	129	76	2009
2	1	132	0	2004
2	2	152	0	2004
1	1	124	61	2009
1	2	137	61	2006
2	2	129	89	0
1	2	138	64	2008
1	0	0	0	0
1	1	0	0	0
1	2	134	90	2007
1	2	129	54	2007
1	0	126	0	0
1	1	132	76	2008
1	2	120	63	2009
1	2	126	64	2009
1	2	152	0	2009
1	2	137	92	2007
1	2	141	63	2007
1	1	126	54	2009
5	1	124	0	0
2	2	125	0	2005
1	0	118	0	2009
1	2	139	57	2009
2	1	128	0	2005
1	2	132	52	2007
1	2	0	66	2009
2	2	126	0	2005
1	2	130	86	2006
1	2	118	94	2008
1	2	129	0	2009
2	2	134	0	2005
1	1	0	0	0
1	2	130	64	2007
2	2	152	0	2005
1	1	136	63	2009
1	1	142	0	2006
1	1	0	0	2007
1	2	134	0	0
1	2	122	78	2007
2	1	133	0	2005
2	2	130	55	2004
2	2	119	95	2005
1	1	0	63	2009
1	2	128	0	2007
1	0	127	62	2008
2	1	136	0	2005
2	1	127	84	2004
2	2	126	0	2003
1	2	137	89	2006
1	1	152	62	2009
1	2	131	66	2009
1	1	122	61	0
1	1	137	0	0
1	1	143	60	2007
2	2	122	91	2005
1	2	132	64	2008
2	1	130	0	2004
1	2	134	66	2010
1	2	122	0	0
1	1	122	0	2007
1	1	124	0	2006
5	2	147	0	2005
1	2	126	94	2008
2	1	148	68	2004
1	2	119	70	2009
1	2	126	55	2007
1	1	142	53	2007
1	1	152	63	2007
1	0	136	0	0
2	1	124	0	2005
1	2	123	58	2009
1	2	122	73	2008
1	1	120	67	2007
5	1	153	0	2009
1	1	120	0	2008
2	1	122	81	2003
1	1	137	0	2007
2	2	120	64	2004
2	1	126	0	2004
2	2	122	0	2004
1	0	0	0	0
2	1	157	0	0
1	2	0	79	0
1	2	129	0	2006
1	2	134	67	2007
2	0	0	0	0
2	1	0	0	2005
1	2	126	70	2009
1	2	130	89	2006
1	2	133	66	2009
1	0	128	0	2006
1	1	118	56	2010
1	1	139	71	2008
2	1	137	0	2004
1	2	137	88	2006
2	0	0	0	0
2	2	152	67	2005
2	2	126	0	2004
1	2	126	52	2009
2	1	130	78	1970
1	1	123	0	2007
1	2	122	86	2006
2	2	119	0	2005
5	2	122	76	0
1	1	147	61	0
5	2	136	0	2006
1	0	0	0	0
1	2	118	0	2009
2	2	152	0	2005
1	2	120	87	0
1	1	139	64	2008
1	0	136	60	2007
1	2	134	93	2006
1	2	152	0	2008
2	2	126	77	2004
1	2	137	66	2008
1	2	126	64	2008
1	2	128	66	2009
2	1	123	0	2004
1	1	0	57	2006
2	1	122	80	2004
2	2	122	0	2005
1	1	119	63	2009
1	1	132	0	2006
2	2	120	90	2004
1	2	120	64	2007
5	1	148	0	2006
1	1	120	66	2009
1	2	128	63	2009
1	1	120	67	2007
1	1	126	63	2009
1	2	152	0	2008
1	2	126	55	2008
1	2	126	63	2009
2	2	0	0	0
1	2	152	66	2009
1	2	128	63	2009
1	1	120	63	2009
1	2	152	54	2007
1	1	120	55	2006
1	2	122	76	2006
1	1	123	63	2008
1	2	125	64	2008
1	2	126	0	2006
1	2	0	75	0
1	1	141	54	2008
1	1	152	0	0
1	2	139	0	2008
2	1	132	0	2005
2	2	126	55	2004
1	2	137	0	2006
1	1	121	76	2007
1	1	119	63	2009
2	0	0	0	0
1	2	133	0	2009
2	1	149	0	2005
1	2	137	57	2009
1	1	119	75	2006
1	1	126	0	2006
1	1	118	75	2007
2	2	127	0	2002
1	1	133	72	2006
2	1	126	0	2005
1	2	136	0	2008
1	1	127	64	0
1	1	125	0	2006
1	2	0	0	0
2	2	118	68	2005
2	1	132	0	2005
1	0	0	0	0
1	1	126	63	2007
1	1	142	0	2006
1	2	152	63	2009
5	2	125	55	2006
1	1	142	64	2008
1	1	139	53	2009
1	2	119	64	2006
1	2	135	0	2007
1	1	0	77	2007
1	2	134	66	2009
1	2	137	70	2008
1	2	135	66	2009
2	1	142	0	2005
1	1	123	66	2009
1	2	132	0	2005
1	2	122	0	2006
2	2	0	0	2004
1	1	138	63	0
1	2	129	63	2008
1	1	118	63	2010
1	2	141	52	2007
1	1	142	66	2009
1	1	139	63	2006
1	2	137	0	2007
1	1	123	64	2008
1	1	0	66	2009
1	0	128	0	0
1	1	122	82	2006
1	2	122	66	2009
1	2	137	92	2008
1	1	129	66	2009
1	1	139	63	2007
1	1	132	61	2007
1	2	152	57	2009
1	2	118	66	2010
1	1	132	61	2006
1	0	0	0	0
2	0	0	0	0
1	2	141	92	2007
1	2	137	0	2006
2	2	122	0	2004
5	2	139	0	2006
1	2	126	96	2007
5	2	136	0	2006
1	2	130	55	2005
1	2	121	57	2008
1	2	126	52	2008
1	2	129	0	2008
1	2	134	57	2008
1	2	126	54	2009
1	1	132	0	2009
1	1	126	63	2009
1	1	120	0	2007
1	0	127	0	2006
1	1	137	0	2007
1	1	0	0	0
1	2	126	76	2008
1	2	137	53	2008
1	1	0	52	2008
1	1	124	63	2007
1	2	126	51	2006
1	2	152	64	2008
1	2	126	57	2008
1	1	120	63	2008
1	2	122	86	2006
1	0	0	0	0
1	1	135	62	2009
1	2	126	63	2006
1	2	136	66	2009
1	1	118	0	2008
1	2	137	85	2007
5	1	147	84	0
1	0	126	0	2006
1	1	125	0	2008
1	2	126	72	2008
1	1	124	63	2009
1	2	129	55	2006
2	2	152	0	2005
1	2	132	0	2006
2	2	122	92	2002
1	2	123	0	0
1	2	127	52	2008
1	1	152	53	2007
1	0	0	0	0
1	2	122	64	2007
1	2	152	63	2007
1	1	121	73	2006
1	2	128	0	2007
1	1	119	63	2008
1	2	152	64	2009
1	1	133	0	2006
2	2	118	0	2005
2	2	122	88	0
1	2	121	0	2009
1	0	139	0	0
1	1	148	0	2006
2	2	153	0	2005
1	2	122	0	0
2	2	122	0	2004
1	2	137	0	2005
5	2	126	0	0
1	1	120	63	2009
1	2	152	66	2009
1	2	148	0	2006
1	2	126	63	2007
1	2	129	54	0
1	1	124	53	2008
2	1	118	0	2005
1	1	122	0	2008
1	1	122	54	2009
1	1	119	55	2006
3	0	0	0	0
1	2	135	57	2008
5	2	146	0	0
2	1	142	81	2002
1	2	118	0	2008
1	1	120	62	2008
1	1	127	0	2006
1	0	0	0	0
1	1	128	62	0
3	0	0	0	0
5	2	147	0	2006
5	1	124	0	0
1	2	130	0	2007
1	2	142	0	2006
2	2	134	0	2004
1	2	0	66	2008
1	1	122	63	2008
2	0	0	0	0
1	1	120	52	2008
1	1	118	53	2008
5	1	154	0	2006
1	2	137	90	2008
1	1	149	75	2008
1	2	122	64	2009
2	2	137	97	2004
1	2	121	0	2009
1	1	123	64	2008
2	1	124	0	2005
1	2	134	55	2008
5	1	153	0	0
2	2	143	0	2005
1	2	130	63	2007
1	2	134	78	2005
1	1	122	67	2006
1	2	126	63	2008
1	2	153	97	0
1	1	120	54	2009
2	0	0	0	0
1	1	152	63	2009
1	1	123	76	2008
1	1	127	83	2006
1	2	137	57	2008
1	2	124	0	2007
1	1	0	63	2009
1	2	135	54	2008
4	0	0	0	0
1	2	128	76	2007
2	0	137	0	2005
1	2	152	88	2006
1	0	0	0	0
1	2	141	0	2008
1	2	143	63	2008
1	2	120	0	2006
2	0	0	0	0
1	1	118	0	2005
1	1	122	0	2010
1	2	126	57	2009
1	2	126	78	2005
1	2	152	53	2007
1	1	120	61	2008
1	2	141	0	2007
1	2	123	79	2006
1	2	152	61	2008
2	2	126	0	2004
1	1	118	83	2005
1	2	137	0	2006
2	2	137	0	2003
1	1	152	55	0
1	2	126	63	2008
2	1	119	0	2005
1	2	121	76	2009
1	2	123	64	2009
1	1	120	63	2007
1	1	142	0	2006
2	1	142	0	0
1	2	152	63	2008
1	0	0	0	2005
1	1	146	57	2010
1	2	137	66	2009
1	2	132	0	2009
2	2	126	51	2005
1	1	133	64	2007
1	0	0	0	0
2	1	125	0	2004
2	2	130	0	2003
5	0	0	0	0
1	2	137	91	2007
1	2	122	87	2007
2	2	125	0	2005
1	1	126	63	2008
1	1	0	82	2007
1	1	122	0	2007
2	1	152	0	2005
1	2	124	0	2005
1	2	120	0	2009
2	2	130	55	2004
1	0	120	0	0
1	1	126	82	2007
1	1	127	101	2007
2	1	127	84	2005
1	2	137	63	2009
1	1	128	66	2009
2	2	126	0	2004
2	0	0	0	0
1	0	134	64	2007
2	2	120	78	2003
1	2	142	0	0
1	0	0	0	0
1	1	132	0	0
1	2	0	0	2006
1	1	120	52	2007
1	1	122	63	2009
2	1	145	0	2004
1	1	125	0	2005
1	2	137	64	2008
1	0	0	0	2008
1	0	0	0	0
1	2	128	0	2005
1	2	137	66	2009
1	2	126	66	2009
1	2	123	87	2007
2	1	120	0	2005
1	2	128	57	2009
1	2	152	57	2009
2	1	132	0	2005
1	1	133	67	2006
2	1	122	0	2005
1	2	118	64	0
1	2	122	0	2007
2	2	126	0	2004
2	0	0	0	0
2	2	130	0	2004
1	2	141	57	2009
1	2	120	0	2006
1	1	119	0	2007
2	1	126	0	2004
1	1	120	0	2006
1	2	130	70	2007
1	2	126	58	2008
1	2	137	64	2009
2	1	120	76	2004
1	1	128	0	2009
1	1	136	0	2006
1	2	138	54	2008
1	1	128	63	2010
1	2	118	0	2008
2	2	122	51	2005
1	2	0	0	2008
1	1	123	0	2008
1	2	122	63	2007
1	1	122	54	2008
2	1	127	0	0
1	0	0	0	0
1	2	134	0	2006
1	1	133	63	2007
5	1	146	0	0
1	2	136	88	2006
1	1	125	71	2006
1	2	152	63	2009
1	1	132	64	2009
1	2	0	93	2007
2	2	0	0	2005
2	2	127	0	2005
1	0	0	0	0
1	1	120	0	2006
1	2	133	0	2006
1	1	132	52	0
1	1	128	0	2008
1	2	130	96	2005
1	2	137	0	2007
1	2	134	64	2008
1	1	142	63	2008
1	2	132	0	0
2	0	0	0	0
1	1	142	63	2009
1	1	120	82	2007
1	1	128	0	2007
1	0	0	0	0
1	1	120	52	2008
4	2	150	0	1903
1	1	142	66	2009
2	2	0	0	2004
2	2	143	76	2005
1	2	127	52	2008
2	0	0	0	2004
1	0	0	0	0
1	2	137	93	2007
5	2	152	0	2004
1	2	123	95	2007
1	0	122	0	2007
1	2	0	66	2009
1	2	126	53	2006
1	1	120	0	2007
1	2	127	0	2006
1	2	132	89	2008
1	2	125	54	2009
1	1	134	67	2006
1	2	137	53	2008
1	2	153	0	2006
1	1	127	66	2009
1	1	129	0	2009
1	0	120	0	2007
1	2	123	88	2006
1	2	118	57	2009
1	2	139	63	2007
2	2	123	0	2004
2	2	118	88	2005
1	1	118	66	2010
1	2	139	0	2006
1	1	124	0	2006
1	2	0	0	2006
1	2	123	63	2006
1	1	132	80	2006
1	2	129	64	2009
1	1	142	0	2009
1	2	126	52	2008
1	1	124	0	2008
5	1	131	0	0
1	2	0	52	2008
1	2	145	0	2008
1	1	125	64	2008
2	2	141	0	1992
1	1	126	53	2007
5	0	132	0	0
1	1	126	64	2008
2	1	142	78	2005
1	2	125	57	2009
1	2	134	76	2006
1	1	122	0	2004
1	2	123	78	2009
1	2	126	66	2009
1	2	137	0	2006
1	1	129	0	2008
1	1	120	0	2006
1	2	128	63	2009
2	2	137	0	2005
1	0	122	0	0
1	2	130	53	2006
1	2	126	78	2006
1	2	123	0	2009
1	2	125	0	2007
1	0	0	0	0
5	2	135	0	2008
1	2	139	0	0
1	1	141	63	2009
1	1	121	63	2009
1	1	119	72	2007
1	2	129	57	2009
1	1	128	0	2008
1	2	0	0	2009
1	2	152	63	2007
2	1	153	0	2005
1	0	129	0	2009
2	1	133	0	2004
2	2	126	0	2005
1	2	124	0	2007
1	0	0	0	2006
1	2	137	97	2007
2	2	145	0	0
1	1	143	0	2006
1	2	118	56	2010
1	2	126	0	2007
1	0	124	81	2007
1	2	137	0	0
1	2	125	86	2008
1	2	126	63	2009
5	2	122	0	0
1	1	128	66	2005
1	0	0	0	0
5	2	148	0	0
1	2	141	70	2009
1	2	122	91	2007
1	2	124	57	2009
1	2	136	61	2007
2	1	123	0	0
5	2	147	0	2007
1	2	122	86	2007
1	1	125	53	2009
1	0	126	64	2008
1	2	126	77	2009
2	1	118	0	2005
5	2	153	51	2006
1	1	142	0	2008
1	1	143	0	2006
2	2	141	0	2005
1	0	0	0	0
1	1	142	0	2006
1	0	0	0	0
1	1	122	66	2009
5	2	126	0	2010
1	1	126	0	2006
5	2	144	0	2009
1	2	128	0	2006
1	2	126	67	2006
1	2	139	0	2006
1	2	152	63	2009
1	2	120	65	2004
5	1	122	0	2006
1	1	120	0	2007
2	1	125	52	2005
4	2	146	0	0
1	2	152	0	2007
2	2	122	0	2005
1	1	122	62	2007
5	1	118	0	2005
1	2	118	53	2009
1	1	120	55	2005
1	1	120	0	2006
1	2	122	67	2007
2	2	129	0	2005
1	2	122	0	2006
1	2	135	0	2006
2	1	120	0	0
1	1	129	56	2009
1	2	132	0	2005
1	1	139	72	2009
1	2	126	64	2008
1	2	130	0	2006
5	2	147	0	2006
1	2	142	0	2006
1	2	130	53	2005
1	1	123	0	2009
1	1	135	55	2007
1	1	128	0	2006
2	2	137	0	2004
1	2	125	0	2007
1	2	134	54	2008
1	2	140	52	0
1	0	132	0	0
1	1	120	52	2006
2	1	134	0	2004
1	1	126	82	2007
1	2	120	52	2008
1	2	122	86	2008
2	1	118	80	2004
1	2	134	0	2008
2	1	127	84	2005
1	2	135	0	2007
5	1	126	0	2005
2	1	126	78	2004
1	1	120	63	2007
1	2	139	63	2009
1	2	132	57	2009
2	1	120	0	2005
1	1	139	65	2007
1	1	127	0	0
2	1	133	0	2004
1	0	0	0	0
1	2	122	66	2008
1	1	152	63	2009
1	1	127	63	2008
1	2	150	51	2008
2	1	152	0	2004
1	0	0	0	0
1	0	0	0	0
1	0	0	0	0
5	2	0	0	2006
1	2	152	63	2008
2	2	126	0	2005
1	1	143	0	2006
5	1	0	0	0
1	2	135	66	2009
1	1	122	77	2005
2	1	0	0	2002
2	2	122	0	2005
1	1	124	66	2008
1	1	126	0	2006
1	2	0	75	2007
2	1	121	82	2004
1	1	128	0	2007
1	2	120	57	2009
1	2	125	0	2005
2	0	119	0	0
1	1	137	71	2005
1	2	142	0	0
1	2	152	57	2009
1	2	130	0	2006
1	2	137	76	2008
1	2	122	57	2009
1	2	137	0	0
5	2	152	0	0
1	1	143	63	2008
1	2	143	78	2008
1	2	136	0	2006
1	2	136	55	2007
1	2	126	57	2009
1	1	127	54	2009
1	2	118	0	0
2	2	134	0	2004
1	2	137	0	2007
1	2	139	70	2009
5	1	155	0	2007
1	1	128	63	2009
1	2	152	56	2006
2	0	120	0	2005
1	2	143	0	2006
1	1	126	0	2008
4	2	150	0	2005
1	2	148	64	2007
1	2	118	0	2010
5	0	0	0	0
1	2	122	94	2006
1	2	152	57	2009
2	0	0	0	0
1	2	137	87	2006
1	2	126	53	2007
1	2	123	51	2008
1	1	120	0	2006
1	1	120	63	2008
1	2	126	0	2007
2	1	122	0	0
1	2	127	61	0
2	2	118	0	2005
1	2	134	58	2009
1	2	126	63	2009
1	1	127	54	2009
1	1	118	71	2006
1	2	0	0	0
1	2	0	66	2008
1	1	132	64	2007
1	1	137	63	2009
1	0	0	0	0
2	1	119	82	2005
1	1	138	63	2009
1	1	126	63	0
1	2	152	57	2009
1	1	123	52	2009
1	2	123	54	2008
1	2	118	57	2009
1	1	138	0	0
1	2	126	64	2008
1	2	0	0	2008
2	1	120	0	2005
1	1	120	66	2009
1	2	0	95	2004
1	2	121	66	2009
1	2	128	57	2009
1	2	122	67	2007
4	1	0	0	0
1	1	153	79	2007
1	1	137	77	2009
1	1	135	54	2007
5	0	0	0	0
2	2	137	77	2005
1	2	122	0	2006
1	2	0	0	0
1	1	141	52	2008
2	1	152	0	2005
1	2	128	54	2009
1	1	137	63	2009
1	1	128	63	0
1	1	137	64	2008
1	1	130	53	2007
1	2	130	52	2007
2	1	122	67	2005
1	2	0	0	2008
1	1	125	53	2006
2	1	122	0	2005
1	1	135	0	2006
2	1	127	0	2005
5	2	158	71	2005
1	2	136	75	2008
1	2	143	91	2007
2	1	122	83	2003
1	2	152	0	2006
1	2	136	93	2007
1	2	152	53	2007
5	2	126	0	2005
1	2	141	71	2005
1	0	0	0	0
1	2	119	76	2008
1	2	122	0	2007
1	1	127	54	2008
1	2	122	54	2009
1	2	0	70	2009
1	1	124	76	2006
1	0	0	0	0
5	1	128	0	2006
1	2	152	64	2007
5	1	139	0	2006
1	2	123	63	2008
2	2	0	0	2003
1	2	126	85	2008
2	1	120	0	2004
1	1	127	0	2006
5	0	0	0	0
1	1	122	100	2008
1	2	122	64	2007
1	2	122	86	2007
1	1	128	0	2008
1	1	122	63	2009
2	2	137	0	2004
1	2	126	0	2005
2	2	136	90	2003
1	2	152	57	2009
1	2	125	53	2006
1	1	120	0	2009
2	1	127	81	2004
1	1	0	67	2007
1	2	152	53	2008
1	1	129	67	2007
1	1	126	85	2005
1	2	126	54	2009
1	2	129	53	2007
1	2	123	79	2009
1	2	137	92	2005
1	1	120	63	2009
2	1	121	0	2005
1	1	122	55	2008
1	2	143	0	0
1	2	124	0	2007
1	1	120	60	2006
2	2	126	0	2005
1	2	0	57	2009
1	2	126	52	2009
5	2	122	76	2006
2	1	128	0	2005
1	2	129	0	2008
1	2	128	63	2009
1	0	0	0	0
1	0	0	0	0
2	2	126	0	2005
5	2	126	0	0
1	1	123	53	2007
2	1	142	0	2004
2	2	0	0	0
1	2	124	0	2007
1	0	139	77	2006
1	2	130	96	2005
5	2	147	0	2006
1	2	137	0	0
1	1	122	52	2005
1	0	0	0	0
1	0	0	0	0
5	2	137	0	0
1	2	126	93	2006
1	1	134	78	2007
1	2	142	0	2006
1	1	137	0	2006
1	1	121	63	2009
1	2	129	0	2006
1	2	124	63	2007
2	1	126	80	2004
1	0	122	91	2006
1	2	120	0	2006
2	0	130	0	0
1	2	129	78	2005
2	0	0	0	0
1	2	128	0	2005
1	2	152	76	2007
2	1	120	55	2005
2	2	136	0	2000
1	2	118	76	2009
1	2	135	79	2008
1	1	136	64	2007
1	2	126	52	2007
2	2	136	76	2004
1	2	132	65	2006
1	1	136	66	2009
1	2	152	61	2008
1	1	126	63	2007
2	2	122	0	2005
1	2	134	55	0
1	2	126	55	2008
1	2	152	63	2006
1	1	143	0	2006
1	2	118	63	2009
1	2	152	0	2007
1	2	137	54	2009
1	2	150	97	2005
1	2	129	71	2008
1	2	140	0	2009
1	1	142	0	2006
2	2	0	0	2004
1	2	127	0	2007
1	0	128	61	2008
2	2	134	71	2005
2	2	134	0	0
2	2	137	0	2005
1	2	121	63	2009
1	2	126	76	2006
1	2	139	0	2005
1	2	126	63	2009
5	2	137	0	0
1	1	137	63	2009
3	2	128	0	2007
1	2	125	76	2008
1	2	129	86	2007
1	1	125	53	2007
1	2	129	56	2009
1	1	120	66	2009
1	1	139	72	2008
1	2	143	93	2007
1	1	0	0	2008
1	0	0	0	0
1	2	127	52	2009
1	0	128	0	2007
1	2	132	64	2008
1	1	134	63	2008
2	2	123	88	2005
1	2	126	77	2004
2	2	122	0	2001
1	1	142	0	2008
1	2	137	0	2006
2	1	125	0	2005
2	1	126	63	2005
4	2	0	0	0
1	2	130	64	2007
1	1	137	0	2006
2	2	127	0	2002
1	2	139	97	2007
1	2	130	89	2005
1	2	141	74	2006
1	1	137	53	2007
5	2	145	0	0
1	2	132	0	2010
1	2	152	54	2006
1	2	127	63	2009
1	2	134	95	2006
1	2	126	68	2008
1	1	132	64	2008
1	2	152	54	2008
1	1	0	66	2009
2	0	122	52	2004
1	0	0	0	0
1	2	122	51	2008
1	1	122	0	0
1	2	130	55	2005
2	2	136	0	2002
2	1	127	0	2005
1	1	137	66	2009
1	0	0	0	0
1	1	142	63	2006
1	2	141	64	2007
1	1	126	61	2008
1	1	139	63	2008
1	2	126	0	2009
1	1	126	66	2009
1	1	123	55	2006
1	0	0	0	0
1	2	127	0	2007
1	0	0	0	0
1	2	126	66	0
2	2	152	0	2004
2	1	120	0	2005
1	1	120	81	2007
1	2	129	77	2007
1	1	126	81	2006
1	1	130	0	2006
1	0	0	0	0
1	2	123	66	2008
2	1	120	0	2002
2	2	126	0	2005
2	2	123	0	2002
1	2	134	76	2006
1	2	120	0	2006
2	2	120	67	2005
1	0	0	0	0
1	1	153	71	2006
2	1	132	0	0
1	2	0	78	2007
1	1	120	66	2009
5	0	0	0	0
1	2	122	0	2008
2	1	136	52	2005
1	1	123	0	2008
1	1	139	0	2006
5	2	126	0	0
1	1	118	0	2007
1	2	0	95	2008
1	1	123	63	2006
1	1	0	0	2007
5	2	147	0	2007
1	0	0	0	0
1	2	122	86	2005
5	1	134	0	2004
2	2	139	0	2005
1	2	128	0	2007
2	1	127	0	2004
1	1	121	56	2009
1	2	126	0	2006
1	2	130	0	2007
1	1	139	0	0
1	1	130	0	2007
1	1	121	66	2009
1	1	131	54	2009
1	2	134	56	2009
1	1	123	0	2007
1	2	126	64	2008
1	2	0	72	2007
1	1	152	83	2008
1	0	0	0	0
1	2	122	0	2008
1	1	0	0	0
1	0	143	61	2006
1	2	136	98	2005
5	1	122	0	2006
1	2	152	0	2007
1	2	126	75	2007
1	1	122	84	2007
1	2	133	63	2008
2	1	144	63	2005
1	2	152	54	2009
1	2	126	77	2009
5	1	132	0	0
1	1	119	65	2008
1	2	120	0	2007
1	1	139	55	2006
1	0	141	0	0
1	1	122	54	2009
1	2	120	0	2006
1	1	118	62	0
1	1	132	0	2007
1	2	137	63	2008
1	2	139	0	2004
1	2	137	64	2008
1	1	128	63	2009
2	1	123	0	2002
1	1	135	0	2008
1	1	127	0	0
1	2	139	0	2007
1	1	137	63	2009
1	1	128	0	2007
1	0	0	0	0
5	2	126	52	0
5	2	152	0	2007
1	1	120	63	2008
1	0	0	0	0
1	0	123	0	2005
1	1	137	63	2008
1	2	120	89	2008
1	2	136	64	2009
1	1	125	78	2007
1	2	129	66	2009
1	2	128	63	2009
1	1	128	0	2007
5	2	140	52	2004
1	2	143	91	2006
1	2	122	54	2008
1	1	118	0	0
1	0	120	63	2008
1	2	129	57	2007
1	1	129	56	2009
1	2	129	97	2007
1	1	127	0	2006
1	2	0	67	2008
1	2	137	64	2009
1	2	133	93	2007
1	2	126	63	2008
1	2	0	0	2008
1	2	152	54	2008
1	0	0	0	0
1	1	124	63	2008
1	1	0	63	2008
1	2	0	61	2006
2	1	122	0	2005
1	2	122	0	2007
1	1	134	54	2009
2	2	137	0	2004
1	2	122	0	2006
1	2	133	97	2006
2	2	126	0	2004
1	1	120	63	2009
2	1	132	81	2004
1	2	122	71	2006
1	2	118	54	2010
1	1	125	62	2008
1	1	118	0	2008
1	1	136	72	2006
1	1	139	63	0
1	1	126	66	2008
1	0	0	0	0
1	1	143	0	2005
2	1	142	0	0
1	1	0	63	0
2	1	127	0	2005
1	2	152	53	2007
1	2	129	0	2009
1	2	126	52	2009
1	1	119	54	2009
1	2	126	64	2009
5	2	142	0	2007
1	2	152	89	2005
1	0	130	0	2008
2	1	142	0	2004
1	1	134	66	2009
1	2	133	64	2009
1	1	127	0	2006
1	0	0	0	0
1	1	120	0	2006
1	2	134	53	2007
1	1	134	63	2009
1	1	122	77	2008
2	1	145	0	2005
1	2	120	0	0
1	2	121	57	2009
5	2	127	0	2005
2	1	120	0	2004
1	2	152	76	2008
1	1	128	66	2009
1	2	143	0	0
1	2	130	67	2005
1	2	129	55	2006
1	1	118	66	2009
1	1	118	0	2008
2	2	126	95	2004
5	2	123	0	0
5	2	145	0	2009
2	2	134	0	2004
1	2	136	54	2009
1	1	128	0	2006
1	1	141	78	2006
2	2	152	0	2003
1	1	123	54	2008
1	1	126	67	2005
1	1	129	62	2008
1	2	120	67	2007
1	1	0	76	2008
1	2	134	0	2007
1	2	134	79	2008
1	2	136	52	2006
1	0	126	67	2006
1	0	0	0	0
1	2	118	53	2008
1	0	0	67	2007
1	2	122	0	2008
1	2	126	71	2006
5	2	147	0	2006
1	1	0	56	2009
1	2	126	52	2008
1	2	129	64	2008
2	1	127	0	2005
2	2	123	0	2005
1	1	122	63	2009
1	2	126	51	2009
1	1	137	0	2007
5	2	153	89	2006
1	2	122	66	2009
1	2	0	64	2008
1	1	120	63	2008
1	1	124	80	2008
1	1	148	55	0
1	2	136	0	2009
1	1	139	0	0
1	2	120	0	0
1	1	122	61	2008
2	1	122	0	2005
1	1	122	63	2009
2	2	126	0	0
1	2	133	66	2009
1	2	139	0	2005
2	2	128	0	2004
1	2	123	88	2006
2	2	133	0	2004
1	0	0	0	0
1	2	126	66	2009
1	1	137	63	2009
2	2	126	0	2003
1	2	137	0	2009
1	2	120	54	2009
1	2	119	0	0
1	2	126	0	2007
2	1	124	84	2005
2	1	128	0	2004
1	2	128	0	2007
1	2	127	54	2009
1	1	123	76	2007
1	2	152	61	2006
1	2	122	0	2009
1	2	137	0	2005
2	2	144	0	2005
1	1	119	68	2008
1	2	127	53	2007
1	2	129	54	2009
1	1	134	63	2007
1	0	0	0	0
1	1	0	0	0
2	1	120	83	2004
1	2	126	85	2007
5	2	152	0	0
2	0	127	0	2005
1	2	130	52	2006
2	2	122	86	2005
1	1	132	63	2009
5	1	134	76	0
1	1	122	63	2008
1	2	129	52	2008
1	2	120	51	2008
1	2	126	64	2009
1	2	132	63	2008
1	1	120	76	2006
1	2	130	96	2007
2	2	126	0	2005
1	2	137	51	2008
1	1	133	52	2007
2	1	145	0	2004
2	2	130	0	0
1	2	120	61	2007
1	1	119	61	2007
2	2	152	0	2005
1	1	138	61	2006
1	2	139	57	2009
2	1	120	55	2005
1	2	137	76	2006
1	2	124	0	2008
1	1	137	63	2008
1	1	133	0	2006
1	1	128	66	2009
2	2	129	92	2005
1	0	157	64	2007
1	2	122	70	2007
1	2	137	64	2009
2	2	124	0	2005
1	2	126	58	2007
2	1	143	0	2005
1	2	122	57	2009
1	2	137	66	2009
1	2	136	0	2009
1	2	0	78	2008
2	1	139	52	2004
1	1	118	63	2009
1	2	120	54	2008
1	1	0	63	2009
1	2	126	78	2005
1	2	126	63	2008
2	1	127	0	2004
1	0	0	0	0
1	1	133	53	2006
1	2	141	54	2009
1	0	0	0	0
1	1	129	53	2009
2	2	122	0	2004
1	1	132	0	2007
1	0	0	0	0
1	1	142	65	2006
2	1	144	81	0
1	1	132	63	2007
1	2	126	52	2008
1	2	126	0	2007
4	1	0	0	0
1	0	0	0	0
1	1	122	63	2008
1	0	0	0	0
1	1	128	0	2008
5	1	155	0	0
5	1	0	0	0
1	1	134	83	0
1	1	120	53	2008
4	2	134	89	2006
1	2	126	0	2007
2	2	123	0	0
1	2	137	0	0
1	2	130	91	2006
1	1	0	66	2009
1	2	127	0	2005
2	2	0	0	2003
1	2	122	66	2007
1	1	142	0	2007
1	1	122	0	2006
1	2	0	66	2009
1	2	125	0	0
2	2	127	0	2005
1	1	118	64	2010
1	1	152	76	2006
2	2	122	0	2005
1	2	134	54	2009
1	2	126	0	2007
1	1	143	63	2009
1	2	137	76	2008
1	1	144	55	2008
1	2	141	0	2006
1	2	123	96	2006
2	2	152	0	2005
1	2	118	0	2008
5	2	139	0	0
1	2	141	54	2009
0	0	0	0	0
1	1	0	0	2008
1	2	152	78	2007
1	2	137	76	2008
1	1	128	0	2008
1	1	127	0	2007
2	1	152	0	2005
1	2	137	64	2008
1	1	125	63	2009
1	1	120	62	2007
1	1	122	83	2007
2	2	123	76	2004
1	1	127	67	2006
1	1	123	0	2009
2	1	142	0	2005
2	2	147	0	2004
5	2	137	0	2005
1	2	129	0	2006
1	1	119	72	2006
1	1	140	62	0
5	2	123	0	2008
1	2	122	85	2006
1	2	124	0	2006
1	2	137	79	2008
1	2	125	53	2006
2	2	122	0	0
1	1	122	100	2005
1	2	118	68	2007
2	2	0	0	2001
1	1	120	82	2007
3	0	0	0	0
1	1	120	63	2009
1	1	118	63	2009
1	1	139	84	2006
1	2	125	89	2007
1	2	125	64	2009
1	0	122	0	0
1	2	137	66	2009
1	2	118	58	2010
1	1	136	76	2008
1	2	152	72	2009
1	2	137	0	2009
2	1	127	0	2005
1	2	137	0	2007
1	1	129	83	2006
1	2	127	64	2009
1	2	152	78	2006
1	1	148	56	2009
1	2	120	95	2005
1	2	134	64	2009
2	1	128	0	2005
1	1	122	68	2007
1	1	123	0	2007
1	2	137	0	2006
1	2	152	53	2009
1	1	150	64	2009
1	1	122	0	2007
2	1	125	0	2005
1	2	143	64	2007
2	1	139	0	2005
2	2	126	0	2005
1	2	134	55	2009
1	1	120	84	2008
2	1	134	0	2004
5	1	125	0	2006
1	2	119	62	2010
1	1	118	76	2008
2	1	122	0	2004
1	1	123	0	2006
1	2	134	53	2008
5	2	126	0	2005
1	2	124	91	2006
1	2	130	0	0
1	1	124	63	2008
1	1	132	81	2006
2	1	0	0	2005
1	1	141	63	2009
1	0	133	0	2008
1	1	124	62	2008
1	2	120	0	2008
1	0	143	0	2006
1	1	130	63	0
2	0	0	0	0
1	2	126	78	2005
1	1	119	55	2006
1	0	118	0	0
1	2	134	0	2006
5	1	134	59	2005
2	2	0	0	0
1	1	127	66	2009
5	2	128	0	2006
1	1	125	63	2009
1	1	134	0	0
1	0	125	92	2008
1	1	132	0	2006
1	2	126	64	2008
1	2	150	0	2006
1	2	0	63	2008
1	2	135	0	2007
1	2	137	51	2008
1	1	132	64	2009
1	2	152	0	2008
1	1	139	0	2006
1	1	127	76	2009
2	0	0	0	0
1	2	126	63	2009
1	1	123	54	2008
1	2	137	99	2007
2	0	118	0	2003
2	2	122	0	2005
1	2	122	96	2006
1	2	122	0	2006
5	2	151	0	0
1	2	128	0	2006
1	0	126	63	2007
1	0	128	66	2009
1	2	152	64	2008
1	0	0	0	0
2	1	152	0	2002
1	2	134	0	2007
1	0	123	0	2006
1	0	0	0	0
1	2	118	0	2005
1	1	150	61	2009
1	2	137	52	2008
1	2	118	66	2010
1	0	120	0	0
1	0	122	0	2006
1	2	118	53	2009
1	1	134	78	2006
1	1	120	58	2008
2	2	137	91	2005
1	2	120	0	2006
1	2	124	57	2009
1	1	127	78	2006
1	2	142	88	2006
1	2	122	0	2005
1	1	122	63	2006
1	2	123	87	2007
2	1	138	0	2005
5	2	0	76	2006
1	1	132	0	2006
1	1	137	80	2006
1	2	134	78	2006
1	2	0	0	0
2	2	143	0	2004
2	1	119	0	2003
1	2	118	0	2008
1	2	134	0	0
1	2	125	0	2007
1	2	0	0	2004
1	1	124	61	2006
1	1	123	0	2006
1	2	0	0	2008
1	2	124	0	2006
1	1	0	76	2008
2	1	152	76	2005
1	2	122	0	2006
1	2	126	57	2009
2	0	0	0	0
1	2	123	0	2007
1	2	124	66	2009
1	2	152	57	2009
1	2	122	76	2004
2	2	140	0	2005
1	2	129	56	2009
1	1	122	0	2008
1	1	127	0	2006
1	0	126	63	2006
1	1	0	55	2006
1	1	123	53	2008
1	1	130	54	2008
1	2	118	71	2009
3	1	0	0	0
5	2	152	69	0
2	2	122	0	2005
1	1	0	0	0
1	2	127	57	2009
1	2	126	77	2009
1	2	135	57	2009
2	1	122	0	2004
1	1	0	62	2007
1	2	149	78	2007
1	2	140	96	2007
1	2	137	91	2007
5	1	132	0	0
1	2	152	0	2007
1	0	0	0	0
1	0	0	0	0
2	1	128	0	2004
1	2	141	56	2009
2	1	152	0	2005
1	2	137	72	2006
2	2	152	0	2001
1	2	118	0	0
1	0	0	0	0
1	2	137	86	2008
1	1	135	63	2008
1	2	135	54	2008
1	2	118	0	2009
1	1	152	63	2009
1	1	118	0	2006
2	2	125	0	2005
1	1	0	66	2009
1	2	128	57	2008
1	2	136	57	2009
2	1	126	0	2005
1	1	0	71	2008
1	1	143	66	2009
1	2	132	52	2008
1	0	119	0	2009
1	1	118	64	2010
1	2	125	52	2008
2	2	118	98	2005
1	2	126	63	2008
1	2	137	66	2008
2	2	143	86	2005
1	1	148	78	2009
2	1	152	65	2005
1	2	152	70	2008
5	1	132	0	0
2	2	152	0	2005
1	1	127	63	2008
1	2	123	57	2010
1	2	0	64	2009
1	2	152	55	2006
1	2	0	76	2007
1	2	0	94	0
1	1	120	63	2008
1	1	127	78	2008
1	0	0	0	0
1	1	118	0	2005
1	2	126	51	2008
1	1	126	76	2007
1	1	123	63	2009
1	2	137	0	2008
2	2	0	0	2005
1	2	126	93	2006
5	1	145	0	2006
2	2	137	78	2004
1	2	126	63	2008
1	2	134	54	2008
1	2	126	63	2008
5	0	0	0	0
2	1	134	0	2005
1	0	122	0	2006
1	2	123	54	2007
1	1	137	0	2007
1	1	125	64	2008
1	2	128	0	2007
2	1	126	0	2004
1	1	123	0	2006
1	1	134	63	2008
1	1	142	62	2009
1	1	118	0	2006
1	2	152	67	2006
1	2	137	93	2006
1	2	126	0	2006
1	1	0	63	2009
1	2	133	63	2009
1	2	0	0	2009
2	2	152	0	2003
1	2	137	0	2008
1	2	152	56	2009
1	0	137	0	0
1	2	122	66	2008
1	0	0	0	0
1	2	129	64	2008
1	2	139	71	2009
1	1	119	0	2006
1	1	142	63	2006
1	1	136	66	2009
1	1	126	76	2006
2	1	132	0	2003
1	0	126	63	2008
1	2	126	77	2009
1	2	123	0	2005
2	2	0	68	2004
1	2	128	0	2007
1	2	124	57	2008
1	2	126	51	2009
2	1	128	0	2004
5	2	126	0	2006
1	1	138	0	2009
1	2	120	76	2009
2	1	126	0	2005
1	1	132	55	2007
4	0	0	0	0
1	2	142	86	2005
2	2	130	0	2003
2	2	122	67	2005
1	2	126	64	2008
1	2	152	66	2009
1	2	126	0	2007
5	2	136	0	2005
1	2	126	67	2005
1	2	137	57	2009
1	1	138	66	2009
2	0	0	0	0
1	2	132	55	0
2	1	120	0	2005
2	1	122	52	2004
1	2	122	57	2009
1	1	128	0	2007
2	2	142	64	2003
2	1	123	53	2005
2	1	135	0	2005
1	1	121	78	2009
1	1	119	63	2009
1	1	152	62	2009
1	2	137	64	2008
1	1	139	63	2008
1	2	137	93	2008
1	2	126	54	2008
1	1	142	64	2007
1	2	122	64	2009
1	2	122	0	2006
1	1	0	0	2006
2	1	124	0	2005
1	2	137	63	2008
1	2	126	57	2009
1	0	0	0	0
5	2	132	0	0
1	2	152	63	2009
1	1	122	68	2008
1	2	152	63	2007
2	1	122	78	2005
1	1	0	0	2010
1	2	134	56	2009
1	2	126	0	2006
2	2	136	98	2005
1	2	134	91	2008
1	1	119	52	2006
1	2	0	76	2009
1	1	122	67	2005
1	1	133	0	2007
4	0	0	0	0
1	0	130	78	2006
1	0	0	0	2009
1	1	134	53	2009
1	2	153	0	0
1	2	128	0	2006
1	1	148	0	2006
1	0	0	0	0
1	2	141	54	2007
1	0	0	71	0
1	2	123	57	2009
1	1	119	62	2009
1	1	126	0	0
1	1	143	52	2005
1	2	125	71	2008
2	2	130	0	2004
1	1	127	52	2007
1	2	123	89	2008
1	1	124	68	2007
1	2	137	64	2009
2	2	122	0	2005
1	2	126	58	2008
1	2	152	0	2006
1	2	123	91	2007
1	1	143	54	2008
1	1	124	64	2007
1	1	120	66	2009
1	2	152	0	2008
1	1	129	64	2007
2	2	152	0	2005
1	1	137	56	2009
1	1	132	62	2009
1	2	136	63	2008
1	2	137	63	2007
1	2	0	0	2007
5	1	128	0	2005
1	1	141	64	2007
2	2	122	0	2004
1	1	123	64	2007
2	2	152	63	2005
1	1	128	0	2006
5	1	132	0	2006
5	2	152	0	2009
1	1	120	0	2008
1	1	141	63	2009
2	2	0	0	0
1	2	137	63	2007
1	2	0	51	2008
1	1	152	63	2007
1	2	119	63	2009
1	1	122	0	2005
1	2	137	0	2006
1	1	119	56	2009
1	2	143	0	2006
2	1	133	76	2005
2	1	122	0	2005
1	2	122	0	2007
1	1	134	0	2007
1	2	0	53	0
1	1	142	0	2007
2	2	140	0	2004
2	2	0	0	2004
1	2	126	0	2006
1	2	122	86	2006
2	2	122	0	2005
1	2	143	0	2006
1	2	126	66	2009
1	2	0	0	2009
2	2	120	0	2005
1	2	122	97	2007
1	2	118	57	2010
1	0	123	63	2006
1	1	127	63	2009
2	2	122	0	2004
1	1	124	0	2007
1	2	143	0	2008
1	2	137	75	2008
1	1	132	54	2009
1	2	126	0	2006
1	0	0	0	0
2	2	126	78	2005
1	1	142	0	2006
1	2	129	0	2005
1	2	0	57	2010
1	1	132	0	2007
1	2	122	0	0
1	2	122	86	0
1	2	140	0	0
2	2	138	0	2005
1	0	0	0	0
1	1	120	0	2008
1	2	129	63	2009
1	1	118	64	2010
1	2	136	52	0
1	2	122	0	2008
1	1	134	63	2007
1	1	135	58	2008
1	2	139	0	2006
5	2	141	0	0
1	1	122	62	2007
1	2	152	0	2007
1	2	137	67	2007
1	1	123	63	2009
1	1	128	0	2007
1	2	136	0	2006
2	1	127	0	2005
1	2	123	77	2008
4	1	0	0	0
1	1	136	64	2008
2	1	129	0	2004
1	2	130	67	2004
1	1	0	72	2009
1	2	152	52	2006
2	2	130	0	2002
2	1	142	83	2005
2	1	134	81	2005
1	1	122	63	2009
1	1	118	0	2007
2	1	126	0	2005
1	1	125	63	2008
2	2	127	0	2005
1	1	135	63	2009
1	1	132	63	2009
1	2	118	0	2006
1	1	126	51	0
1	1	127	78	2007
1	2	0	68	2004
1	0	143	61	2007
2	1	129	0	2005
1	2	120	0	2004
1	2	128	63	2009
1	2	135	77	2009
1	1	124	0	2005
1	1	118	100	2009
1	2	0	76	2008
1	2	0	57	2009
1	2	141	52	2008
1	2	129	86	2008
2	2	126	0	2004
1	1	139	0	2008
2	2	123	0	2005
1	1	122	63	2009
1	2	122	0	2008
2	2	141	0	2005
4	0	0	0	0
1	1	118	62	2010
1	2	143	63	2007
1	0	0	0	0
1	1	122	62	2008
1	0	0	0	2007
1	2	135	68	2007
5	2	135	0	0
1	2	0	54	2009
1	2	122	66	2009
5	1	0	0	0
2	2	134	0	0
2	2	137	0	2005
1	1	119	0	0
1	1	119	0	0
1	2	129	0	2009
1	2	126	0	2006
2	2	0	0	0
1	1	0	54	2009
1	1	133	77	2007
1	1	135	64	2007
1	1	120	64	2008
1	2	0	95	2007
1	1	143	0	2007
1	1	152	63	2007
1	2	130	63	0
5	2	131	0	0
1	1	0	0	0
2	0	0	0	2005
1	1	120	63	2009
2	2	152	67	2005
1	1	141	63	2009
1	1	124	64	2008
1	1	142	0	2006
1	1	120	0	2008
1	2	137	63	2009
1	1	124	82	2006
1	2	150	64	2008
1	2	122	0	2008
1	2	0	64	2009
1	2	137	67	2006
2	0	0	0	0
1	1	0	0	2006
1	2	139	63	2009
1	2	0	57	2008
1	0	130	64	2007
1	2	139	0	2009
1	2	137	57	2009
1	1	142	0	2006
1	1	127	0	2006
1	1	136	53	2008
2	2	140	0	2005
2	1	134	0	2005
1	1	122	62	2007
1	2	126	70	2009
1	2	126	52	2007
1	1	138	64	2009
5	2	152	0	2005
1	2	143	76	2006
1	0	0	0	0
1	2	123	63	2006
1	1	122	54	2009
1	1	152	55	0
1	1	122	63	2008
1	2	134	99	2007
1	0	0	0	0
2	2	152	0	2005
1	1	136	63	2008
2	2	118	0	2004
1	2	142	0	2006
1	2	0	0	2009
1	1	120	54	2009
5	2	141	0	2006
1	1	118	63	2008
2	2	122	76	2004
1	2	127	63	2009
1	1	152	53	2008
1	1	123	0	2007
1	1	0	63	2008
1	2	122	0	2007
1	2	126	0	2008
1	2	129	66	2009
1	2	143	64	0
1	0	137	63	2006
2	2	156	0	0
1	1	128	0	2005
1	2	0	54	2009
4	2	0	0	0
1	0	137	0	0
2	2	126	0	2005
1	2	118	51	2008
1	2	130	94	2007
2	2	137	0	2003
2	2	130	0	2004
1	1	132	0	2006
1	2	126	77	2007
2	0	0	0	0
2	1	152	0	2005
1	1	119	76	2009
5	2	126	0	2005
1	2	118	0	2006
2	2	139	54	2003
1	2	0	0	2009
1	2	126	64	2007
1	2	152	67	2007
1	2	0	54	2009
1	2	128	54	2009
2	2	140	0	0
1	2	121	57	2009
2	2	137	87	2005
1	2	137	78	2006
2	2	152	0	2004
1	2	141	51	2009
1	2	122	55	2006
1	1	126	62	2009
1	2	126	0	2006
1	2	126	52	2008
1	2	137	89	2008
2	0	0	0	0
1	2	137	66	2009
2	1	120	78	2003
1	1	120	53	2008
1	1	139	0	2007
1	2	142	87	2007
1	2	130	52	2007
1	1	136	76	2008
1	2	0	0	2006
1	2	152	64	2009
1	2	141	52	2007
1	2	134	70	2009
1	2	119	0	2006
1	2	128	0	2006
2	1	152	0	2005
1	2	132	0	2007
1	1	128	63	0
1	0	0	0	0
1	2	137	54	2009
1	1	142	83	2006
1	1	123	60	2008
2	1	143	0	2005
1	1	139	64	2009
2	2	134	55	2002
1	2	137	0	2006
1	1	123	0	2006
1	2	152	0	2006
1	2	137	53	2009
1	1	124	66	2008
1	1	0	57	2006
1	2	136	0	2006
1	2	126	0	2006
2	0	0	0	0
1	1	142	52	2007
1	2	119	0	2007
1	2	136	94	2007
1	2	122	78	2007
1	0	0	0	0
1	0	142	0	0
1	0	0	0	0
5	0	152	0	0
2	2	123	0	2005
2	2	118	0	2005
1	1	129	63	2008
1	2	126	96	2006
1	2	126	66	2008
1	1	139	0	2008
3	2	122	0	0
5	2	149	0	0
1	1	139	52	2008
1	2	139	56	2009
2	0	143	0	0
1	2	130	0	2007
1	1	133	63	2009
1	1	142	0	2007
2	2	126	0	2004
1	2	126	54	2008
1	2	137	57	0
5	1	145	0	2005
1	2	0	64	2009
2	2	136	0	2005
1	2	128	0	2008
1	2	0	70	2008
1	2	126	64	2007
5	2	144	0	0
1	2	120	63	2006
2	2	124	0	2003
5	1	151	63	2006
2	2	126	67	2005
1	2	126	0	2007
1	1	137	100	2005
5	2	152	0	2006
2	1	132	0	2004
1	1	119	0	2006
1	2	120	57	2009
1	2	134	95	2005
1	2	122	0	2010
1	2	134	0	2008
1	2	137	91	2008
1	2	132	64	2008
2	1	126	0	2003
1	2	129	66	2009
1	2	118	77	2008
2	0	129	0	2005
1	1	122	52	2008
1	1	152	0	2007
1	2	0	70	2009
1	2	142	52	2007
1	2	152	63	2005
2	2	152	0	2004
1	2	129	76	2006
1	1	138	0	2006
1	1	126	54	0
2	1	119	0	2005
1	1	137	80	2006
1	1	139	0	2008
2	1	136	0	2005
1	2	136	54	2007
1	2	127	0	2005
5	1	0	0	0
5	1	121	0	0
2	1	128	0	2005
1	0	134	0	2007
5	2	139	0	0
1	1	139	84	2007
1	2	149	0	2010
1	1	133	53	2007
1	1	122	76	2008
2	1	125	0	2005
1	2	152	70	2009
1	1	128	54	2009
2	1	122	0	2004
2	2	119	0	2005
2	1	0	0	2005
2	2	152	89	2003
1	2	122	93	2007
2	1	126	55	2004
1	1	122	0	2006
1	2	137	61	2009
5	2	152	0	0
1	1	132	0	2006
1	1	118	63	2010
2	2	139	97	2005
1	2	126	63	2007
1	1	120	67	2007
1	2	134	97	0
1	1	128	0	2009
1	1	122	0	2006
1	2	137	86	2008
1	2	137	97	2005
1	2	152	70	2007
1	1	119	0	2008
1	2	0	64	2008
1	2	122	76	2006
1	1	142	0	2006
1	2	152	54	2009
1	1	122	0	2009
1	2	124	97	2007
1	2	130	92	2007
1	1	126	76	2004
1	2	118	0	2009
2	2	135	0	2005
1	2	134	96	0
5	2	0	0	2006
1	1	0	54	2009
2	2	118	0	2005
1	1	128	62	2009
5	0	0	0	0
5	2	157	0	2005
1	2	134	78	2006
1	2	137	0	0
1	2	134	0	2006
1	1	137	64	2007
1	1	123	63	2006
1	2	141	64	0
1	2	137	64	2007
1	2	122	92	2006
1	1	120	63	2009
1	2	131	54	2009
5	2	128	0	2007
1	2	126	57	2008
5	1	128	52	2005
1	0	122	76	2007
1	2	126	95	2006
1	1	126	66	2009
1	0	0	0	0
2	2	130	87	0
1	0	120	63	2009
1	2	128	0	2009
1	1	126	0	2007
1	2	118	53	2009
1	1	128	63	0
1	0	0	0	0
2	1	120	83	2004
1	1	127	61	2007
1	2	137	0	2009
2	2	135	0	1999
1	2	128	57	2009
1	2	152	64	2008
1	2	152	67	2007
1	1	126	63	2009
1	1	120	63	2007
1	2	136	76	2008
1	2	0	0	0
1	1	128	0	2007
1	1	128	76	2007
1	2	152	57	2009
1	1	139	0	2008
1	2	128	63	0
1	2	124	0	2008
1	2	129	55	2008
1	2	120	57	2009
1	2	152	63	2008
1	2	142	52	2007
1	1	119	0	2006
4	2	126	0	2004
1	2	120	55	2008
5	2	126	0	2006
1	2	123	95	2008
1	2	152	55	2009
1	1	124	63	2008
5	1	156	0	2007
1	2	137	94	2006
2	2	123	0	2002
1	1	139	64	2009
1	1	120	78	2008
1	2	128	66	2008
1	2	120	0	2008
1	0	0	0	0
1	2	128	0	2009
1	2	141	66	2009
2	2	134	91	2004
1	1	118	0	2006
1	1	128	0	2008
1	2	136	76	2008
1	2	126	58	2009
2	2	122	0	2002
2	0	0	0	0
1	2	129	76	2008
1	2	137	76	2008
1	2	152	90	2008
1	2	125	0	2006
1	1	0	75	2009
1	1	0	64	2009
1	2	131	57	2009
1	1	124	76	2007
1	2	141	0	2006
1	1	122	62	2009
1	1	136	78	2007
1	1	122	0	0
1	1	128	0	2006
1	1	0	66	2008
1	1	130	55	2005
1	1	137	0	2005
1	2	126	85	0
1	0	0	0	0
1	2	129	87	2005
1	2	139	0	2008
5	2	126	0	0
2	2	122	95	2005
2	1	118	0	2005
1	1	127	0	2007
1	1	0	0	2008
1	1	130	53	2005
1	2	144	77	2008
2	2	0	89	0
1	2	136	76	2008
1	1	137	63	2009
1	1	126	0	0
1	1	153	0	2007
2	2	134	0	2005
1	1	136	0	2005
1	2	128	77	2009
5	2	126	0	2010
4	2	0	0	0
1	2	0	0	0
1	2	120	91	2006
1	2	153	0	2006
1	1	134	52	2008
1	2	122	76	2007
1	1	0	63	2008
1	1	150	63	2009
1	2	126	93	2006
2	0	0	0	0
2	1	129	0	2005
1	0	137	78	2007
1	1	118	0	2006
1	2	134	0	0
1	1	126	63	2009
1	2	128	0	2007
2	2	142	0	0
1	2	139	0	2007
1	1	0	76	2006
1	0	0	0	0
2	2	141	0	2004
1	2	119	94	2006
1	2	122	0	2006
1	2	149	66	2009
5	1	145	0	2005
1	0	0	0	0
2	2	119	0	2005
1	2	137	64	2007
2	2	122	0	2004
1	0	0	0	0
1	1	142	76	2006
1	2	122	64	2009
4	0	0	0	0
1	2	137	75	2008
1	2	134	76	2006
5	0	0	0	0
5	2	131	0	0
1	2	139	57	2009
1	2	129	0	2008
1	2	122	0	2008
1	1	134	100	2007
1	2	141	63	2008
1	2	125	0	2005
5	2	125	84	2005
1	1	122	63	2007
1	1	123	53	2007
1	1	121	63	2005
3	2	134	89	2005
1	2	126	54	2009
1	1	125	66	2009
1	2	143	97	2006
1	0	0	95	0
1	2	0	0	2009
1	2	129	0	2008
1	1	134	64	2009
1	2	128	0	2007
1	2	0	0	0
1	2	152	78	2007
1	2	136	96	2005
1	0	118	0	0
1	1	136	0	2007
1	2	137	52	2008
1	2	124	0	0
5	2	143	78	0
1	2	137	0	2007
1	0	0	0	0
1	2	131	56	2009
1	2	119	0	2006
1	1	0	0	2009
5	1	134	61	2005
1	2	125	66	0
1	2	141	66	2009
5	2	137	0	2005
1	1	137	54	2009
5	0	120	0	0
1	1	126	53	2008
1	1	121	0	2006
1	2	141	0	2009
1	0	0	0	0
1	2	122	89	2005
2	1	0	0	0
1	2	0	52	2008
1	2	129	52	2009
1	2	118	0	2007
1	2	134	0	2006
1	1	123	66	2009
2	1	0	0	2006
2	2	132	93	2005
2	2	126	0	2005
1	1	119	0	2009
1	0	120	67	0
2	1	129	0	2005
1	2	130	0	2007
1	2	118	0	2007
5	1	153	0	2005
1	1	124	64	0
2	2	122	0	2005
1	2	126	66	2009
1	2	135	67	2006
1	1	124	63	2007
1	1	122	64	2008
5	2	126	0	2005
4	1	152	64	2008
1	2	0	0	0
1	2	0	63	2007
2	1	122	0	2005
4	2	0	0	0
1	0	0	0	0
2	2	137	0	2005
1	0	0	0	0
1	2	137	57	2008
1	1	122	80	0
2	0	120	0	2005
1	0	119	0	0
1	1	126	84	2008
1	2	126	95	2006
1	2	122	63	2008
1	0	0	0	0
1	1	0	0	0
1	1	0	62	2008
1	2	137	57	2009
1	2	137	76	2006
1	0	145	78	2010
3	2	0	0	0
1	2	126	0	2009
2	2	137	0	2005
1	2	130	55	2006
1	1	127	63	2009
2	0	139	0	2005
1	2	119	55	2008
1	2	152	63	2008
1	2	129	0	2009
1	2	126	57	2009
1	1	142	63	2009
1	2	141	0	2007
1	1	120	55	2006
2	1	128	52	2005
1	1	137	0	2005
1	1	130	63	0
1	1	128	66	2009
1	2	126	55	2009
1	2	139	0	2006
5	1	122	0	2007
1	1	125	76	2006
1	1	118	0	2008
1	1	128	76	2006
1	2	143	63	2006
1	2	137	85	2006
1	2	128	70	2007
1	2	152	57	2009
5	2	123	0	2007
1	2	122	67	2008
1	1	118	0	2007
2	2	134	0	0
1	1	143	77	2006
1	1	127	0	2006
2	2	120	99	2004
1	1	119	63	2009
1	0	0	0	0
1	1	124	80	2007
2	1	122	0	0
1	1	120	84	2006
1	1	125	63	2007
1	2	139	67	0
2	2	122	0	2005
1	2	118	0	2008
1	2	152	52	2008
2	1	120	0	1999
1	0	123	0	2006
1	1	122	0	2008
1	1	126	66	2008
1	2	126	0	2010
2	2	129	0	2005
1	2	120	0	2005
1	1	152	64	2007
1	2	152	63	2009
1	2	151	67	2006
1	1	118	53	2007
1	2	126	85	2006
2	2	127	0	2004
5	1	125	0	2005
1	1	0	0	0
1	2	123	89	2005
5	2	134	0	2006
2	1	119	0	2004
2	1	0	0	2005
2	2	134	0	2004
5	2	152	0	0
1	2	122	63	2007
2	1	142	67	2005
1	1	139	58	2007
5	2	139	0	2006
1	2	126	63	2009
1	1	118	0	2010
1	1	128	0	2008
1	2	136	53	2005
1	2	137	64	2007
1	1	124	80	2006
1	2	122	78	2007
1	2	126	63	2009
1	2	137	64	2008
2	1	120	82	2004
2	1	144	76	2005
1	1	142	53	2009
1	2	125	53	2006
1	2	122	64	2007
1	1	126	63	2008
1	2	137	70	2008
1	1	128	52	2008
2	2	130	0	2001
1	2	126	55	2006
1	0	120	0	2006
1	2	135	52	2008
1	1	127	0	2006
1	1	120	64	2009
1	2	122	89	2007
1	2	141	57	2009
1	2	121	57	2009
1	1	135	0	2009
1	1	143	83	2006
1	2	134	54	2009
1	2	126	63	2009
1	1	141	63	2008
1	1	124	0	2006
2	1	118	0	2005
2	2	123	0	2005
1	2	129	54	2008
1	2	148	0	2006
5	0	121	60	0
1	1	139	0	2007
1	1	122	52	2007
1	2	152	0	2006
1	2	122	0	2007
1	1	0	0	2007
1	2	134	66	2009
1	2	121	0	2005
1	1	152	66	2009
1	2	127	0	2006
1	0	0	0	0
2	1	0	0	2005
1	2	122	51	2008
5	2	134	0	2005
1	0	0	0	0
2	1	134	81	2004
1	1	0	64	2008
1	2	128	0	2007
1	1	126	0	2005
1	2	126	66	2009
2	0	0	0	0
1	1	127	63	2009
1	1	120	63	2009
2	2	133	0	2002
2	2	0	0	2005
1	2	120	0	2006
1	1	120	66	2009
5	2	132	0	2005
5	0	0	0	0
1	2	122	0	2006
1	1	120	101	2006
1	1	128	0	2006
1	2	124	63	2007
1	1	126	64	2007
1	2	124	52	2007
1	2	128	0	2008
1	1	133	0	2006
1	1	122	62	2008
1	0	0	0	0
1	2	122	67	2007
1	1	123	63	2009
5	2	149	0	0
1	0	0	0	0
1	2	137	78	2007
5	0	0	0	0
1	1	139	0	2010
1	2	143	95	2005
1	2	122	86	2006
1	2	129	66	2009
1	2	137	52	2007
1	1	137	54	0
1	2	127	66	2009
2	1	152	0	2004
1	1	118	77	2008
1	1	0	53	2006
1	2	130	60	2007
1	0	0	0	0
2	2	139	0	2005
1	1	0	0	0
1	1	118	0	2007
1	1	128	0	2008
2	0	0	0	0
1	1	136	64	2008
4	1	0	0	0
2	2	133	0	0
1	2	0	73	2008
1	1	128	63	2009
2	0	0	0	0
1	1	132	77	2005
1	2	143	67	2007
3	2	127	0	0
1	1	120	54	2008
1	0	0	0	0
1	1	135	66	2009
2	2	0	0	0
1	2	125	0	2007
1	2	152	76	2007
1	2	152	64	2008
1	0	137	63	2007
1	1	124	0	2007
1	2	119	0	2007
1	2	129	66	2009
1	2	137	64	2008
5	1	153	61	2007
2	2	152	0	2004
1	1	126	63	2008
1	1	119	79	2008
5	1	157	61	2005
1	1	130	0	2006
1	2	123	76	2006
1	0	0	0	0
1	1	139	0	2007
1	1	137	0	0
1	2	137	89	2006
1	1	121	63	2009
1	1	119	63	0
2	2	123	0	2005
1	2	135	71	2007
1	0	123	0	2009
1	1	132	83	2007
5	2	139	0	2004
1	2	130	61	2007
1	1	132	0	2007
5	2	149	0	0
1	2	136	70	2009
2	2	141	77	2004
1	2	132	55	2007
5	0	152	0	0
2	2	122	0	2005
1	1	0	0	2007
1	1	119	61	2006
1	2	122	55	2008
5	0	0	0	0
1	1	143	63	2006
2	2	126	0	2003
1	2	134	0	2009
1	2	129	52	2009
1	1	132	0	2005
1	1	143	0	2007
2	2	126	0	2003
1	2	141	76	2005
1	1	142	55	2006
1	2	130	53	2008
1	2	139	0	2008
1	2	122	0	2008
1	2	134	55	2008
5	2	124	0	0
1	2	142	76	2007
1	2	139	54	2009
1	1	121	76	2009
1	2	142	76	2007
1	2	126	51	2008
1	2	128	63	2008
1	1	122	63	2007
1	2	134	0	2007
1	2	126	51	0
1	1	132	0	2006
5	2	152	0	2006
1	2	137	0	2009
1	2	127	0	2008
1	2	139	0	2007
1	1	119	53	2008
1	2	126	66	2009
1	0	0	0	0
5	2	121	0	0
1	1	0	0	2009
5	2	137	89	2004
1	1	127	100	2007
2	2	126	0	2005
1	2	118	68	2007
2	0	0	0	0
1	1	132	63	2008
5	2	124	0	0
1	2	122	93	2007
1	1	121	63	2009
1	2	0	95	2007
2	2	119	0	2004
2	2	0	0	2004
4	1	156	0	2004
1	2	122	66	2009
1	1	127	58	2007
1	2	118	63	2009
1	1	123	53	2008
1	1	123	54	2007
1	1	121	75	2006
1	2	134	63	2008
1	2	141	0	2007
5	2	122	71	2007
1	2	122	91	2007
1	2	137	64	2008
1	0	139	0	2006
1	0	118	62	2009
1	2	136	85	2007
1	2	123	86	2006
1	0	145	0	0
1	0	132	55	2007
2	1	122	0	2005
1	2	120	0	0
1	2	143	61	2007
1	2	122	78	2008
1	2	141	66	2009
4	1	126	0	2005
1	2	135	76	2007
1	2	126	66	2008
1	1	124	67	2007
1	2	139	0	2007
1	2	127	0	2006
1	1	125	78	2009
1	1	126	63	2009
1	2	122	0	2009
2	1	132	0	2005
1	2	122	0	2005
1	2	141	64	2007
1	1	122	62	2008
1	1	138	80	2006
1	2	142	79	2008
1	2	152	67	2007
1	1	134	0	2006
1	1	128	67	2007
2	2	137	0	2005
1	0	0	0	0
1	2	126	63	2007
1	0	0	0	0
1	2	152	91	0
1	1	128	63	2008
1	0	0	0	0
1	2	127	0	2008
5	2	146	0	2010
1	2	126	0	2006
4	2	0	0	0
1	2	118	54	2010
1	2	136	63	2009
1	1	123	83	2006
1	2	123	61	2007
1	1	120	61	2006
1	1	127	0	2006
1	2	0	52	2009
2	2	152	0	2005
2	2	139	0	2005
1	0	143	0	2007
1	2	150	0	2006
1	1	134	83	2006
1	2	152	0	2009
1	2	122	0	2007
1	1	137	52	2008
1	1	143	0	2008
2	2	120	0	2004
2	1	143	0	2005
1	2	141	96	2007
1	1	148	0	2007
1	1	149	51	2010
2	2	126	63	2004
1	2	0	72	2009
1	2	135	0	2006
1	2	119	55	2008
1	2	139	63	2009
1	2	136	55	2009
1	2	142	0	2009
1	2	0	0	2007
2	2	137	0	2005
2	0	126	82	2005
2	2	127	0	2004
2	2	129	78	2005
1	1	119	66	2009
1	1	125	63	2008
2	2	126	61	2005
1	2	126	57	2009
1	1	128	66	2009
1	2	141	66	2005
1	2	123	61	2006
1	1	139	84	2006
2	1	120	0	2005
1	1	148	0	2006
1	2	126	58	2009
1	1	132	54	2008
1	2	125	97	2007
1	2	136	64	2008
1	2	134	0	2006
1	2	126	0	2007
1	1	133	0	2007
2	1	127	0	2004
1	2	152	63	2007
2	2	137	0	2005
1	2	120	0	2007
1	2	143	0	2006
1	2	128	0	2007
1	1	127	61	2006
2	1	122	0	2005
1	2	152	57	2005
1	2	134	93	2007
1	1	120	62	2009
1	1	123	63	2008
1	2	142	76	2008
1	2	141	55	2008
1	2	152	79	2008
1	2	124	0	2006
1	1	128	52	2007
1	1	152	0	2007
1	1	137	78	2007
1	2	122	0	2007
1	2	150	63	2008
1	2	125	67	2006
1	2	126	93	2008
1	1	0	63	2009
2	2	126	51	2005
1	1	118	55	2005
2	1	120	0	2005
2	1	142	76	2005
1	2	139	0	2007
3	2	133	67	0
2	2	143	0	0
1	2	131	63	2008
2	2	139	0	2004
1	2	134	71	2008
1	1	143	63	2009
1	1	133	63	2007
1	2	126	63	2009
1	2	0	63	2009
1	2	124	0	2007
1	1	118	54	2010
5	1	146	0	2005
5	2	152	0	0
2	1	150	55	2005
2	2	142	0	2005
2	2	136	0	2005
1	2	125	57	2009
1	1	125	53	2007
1	2	143	65	2006
2	1	133	0	2005
1	1	137	54	2008
1	2	122	63	2008
1	2	128	78	2006
1	2	136	76	2008
1	0	152	84	2006
1	2	123	76	2008
2	2	137	0	2005
1	0	0	0	0
1	2	122	0	2005
5	1	153	80	2004
5	1	145	0	2005
1	2	136	0	2008
1	2	152	55	2006
1	1	139	0	2006
4	2	0	0	0
1	2	153	95	2007
2	2	143	98	2005
1	1	128	0	0
1	2	122	55	2005
2	0	0	0	2005
1	2	118	0	0
2	1	142	84	2003
1	2	137	52	2008
2	2	127	0	2002
1	1	125	63	2009
1	1	122	0	2006
1	1	118	0	2005
1	2	126	0	2008
2	1	134	0	2004
1	2	130	0	2006
1	2	124	0	2007
2	2	132	0	2004
1	2	122	0	2006
1	1	134	78	2006
1	2	129	57	2009
1	1	127	71	2008
2	1	143	0	2005
5	2	128	0	2007
1	2	152	0	2006
3	2	120	0	0
1	2	139	0	2008
1	2	123	66	2009
1	2	141	75	2008
5	2	152	0	2006
1	1	143	0	2006
1	2	126	0	2009
2	1	132	0	2004
1	1	120	54	2009
2	0	122	0	0
1	1	141	63	2008
2	2	126	89	2005
5	0	153	0	2006
1	1	124	62	2009
1	1	124	61	2008
2	1	119	0	2004
1	2	137	51	2007
1	2	135	63	2006
1	1	139	55	2008
1	1	118	0	2007
2	1	126	78	2005
1	2	118	76	2010
1	1	126	52	2006
2	2	150	0	2004
1	2	0	0	2006
1	1	134	0	2008
2	1	120	0	0
1	0	0	0	0
1	1	120	0	2007
1	2	152	67	2005
1	2	137	70	2008
1	2	122	78	2007
1	2	137	67	2006
1	1	142	0	2006
2	2	126	98	2004
1	2	132	52	2007
1	2	144	54	2008
2	0	142	0	2005
1	2	129	53	2007
2	2	134	0	2004
1	2	126	87	2007
1	1	127	0	2007
2	1	144	0	2004
1	1	135	0	2007
1	2	136	0	2008
1	1	139	71	0
1	1	130	61	2005
3	1	120	57	2005
4	2	142	0	0
1	1	126	0	2004
2	2	0	0	2005
5	2	137	0	0
1	2	122	0	2006
1	2	123	95	2007
5	2	122	85	2006
1	2	0	57	2009
1	1	141	63	2009
1	2	130	97	2006
2	0	137	0	2005
1	1	120	75	2008
1	0	128	0	0
1	2	123	67	2007
1	2	120	67	2007
1	2	130	52	2006
1	1	0	64	2008
1	1	118	63	2008
1	1	129	54	2009
1	1	0	0	0
2	1	0	84	2005
1	2	141	0	2006
2	2	135	96	2005
1	2	120	52	2009
1	2	153	0	2008
1	2	121	67	2007
1	1	134	67	2006
2	1	142	0	2005
1	1	119	53	2005
1	0	0	0	0
1	1	143	81	2008
1	2	136	0	2006
1	2	126	0	2006
1	2	122	63	0
1	2	124	52	2008
1	2	130	76	2007
2	2	134	78	2005
1	2	152	55	2007
1	2	143	89	2006
1	1	142	63	2009
1	1	137	63	2008
1	2	124	60	2007
2	2	126	0	2004
1	0	0	0	0
1	1	128	55	2009
1	1	139	0	2007
1	2	129	63	2008
2	2	134	67	2004
1	2	129	88	2007
1	1	122	0	2009
1	2	120	66	2009
1	1	141	53	2009
2	0	122	101	0
1	0	133	52	2006
2	1	141	0	2005
1	2	124	51	2008
1	1	130	61	2007
1	2	122	0	2006
1	2	134	64	2008
1	2	130	0	2006
2	1	119	0	2005
1	1	120	0	2008
1	2	131	63	2006
1	2	129	76	2008
1	1	124	78	2005
1	1	128	63	2010
1	2	142	86	0
1	2	126	67	2006
1	2	129	70	2007
1	2	126	0	2008
1	1	127	0	2008
1	2	132	52	2007
1	1	132	79	2008
1	1	137	55	2008
1	2	0	0	2009
1	2	122	63	2006
5	2	134	0	2004
1	2	137	63	2008
1	0	0	0	0
5	2	134	0	2005
2	2	124	0	2005
1	0	119	0	2006
1	2	152	55	2005
1	1	122	0	2006
5	2	152	0	2005
1	1	120	62	2009
1	2	150	0	2008
1	1	150	0	2007
1	1	126	63	2008
1	2	126	53	2007
1	2	143	57	2009
1	2	129	0	2006
2	2	137	0	2004
2	1	142	0	2004
1	1	152	0	0
1	0	124	0	2006
1	2	122	52	2008
1	2	141	58	0
1	2	134	67	2006
1	1	127	53	2007
1	2	127	55	2007
5	2	137	0	0
1	1	118	75	2010
1	1	143	68	2008
1	2	134	0	2008
5	2	126	0	0
1	1	118	0	2006
1	2	120	0	2008
1	2	134	78	2007
2	1	152	76	2005
1	1	128	0	2008
1	1	138	52	0
2	1	137	94	2004
1	2	118	0	2008
5	2	134	0	2005
1	2	122	0	2008
2	2	122	0	2002
1	1	126	63	0
1	2	124	70	2008
5	1	136	0	2006
1	2	134	53	2007
5	2	130	0	0
1	2	120	63	2008
1	1	0	66	2009
2	2	123	0	2002
1	1	122	0	2006
1	2	0	90	2007
1	2	134	63	2009
4	1	0	0	0
1	2	123	57	2009
1	1	127	0	2006
1	2	142	66	2009
1	1	0	63	2009
1	2	123	54	2007
2	1	128	0	2005
2	2	124	0	2005
1	1	142	0	2007
1	1	126	63	2008
1	1	122	62	2007
1	2	123	54	2008
1	1	122	82	2006
1	2	128	67	2007
1	1	119	84	2005
1	2	126	70	2009
1	1	128	0	2006
1	2	122	78	2006
1	1	118	63	2010
5	1	124	0	0
1	2	126	78	2008
1	2	137	77	2006
2	2	134	0	2004
1	2	129	54	2009
5	2	155	0	0
2	2	0	0	2005
2	2	141	0	2005
2	2	128	0	2005
1	1	119	63	2008
1	2	126	96	2005
1	2	126	0	2004
1	2	130	64	2007
1	1	0	0	2009
2	2	126	63	2004
2	1	120	52	2005
1	2	132	51	2006
1	1	127	54	2009
1	1	123	62	2007
2	1	139	83	2004
1	2	130	55	2006
1	1	132	0	2006
1	2	128	0	2006
1	1	132	64	2009
2	2	132	0	2005
1	1	118	63	2009
1	2	141	0	2006
1	2	118	64	2008
1	1	134	62	2008
1	2	126	58	2008
1	0	0	0	0
1	2	132	76	2006
1	1	120	63	2008
5	2	0	53	2006
1	2	123	54	2008
1	2	137	76	2007
1	0	120	67	2007
1	1	122	61	2008
1	2	137	0	2006
1	2	0	0	2005
1	2	137	63	2007
1	0	0	0	0
4	0	0	0	0
1	1	126	63	2008
1	2	123	64	2008
1	1	123	66	2009
1	0	0	0	0
1	2	126	68	2007
1	2	129	57	2009
1	1	124	52	2008
1	2	120	66	2009
1	2	0	0	2006
1	1	128	0	2007
2	2	126	0	2005
1	2	122	97	2006
5	0	152	95	2005
1	1	120	66	2009
1	2	126	78	2006
1	1	121	66	2009
1	2	139	0	2008
1	1	139	0	2008
2	1	0	0	2004
1	1	130	65	2006
5	2	134	64	2005
1	0	0	55	2008
1	0	0	0	0
1	1	134	67	2006
1	1	125	55	2007
1	1	123	54	2009
1	2	133	52	2008
1	2	136	64	2007
1	2	131	63	2010
1	2	152	0	2007
2	1	128	0	2005
1	2	0	63	2008
1	0	0	0	0
1	0	0	0	0
1	2	124	0	2009
1	1	123	82	2005
1	2	124	79	2006
1	1	123	63	2008
1	1	124	0	2008
1	1	126	64	2007
1	2	124	64	2009
1	2	126	0	2007
1	2	137	98	2008
1	2	120	54	2009
1	1	127	63	2008
1	1	122	67	2006
5	2	126	71	2005
1	1	120	66	2009
2	2	126	0	2005
1	2	126	55	2008
1	2	0	0	2007
1	1	123	80	2006
1	1	136	66	2009
1	2	152	0	2007
1	2	118	0	2008
1	2	118	63	2009
1	2	141	67	2006
1	1	128	0	2006
1	2	127	54	2008
2	2	134	82	2005
1	1	127	0	2006
1	1	128	0	2006
1	2	126	64	2009
5	2	134	0	0
1	1	133	82	2006
1	2	126	51	2008
5	1	147	0	2006
1	2	152	70	2009
1	2	137	63	2006
1	2	120	66	2009
1	1	126	53	2008
5	2	146	0	2005
1	1	118	0	2007
1	2	137	66	2009
1	1	138	63	2009
1	1	122	63	2007
1	2	126	0	0
1	2	120	63	2007
2	1	0	0	0
1	2	125	57	2008
1	2	0	53	2007
1	1	124	71	2007
2	1	126	63	2005
2	1	129	0	2005
5	2	152	0	2005
1	2	134	63	2009
1	2	0	63	2008
1	1	118	0	0
1	2	132	63	2009
1	2	120	54	2008
2	2	129	88	2002
1	0	0	0	0
2	1	132	0	2005
1	1	120	101	2008
1	1	136	62	2007
1	1	139	0	2006
1	2	0	0	0
1	2	134	70	2009
1	2	141	88	2007
1	2	137	0	2006
1	2	144	78	2006
1	2	136	67	2007
1	2	130	0	2007
5	2	137	90	2005
1	1	0	78	2008
2	1	142	0	2005
2	0	0	0	0
2	1	128	0	0
1	1	133	54	2009
1	1	124	66	2009
1	2	122	57	2009
2	2	136	0	2005
1	1	129	0	2007
1	1	148	0	2007
1	0	0	0	0
5	2	145	0	0
1	0	0	0	0
2	2	122	0	2004
2	1	120	76	2005
1	1	127	58	2008
1	0	0	0	0
2	2	126	0	2005
1	1	148	0	2007
1	1	120	63	2008
1	1	152	54	2008
1	1	127	0	2007
1	2	122	54	2009
1	2	119	76	2008
1	2	137	64	2008
1	1	137	67	2008
1	1	133	0	2007
1	0	0	0	0
1	1	127	0	2006
1	1	133	0	0
1	2	129	57	2009
1	1	133	55	2006
1	2	118	53	2008
1	2	120	68	2007
2	1	126	52	2001
1	1	133	0	2006
1	2	123	0	0
2	1	153	0	2003
1	2	141	63	2006
1	0	137	76	2005
1	0	122	86	0
2	2	126	88	2004
1	2	135	86	2007
1	1	126	80	2007
1	2	120	89	2006
1	2	137	57	2008
1	1	119	62	2007
1	2	129	64	2006
1	2	128	0	2008
1	1	148	0	2007
1	1	134	61	2007
1	2	130	63	2005
1	2	134	0	2007
1	1	126	66	2009
1	2	152	0	2009
2	2	152	0	2005
1	1	118	86	2007
1	0	0	0	0
2	0	0	0	0
1	1	127	0	0
1	0	0	0	0
1	1	130	55	2006
5	2	126	0	0
5	0	155	0	2007
1	2	126	0	2007
2	1	128	0	2005
1	1	132	0	2006
5	2	152	0	0
1	2	136	78	2008
1	1	139	52	2008
1	2	0	64	2008
1	2	120	0	2007
2	2	0	0	2001
1	1	150	72	2007
2	2	122	0	2005
2	1	142	0	2005
1	2	122	55	2008
1	0	0	0	0
2	2	126	0	2004
1	1	126	63	2008
1	0	137	0	2006
1	1	123	54	2008
1	2	118	86	0
1	2	122	66	2009
2	2	126	54	2004
2	2	128	0	2005
1	2	137	94	2008
1	1	137	0	2006
1	2	125	77	2009
1	1	120	78	2008
1	2	137	64	2008
1	2	132	63	2009
1	1	120	101	2008
2	1	127	0	2005
1	1	128	63	2006
1	2	120	76	2006
1	0	122	0	0
1	1	126	80	2006
2	2	122	0	2004
1	2	141	52	2009
2	2	137	0	2005
2	2	126	89	2003
1	2	137	0	2007
1	0	130	63	0
1	1	120	64	2007
5	2	141	0	0
5	1	134	0	2005
1	2	126	53	2007
1	2	122	66	2009
2	1	126	78	2004
1	1	119	64	2009
1	2	152	63	2008
1	2	152	0	2006
1	2	141	54	2009
1	2	142	54	2006
1	2	130	63	2008
2	1	120	0	2005
1	2	132	76	2006
2	2	148	0	2005
1	2	132	0	2006
1	2	139	53	2009
1	1	152	0	2007
2	2	127	0	2004
1	2	0	78	2006
1	1	124	0	2008
1	2	141	54	2009
1	1	136	63	2008
1	0	0	0	0
1	2	143	0	2006
1	1	134	0	0
2	2	122	88	2005
1	2	126	57	2009
2	2	120	0	2005
1	1	144	0	2005
2	2	126	0	2001
1	2	143	60	2009
2	0	0	0	0
2	1	118	0	2004
2	1	142	0	2005
1	2	124	70	2009
1	2	122	57	2009
1	2	123	52	2008
5	2	126	0	0
1	1	139	63	2008
1	2	137	63	2007
1	1	138	63	2009
1	2	139	0	2007
5	1	126	0	0
1	1	135	52	2008
1	0	0	0	0
1	0	0	0	0
1	1	119	0	2008
1	2	143	0	2007
5	0	0	0	0
2	1	142	0	2005
1	1	127	66	2008
1	1	122	63	2006
1	1	142	0	2006
5	2	143	63	2005
1	1	119	66	2009
1	1	150	65	2008
1	2	126	63	2007
5	2	130	64	0
1	2	136	51	2009
1	2	0	70	2009
1	1	0	63	2009
1	1	126	0	2007
1	2	139	54	2004
1	2	126	0	2006
2	1	122	80	2005
1	0	0	0	0
1	2	146	0	2007
1	2	139	0	2009
1	1	122	0	2007
1	0	127	0	0
1	1	122	63	2009
1	2	0	0	0
1	1	129	0	2007
1	1	120	63	2009
2	2	126	0	2004
1	2	0	52	2008
1	1	139	0	0
1	1	119	0	2008
1	2	126	63	2008
1	2	122	78	2006
1	2	122	76	2005
2	1	124	0	2005
3	0	0	0	0
1	2	123	93	2006
1	2	118	57	2010
2	1	126	0	2004
1	2	137	0	2007
2	2	119	0	2005
1	2	137	86	2006
1	1	142	0	2009
1	1	132	60	2007
2	0	0	0	0
1	2	121	0	2008
1	2	125	0	2008
3	2	0	0	2007
2	0	0	0	0
1	2	136	54	2009
1	1	139	65	2008
2	2	151	55	2004
1	2	122	64	2007
1	1	0	0	0
2	2	152	0	2005
2	2	137	89	2002
4	2	0	0	0
1	0	0	0	0
2	2	123	0	2004
2	2	134	0	2005
1	2	129	90	2006
1	1	153	68	2008
1	2	126	64	2007
1	0	0	0	0
1	1	122	0	2007
2	2	137	0	2005
1	2	130	71	0
1	2	0	57	2009
1	2	126	52	2006
1	1	132	53	2007
1	0	0	0	0
2	2	122	57	2001
1	1	118	0	2006
1	2	138	0	2009
1	1	118	0	2009
1	2	138	70	2009
5	2	132	0	2005
1	2	152	0	2008
1	2	139	0	2006
1	1	135	0	2008
1	1	118	0	2009
1	1	142	0	2006
1	2	137	0	2006
1	2	134	95	2006
1	1	136	54	2007
1	1	118	54	2010
2	2	136	85	2005
1	1	152	63	2008
1	2	118	0	2007
1	1	127	54	2008
1	0	126	0	2008
1	1	132	0	2008
1	2	143	0	2007
5	2	140	0	0
1	2	120	0	2007
1	2	136	97	2008
1	2	0	0	0
2	2	134	85	2002
5	2	146	0	2010
1	1	134	0	2005
1	1	125	0	2008
1	2	123	0	2007
1	2	137	64	2008
2	0	122	78	0
1	1	139	63	2007
3	0	0	0	0
1	1	129	61	2009
1	1	124	63	2008
1	1	138	0	2008
1	2	0	97	2007
2	1	120	83	2005
1	2	128	0	2008
2	2	137	0	2005
1	1	130	76	0
1	2	126	54	2009
1	2	128	0	2006
1	1	118	0	2008
1	2	123	89	2006
2	1	128	0	2004
2	1	142	83	2004
1	1	124	63	2007
1	2	152	57	2009
1	0	0	0	0
2	2	134	0	2004
1	2	152	63	2009
1	2	146	58	2008
1	1	132	63	2008
1	2	137	51	2008
1	2	122	64	2008
2	2	126	0	2004
2	2	143	0	2005
1	0	0	0	0
1	2	152	0	2006
1	2	136	70	2006
5	2	152	0	2005
1	1	129	68	2009
1	2	134	0	2008
1	1	129	68	2007
2	1	153	0	2005
1	0	119	0	0
1	2	141	63	2008
1	2	138	0	2008
1	2	134	54	2008
1	2	123	0	2007
1	2	126	51	2008
1	1	128	0	2008
4	2	0	0	0
1	2	129	0	2006
1	2	123	54	2008
1	1	132	52	2007
2	2	129	93	2005
1	0	0	0	0
2	2	132	0	2005
1	2	122	0	2008
1	2	128	0	0
1	2	0	0	0
1	1	129	63	2009
1	1	124	63	2008
1	2	122	57	2008
1	1	124	71	2007
2	2	126	0	2005
1	2	152	0	2007
1	2	121	64	2009
1	2	152	0	2006
5	2	143	0	0
1	2	129	86	2008
1	0	0	0	0
1	1	127	67	2007
2	2	120	0	0
1	1	142	67	2006
1	2	0	89	2007
2	2	152	0	2005
2	1	139	74	2004
1	1	123	67	2008
1	2	120	64	2009
1	0	118	0	0
1	2	152	0	2008
1	2	123	51	2009
1	2	127	63	2008
1	2	121	0	2007
1	2	0	0	0
1	1	124	63	2007
2	1	136	68	2005
1	1	128	0	2006
1	2	121	70	2009
1	1	137	66	2009
1	1	126	0	2006
2	2	129	0	2005
1	2	130	97	2006
1	0	0	0	0
1	1	135	0	2006
1	0	0	0	0
1	2	152	63	2009
1	2	123	52	2008
1	0	121	0	0
1	2	122	0	2007
1	2	129	54	2009
2	2	123	98	2003
1	2	129	58	2007
1	2	152	75	2008
1	1	142	0	2006
1	2	152	78	2009
1	2	123	63	2008
1	2	0	78	2009
1	2	137	0	2008
1	1	0	68	2009
1	1	141	52	2008
1	0	143	0	0
1	1	122	54	2009
1	0	0	0	0
2	1	128	91	2004
5	2	152	0	2006
1	1	142	63	2009
1	2	122	63	2007
1	1	133	0	2007
1	1	122	0	2006
1	2	126	64	2008
2	2	129	98	0
1	1	120	62	2005
1	2	128	0	2006
5	2	152	63	2005
1	1	0	52	2008
1	2	137	89	2006
1	1	141	0	2007
1	2	0	0	0
1	2	122	53	2007
1	2	122	52	2009
1	2	134	0	2005
1	2	137	0	0
2	2	126	0	2005
1	1	120	62	2008
1	2	136	67	2007
1	1	137	63	2007
5	2	152	0	2009
2	1	122	0	2003
1	1	127	63	2008
1	2	136	71	2007
1	2	139	57	2009
1	2	126	0	2006
1	2	122	0	2009
1	2	122	0	2008
1	1	123	84	2006
1	1	127	61	2007
1	1	123	0	2007
1	1	136	0	2006
2	2	134	90	2002
1	1	120	0	2006
1	2	122	0	2006
1	2	128	0	2006
5	2	147	0	2007
1	1	142	68	2007
1	2	123	76	2008
1	1	129	66	2009
2	2	137	0	2003
1	1	134	0	2005
1	0	0	0	0
1	1	120	64	2008
1	2	122	0	2007
1	2	137	76	0
1	2	122	54	2009
2	2	122	66	2005
2	2	126	64	2003
2	1	122	55	2005
1	2	120	66	2009
2	2	152	0	2005
1	1	141	63	2007
1	1	125	61	2009
1	2	122	0	2007
1	2	137	97	2006
2	1	127	0	2004
1	2	0	57	2009
1	2	133	0	2005
1	2	137	97	2008
2	2	131	99	2003
1	1	119	52	0
1	2	137	94	2008
1	2	137	64	2008
1	2	152	89	2006
1	1	124	55	2006
1	1	126	0	2007
1	2	0	52	2009
2	1	152	0	2005
1	2	137	54	2009
2	1	123	80	2004
5	0	126	0	2005
2	2	126	89	2003
2	2	123	0	2005
1	0	129	0	2006
1	1	142	64	2008
2	2	0	0	2005
1	2	126	58	2006
1	1	135	66	2009
1	2	123	70	2009
1	2	150	54	2009
1	2	126	55	2007
1	1	137	54	2009
1	0	0	0	0
1	1	126	61	2007
5	2	122	64	2006
4	1	0	0	0
5	2	137	0	0
1	2	126	63	2005
2	2	137	0	2003
1	2	122	57	2009
5	2	143	95	2005
1	1	134	0	2006
1	1	129	63	2009
1	1	120	54	2009
1	1	127	79	2008
1	2	152	0	2006
1	2	129	0	2006
1	1	139	0	2008
1	2	129	89	2007
2	2	126	0	2005
1	1	120	54	2009
1	1	128	54	2009
2	2	137	0	2004
1	2	124	0	2006
2	0	132	0	0
1	2	126	51	2008
5	2	126	0	2005
1	2	123	76	2007
1	2	141	52	2007
1	1	119	64	2009
1	1	130	78	0
1	1	142	63	2007
1	2	132	75	2008
5	2	147	0	2006
1	2	120	66	2009
1	2	125	0	2008
1	2	150	54	2009
2	2	122	0	2004
1	2	137	0	2007
1	0	0	0	0
1	2	128	77	2009
1	2	0	81	2007
1	2	130	54	2006
2	1	137	82	2005
2	2	122	91	0
1	2	152	57	2009
2	0	0	0	0
1	2	139	63	2005
1	2	137	0	2007
2	2	122	87	2004
1	2	134	63	2009
1	2	152	79	2009
5	2	137	0	2007
1	2	137	57	2009
1	2	122	86	2006
2	2	130	0	2003
2	1	137	0	2005
1	2	122	70	2008
1	2	122	51	2008
5	2	126	0	0
2	2	134	86	2005
2	2	126	0	2003
1	2	126	0	0
1	2	132	92	0
1	1	139	63	2009
1	2	126	64	2009
1	2	136	64	2007
2	2	122	88	0
1	1	144	80	2006
1	1	141	66	2008
1	2	130	0	0
1	2	143	0	0
2	2	143	96	2005
1	1	119	63	2008
1	1	126	63	2008
1	2	127	52	2008
1	2	137	64	2007
1	1	137	56	2009
1	1	138	63	2009
1	1	120	0	0
1	1	137	0	2007
1	2	123	0	2006
1	2	129	71	2008
2	2	137	98	2004
5	2	134	0	2005
1	2	122	0	2007
1	2	136	64	2007
1	2	128	0	2005
1	2	122	65	2009
1	1	118	66	2010
2	1	148	0	2003
5	1	132	0	0
1	2	134	0	2009
1	2	128	0	2010
1	2	143	89	2006
1	1	124	80	2006
1	1	136	76	2006
2	2	137	0	2005
5	2	137	0	2005
1	2	125	65	2006
2	0	0	0	0
2	1	152	0	0
1	1	126	0	2006
1	2	124	66	2009
1	1	119	64	2009
1	1	135	53	2008
5	1	127	0	2004
5	2	156	0	2007
1	2	152	75	2008
1	1	122	0	2007
1	2	129	55	2006
1	1	127	52	2008
1	1	122	68	2006
1	2	128	0	2006
5	2	139	0	2006
1	1	119	0	2007
1	1	124	76	2007
1	2	122	70	2006
1	2	126	63	2008
1	1	0	54	2009
1	1	139	72	2006
1	1	148	66	2009
2	1	127	0	2005
1	2	137	57	2008
2	1	139	0	2005
1	2	122	86	2008
1	2	137	57	2009
5	2	141	0	2010
1	2	152	93	2007
5	0	0	0	0
1	1	118	68	2010
2	2	122	0	2004
1	2	141	72	2006
2	2	120	94	2004
4	1	128	0	2006
1	1	118	64	2010
1	2	142	66	2007
1	0	122	65	2006
5	2	126	0	2006
1	0	137	67	2006
1	2	122	86	2006
1	1	119	66	0
2	1	122	82	2005
1	2	122	73	2006
2	0	0	0	0
1	1	139	63	2008
1	1	126	63	0
1	2	130	57	2008
1	1	118	0	2009
1	1	0	0	2007
1	2	152	51	2007
1	2	152	91	2007
1	1	126	0	2007
1	1	121	66	2009
1	2	137	51	2008
1	2	122	0	2006
5	2	148	0	2006
2	1	139	0	2005
1	2	120	0	2007
1	2	126	0	2009
1	2	120	70	2009
1	0	0	0	0
1	1	124	0	2008
1	2	121	0	2009
5	0	0	0	0
1	2	122	54	2009
1	2	120	0	2007
1	2	0	0	2008
1	1	129	0	2006
1	0	131	0	0
1	1	121	62	2009
1	1	118	63	2009
2	2	0	0	0
2	2	137	0	2005
1	1	119	53	2006
1	0	0	0	0
1	2	126	63	2008
1	2	124	0	2007
1	1	120	66	2009
1	2	123	66	2008
1	1	120	63	2008
1	2	118	51	2010
4	2	0	0	0
1	1	132	80	2006
1	2	130	0	0
2	2	123	90	2003
1	1	136	0	2006
1	2	122	67	2004
1	2	126	0	2007
1	2	141	76	2008
1	2	126	67	2007
1	2	118	66	2010
1	2	126	66	2009
2	1	134	0	2005
2	0	126	0	2005
1	2	126	88	2007
1	1	125	62	2007
2	2	136	0	1912
1	1	122	67	2007
1	1	152	64	2008
1	1	122	63	2009
1	0	119	57	0
1	0	137	63	2008
2	2	0	0	2003
1	1	139	63	2006
5	2	126	0	2004
5	2	139	0	0
1	1	142	0	2006
1	1	143	0	2006
1	1	128	63	2009
2	1	119	0	2004
1	2	137	67	2006
2	1	120	0	2004
1	2	137	54	2008
1	2	0	76	2009
2	1	134	84	2004
1	2	134	66	2008
5	0	0	0	0
1	2	132	0	2009
1	1	130	0	2007
1	1	122	53	2007
1	2	134	99	2007
1	1	142	84	2006
1	2	118	0	2010
1	2	128	63	2008
5	2	148	0	2004
1	2	137	66	2008
1	2	127	0	2008
1	2	126	76	2009
1	1	126	63	2007
1	1	129	54	2008
1	2	145	66	2008
2	2	136	0	2005
5	1	120	0	2008
1	1	0	63	2008
2	2	141	0	2005
2	1	120	0	2005
1	2	143	65	2007
1	1	119	75	2008
1	2	122	0	2008
1	1	118	53	2007
2	2	143	0	2005
1	1	125	63	2009
1	2	136	64	2009
1	2	120	0	2009
2	2	134	0	2004
1	0	0	0	0
1	1	122	0	2007
1	2	123	63	2008
1	1	122	63	2009
1	2	136	0	2005
2	1	134	0	2005
1	2	122	66	2009
2	2	137	0	2004
1	1	118	63	2010
1	2	153	78	2010
2	0	0	0	0
1	2	126	76	2007
1	1	132	65	2007
2	2	127	0	2004
1	1	122	0	2009
1	2	128	0	2006
1	1	120	0	2007
1	1	132	64	2007
1	2	128	71	2009
1	2	127	0	2008
1	1	139	61	0
1	1	127	101	2006
1	1	137	0	2007
1	2	136	67	2007
1	2	126	85	2008
1	2	133	63	2009
1	1	132	63	2009
1	1	128	64	2009
1	2	130	0	2006
5	2	134	91	2004
1	2	129	76	2006
1	2	128	63	2006
2	1	118	80	0
1	2	142	70	2009
4	0	0	0	0
2	2	133	0	2005
5	0	0	0	0
1	1	134	64	2009
1	1	135	0	2008
1	2	118	0	2008
5	2	129	78	2006
2	0	0	0	0
2	1	127	0	2004
1	1	132	63	2009
5	2	122	0	2006
2	1	0	0	2004
1	2	137	90	2004
1	2	126	63	2006
1	2	122	67	2006
1	2	152	54	2009
1	2	126	64	2008
1	1	119	52	2007
1	2	134	0	2009
2	2	136	0	2005
1	2	152	93	2006
2	1	127	0	2005
1	0	120	0	0
4	2	0	0	0
1	1	152	0	2006
1	1	127	63	2009
1	1	119	0	2008
1	1	119	0	2006
1	1	142	0	2006
1	2	0	66	2009
1	2	126	0	2006
1	2	141	53	2005
1	2	126	0	2006
2	1	122	0	2005
1	1	125	52	2008
1	1	142	63	2009
1	2	138	95	2008
1	2	119	0	2007
1	2	121	0	0
1	2	134	91	2005
1	1	142	67	0
1	2	129	95	2008
1	2	123	57	0
5	2	0	0	2005
1	2	123	70	2006
1	1	122	100	2006
1	2	119	63	2009
1	2	126	63	2009
2	2	134	0	2005
1	2	124	70	2008
1	2	123	0	2007
1	2	139	0	2007
1	1	136	54	2009
1	2	134	71	2006
1	2	137	0	2006
1	2	133	0	2005
1	2	146	0	0
1	2	124	57	2009
2	1	119	0	2005
1	2	122	86	2008
1	1	121	54	2009
2	2	0	0	0
1	1	123	63	2008
1	2	126	0	2008
1	2	126	66	2008
1	2	131	0	2009
2	1	120	0	2005
1	2	126	54	2009
2	1	127	0	2005
1	2	118	0	0
1	2	129	0	2006
2	1	126	76	2004
1	2	123	76	2006
1	2	141	0	2006
1	0	0	0	0
1	1	127	66	2009
2	2	141	0	2005
1	2	152	52	2008
1	1	122	62	2007
2	1	126	81	2005
2	1	139	84	2005
2	0	0	0	0
1	1	128	0	0
1	2	143	96	2007
1	2	121	64	2005
1	2	126	63	2005
1	2	124	0	0
2	1	123	78	2004
1	2	118	78	2009
1	1	126	63	2007
5	2	0	0	2005
4	0	0	0	0
1	2	125	57	2009
2	1	132	0	2005
1	1	0	66	2008
1	2	118	97	2009
2	2	149	0	2004
1	2	137	57	2008
1	1	125	0	2007
1	2	126	0	0
1	2	134	63	2009
5	2	126	0	2005
2	1	124	0	2005
1	2	126	51	2006
2	2	132	51	2005
5	2	152	0	2005
1	1	127	56	2009
1	2	132	0	2008
1	1	142	64	2009
1	2	136	53	2008
1	2	122	66	2009
1	2	141	0	2006
1	2	126	66	2009
1	2	134	0	2006
1	1	119	0	2009
1	0	0	0	0
1	2	0	0	2008
1	1	0	0	0
1	2	126	0	2007
2	2	137	89	2005
1	1	143	0	2008
1	1	122	64	2008
1	2	137	57	2009
1	2	130	0	0
1	2	118	0	2010
1	1	118	56	2009
2	0	123	0	2004
1	1	148	61	2006
1	1	142	53	2009
1	2	119	86	2005
1	2	129	66	2009
1	2	137	54	2007
1	2	134	76	2008
1	1	123	64	2009
2	1	134	0	2004
1	2	124	70	2009
1	2	125	0	0
2	2	119	95	2005
1	1	118	62	2009
1	2	125	61	2007
5	0	0	0	0
1	2	122	86	2008
5	2	147	0	2006
2	1	120	0	2005
1	2	124	0	0
1	1	139	63	2007
2	2	126	0	2004
1	2	137	56	2009
5	2	147	0	2006
1	2	127	63	2009
1	2	136	95	2007
2	2	119	78	1969
1	2	132	63	2009
1	2	141	64	2009
1	1	0	63	2009
1	2	152	77	2006
1	2	122	97	2008
1	2	130	0	2006
1	2	126	52	2008
1	1	135	72	2006
2	2	122	61	2005
1	1	120	58	2008
1	1	122	64	2007
1	2	125	56	2008
1	1	141	78	2008
2	2	152	63	2005
1	1	118	55	2009
2	1	118	0	2005
1	1	118	0	2006
1	2	133	89	2005
2	2	130	0	2005
2	1	126	0	2005
1	2	152	97	2007
1	2	142	57	2009
2	2	126	0	2005
1	1	137	83	2007
1	2	146	54	2009
1	1	129	63	2009
5	1	152	0	2006
1	2	122	0	2008
2	1	123	81	2003
1	2	126	57	2009
1	0	139	52	2007
2	0	0	0	0
1	1	132	82	2006
1	1	120	0	2007
1	0	126	63	2007
2	1	120	80	0
2	2	152	0	2005
1	1	123	54	2008
1	0	141	66	0
1	1	137	0	2008
1	2	137	54	2009
1	2	122	86	2007
1	1	0	0	2006
1	2	137	66	2009
1	1	136	66	2009
2	2	146	0	2003
1	0	0	0	0
1	1	128	0	0
2	2	137	0	2005
1	1	127	0	2006
1	2	141	55	2006
1	1	152	55	2005
2	2	122	0	2005
1	1	132	66	2007
1	1	134	0	2006
1	0	134	0	0
1	2	137	67	2007
1	2	123	0	2006
1	0	0	0	0
1	0	0	0	0
1	2	143	60	2008
1	1	128	75	2007
1	2	128	57	2008
1	1	139	0	2006
1	1	120	63	2009
1	1	132	0	2006
1	2	126	63	2009
5	2	152	52	2008
1	2	137	0	0
1	2	123	93	2007
1	2	121	0	0
1	2	143	0	0
1	2	126	66	2009
2	1	0	0	2005
1	2	123	0	2006
1	2	143	68	2008
5	2	152	88	2005
1	2	121	0	2009
1	1	122	64	2007
1	2	122	63	2009
1	1	126	0	0
1	2	129	52	2008
5	1	126	0	0
1	1	139	63	0
1	0	143	0	2006
1	1	118	55	2007
1	2	118	54	2010
1	2	121	63	2009
5	0	0	0	0
2	2	134	0	0
1	1	120	67	2008
4	1	0	0	2008
1	2	119	54	2009
1	2	132	63	2009
1	1	0	0	0
2	2	128	55	2005
1	2	118	53	2009
1	2	118	0	2007
2	2	123	0	2004
1	2	120	0	2009
1	2	139	0	2005
1	1	136	52	2008
1	2	141	64	2008
2	2	137	0	0
1	2	136	57	2008
1	2	0	0	2008
1	2	137	90	2006
2	2	124	71	2003
1	2	122	64	2006
5	1	127	0	0
2	2	120	54	2005
2	1	124	0	2005
1	1	124	81	2008
1	2	153	100	2007
1	2	137	63	2006
4	1	0	0	0
2	1	122	100	2004
1	1	127	0	2006
5	1	128	0	2006
1	1	137	0	2006
1	2	142	76	2006
1	2	0	54	2009
1	1	136	75	2008
1	2	0	51	2008
1	2	122	70	2009
2	2	133	0	2003
1	1	120	78	2007
1	1	119	63	2007
1	0	128	0	2007
1	2	125	0	2007
5	1	119	0	2006
1	2	127	57	2009
1	2	152	66	2009
2	2	152	89	2005
1	1	120	76	2008
1	1	141	71	2007
2	1	125	85	2004
1	2	136	0	2009
1	2	126	77	2009
1	2	133	90	2006
1	0	127	56	2009
1	1	123	63	2009
1	2	122	64	2008
1	1	123	0	2006
1	2	130	53	2007
1	2	126	0	2005
1	2	129	66	2009
1	2	120	0	2008
1	1	0	0	2007
1	2	118	0	2007
2	1	126	0	2004
2	1	137	81	2005
1	2	152	54	2009
1	2	137	0	2008
1	0	0	0	0
1	2	137	64	2009
1	2	130	67	2006
1	1	118	63	2009
1	2	152	60	2008
2	1	136	0	2005
1	0	0	0	0
2	2	126	57	0
5	2	152	0	0
1	2	137	74	2008
2	1	122	67	2005
1	2	0	0	0
1	1	135	0	2006
1	0	132	0	0
1	2	152	0	2007
1	2	132	0	2006
1	1	130	63	2007
1	0	130	0	2006
1	1	118	63	2010
1	2	152	63	2009
1	0	0	0	0
1	2	152	0	2007
1	2	137	72	2008
1	2	134	95	2007
5	2	127	79	2005
1	2	126	75	0
1	2	126	54	2009
1	1	122	58	2006
1	2	0	70	2009
1	2	128	63	2009
1	2	127	63	2008
2	1	0	0	2002
1	2	141	92	2006
1	1	120	55	2006
2	1	122	0	2004
1	2	143	86	2007
1	1	0	63	0
1	0	0	0	0
1	2	132	0	2008
2	1	132	83	2004
1	2	143	65	2006
1	2	137	75	2008
1	1	128	64	2009
2	1	122	100	2005
1	2	137	53	2006
1	2	152	64	2009
2	1	124	65	2005
1	1	136	0	2007
1	2	122	53	2007
1	2	143	0	2006
1	1	120	0	2008
1	2	122	0	2009
1	2	118	0	2006
1	1	136	63	2007
1	2	137	57	2008
1	2	128	54	2009
1	0	0	0	0
1	1	120	63	2007
1	1	121	63	2009
1	1	129	53	2009
1	1	128	76	2007
2	2	126	0	2004
1	2	133	87	2007
1	0	0	0	0
1	2	136	0	2007
1	1	133	82	2006
2	2	129	0	2005
1	0	0	0	0
1	1	118	54	2009
2	2	122	0	2005
2	0	0	0	0
1	2	152	63	2008
1	2	122	95	0
1	2	0	52	2008
2	2	0	0	2004
1	2	133	0	2006
1	1	137	0	2006
1	2	122	53	2006
1	2	126	0	0
2	1	132	81	2004
1	1	134	66	2009
1	1	119	63	2009
1	0	0	0	0
2	2	119	0	2003
1	2	152	64	2009
1	2	152	76	2007
2	1	124	0	2005
2	1	0	0	0
1	0	0	0	0
2	2	122	0	2005
1	2	141	57	2009
1	0	152	0	2008
2	2	130	96	2004
1	1	127	53	2008
1	2	0	51	2009
1	2	143	57	2009
2	2	152	0	0
1	2	127	52	2008
1	2	137	64	2008
1	1	133	0	2006
1	1	122	101	2006
1	2	152	76	2008
3	0	0	0	0
4	2	0	0	0
1	2	123	51	2008
1	1	126	100	2008
1	0	0	57	2009
1	1	118	63	2010
1	2	148	93	2006
2	1	122	0	2005
1	1	127	80	2006
1	1	120	0	2006
1	1	122	0	2008
1	0	0	0	0
1	2	118	0	2010
1	1	118	101	2008
1	2	132	0	2009
1	1	122	66	2009
1	2	126	64	2009
1	1	122	76	2008
1	2	126	0	2006
2	1	136	81	2004
1	1	0	0	0
2	2	120	0	2003
1	1	139	0	2006
1	2	0	0	0
1	2	136	55	2009
1	2	123	95	2007
1	1	122	66	2009
1	2	125	0	0
1	0	0	0	0
1	2	134	63	2008
2	2	126	63	2005
1	2	0	78	2004
1	2	0	0	2006
1	1	127	78	0
1	2	127	0	2006
4	0	0	0	0
1	2	146	55	2006
1	2	136	52	2006
1	2	124	66	2009
1	1	119	63	2009
2	2	122	67	2002
2	2	123	76	2004
1	2	126	0	2008
1	2	137	76	2006
1	2	144	0	2008
1	2	152	55	2007
2	2	137	93	2005
1	2	134	0	2009
2	2	137	0	2005
1	2	128	0	2006
2	2	119	0	2005
1	1	134	0	2006
1	0	0	0	0
1	1	139	72	2008
5	1	145	0	2006
2	1	150	78	2005
1	2	122	78	2007
2	2	126	77	2004
1	2	134	94	2006
1	1	0	0	0
1	0	0	0	2006
1	1	135	64	2009
1	2	141	0	0
1	2	128	0	2008
2	2	122	89	2004
1	2	137	70	2007
1	2	152	0	2007
1	2	152	66	2009
1	2	130	54	2008
2	2	126	53	2004
1	2	126	67	2006
2	2	123	53	2005
2	1	127	0	2005
1	0	0	0	0
1	2	126	74	2006
2	2	122	0	2005
1	2	134	55	2009
1	2	129	89	2008
1	2	122	97	2007
1	2	152	51	2008
1	1	134	0	2006
1	2	128	0	2006
2	1	129	0	2005
1	0	135	0	2006
1	2	121	63	2009
2	2	126	67	2005
1	1	132	64	2009
1	0	0	0	0
5	2	126	0	0
1	2	122	0	2005
1	2	132	0	2005
1	2	118	68	2010
1	1	119	0	2005
1	2	0	79	2008
1	2	122	0	2007
1	2	152	57	2009
1	1	120	64	2008
1	0	0	0	0
1	2	123	55	2006
1	1	119	80	2005
1	1	148	66	2009
1	2	120	57	2009
1	1	123	58	2008
1	2	122	91	2008
2	1	138	0	2005
5	2	147	0	2006
1	0	0	0	0
1	1	132	64	2009
2	2	137	0	2004
1	2	137	57	2008
1	2	123	63	2006
1	2	153	0	0
1	1	120	73	2006
2	1	136	0	2004
1	1	122	0	2007
5	2	130	52	2005
1	2	120	0	2007
1	2	122	94	2008
1	2	128	70	2008
1	2	123	64	2009
1	1	152	66	2009
1	1	135	0	2007
1	2	137	64	2008
1	2	137	57	2009
1	1	0	0	0
1	2	128	63	2010
1	1	134	63	2007
1	1	120	83	2006
1	1	122	66	2009
1	1	130	63	2007
1	1	0	63	2008
1	2	126	52	2008
1	1	120	66	2009
1	2	141	66	2009
1	1	142	0	2004
1	2	127	0	2006
2	1	122	0	2005
2	2	137	57	2005
1	2	128	76	2008
1	1	127	64	2008
2	1	0	0	2004
1	2	141	76	2008
1	1	128	72	2008
1	2	123	51	2008
1	2	122	77	2007
1	1	121	64	2007
1	2	152	90	2007
1	2	125	0	2006
1	0	0	0	0
2	2	123	0	2005
2	2	0	96	2004
1	2	118	63	2008
1	2	130	76	2007
1	1	136	61	2006
1	2	130	67	2006
1	2	123	64	2009
1	2	118	73	2008
2	2	130	0	2002
2	2	126	0	2004
1	1	127	54	2009
1	2	152	64	2009
1	2	125	63	2006
1	2	131	57	2009
2	2	122	85	2004
1	2	153	95	2007
1	2	139	54	2009
1	2	140	0	2006
1	1	135	64	2007
1	2	152	0	2006
1	1	126	53	2007
2	1	127	0	2005
1	2	122	54	2008
1	1	120	0	2007
1	2	120	76	2008
1	2	141	0	2006
1	2	129	63	2008
1	2	143	54	2007
2	1	142	0	2005
1	1	129	0	2007
1	2	128	0	2007
1	1	129	63	2009
1	2	0	0	2007
1	2	126	0	2005
1	2	119	67	2007
1	2	129	66	2009
2	2	136	85	2005
1	1	0	100	2008
2	2	152	0	2004
2	1	122	82	2004
1	1	153	0	2008
1	0	0	0	0
1	2	152	64	2009
1	2	152	63	2009
5	0	0	0	0
1	2	137	89	2006
1	2	130	54	2007
1	0	0	0	0
2	1	152	0	2005
1	1	130	55	2006
1	1	120	66	2009
1	2	152	54	2009
1	1	118	63	2009
1	1	139	81	2007
1	1	122	64	2007
1	1	128	0	2006
1	2	152	0	2004
1	2	130	0	0
1	1	132	0	2005
1	0	0	0	0
1	1	0	52	2008
1	2	137	57	0
2	2	130	96	2002
2	1	120	71	2003
1	1	120	52	2007
1	2	0	58	2009
1	2	126	63	2009
1	2	128	0	2008
1	2	134	63	2008
1	1	148	0	2006
1	2	152	63	2009
1	2	125	0	2009
1	2	120	0	2004
1	2	123	57	2009
1	1	142	68	2009
1	2	123	77	2009
5	0	0	0	0
1	2	142	0	2006
1	2	123	78	2007
1	1	120	54	2009
1	1	124	63	2007
1	1	120	79	2008
1	2	128	0	2008
1	2	141	63	2008
1	0	132	0	0
1	1	120	76	2008
1	2	124	0	2006
1	2	143	0	2005
1	2	119	95	2007
1	2	123	63	2006
1	1	120	0	2007
1	2	142	63	2007
1	0	140	0	2007
2	2	122	0	0
1	2	134	72	2009
1	0	0	0	0
2	2	134	0	2005
1	2	0	63	2008
3	2	147	0	0
1	2	128	0	2007
1	2	127	55	2008
1	1	126	66	2009
1	2	137	89	2007
1	1	123	62	2009
1	1	132	63	2008
5	1	157	0	2007
1	1	126	0	2006
1	2	134	0	0
1	1	122	0	0
1	2	122	0	2007
1	2	121	63	2009
1	1	139	0	2006
1	2	128	0	2006
2	2	134	95	2005
1	1	125	0	2007
1	1	126	0	2007
1	2	122	0	2006
1	2	126	0	2007
1	2	119	0	0
1	1	142	67	2007
1	1	120	54	2009
1	1	119	55	0
2	1	126	0	2004
1	1	136	61	0
5	2	136	0	2007
1	1	122	67	2006
1	1	118	64	2010
1	2	137	52	2009
1	2	142	0	2008
1	2	122	0	2005
1	2	136	66	2009
1	1	139	0	2006
1	2	120	70	2009
1	1	122	83	2007
1	0	0	0	2006
5	1	152	83	2005
2	1	120	0	2004
2	2	152	0	2005
1	1	118	68	2009
1	2	126	0	2006
2	2	120	0	2004
1	1	135	63	2009
1	2	152	63	2008
1	2	126	63	0
1	2	122	0	0
1	2	122	66	2007
2	0	0	0	0
1	2	137	52	2007
2	2	134	95	2003
1	1	120	63	2008
1	0	0	0	0
1	0	0	0	0
2	1	120	0	2005
1	2	127	64	2006
1	2	137	54	2009
2	1	120	83	2005
1	2	122	65	2005
2	1	0	0	2005
1	2	124	54	2008
1	1	126	0	2006
1	1	118	66	2010
1	2	120	76	2008
1	2	0	0	2008
1	2	137	0	2007
2	1	137	52	2004
2	1	135	83	2005
1	1	139	0	2007
1	1	137	0	2006
1	1	128	81	2006
1	2	141	72	2008
1	2	126	0	0
1	1	140	0	0
1	1	137	66	2008
5	1	139	0	0
1	2	124	0	2006
1	1	126	63	2007
1	1	134	60	2007
1	2	120	0	2008
2	1	122	82	2005
1	1	137	55	2006
1	2	126	85	2005
1	0	152	0	2006
1	1	133	61	2008
1	0	119	0	2006
1	2	134	89	2006
1	2	0	66	2009
1	1	136	0	2006
1	1	136	66	2006
5	0	0	0	0
2	2	0	0	2005
1	1	127	83	0
1	1	119	68	2006
1	2	141	55	2009
2	1	122	0	2005
1	2	134	55	2009
1	1	120	63	2008
1	1	118	54	2010
1	2	134	63	2008
1	2	122	76	2005
2	2	134	98	2004
1	2	128	0	2006
2	2	122	0	2005
2	1	126	0	2004
1	1	129	52	2008
1	2	128	0	2007
1	2	137	0	2007
2	1	142	0	2005
1	1	132	64	2009
1	1	125	0	2009
2	2	120	0	2005
1	2	0	77	2008
1	2	122	86	2007
2	2	122	78	2005
1	0	0	0	0
1	1	132	52	2006
1	2	152	72	2008
1	2	128	70	2009
4	1	0	0	0
1	1	150	63	2008
1	2	124	64	2008
1	1	0	0	0
1	1	119	62	2009
5	1	154	0	2006
1	1	122	61	2009
1	1	127	79	2008
5	2	126	0	2010
1	1	136	66	2005
1	1	122	84	2006
1	2	120	67	2007
1	2	137	75	2008
6	2	126	0	0
1	2	148	0	2006
1	1	126	63	2009
1	2	126	58	2006
1	1	126	63	2008
1	1	132	0	0
1	2	137	66	2009
2	1	123	0	2005
1	2	126	52	2009
2	2	137	78	2005
2	1	0	0	0
1	1	142	63	2007
1	2	128	70	2009
2	2	122	0	2005
1	1	142	63	2007
5	1	145	0	0
1	2	145	75	2006
2	1	139	0	2005
1	2	130	53	2007
5	2	136	0	2008
1	1	153	67	2007
1	2	128	57	2009
1	2	129	93	2008
1	1	142	52	2008
2	1	0	0	2004
1	1	125	0	2006
1	0	0	0	0
1	1	126	64	2009
2	0	0	0	0
1	2	119	57	2009
5	2	131	0	0
1	1	139	63	2009
1	2	137	0	2007
2	1	122	0	2005
2	2	134	0	2005
1	0	0	0	0
2	1	124	0	2005
2	2	135	0	2005
1	2	0	54	2009
1	2	129	54	2008
1	2	133	90	2006
1	1	121	64	2009
5	2	0	0	0
2	2	122	0	2004
2	1	126	64	2004
1	1	126	63	2009
1	1	152	0	2007
1	1	142	63	2009
1	2	122	57	2009
1	2	118	0	2005
2	0	0	0	0
1	1	137	0	2007
1	1	132	0	2006
1	2	0	63	2009
1	1	136	63	2008
5	1	153	0	0
2	2	130	0	2004
5	2	152	0	0
1	2	137	0	0
1	1	126	58	2009
1	1	118	0	2007
5	2	152	0	2006
2	2	145	0	2004
1	0	0	0	0
1	1	124	0	2010
1	1	123	66	2008
1	1	132	55	2007
1	1	132	61	2007
1	2	127	66	2008
1	2	142	68	2006
1	1	122	0	2007
1	1	120	77	2008
1	2	148	63	2008
1	2	119	54	2008
1	1	125	67	2008
1	2	119	70	2009
1	2	129	87	2007
1	2	0	0	2008
1	0	0	0	0
1	1	132	63	0
1	2	122	0	2008
1	1	148	83	2007
1	2	137	0	2008
1	1	123	54	2009
2	2	125	88	0
1	2	126	61	2009
1	2	128	0	2007
1	2	137	54	2009
2	1	118	55	2005
1	2	0	51	2008
1	1	122	52	2008
2	2	137	0	2002
1	2	130	0	2007
1	2	127	0	2005
2	2	153	0	2005
2	0	122	80	2004
2	1	144	0	2005
2	2	152	0	2005
2	2	137	56	2005
1	1	135	63	2007
1	2	137	97	2008
2	1	134	0	2005
1	1	126	0	2005
1	2	118	70	2010
1	2	137	0	2007
1	2	0	0	0
5	2	155	0	0
1	2	136	63	0
1	1	118	66	2010
2	2	142	0	2003
1	2	141	0	0
1	1	120	66	2009
1	1	122	71	2006
1	0	143	0	2006
1	1	122	84	2006
2	1	0	0	0
1	2	126	77	2008
1	1	124	52	2007
1	1	139	0	2007
2	2	123	0	2005
2	2	126	0	2005
1	2	134	65	2006
1	2	152	68	0
1	2	152	66	2009
1	1	139	63	2008
4	2	0	0	2004
1	1	122	78	2007
1	2	129	77	2009
2	2	126	0	2005
1	1	123	0	2007
1	2	152	0	2009
2	2	137	0	2004
1	1	136	81	2008
1	0	0	0	0
1	1	128	0	2010
1	2	130	64	2007
2	2	137	0	2005
2	1	142	0	0
1	1	119	0	2009
1	2	136	66	2009
2	2	152	55	2005
5	2	134	71	2005
1	2	125	64	2008
1	2	142	0	2005
1	1	124	67	2007
2	1	125	84	2005
1	2	122	0	2008
1	0	0	0	0
1	2	135	86	2006
1	2	141	85	2006
2	1	157	0	2005
1	2	122	0	2006
1	2	130	0	2006
1	2	130	63	2007
1	2	134	0	2009
1	1	139	0	2006
2	1	119	0	2005
1	2	0	54	2008
1	2	136	0	2007
1	0	152	0	2007
1	1	120	76	2009
1	2	120	64	2008
1	2	124	58	2009
1	2	152	66	2009
1	1	137	54	2008
3	2	0	57	2002
2	2	0	0	0
1	1	118	72	2007
1	2	122	0	2009
1	2	125	0	2006
5	1	152	0	2006
1	1	0	57	0
1	2	150	94	2008
1	2	141	66	2009
1	2	137	0	2007
1	2	141	0	2006
1	1	0	0	2008
1	1	139	67	2008
2	2	137	67	2005
1	2	124	75	2008
2	2	118	0	2004
1	0	0	0	0
1	2	122	0	2008
1	0	0	0	0
1	1	120	63	2007
2	2	0	69	2005
1	2	126	79	0
1	2	122	0	2007
1	1	133	55	2008
2	2	122	0	2005
1	2	141	52	2006
1	2	125	0	2004
2	2	127	0	2004
1	2	152	64	2008
1	1	0	54	2009
1	2	153	53	2008
2	1	137	0	2005
2	2	126	0	2005
1	2	118	64	2007
1	2	135	63	2009
1	1	127	66	2009
2	1	124	0	2005
1	1	123	63	2007
1	2	119	72	2006
1	2	120	86	2008
1	1	126	55	2007
2	2	0	0	2004
1	2	129	57	2009
1	1	120	61	2008
1	2	135	63	2008
1	2	126	65	2006
1	1	141	0	2007
5	2	126	0	0
2	1	122	0	2005
1	2	152	54	2009
1	2	118	67	2009
1	1	120	66	2005
5	2	152	0	0
1	2	120	0	2007
1	2	143	93	2007
2	1	122	82	2005
1	2	137	0	2006
2	1	142	0	2004
2	1	142	0	2005
1	2	130	78	2005
1	2	152	61	2006
1	2	129	95	2008
1	1	128	64	2009
1	2	139	57	2009
2	1	138	0	2004
1	1	119	63	2009
1	2	134	54	2009
1	1	139	64	2009
1	1	137	54	2009
1	2	122	0	2008
1	1	118	78	2009
1	1	128	78	2008
2	2	126	95	2002
1	2	0	0	0
1	2	141	55	2009
1	2	135	54	2008
1	1	132	53	2006
1	2	118	57	2010
1	1	133	0	2008
1	1	120	83	2007
1	2	127	0	2008
1	2	125	91	2007
1	0	0	0	0
1	1	118	65	2007
4	2	0	0	0
1	2	141	63	2009
1	2	126	0	2006
1	2	122	0	2005
1	2	150	54	2007
1	2	126	63	2007
1	2	122	0	2008
5	2	144	0	0
1	2	126	51	2008
1	1	137	68	2007
1	2	152	67	2008
1	2	122	72	2008
2	1	134	83	2005
1	0	0	0	0
1	0	0	0	0
1	2	129	77	2008
2	2	137	0	2005
1	1	126	63	2008
1	2	118	65	0
1	2	129	54	2009
2	1	119	0	2005
1	1	122	80	2007
1	2	152	0	2006
1	1	148	63	2009
5	2	147	0	2006
2	2	145	0	2005
1	2	126	0	2007
1	2	122	0	2006
2	1	119	0	0
4	2	0	0	0
1	1	126	58	2009
1	2	122	0	2007
1	2	136	64	2009
1	2	137	70	2007
1	2	132	54	2009
1	2	130	0	2006
1	1	141	64	2009
1	2	134	70	2008
1	1	122	0	2007
2	1	141	81	2005
1	2	123	63	2007
1	2	134	67	2006
1	2	0	76	2009
1	0	0	0	0
1	1	122	63	2009
1	2	126	54	2008
1	2	126	52	2007
1	2	126	54	2009
1	1	137	66	2009
1	2	124	0	2005
1	1	126	53	2008
1	1	0	64	2008
1	2	150	92	2007
1	1	128	0	2006
1	2	141	76	2008
2	1	128	0	2005
1	1	119	55	2007
1	0	0	0	0
1	1	120	78	2007
1	0	119	0	2007
1	1	121	63	2006
1	2	152	0	2007
1	2	142	54	2009
2	2	126	97	2003
2	2	0	0	0
5	1	0	0	2005
1	2	126	63	2009
1	1	128	76	2006
1	2	126	97	2006
1	1	150	66	2009
1	2	126	51	2008
2	2	126	0	2004
1	1	120	0	2009
1	2	137	54	2009
1	2	137	67	0
1	2	126	85	2006
1	2	137	67	2006
2	2	125	86	2005
1	2	132	96	2006
2	1	120	64	2003
1	2	137	98	2006
1	2	128	51	2009
1	2	123	63	2008
2	1	0	0	0
1	1	120	0	0
1	1	118	55	2008
1	1	122	66	2008
1	2	142	63	2008
1	2	0	0	2009
1	2	137	53	2007
1	1	127	63	2008
2	2	128	67	2005
1	2	123	63	2007
1	2	137	51	2009
1	1	120	53	2008
1	1	119	52	2008
1	1	122	63	2006
1	1	124	66	2009
1	1	126	63	2007
1	1	120	64	2009
1	2	134	54	2008
1	0	134	63	0
1	1	124	64	2009
1	2	0	0	2006
1	2	128	0	2008
1	1	132	55	2008
1	1	118	63	2008
1	1	122	62	2006
1	2	129	54	2008
2	2	135	0	2005
1	2	129	57	2009
1	1	120	77	2008
1	2	130	64	2007
1	2	128	76	2008
2	2	119	0	2004
2	1	126	76	2004
2	1	127	0	2004
1	1	142	0	2007
1	1	137	0	2007
5	0	0	0	0
1	2	127	0	2006
1	2	152	0	0
1	1	126	0	2007
1	1	123	78	2007
1	2	126	66	2009
1	1	142	0	2005
5	2	152	0	0
1	1	127	55	2008
2	2	137	0	2004
1	2	0	68	2007
1	2	128	51	2007
1	1	119	52	2007
2	0	0	0	0
1	2	152	63	2009
1	1	0	0	2008
1	1	137	56	2009
1	1	118	0	0
5	1	132	0	2004
1	2	126	64	2008
1	1	122	71	2006
1	2	129	67	2007
1	1	136	0	2005
1	1	127	0	2007
1	2	123	0	2006
5	2	152	0	2005
1	2	132	51	2008
1	2	134	85	2007
5	2	141	0	0
1	2	137	0	2008
1	2	0	0	2009
1	1	134	63	2008
2	2	125	0	2004
1	2	137	52	2008
1	2	124	63	2007
1	2	128	0	2007
1	0	0	0	0
1	2	146	64	2009
1	1	122	0	2006
2	2	0	0	2005
1	2	121	57	2009
2	1	139	0	2005
1	2	122	66	2009
1	1	127	0	2007
1	2	122	63	2007
1	1	119	61	2007
2	2	122	63	2005
1	1	138	0	2006
2	2	137	0	2004
1	2	137	61	2006
1	0	0	0	0
2	1	0	78	2005
2	2	0	93	2004
1	1	139	78	2006
1	1	0	82	2007
1	1	127	53	2009
1	2	153	76	2008
5	1	139	76	2006
1	2	128	64	2008
1	2	142	53	2006
1	1	0	62	2008
1	2	137	53	2006
1	1	118	0	2007
1	1	0	63	2009
1	1	120	63	2009
2	1	126	0	2003
2	2	126	93	2005
1	2	130	58	2008
2	1	135	80	2005
1	2	126	71	2007
1	2	130	63	2007
1	1	135	0	2007
1	0	0	57	2009
1	2	143	85	2008
1	2	126	76	2008
1	1	126	67	2006
2	2	126	78	2005
1	1	127	0	2006
1	1	126	71	0
1	2	121	0	2005
1	2	121	57	2009
2	1	120	0	2005
1	0	0	0	0
1	1	120	75	2008
1	1	137	0	2007
1	2	122	0	2008
1	2	121	70	2009
1	2	137	76	2008
2	2	137	53	2003
2	1	133	0	2005
1	1	152	78	2007
2	2	122	63	2005
2	2	126	85	2004
1	1	139	84	2006
2	2	132	0	2005
1	1	120	0	2006
1	2	152	63	2009
1	2	130	58	2007
2	1	152	0	2004
1	2	137	68	2009
1	1	139	63	0
1	2	149	54	2009
1	1	118	58	2009
1	2	142	0	2006
5	2	152	0	2005
1	2	126	63	2009
1	1	125	66	2009
2	1	0	83	2004
1	2	134	94	2007
1	2	122	88	2006
2	1	135	0	2004
2	2	126	0	2005
1	2	126	51	2008
2	2	128	0	2005
1	2	122	57	2009
1	2	0	0	2010
1	2	132	0	2006
3	2	126	0	0
1	2	152	74	2008
1	1	132	0	2006
2	2	152	0	2004
2	2	134	94	2004
5	1	145	0	2006
2	1	123	84	2004
1	1	143	83	2008
2	0	0	0	0
1	2	141	77	2008
1	2	137	66	2009
1	1	123	53	2009
5	2	134	0	2005
2	2	123	0	2004
2	2	137	0	2005
1	1	137	63	2009
2	2	120	53	2005
1	1	0	64	2009
1	2	128	64	2009
1	0	128	0	2006
1	1	119	100	2006
1	0	0	0	0
1	2	123	54	2008
1	2	126	67	2008
1	1	122	0	2009
2	1	125	0	2004
1	1	120	63	2009
1	2	152	0	2008
2	0	0	0	2004
1	1	118	53	2010
2	2	0	0	2004
1	2	134	54	2009
1	2	126	0	2006
1	2	152	63	2008
1	2	120	64	2007
1	0	134	55	2007
2	1	0	0	2004
1	1	133	0	2006
2	2	0	0	0
1	1	143	76	2006
1	2	120	75	2008
2	2	0	0	2002
1	2	0	0	2008
2	2	136	0	2005
1	2	126	0	0
1	1	118	0	2007
1	2	152	57	2009
1	1	145	0	0
1	0	0	0	0
1	2	143	0	2007
2	2	120	0	2003
1	2	0	63	0
1	2	0	52	2009
1	2	135	90	2004
1	1	0	64	2009
1	2	129	0	2007
1	0	0	0	0
1	2	152	0	2009
1	2	126	0	2009
2	1	127	0	2005
3	2	120	0	0
1	1	128	63	2010
2	2	118	0	2003
1	1	119	0	2008
1	1	141	66	2009
1	2	121	76	2008
2	1	132	58	2005
2	2	0	0	2005
1	1	120	0	2006
1	1	0	63	2009
2	1	122	0	2004
1	2	122	52	2006
1	1	141	0	2006
1	2	134	0	2006
1	2	137	0	2008
1	1	120	0	2007
1	0	0	54	2009
1	2	134	0	2008
1	2	129	63	2008
1	1	148	0	2007
1	2	128	0	2007
2	1	139	0	2005
2	2	126	0	2005
1	1	118	64	2009
1	1	122	0	2006
1	2	129	52	2009
1	2	135	0	2009
1	2	134	51	2008
1	2	137	63	2009
2	1	138	0	2004
1	1	0	54	0
2	2	122	0	0
1	1	127	0	2006
1	2	0	66	2009
1	1	134	0	2009
5	2	130	0	0
5	2	152	68	2005
1	2	121	78	2006
1	2	152	57	2008
1	1	129	0	2007
1	2	140	73	0
4	0	0	0	0
1	1	135	0	2005
1	2	126	70	2009
1	2	0	54	2008
1	1	129	62	2007
1	1	132	63	2008
1	1	120	100	2006
5	0	139	0	2006
2	2	134	94	2005
1	2	123	0	2006
1	1	122	0	2004
2	1	126	0	2005
1	1	152	62	2009
1	2	122	0	2007
1	1	127	0	2007
1	2	152	68	2008
1	1	126	53	2007
2	2	0	0	2003
1	1	120	54	2007
1	0	143	64	2009
1	0	0	0	0
2	2	136	0	2004
2	2	134	94	2004
1	2	122	71	2006
1	2	122	54	2009
1	2	152	67	2008
1	2	137	71	2006
2	2	134	0	0
1	2	141	66	2009
1	2	137	92	2008
1	2	137	0	2008
2	2	141	0	2005
2	1	126	0	2004
1	2	123	54	2009
1	2	0	0	0
1	2	152	0	2006
1	2	121	66	2009
1	1	123	61	2007
1	1	128	0	0
1	2	137	54	2009
1	1	122	0	2008
1	1	128	0	0
1	2	124	64	2009
2	1	126	0	2004
1	2	135	97	2008
1	1	0	54	2009
1	1	120	63	2007
1	2	126	0	2006
1	1	137	0	2008
1	0	0	0	0
1	2	126	54	2009
1	1	142	0	2007
1	1	144	54	2009
1	1	122	53	2006
1	1	128	0	2005
2	2	134	0	2005
1	1	127	55	2008
1	2	122	0	2006
2	2	152	0	2005
1	1	128	64	2009
1	2	122	0	2006
1	2	152	53	0
1	2	126	63	2007
1	1	120	67	2006
1	2	122	78	2008
2	0	152	0	2005
1	2	137	52	2007
2	2	118	0	2005
5	2	0	0	0
1	2	122	91	2006
1	1	132	66	2009
1	2	118	57	2009
1	1	128	63	2009
1	0	0	0	0
1	2	122	64	2008
2	0	123	0	2004
1	1	118	0	2006
1	0	0	0	0
5	2	130	0	2006
1	2	118	0	2007
2	2	130	0	2004
2	2	137	0	2003
1	2	0	0	2008
1	1	122	63	2008
1	2	152	0	2009
1	2	123	0	2009
1	1	124	64	2008
1	2	152	54	2009
4	2	0	0	0
1	2	134	86	2006
1	2	118	63	2009
1	1	122	67	2009
1	1	118	0	2005
1	2	137	97	2006
1	2	128	0	2008
1	2	124	55	2008
1	2	134	93	2006
1	1	122	54	2009
1	2	118	0	2008
1	2	128	57	2004
1	1	149	64	2009
1	2	137	63	2009
1	2	139	0	0
1	2	126	58	2008
2	2	134	0	2005
1	1	139	76	2007
1	1	119	62	2007
1	2	122	78	0
1	1	128	52	2007
1	1	126	64	2009
1	2	120	56	2009
1	1	122	0	2007
1	2	126	0	2006
1	0	0	0	0
1	2	128	70	2009
1	2	125	0	2007
1	2	124	55	2008
2	2	122	89	2004
5	0	0	0	0
1	0	119	63	2006
2	2	152	0	2005
1	0	143	82	2006
1	2	120	57	2008
1	2	124	57	2010
1	2	0	54	2009
1	1	128	0	2006
1	0	139	72	2006
2	2	122	0	2005
1	2	137	66	2009
1	1	132	63	2008
1	2	133	66	2009
1	1	120	81	2007
1	2	122	78	2006
1	0	0	0	0
1	2	122	63	2007
5	0	132	0	0
1	2	0	64	2009
1	1	121	54	2009
1	2	133	0	2006
2	2	130	0	2004
1	2	152	70	2009
1	2	122	66	2009
1	2	120	66	2009
1	2	135	51	2009
2	2	152	0	2005
1	1	120	63	2009
1	1	138	0	2008
1	2	137	79	2008
2	2	120	55	2005
1	2	134	54	2008
1	2	122	0	2006
1	2	141	54	2009
4	2	0	0	0
2	2	130	96	2004
1	1	0	57	0
1	2	129	55	2008
1	2	126	0	2008
2	1	127	78	2005
1	2	141	0	2005
2	2	128	0	2005
2	2	124	0	2005
1	2	137	0	2006
1	1	125	81	2006
1	0	0	79	0
1	1	118	56	2010
1	1	133	0	2007
1	2	137	60	2005
1	2	130	53	2006
1	2	134	0	2007
5	2	153	78	2005
1	2	124	77	2007
4	2	0	0	0
2	1	122	84	2005
1	0	0	0	0
1	2	137	72	2009
2	2	118	0	2004
1	2	129	76	2008
2	1	119	0	2005
1	2	123	97	2006
1	2	137	76	2006
1	2	126	0	0
2	2	122	0	2005
1	2	136	66	2006
1	2	135	0	2006
1	2	137	71	2007
1	2	134	52	2006
1	1	0	66	2009
2	1	126	0	2004
1	2	126	63	2007
1	2	142	0	2007
1	1	127	0	2006
2	2	142	0	2005
2	1	139	0	2003
1	1	123	63	2008
1	2	134	56	2009
2	2	139	0	0
1	2	126	55	2006
1	1	144	0	2006
5	1	128	0	0
1	1	121	60	2009
1	2	134	91	2005
4	0	0	0	0
1	1	120	0	2007
1	2	0	64	2008
5	1	155	0	2007
1	0	0	0	0
1	2	122	0	2005
2	2	134	0	2004
1	2	119	70	2008
1	2	123	66	2009
2	1	152	78	2005
1	2	125	66	2009
1	2	130	0	2006
1	2	126	53	2006
1	2	128	0	2006
1	1	142	75	2007
1	2	122	71	2008
1	2	152	54	2008
1	1	152	79	2006
1	1	123	78	2007
1	2	128	0	2006
1	0	0	0	0
1	1	0	63	2008
1	2	120	66	2008
2	1	141	0	2004
1	1	132	0	2006
5	2	122	91	2006
2	1	124	0	2005
1	0	0	0	0
1	2	122	57	2008
2	1	137	80	2002
2	2	126	0	2004
2	2	139	0	2005
1	0	0	0	0
1	2	141	0	2009
1	0	139	65	2007
1	2	118	64	2010
5	2	145	0	0
1	2	127	0	2007
5	2	134	99	2005
1	1	123	0	2007
1	2	139	0	2007
5	1	153	55	2005
1	2	121	54	2009
1	2	130	78	2006
2	2	137	94	2005
2	1	129	0	2004
1	2	141	64	2008
1	2	124	78	2007
1	0	0	0	0
1	1	153	52	2008
1	2	0	0	2009
5	2	122	0	2006
1	1	132	52	2007
1	2	137	58	2009
1	1	137	0	2006
1	1	139	54	2009
2	1	141	0	2003
4	2	142	0	2005
1	1	122	63	2007
1	1	128	62	2006
1	1	152	63	2008
1	1	127	101	2007
2	1	139	82	2003
5	2	134	0	2005
1	2	129	70	2009
1	2	127	64	0
1	2	123	52	2008
1	2	118	0	2007
1	2	126	66	2008
1	1	137	64	2008
1	2	127	54	2009
1	1	122	0	2006
1	2	142	0	2009
4	2	0	0	0
2	0	126	0	2004
1	2	126	67	2006
1	1	118	0	2007
5	1	152	65	2005
1	1	124	0	2007
1	1	128	63	2007
1	2	152	0	2007
1	1	135	63	2009
5	2	152	0	2006
1	1	152	63	2007
1	0	0	0	0
1	2	125	63	2007
5	2	131	0	2008
1	1	132	0	2007
2	1	137	0	2004
1	1	139	63	2009
1	2	118	0	2008
1	0	0	0	0
1	2	128	54	2008
1	2	130	76	2007
1	1	132	60	2009
1	1	128	63	2010
1	2	123	64	2008
1	1	136	0	2005
4	0	0	0	0
1	2	152	54	2009
1	2	128	64	2009
1	2	118	93	2007
1	1	118	63	0
2	1	122	0	2004
1	1	120	82	2006
1	2	152	66	2009
1	1	129	60	2006
5	2	0	0	0
2	1	126	0	2005
1	1	122	63	2006
1	1	126	67	2008
5	2	154	0	2006
1	1	129	64	2009
1	2	125	57	2009
1	2	119	0	2009
1	2	126	51	2006
1	1	0	0	0
1	2	152	57	2009
1	2	137	90	2006
1	1	122	64	2007
1	2	137	57	2008
2	1	126	0	2004
1	2	141	0	2009
1	1	125	66	2009
1	1	118	61	2008
1	1	135	53	2007
2	2	137	0	2005
2	1	118	82	2005
1	0	0	55	0
2	1	0	0	2004
2	2	134	0	2002
2	2	119	0	2005
1	2	132	71	2008
5	2	134	0	2006
2	1	122	0	2004
2	2	0	0	0
1	2	122	67	2006
1	2	134	73	2007
5	1	132	0	2005
1	1	123	0	2007
1	1	122	82	2006
2	1	119	56	0
2	2	152	0	2005
1	1	119	0	2008
2	0	120	82	2004
1	2	135	52	2008
2	2	152	0	2005
2	1	137	0	2005
1	1	120	64	2009
2	1	137	82	2004
5	1	145	0	2006
1	2	119	57	2009
2	1	0	0	0
1	2	132	0	2006
5	1	132	0	0
1	0	119	0	2005
2	1	127	0	2004
1	2	125	97	2008
1	1	122	76	2006
1	2	128	70	2009
1	2	142	61	2007
5	0	0	0	0
1	1	127	63	2009
1	0	0	0	0
1	2	0	70	2009
1	1	143	79	2007
3	1	141	0	0
1	1	122	56	2009
1	2	130	93	2006
1	2	126	53	2007
5	2	0	0	2004
1	2	142	0	2009
5	1	149	0	2010
1	2	123	63	2008
2	0	0	0	0
1	1	118	0	2007
1	2	0	67	0
1	2	139	0	2006
1	1	123	63	2008
1	2	130	53	2007
2	2	122	76	2004
1	2	152	54	2009
2	2	152	71	2004
1	1	120	0	0
1	0	146	51	0
1	2	152	63	2009
2	1	0	0	2004
1	2	137	57	2004
1	2	126	63	2009
2	2	129	0	2005
1	1	129	0	2007
2	2	130	99	2003
1	2	135	51	2009
1	2	120	77	2009
1	2	152	52	2008
1	1	127	52	2007
1	1	132	63	2009
1	2	130	76	2006
1	2	152	0	2007
1	2	130	0	2006
1	2	118	0	2006
2	2	126	0	2005
2	1	140	0	2005
2	1	122	0	2005
1	1	142	62	2009
1	2	123	0	2006
1	2	0	64	2008
1	2	134	68	2006
2	2	123	0	2004
1	2	137	0	2006
1	2	129	53	2007
1	2	137	66	2009
2	2	0	78	2001
1	1	127	0	2009
1	2	127	54	2008
1	0	132	52	2007
1	0	0	0	0
2	2	137	0	2004
1	1	0	66	2009
2	2	126	95	2004
1	2	139	51	2008
2	1	0	0	2004
1	2	118	86	2006
2	1	120	83	0
1	1	130	63	2006
1	2	143	0	2005
1	2	119	0	2006
1	2	142	86	2006
1	1	143	71	2006
1	2	136	64	2009
1	2	152	66	2009
1	2	122	78	2006
1	2	152	55	2008
1	2	118	0	2009
1	1	142	0	2005
1	1	125	63	2008
1	2	120	67	2007
1	0	0	0	0
1	2	126	0	0
1	1	124	0	2009
1	2	137	93	2007
1	1	122	54	2008
1	1	139	63	2009
1	2	127	54	2009
5	2	132	0	2005
2	1	0	0	2005
1	2	130	0	2006
2	2	134	0	2004
2	2	137	63	2004
2	1	126	0	2005
1	2	147	0	0
2	2	152	0	2005
2	1	126	64	2002
1	1	120	55	2006
1	0	0	0	0
2	2	137	54	2004
5	2	130	0	0
1	2	136	71	2006
1	2	119	0	2007
2	2	122	91	2005
1	2	0	0	0
1	1	123	63	2009
1	2	123	52	2007
5	2	145	0	0
1	2	122	89	2007
1	2	128	57	2008
1	2	126	64	2009
1	2	141	93	2007
1	2	126	0	2006
1	2	136	0	2006
1	2	139	0	2005
1	1	125	63	2008
1	1	120	0	2008
2	2	152	0	2005
1	2	122	97	2006
1	0	0	0	0
1	1	144	0	2006
1	1	141	66	2009
5	0	0	0	0
2	1	125	81	2003
2	1	0	0	2004
1	1	128	0	2006
1	1	126	64	2009
1	2	126	53	2007
1	1	152	54	2009
1	1	119	0	2006
1	0	0	0	0
1	1	126	62	2007
1	2	133	76	2007
1	2	134	66	2009
1	2	118	0	2007
5	2	140	0	2006
1	2	126	63	2006
3	0	136	0	0
1	0	122	0	2005
1	2	152	63	2005
1	2	133	68	2007
1	1	152	62	2009
1	1	126	63	2008
1	2	0	54	2009
1	1	120	79	2006
1	1	128	0	2007
1	1	134	82	2006
1	2	118	52	2008
1	1	122	66	2009
5	2	129	0	2004
1	2	141	68	2007
1	1	143	100	2006
1	2	137	0	2006
1	2	152	54	2008
1	1	119	0	2006
1	2	133	92	2007
2	2	152	0	2004
2	1	122	63	2005
5	1	135	0	2009
1	1	139	63	2009
1	1	120	0	2008
1	2	134	54	2008
1	1	132	0	2007
1	0	0	83	2007
2	1	143	83	2000
1	0	119	0	2008
1	2	125	0	2008
1	2	122	78	2007
1	2	126	67	2008
1	1	119	100	2007
1	2	122	0	2007
1	2	134	0	2007
1	1	132	0	2007
1	1	120	83	2007
1	2	126	51	2009
2	2	136	0	2004
2	1	130	0	2004
1	2	125	86	2007
2	1	118	0	2005
1	2	136	51	2009
1	2	126	55	2006
1	2	152	76	2006
1	1	139	0	2005
1	2	123	63	2008
1	2	137	63	2006
2	2	118	0	2005
1	2	126	78	2008
1	1	149	0	2009
1	1	129	0	2006
1	1	126	83	2007
1	2	156	0	0
1	0	134	92	2006
5	2	137	0	2005
1	2	137	54	2009
1	2	136	66	2005
1	2	128	0	2008
1	1	118	64	2009
1	2	152	63	2009
1	1	139	56	2009
1	1	120	55	2005
1	1	133	0	0
1	0	137	95	0
1	2	123	78	2006
4	2	127	0	2008
2	2	139	0	2005
1	1	130	63	2008
1	2	126	0	2006
1	2	141	76	2008
1	2	119	55	2006
1	2	141	94	2007
1	1	127	63	2009
1	1	148	0	2006
1	1	133	53	2007
1	1	132	0	2008
1	2	130	52	2008
1	2	0	0	2008
1	2	118	53	2006
1	2	126	70	2009
1	1	0	0	0
1	1	137	78	2006
1	2	143	0	2009
1	1	121	73	2008
1	2	0	0	0
1	2	126	0	2007
1	2	129	63	2009
1	1	142	63	2008
1	2	129	71	2006
5	2	145	0	2005
1	1	137	75	2008
1	1	126	0	2007
1	2	126	54	2009
1	2	141	58	2007
1	2	126	57	2009
1	1	134	0	0
1	2	142	54	2007
1	2	122	0	2007
1	2	123	90	2008
5	1	130	53	2004
1	1	128	0	2006
1	2	142	63	2007
1	2	136	78	2007
1	2	122	58	2009
1	2	137	97	2007
2	2	152	0	2004
1	1	120	64	2009
5	2	126	0	2005
1	1	132	0	0
1	2	126	78	2008
2	2	152	71	2005
1	2	137	0	2006
1	1	143	63	2008
2	0	122	78	2005
2	1	127	63	2002
5	2	145	0	2008
1	1	0	66	2009
1	2	126	54	2008
1	2	118	0	2006
1	2	122	53	2008
1	0	0	0	0
2	1	152	0	2005
1	2	122	0	2008
1	0	0	0	0
1	1	123	54	2009
1	2	125	53	2009
1	2	0	0	0
1	2	137	77	2007
1	2	134	95	2007
1	1	127	82	2005
1	1	134	0	2006
1	2	119	67	2009
1	1	118	0	2006
2	1	128	0	2005
2	1	126	63	2004
1	2	118	68	2007
5	2	126	0	2006
1	1	118	64	2008
1	2	137	86	2007
2	2	136	78	2004
1	1	0	53	2008
1	0	0	0	0
2	2	120	0	2004
1	1	126	63	2008
2	1	152	0	2004
1	1	119	0	2007
1	1	137	63	0
5	2	122	0	2007
1	1	119	63	2009
1	1	126	64	2007
2	2	127	0	2005
2	1	137	0	2005
1	0	0	0	0
1	1	0	0	2008
5	1	153	0	2007
5	2	146	0	0
1	2	120	0	2006
1	0	0	0	0
1	1	122	64	2008
1	2	123	0	2006
1	2	137	57	2008
1	2	126	0	2005
1	1	128	0	2006
1	1	143	62	2008
1	2	152	0	2006
5	2	130	55	2004
2	1	0	0	2003
1	0	0	0	0
2	2	137	91	2005
2	1	124	0	2004
2	2	152	89	2002
2	2	152	0	2004
1	2	128	63	2009
1	2	152	52	2008
1	2	146	53	2009
1	2	126	93	2007
1	0	0	0	0
1	1	152	80	2005
1	2	137	52	2006
1	1	124	53	2008
1	1	142	0	2007
2	2	120	0	2005
5	2	122	0	2007
1	2	152	67	2007
1	2	152	57	0
1	2	136	63	2009
1	2	126	63	2008
1	2	129	64	2008
1	1	152	0	2008
1	2	118	63	2008
1	1	120	63	2007
2	1	127	0	2005
1	1	118	0	2006
1	1	128	0	2006
1	2	132	0	0
1	1	118	79	2008
1	2	152	55	2007
1	1	139	75	2009
1	2	128	0	2007
1	1	0	0	2010
1	1	137	63	2008
2	1	120	53	2004
2	1	142	0	2004
2	1	120	0	2005
1	2	152	63	2007
1	1	122	66	2008
1	1	139	0	2007
1	2	129	57	2009
1	2	126	78	2007
1	1	143	60	2007
1	2	120	57	2009
1	1	126	76	2006
1	2	152	54	2009
1	2	140	72	2006
1	2	126	51	2008
1	2	126	55	2008
1	2	126	54	2009
4	0	0	0	0
1	2	128	57	2009
1	1	132	60	2007
1	2	118	57	2010
1	2	134	64	2007
2	2	0	0	2004
1	1	0	0	2006
1	2	143	0	2009
1	1	148	52	2008
2	2	122	0	2004
1	1	132	0	2009
2	2	130	0	2004
1	2	137	63	2008
1	2	137	0	2005
1	1	126	56	2009
1	2	118	0	2008
1	0	0	0	0
1	0	136	0	2007
1	2	124	57	2009
1	2	123	66	2009
2	2	126	0	2005
1	2	127	0	2007
1	2	126	93	2007
1	2	137	57	2008
1	2	122	91	2007
1	2	119	51	2009
2	1	118	0	2005
2	2	122	91	2005
1	1	120	62	2007
1	1	127	0	2007
1	2	137	67	2007
1	1	143	65	2008
1	2	150	63	2008
1	2	141	0	2009
1	1	135	66	2009
1	1	137	55	2006
5	1	145	0	0
1	2	152	63	2009
1	1	126	0	2008
1	0	0	0	0
1	2	137	67	2007
1	2	128	76	2008
5	2	153	0	2006
1	1	134	83	2006
1	1	137	0	0
1	2	132	52	2009
1	2	0	57	2009
1	2	137	97	2006
1	2	134	0	2007
1	2	148	91	2007
1	1	126	66	2009
1	1	141	0	2007
1	1	125	0	2007
1	1	152	63	2009
1	1	118	0	2006
1	1	134	83	2007
1	1	135	63	2008
1	2	119	0	2007
1	2	135	96	2008
1	2	143	0	2005
2	2	152	0	2004
2	1	0	0	2004
1	2	137	63	2006
1	2	141	55	2007
1	0	120	0	0
1	2	0	0	0
1	2	120	91	2007
2	2	152	0	2005
2	2	129	0	2005
4	2	0	0	0
1	2	129	0	2005
2	1	126	0	2003
1	1	122	63	2006
1	1	119	61	2007
1	0	0	0	0
1	2	143	98	0
1	0	120	63	2009
1	1	132	81	2006
1	2	130	0	2007
1	1	124	63	2008
1	2	130	0	2007
1	2	121	51	2009
2	1	126	81	2004
1	2	130	63	2008
1	2	129	76	2006
1	2	152	70	2009
1	2	135	55	2008
1	2	133	55	2006
1	1	125	55	2008
1	1	142	53	2009
1	1	119	0	2008
1	2	124	63	2008
1	2	136	0	0
2	1	122	67	2005
2	1	142	0	2004
5	2	147	0	2007
5	1	119	83	2004
1	2	142	55	2006
1	2	122	0	2005
1	1	119	66	2009
1	2	137	0	2007
1	1	126	75	2009
1	1	148	0	2006
1	0	0	0	0
1	2	135	63	2009
2	1	124	0	2005
1	2	126	58	2008
1	2	152	71	2007
1	2	124	57	0
1	1	139	64	2008
1	2	152	68	2008
1	2	152	55	2006
5	1	143	0	2004
1	2	126	57	2009
5	1	132	0	0
1	1	119	101	2006
1	2	121	54	2009
1	2	126	51	2007
1	2	122	67	2008
1	2	128	0	2010
1	2	133	0	0
1	2	129	0	2008
1	2	130	70	2007
1	1	126	71	0
1	2	134	89	2006
1	1	137	83	2007
1	2	141	94	2008
1	2	137	0	2005
2	0	126	0	2005
2	1	139	0	0
1	2	152	67	2006
5	2	152	0	2005
1	1	0	0	2007
1	1	138	63	2009
5	1	152	0	2006
1	2	122	66	2008
1	1	118	66	2010
2	2	0	0	2005
1	2	137	58	2007
5	2	145	0	2006
1	2	120	56	2009
1	1	152	66	2009
1	2	126	66	2009
1	2	137	53	2007
1	2	135	86	2007
1	2	134	92	2007
1	1	0	53	2009
5	2	130	0	2004
1	2	142	0	2006
1	2	133	0	2007
1	2	122	89	2006
1	1	132	63	2009
2	1	125	64	2005
2	2	126	0	2004
1	2	123	63	0
1	2	0	63	2008
1	2	129	0	0
2	1	125	0	2005
1	1	122	61	2006
1	2	137	68	2008
1	1	147	0	2008
2	2	126	76	2005
1	2	137	55	2006
1	2	143	64	2006
2	1	139	0	2005
4	1	0	0	0
1	2	127	79	2008
1	2	120	0	2005
1	0	135	0	0
1	1	132	0	2006
2	2	136	88	2005
2	1	129	0	2005
1	1	121	54	2008
2	1	127	0	2004
2	2	143	90	2005
1	2	123	55	2004
1	1	120	52	2008
1	1	142	0	2004
1	1	127	83	0
1	1	138	78	2008
1	2	152	60	2007
2	2	139	0	2005
1	1	134	83	2006
1	0	0	0	0
1	2	152	0	2007
2	2	134	90	2002
1	2	126	67	2006
1	1	118	65	2006
1	1	118	100	2008
1	2	122	57	2009
1	2	138	90	2006
1	2	137	0	2007
1	1	129	64	2008
1	2	137	54	0
1	2	142	55	2007
2	0	120	0	0
2	1	0	0	2004
1	1	128	72	2007
1	1	122	63	2009
1	2	126	57	2009
1	2	118	66	2010
1	2	152	63	2009
1	1	137	52	2007
1	1	152	0	2006
1	1	127	63	2008
1	2	126	0	2006
1	2	0	0	0
1	2	137	86	2008
1	2	128	0	2008
1	2	137	0	2009
1	2	152	0	2007
