status	gender	major	dorm	year
2	1	264	0	0
2	0	263	0	2005
1	1	263	92	2008
1	1	240	89	2007
1	1	277	88	2007
1	2	247	92	2009
2	0	252	0	2004
2	1	240	0	2005
1	1	236	0	2007
1	2	0	87	2009
1	1	279	97	2008
2	2	273	0	2004
1	0	0	92	0
1	1	240	91	2009
1	2	285	91	2008
1	2	0	92	2008
1	1	283	92	2008
1	2	272	96	2006
1	2	249	92	2006
1	2	0	92	2008
1	2	279	92	2007
1	2	279	97	2007
1	1	240	87	2009
1	1	282	87	2009
2	1	240	0	2005
1	1	259	95	2006
1	2	263	92	2008
1	1	240	96	2006
1	0	0	0	0
1	2	288	0	2007
1	0	0	0	0
1	2	249	90	2006
1	2	0	0	2006
1	2	241	92	2007
1	1	240	87	2008
1	1	279	92	2005
2	2	260	0	2005
2	1	241	0	2005
1	2	275	92	2008
1	2	249	0	2006
1	2	282	92	2008
1	1	0	96	2006
1	2	246	98	2007
1	1	281	0	2007
1	2	249	0	2005
1	1	287	91	2008
1	1	282	87	2009
1	2	277	87	2007
2	2	236	92	2005
1	1	279	96	2006
1	1	287	96	2006
3	2	278	0	0
2	1	249	92	2004
1	1	275	87	2009
1	1	252	96	2005
1	1	240	0	2006
1	2	238	92	2009
1	1	240	92	2006
2	2	273	96	2004
2	2	240	0	2004
1	1	285	0	2006
1	1	283	0	2005
1	2	241	90	2008
2	2	249	95	2005
4	2	0	0	0
1	1	0	0	2008
2	1	287	0	2005
1	2	0	92	2009
1	2	244	96	2006
1	1	237	91	2009
1	2	273	89	2006
1	2	0	92	2008
2	2	274	0	2004
2	1	287	0	2004
1	2	246	92	2009
2	1	279	0	2005
1	2	249	88	2006
1	1	264	96	2005
1	2	252	92	2007
1	2	0	92	2008
2	1	283	0	2003
1	2	0	92	2009
2	1	252	0	2005
1	2	252	89	2006
2	2	0	0	2000
1	1	278	92	2007
1	1	252	92	2009
1	2	241	92	2007
1	1	263	92	2006
1	2	273	92	2009
2	2	273	0	2005
1	2	273	92	2006
1	2	249	90	2005
1	1	283	92	2006
1	1	263	92	2007
1	2	236	89	2007
1	2	0	87	2009
1	1	241	0	2006
1	2	283	87	2008
1	1	240	95	2006
1	1	279	92	2006
2	1	0	0	2005
1	0	0	0	0
2	2	245	0	2005
1	2	252	0	2006
1	0	0	0	0
1	2	0	87	2009
1	1	252	91	2009
1	2	284	92	2007
2	2	277	0	2003
1	2	249	92	2009
1	2	278	97	2007
1	1	282	0	2008
1	1	263	96	2006
1	1	238	92	2009
1	2	252	89	2006
1	2	252	91	2009
1	1	240	91	2009
1	1	240	96	2007
1	2	240	91	2007
1	2	249	0	2006
1	2	282	92	2007
1	2	0	87	2008
1	2	263	93	2008
1	1	0	87	2009
2	1	252	0	2004
1	2	279	92	2005
1	1	236	100	2008
2	2	279	95	2004
1	0	0	0	0
2	2	278	0	2001
1	1	0	87	2009
1	2	255	92	2009
1	1	282	0	2008
1	2	281	91	2009
1	2	243	87	2009
2	2	279	0	0
1	1	240	87	2009
1	1	241	92	2008
1	2	285	92	2008
1	1	0	91	2009
1	1	283	95	2006
1	1	278	91	2009
1	2	260	91	2007
1	2	249	91	2009
1	2	260	87	2006
1	2	284	92	2008
1	2	241	92	2008
1	0	240	89	2006
1	1	249	93	2007
1	2	252	0	2007
1	1	236	92	2006
1	2	279	93	2006
1	2	236	92	2007
2	1	241	96	2005
2	1	287	0	2003
1	2	239	92	2006
1	0	0	0	0
2	2	249	0	2004
1	2	287	92	2007
1	1	278	92	2007
1	1	0	87	2008
2	2	249	0	2004
1	2	279	0	2006
1	1	282	87	2009
2	2	260	0	2003
1	1	282	92	2008
2	2	263	96	2005
1	2	0	0	2007
1	1	264	0	2006
1	2	263	92	2006
1	1	282	87	2008
1	2	282	92	2008
1	1	279	89	2007
1	0	255	0	2007
1	1	274	91	2009
1	2	240	92	2009
1	2	263	87	2007
1	1	240	96	2006
2	2	240	86	2005
1	1	0	100	2008
1	1	240	93	2006
1	1	284	92	2005
1	2	277	92	2009
1	2	0	0	2008
1	1	283	92	2008
1	1	279	93	2008
1	1	283	95	2006
1	2	240	96	2006
2	1	287	0	2005
1	1	282	92	2008
1	1	240	91	2009
1	2	249	91	2009
2	2	283	93	2005
1	1	241	0	2006
2	1	0	0	2003
1	1	249	97	2007
2	1	287	0	2005
1	2	252	95	2006
2	1	271	87	2002
1	1	248	92	2006
1	2	0	91	2009
1	2	249	91	2008
1	2	273	92	2007
1	0	0	88	2007
1	1	283	0	2006
1	1	275	93	2006
1	0	0	0	0
1	1	263	87	2008
2	0	241	0	2005
1	1	244	91	2008
1	2	0	92	2008
1	2	240	92	2006
1	1	276	92	2007
1	2	249	100	2007
1	2	249	92	2007
1	1	0	92	2009
1	2	252	92	2007
1	2	0	0	0
1	1	278	92	2008
1	1	240	87	2009
1	2	283	88	0
1	2	249	0	2007
5	2	240	0	2004
1	1	240	95	2006
1	2	241	0	2006
1	1	273	0	2006
1	1	283	89	2007
1	2	0	92	2008
1	1	275	92	2009
1	2	0	91	2008
1	2	241	91	2008
2	1	287	0	2004
1	1	279	92	2009
1	1	252	97	2008
1	1	238	91	2009
2	1	0	0	2004
2	1	236	0	2005
1	1	236	97	0
1	1	0	91	2008
1	1	282	91	2009
1	1	275	93	2008
2	1	263	92	2005
2	1	240	0	2004
1	1	252	0	2006
2	2	240	0	2004
1	2	263	87	2005
1	1	279	0	2006
1	2	0	92	2008
1	2	279	92	2009
1	2	267	90	2006
1	1	240	91	2009
1	1	252	92	2009
1	1	282	91	2009
2	2	0	0	0
1	0	0	98	2007
1	2	273	91	2009
1	1	249	92	2007
1	1	0	0	2005
2	0	0	0	0
1	1	279	87	2009
1	1	283	0	2007
1	1	252	92	2007
2	1	263	0	2004
1	0	256	97	2007
1	1	249	90	2006
1	2	0	92	2006
1	2	247	92	2008
2	2	273	0	2005
1	2	279	0	2006
1	1	0	89	2008
2	1	240	0	2005
1	1	249	0	2005
1	2	279	0	2007
1	2	241	99	2007
1	2	284	93	2007
1	1	277	87	2009
1	1	252	96	2006
1	1	0	87	2006
1	1	236	0	2005
1	1	256	96	2006
2	2	255	96	2004
1	1	283	96	2006
1	1	0	91	2009
2	2	279	99	2002
1	2	282	91	2009
1	1	273	96	0
5	0	0	0	0
1	2	249	90	2007
1	1	240	96	2006
1	1	241	91	2007
1	1	283	98	2007
1	2	252	92	2007
2	2	263	0	2005
1	2	0	91	2009
1	2	264	92	2007
1	1	240	97	2008
1	2	253	90	2007
1	2	241	98	2007
1	1	0	0	2008
2	2	0	0	2000
1	2	257	92	2007
1	1	0	92	2009
1	1	240	93	2008
3	2	260	92	2006
2	2	263	87	2005
1	1	0	92	2009
1	1	0	92	2008
1	2	274	87	2009
2	2	236	0	2005
1	1	0	87	2009
2	0	279	96	2004
4	0	0	0	0
2	2	263	96	2005
1	1	0	91	2009
1	2	248	87	2008
1	0	0	0	0
1	1	238	0	2006
1	1	253	87	2009
1	0	0	92	2008
1	1	244	92	2007
2	1	236	0	2004
1	2	0	92	2009
1	2	273	95	2006
1	1	240	0	2007
1	2	274	92	2007
1	1	0	92	2008
1	1	0	87	2009
1	1	252	0	2007
1	1	284	97	2007
1	1	263	92	2007
2	1	252	0	2003
2	2	236	92	2002
1	1	261	90	2007
2	0	249	0	2003
1	2	236	0	2007
1	2	0	100	2008
1	1	281	92	2007
1	1	264	92	2006
1	1	252	92	2008
1	1	0	91	2008
1	1	0	92	2008
2	2	263	0	2004
1	1	252	92	2008
1	2	284	91	0
2	2	263	92	2005
1	1	282	92	2008
1	1	282	92	2008
1	1	240	97	2007
1	1	0	91	2009
1	1	0	89	2008
1	2	278	86	2006
1	1	283	0	2007
2	1	273	95	2005
1	1	0	97	2008
2	2	284	96	2005
4	1	252	93	2005
1	1	287	91	2009
1	1	279	92	2006
1	1	282	0	2006
4	1	0	0	0
1	2	0	91	2009
2	2	241	0	2003
1	0	0	0	0
1	1	0	92	0
1	2	263	91	2008
2	1	274	0	2005
2	1	263	0	2003
1	2	240	96	2006
2	1	252	92	2005
1	2	252	100	2008
2	1	263	0	2005
1	2	240	89	2006
1	1	0	91	2008
1	1	0	87	2008
1	1	239	92	2005
1	1	278	91	2006
2	1	277	0	2003
1	1	263	0	2007
1	1	239	0	2007
1	1	243	0	2007
1	1	285	91	2008
1	1	0	0	0
1	2	249	92	2009
2	1	0	0	0
1	1	252	89	2007
1	2	249	92	2008
1	2	251	91	2009
1	1	283	93	2006
1	1	241	93	2006
1	1	0	92	2009
1	2	0	91	2008
1	2	263	92	2008
2	1	241	0	2005
1	1	249	0	2005
1	2	0	91	2009
1	2	240	92	2009
1	2	263	92	2007
2	1	277	0	2005
2	1	263	0	2005
1	1	0	92	2008
1	2	249	92	2009
1	2	278	97	2007
1	1	284	93	2008
1	2	273	95	2008
1	1	290	87	2009
1	2	279	95	2006
1	2	241	92	2007
1	1	263	92	2005
1	2	252	0	2006
1	1	249	92	2008
1	1	255	0	2006
1	1	283	91	2009
2	1	288	0	2004
1	1	287	0	2008
1	1	0	91	2009
1	1	240	0	2007
1	2	282	92	2008
1	2	263	96	2006
2	1	272	92	2004
1	1	263	92	2008
1	2	0	91	2009
2	1	236	0	2005
1	2	0	91	2008
1	1	279	91	2009
1	2	282	87	2009
1	2	283	91	2006
1	1	264	92	2009
2	1	249	0	2005
1	1	282	87	2009
1	0	0	92	2008
1	1	0	89	2008
2	1	249	0	2005
2	2	241	0	2005
1	1	279	92	2009
1	1	279	95	2006
1	2	282	0	2008
1	1	0	92	2008
1	1	279	96	2006
1	2	279	87	2009
1	0	263	92	2007
2	1	283	0	2002
1	1	282	92	2008
1	1	279	92	2009
1	1	252	92	2009
1	1	282	0	2007
1	1	244	0	0
1	1	263	87	2009
1	2	282	92	2008
1	1	0	92	2009
1	1	0	91	2008
1	0	0	0	0
1	1	283	92	2008
1	1	0	92	2008
1	2	239	92	2009
1	2	0	91	2009
2	2	260	0	2004
1	2	236	87	2008
1	2	279	87	2009
1	1	236	96	2006
1	1	283	0	2006
4	1	0	0	0
1	2	0	92	2008
2	1	241	0	0
1	2	252	87	2008
1	2	0	91	2009
1	2	0	87	2009
1	0	0	88	2008
1	2	0	89	2008
2	1	252	92	2001
2	1	240	0	2005
1	1	287	89	0
1	1	240	0	2007
1	2	264	92	2006
2	2	278	92	2005
1	2	283	92	2007
1	1	273	96	2006
2	2	249	90	0
1	1	252	88	2007
1	2	278	92	2007
1	1	283	0	2007
1	1	241	96	2006
1	1	0	87	2008
1	1	0	0	2009
1	2	0	0	2009
1	2	248	92	2006
1	0	273	87	2008
1	1	252	91	2009
1	1	265	91	2007
2	1	236	0	2005
1	1	0	92	2008
1	1	0	87	2008
1	0	0	0	0
1	2	288	92	2008
1	2	252	96	2005
1	2	278	89	2007
1	1	236	91	2008
2	1	287	0	0
1	1	256	0	2007
1	1	252	92	2008
1	1	249	91	2008
2	1	236	92	2004
1	2	0	92	2008
1	0	0	0	0
1	1	0	89	2008
1	1	283	92	2008
1	1	240	0	2006
1	1	236	93	2006
1	1	240	96	2005
1	1	252	92	2008
2	1	240	87	2003
2	2	249	95	2005
1	2	0	87	2008
1	1	236	92	2007
1	1	287	87	2006
1	1	236	100	2007
1	1	273	89	2007
1	2	249	92	2007
1	1	236	0	2006
1	2	279	92	2009
1	1	240	92	2009
1	1	252	97	2008
1	1	0	92	2008
4	2	0	0	0
2	2	237	0	2005
1	2	0	92	2009
1	1	0	92	2009
1	2	249	0	2006
1	1	252	93	2006
1	1	276	0	2007
2	1	273	0	2005
1	1	244	95	2006
1	1	249	97	2008
1	1	287	92	2007
1	1	275	92	2008
2	2	249	100	2004
2	0	263	95	2005
1	1	0	92	2008
1	2	247	92	2009
1	2	279	87	2005
1	1	0	92	2009
1	1	260	93	2007
1	2	283	93	2007
2	1	240	0	2005
1	1	240	87	2009
1	1	0	91	2008
1	1	240	92	2009
2	1	273	0	2005
1	2	279	89	2007
1	2	255	92	2009
2	1	252	0	2004
1	2	287	89	2008
1	1	249	0	2007
1	2	254	89	2008
1	1	0	91	2009
2	1	249	0	2005
1	2	0	97	2007
2	1	240	0	2005
1	1	239	92	2008
1	1	282	91	2008
1	2	0	87	2009
1	1	0	92	2008
2	1	236	0	2005
1	2	0	91	2009
1	2	241	87	2009
1	1	287	87	2008
1	2	0	92	2008
1	2	240	93	0
1	1	282	92	2008
2	2	279	96	2004
2	2	240	96	2005
1	1	249	96	2006
1	2	273	96	2005
2	1	271	0	2000
1	2	277	92	2008
2	1	252	0	2003
1	2	277	91	2008
1	2	241	87	2009
5	1	275	0	2004
1	1	279	91	2007
1	2	0	92	2007
1	2	279	92	2007
1	2	274	96	2006
2	2	0	0	2003
1	2	0	91	2008
1	1	252	89	2007
1	2	0	87	2008
1	1	252	89	2007
2	1	260	0	2005
1	1	0	92	2009
1	1	249	98	2007
2	0	236	0	2003
1	1	279	0	2007
1	2	287	0	2006
1	1	248	92	2008
1	2	252	92	2008
1	1	245	92	2009
1	2	0	92	2009
2	2	279	0	2004
1	2	240	92	2008
1	1	240	93	2008
1	1	235	92	2008
1	1	241	92	2005
1	2	287	97	2007
1	1	0	87	2009
1	2	0	91	2009
1	2	263	0	0
1	2	255	92	2008
1	1	0	91	2008
1	2	260	89	2008
1	2	278	92	2009
1	2	263	92	2008
1	1	260	89	2007
1	0	240	91	2008
1	1	0	92	2009
1	2	279	92	2008
1	2	281	92	2009
1	2	276	92	2008
1	1	287	96	2006
1	2	240	91	2009
1	1	263	95	2006
1	2	278	96	2005
1	0	0	0	0
1	2	241	92	2006
1	2	263	90	2006
1	1	282	91	2009
1	1	0	92	2008
1	2	0	92	2009
1	2	0	91	2008
1	2	273	91	2009
1	1	240	95	2007
3	2	278	0	0
1	1	0	87	2009
1	2	282	91	2009
2	1	272	92	2005
1	1	241	0	2008
1	2	263	92	2009
1	1	287	96	2006
1	2	0	92	2007
1	1	279	92	2006
4	0	0	0	0
1	1	236	91	2009
2	1	283	0	2005
1	1	0	92	2006
1	1	265	0	2006
1	2	249	92	2009
1	1	283	87	2006
1	2	263	92	2007
1	2	275	89	2006
2	2	282	0	2005
1	1	0	91	2008
1	1	279	91	2008
1	1	0	87	2009
1	1	284	0	2007
1	2	252	92	2008
1	2	278	87	2009
2	1	263	96	2005
1	1	279	92	2006
2	1	283	0	2005
2	2	279	0	2005
2	1	240	0	2004
1	2	279	0	2006
1	2	263	91	2008
1	1	0	92	2008
2	1	288	0	2004
1	1	240	92	2007
1	1	0	89	2007
1	2	282	91	2009
2	2	283	0	2005
1	2	236	92	2006
1	2	246	95	2006
1	1	288	96	2006
1	1	0	0	2009
2	2	279	96	2005
1	2	252	92	2009
1	2	238	89	2007
2	2	252	92	2004
1	1	279	95	2006
1	1	283	0	2007
1	1	0	0	2007
1	1	279	96	2006
1	1	0	91	2009
1	1	252	95	2006
1	1	288	91	2009
1	2	0	87	2009
1	2	249	90	2006
1	1	240	97	2008
1	1	249	96	2006
1	1	260	0	2006
1	1	278	92	2007
2	2	260	0	2003
2	1	263	0	2003
1	1	240	87	2009
1	1	240	0	2007
1	2	0	87	2009
1	0	0	0	0
1	1	240	92	2007
1	2	249	92	2006
1	2	282	92	2008
1	2	283	92	2006
1	2	255	0	2007
1	2	263	91	2007
1	1	255	96	2006
1	2	243	91	2008
1	1	0	91	2007
1	1	0	91	2009
1	2	273	92	2007
2	2	249	0	2004
1	2	279	0	2006
1	1	0	92	2008
1	2	283	92	2009
2	0	279	0	0
1	0	0	0	0
1	0	0	100	2008
1	2	281	91	2009
2	1	0	0	0
1	1	241	92	2009
1	2	279	92	2007
1	1	0	91	2009
2	1	240	0	2004
1	1	0	91	2009
1	2	278	99	2008
1	2	263	92	2006
1	2	238	86	2006
2	2	252	0	2005
2	2	267	96	2004
1	1	0	91	2008
1	1	0	87	2009
1	1	236	0	2009
1	2	252	91	2009
1	2	0	87	2009
1	1	241	98	2007
1	1	288	0	2007
2	1	252	87	2004
1	1	283	97	2008
1	1	0	87	2009
1	2	252	0	2006
1	1	275	92	2008
1	1	0	91	2009
1	1	283	95	2006
1	2	287	97	2007
1	0	0	0	0
1	2	0	92	2009
1	2	275	91	2009
1	2	252	90	2006
1	2	241	92	2007
1	1	283	92	2005
1	1	236	91	2008
1	1	244	97	2007
1	0	0	0	0
2	2	288	0	2004
1	2	263	91	2008
1	2	0	92	2009
1	2	252	0	2006
1	1	281	87	2009
1	2	282	87	2008
1	0	0	0	0
1	2	273	91	0
2	2	249	87	2005
1	0	0	0	0
1	2	264	91	2008
1	2	236	92	2006
1	1	236	97	2007
1	1	252	92	2007
1	2	249	90	2007
2	1	240	0	0
1	2	0	87	2008
1	2	273	96	2006
1	2	252	100	2008
2	2	249	0	2003
1	2	0	0	0
2	2	273	95	2005
1	1	287	92	2006
1	2	0	92	0
1	1	240	93	2007
1	2	240	96	2006
1	1	277	0	2006
2	1	0	0	2005
1	2	287	97	2007
3	2	0	0	0
1	2	0	91	2009
1	2	277	87	2008
1	1	252	87	2009
1	2	263	96	2006
2	2	260	0	2005
1	2	279	97	2007
1	2	240	92	2007
1	0	0	0	0
2	1	287	0	2005
2	1	283	0	2005
1	2	0	92	2009
1	2	260	89	2007
1	2	0	97	2008
2	1	252	0	2005
1	2	279	92	2006
1	1	252	97	2006
2	0	263	0	2005
1	1	240	0	2005
2	1	236	0	2004
1	1	240	92	2008
1	2	252	96	2006
1	2	247	0	0
1	2	0	87	2009
1	2	279	0	2007
1	1	0	92	2009
3	2	0	0	1938
2	0	0	0	0
1	2	279	0	2006
2	1	250	0	1998
1	1	263	93	2006
2	1	283	91	2001
2	1	0	0	0
1	2	240	97	2006
1	1	0	87	2008
1	2	236	88	2007
2	1	241	0	2005
2	1	241	0	2004
1	0	0	0	0
2	1	287	0	2004
1	1	240	91	2009
1	1	247	0	2006
1	2	241	93	2006
1	2	281	91	2009
1	2	0	91	2008
1	1	256	0	2008
1	1	0	87	2009
2	0	0	0	0
2	2	277	0	0
1	2	249	92	2009
1	1	0	92	2008
1	2	264	0	2007
1	1	284	92	2007
1	1	240	89	2006
1	1	282	92	2009
3	2	283	0	0
1	2	263	92	2008
2	1	264	0	2005
1	1	282	91	2008
2	2	278	0	2005
1	1	240	95	2006
1	2	0	0	2008
1	2	287	87	2007
1	2	0	87	2009
2	2	249	0	2004
2	2	0	98	2005
1	2	252	92	2009
2	1	283	0	2003
2	0	0	0	0
1	0	0	0	0
1	1	273	97	2008
1	1	0	92	2008
1	1	277	92	2009
1	1	282	92	2009
1	2	275	87	2009
1	1	241	97	2007
1	2	244	91	2008
1	0	258	0	2006
2	1	240	0	2004
2	2	273	0	2005
1	1	243	87	2007
1	1	241	89	2008
1	1	240	87	2006
2	1	252	92	2005
1	1	252	87	2009
1	1	0	92	2009
2	2	283	95	2005
1	2	0	91	2009
1	0	0	92	2008
1	2	263	92	2006
1	1	263	97	2007
1	0	0	0	0
1	2	241	93	2006
1	1	240	89	2007
1	1	0	91	2009
2	0	278	0	2005
1	1	279	91	2009
1	2	271	92	2007
1	2	0	87	2009
3	0	0	0	0
1	1	240	92	2007
1	2	263	91	2006
1	1	249	93	2008
1	1	240	89	2008
1	1	0	92	2009
1	1	240	100	2008
1	1	241	96	2006
1	1	249	95	2006
1	1	282	92	2007
1	1	273	91	2009
2	2	249	0	2005
1	2	249	89	2006
1	2	0	99	2008
1	1	252	91	2009
1	1	252	87	2007
2	0	277	0	2005
1	1	283	92	2006
1	2	240	87	2008
1	1	0	87	2009
1	2	0	92	2008
1	1	0	92	2009
1	1	283	95	2006
1	2	282	92	2009
1	2	282	89	2007
1	1	240	95	2006
1	0	0	0	2008
2	1	249	0	2005
1	2	0	87	2009
1	2	282	92	2009
1	2	0	91	2009
1	2	249	92	2008
1	1	252	92	2006
2	1	260	0	2005
1	1	284	93	2008
1	1	273	93	2006
1	2	272	87	2009
1	2	278	91	2009
2	1	240	0	0
1	1	0	100	2008
1	2	0	87	2009
2	1	0	0	2004
2	2	273	0	2005
2	0	238	0	2005
0	0	0	0	0
1	2	242	92	2009
1	2	240	91	2009
1	1	244	93	2008
1	2	249	97	2007
2	1	240	0	2005
1	1	236	0	2007
1	1	0	91	2009
1	1	246	91	2009
1	1	240	93	2008
1	1	241	96	2006
1	1	283	92	2008
1	1	0	92	2007
2	2	279	0	2005
1	1	240	0	2007
1	1	240	96	2006
2	0	287	0	2005
1	2	273	92	2007
2	1	0	0	2004
2	2	263	0	2005
2	0	272	94	2005
1	1	275	92	2006
2	2	258	0	2000
1	2	279	92	2009
1	1	279	89	0
1	2	277	92	2006
1	1	252	92	2007
1	2	282	91	2007
1	2	249	92	2008
1	2	263	92	2007
1	2	263	91	2009
1	2	263	87	2009
1	1	263	89	2007
1	1	284	89	2007
2	1	283	0	2004
1	2	280	87	2009
2	2	279	0	2005
2	2	240	0	2005
1	1	0	92	2008
1	2	240	96	2006
1	2	241	92	2009
1	1	252	92	2006
1	2	279	91	2008
1	0	248	92	2008
1	1	279	91	2009
1	2	247	0	0
1	2	241	92	2007
1	2	279	95	2007
2	2	279	0	2002
1	1	0	87	2009
1	1	0	97	2008
1	2	0	92	2008
1	1	283	92	2007
1	2	0	92	2009
2	1	241	0	2004
1	1	0	0	2008
1	1	252	92	2008
1	2	279	95	2006
1	1	285	0	2006
1	2	249	93	2007
1	1	282	91	2009
1	1	244	92	2006
1	1	282	91	2009
1	2	0	97	2008
1	1	0	92	2008
1	0	0	0	0
1	2	0	92	2008
1	1	241	87	2009
1	1	284	92	2009
1	1	267	87	2009
1	2	240	0	2007
3	1	247	93	2008
1	2	278	91	2009
1	1	0	92	2009
1	1	279	92	2008
1	2	0	91	2009
2	1	273	0	2004
1	1	241	95	2007
1	2	0	91	2009
1	2	283	92	2009
1	2	263	89	2008
1	2	240	91	2007
1	2	252	92	2006
1	0	277	97	2007
2	2	272	0	2003
1	1	282	91	2008
1	2	255	92	2009
1	2	279	92	2007
1	1	249	98	2006
1	2	0	87	2009
2	1	252	0	2004
1	2	284	92	2006
1	1	283	87	2009
1	2	0	92	2008
1	2	260	97	2007
2	1	0	0	2003
2	1	283	0	2004
1	1	0	91	2009
1	0	0	0	0
1	1	0	92	2009
1	1	0	87	2008
2	1	252	0	2004
1	2	279	92	2008
1	1	277	91	2009
2	1	277	0	2004
2	1	275	0	2005
1	1	0	91	2008
2	1	277	0	2004
1	1	283	92	2008
1	0	0	0	0
1	1	283	92	2009
1	2	269	91	2008
1	2	240	91	2009
1	1	0	91	2009
2	1	249	0	2004
2	2	241	0	2004
1	2	244	96	2006
2	1	240	0	2005
1	0	0	0	0
1	2	240	95	2006
2	2	279	0	2005
1	1	239	92	2007
1	2	249	90	2006
1	2	282	87	2009
1	1	0	92	2009
1	2	241	92	2006
2	1	241	0	2005
1	2	0	87	2009
1	2	271	91	2009
1	1	241	0	2006
2	2	263	87	2005
1	1	279	95	2006
2	2	252	0	2004
1	1	263	97	2007
2	1	252	92	2005
1	1	252	0	2006
1	2	249	92	2008
1	1	244	87	2009
1	2	263	92	2006
1	1	283	89	2008
2	1	244	0	2004
1	1	282	92	2008
1	2	0	91	2009
1	2	247	90	2008
1	2	253	92	2008
1	1	0	89	2006
1	1	0	92	2009
1	2	240	96	2006
1	1	273	87	2008
1	1	0	92	2009
1	1	0	93	2008
2	1	240	0	2005
1	2	279	91	2008
1	1	240	92	2008
1	2	252	97	2008
1	1	277	92	2008
1	1	279	0	2007
2	1	284	0	2005
1	1	249	93	2007
1	2	0	100	2007
1	1	241	92	2009
2	2	284	0	2003
1	1	284	92	2006
1	1	263	94	2006
1	2	0	0	2007
1	2	0	92	2008
1	2	282	97	2008
2	0	0	0	0
1	1	275	92	2007
2	2	252	0	2005
2	1	273	0	2004
1	1	0	87	2009
1	0	0	0	0
2	1	287	0	2005
1	1	279	92	2007
2	0	0	0	0
2	2	0	100	0
2	0	0	0	2005
1	1	0	92	2009
2	2	241	0	2004
1	2	0	91	2009
2	1	279	0	2004
1	1	252	98	2007
1	1	240	92	2007
2	2	236	0	2002
1	1	240	95	2006
2	1	283	92	2005
2	2	0	0	2004
1	2	273	92	2009
1	2	282	91	2008
1	2	279	88	2006
1	1	241	87	2009
1	1	0	87	2008
2	2	241	0	2004
2	1	240	0	2004
1	1	279	93	2007
1	1	283	92	2007
1	1	287	92	2007
1	1	288	0	2009
1	1	239	91	2005
1	2	241	92	2005
1	1	282	91	2009
2	2	240	0	2005
1	1	0	91	2009
2	2	287	0	2003
1	2	240	92	2008
1	1	238	92	2009
1	1	287	92	2006
1	2	260	87	2008
1	1	240	92	2006
2	1	279	0	2005
1	1	0	92	2008
1	0	249	87	2008
1	2	0	97	2008
2	1	260	0	2004
1	1	0	92	2008
1	2	272	0	2006
1	2	279	0	2007
1	1	243	97	2008
1	2	240	91	2009
1	1	239	95	2006
1	1	285	87	2009
1	2	263	87	2008
2	1	271	0	2005
1	2	249	92	2009
1	2	273	87	2006
1	1	282	92	2008
1	0	0	89	2008
1	2	255	100	2007
1	2	0	91	0
1	0	0	91	2009
1	2	258	92	2008
1	1	236	97	2007
1	1	272	91	2009
1	2	236	0	2007
1	2	241	92	2007
1	2	279	87	2009
4	1	0	0	0
1	1	0	87	2008
1	1	240	92	2008
4	2	0	0	0
1	2	249	87	2009
1	1	0	97	2008
2	1	278	0	2005
2	2	273	0	2005
2	1	252	0	0
2	2	272	95	2005
2	1	249	96	2004
1	1	252	92	2008
1	1	275	91	2009
2	2	245	92	2004
1	1	264	97	2008
1	2	249	93	2007
1	1	263	94	2006
1	1	0	95	0
1	2	240	91	2007
4	1	0	0	0
2	1	238	96	2005
2	1	240	0	2003
1	1	263	92	2007
1	2	249	87	2009
1	1	0	94	2008
1	2	249	93	2005
1	2	261	92	2009
1	0	288	91	2008
2	1	0	95	2004
1	1	279	98	2006
2	2	288	0	2005
1	1	244	0	2006
1	1	240	92	2008
1	1	252	87	2008
2	1	283	0	2005
2	2	277	0	2004
1	2	279	92	2009
1	2	0	0	2008
1	2	279	0	2006
1	2	287	91	2007
1	1	249	92	2009
1	1	0	87	2009
1	1	273	89	2007
1	2	273	92	2007
1	1	279	96	2005
1	1	0	91	2009
2	1	273	96	2005
1	1	252	91	2008
2	2	241	0	2004
1	2	281	91	2009
1	2	261	92	2006
2	0	0	0	0
1	1	255	92	2007
1	1	258	92	2009
1	1	252	89	2007
1	1	241	92	2006
2	1	287	0	2005
1	1	240	92	2006
1	0	249	90	0
2	0	283	0	2005
1	2	278	92	2008
1	1	249	87	2006
1	1	249	91	2008
1	1	263	93	2008
1	2	0	92	2009
1	2	243	92	2007
1	2	260	92	2008
1	1	281	87	2008
2	2	278	0	2005
1	2	279	93	2006
2	2	249	0	2004
2	2	0	0	2005
1	1	0	92	2009
2	1	244	0	2004
1	1	263	0	2007
1	1	264	0	2007
1	1	283	92	2009
1	1	256	96	2006
1	2	282	91	2008
1	1	263	96	2006
2	2	0	0	0
1	0	249	90	2006
1	2	283	98	2006
1	1	283	0	2007
1	1	240	87	2009
1	1	284	91	2007
2	2	0	0	2005
2	1	0	0	2004
1	1	0	87	2009
1	1	0	92	2007
2	2	283	0	2005
1	2	240	91	2009
1	2	0	91	2008
1	1	279	96	2006
1	1	282	92	2009
1	0	0	0	0
1	2	263	0	2007
1	2	241	96	2006
2	1	0	0	2005
1	1	273	0	0
1	1	240	87	2008
1	1	0	0	0
1	2	241	97	2008
2	2	278	0	2005
1	0	280	0	0
1	1	0	0	0
2	2	279	86	2005
2	2	263	96	2004
1	2	240	92	2006
1	2	0	87	2008
1	2	277	96	2005
1	2	241	87	2008
1	2	279	92	2005
1	1	263	0	2006
2	2	263	0	2004
1	2	279	92	2007
1	1	283	91	2006
1	1	276	89	0
2	1	283	92	2004
2	1	249	0	2005
1	1	282	92	2008
1	1	282	97	2007
1	1	0	91	2008
2	2	279	96	1975
1	1	283	92	2009
1	2	273	97	2008
1	2	274	0	0
1	1	279	91	2009
1	1	263	89	2006
2	2	277	0	2003
1	1	244	0	2007
1	2	0	92	2007
1	1	252	0	2007
1	0	0	0	0
2	1	0	0	2003
1	2	249	0	2005
1	2	277	92	2009
1	2	0	97	2008
1	2	249	89	2007
2	2	263	0	2002
2	2	266	96	2005
1	2	252	96	2005
1	2	237	0	2006
1	2	279	89	2008
1	1	0	0	2007
1	1	263	97	2007
4	2	274	92	2007
1	2	0	92	2009
1	1	0	91	2009
2	2	279	0	2005
1	1	240	87	2007
1	0	0	0	0
1	1	282	93	2008
1	1	0	91	2009
1	1	0	92	2008
2	0	0	96	2005
1	0	275	98	2007
1	0	283	91	2005
2	1	263	0	2005
1	1	287	0	2007
1	1	0	92	2006
1	2	0	92	2009
1	2	241	93	2007
2	1	0	0	2003
1	2	0	91	2009
1	1	252	92	0
1	0	240	92	2005
2	2	249	92	2005
2	1	264	92	2005
1	1	284	93	2006
1	1	255	97	2008
1	2	258	92	2007
1	1	240	91	2007
2	2	263	0	2005
1	2	0	97	2008
1	2	0	92	2008
1	1	263	0	2007
1	1	277	0	2007
1	0	0	0	0
1	1	240	92	2009
1	1	236	87	2008
1	2	252	0	2008
1	1	0	93	2008
1	2	249	92	2007
1	0	0	0	0
1	1	279	0	2008
1	2	0	92	2008
4	2	0	0	0
1	1	273	92	2008
2	2	259	0	2005
2	1	240	0	2005
1	2	278	89	2008
1	2	249	98	2006
1	2	277	92	2006
1	1	240	87	2009
1	2	248	92	2008
1	2	252	90	2007
1	1	0	87	2008
1	2	283	91	2009
2	2	0	0	2004
1	0	252	0	2006
1	1	241	92	2009
1	1	0	91	2009
2	2	279	0	2005
1	0	240	95	2006
1	1	244	100	2008
1	2	263	90	2006
1	2	263	91	2009
1	2	273	96	2006
1	1	0	0	2007
1	1	240	95	2006
1	1	279	87	2009
2	1	249	0	2004
1	1	0	92	2009
1	1	0	87	2009
1	1	282	87	2009
1	1	241	91	2008
1	1	0	87	2009
1	1	252	0	2006
1	0	0	0	0
1	2	258	92	2009
1	2	240	92	2008
1	2	260	87	2008
1	2	263	0	2007
1	1	279	0	2008
1	1	277	97	2007
1	1	275	87	2009
1	1	0	91	2009
2	2	249	90	2003
2	2	263	0	2004
1	1	0	92	2008
1	1	0	97	2008
2	2	252	93	2005
2	1	252	0	2005
3	2	263	100	2007
1	1	273	95	2006
1	1	0	87	2009
2	2	249	92	2004
1	2	238	87	2008
1	2	277	92	2009
1	2	241	91	2007
1	2	287	89	2006
2	2	249	0	2005
1	2	274	0	2007
1	2	282	93	2008
1	2	269	0	2009
1	2	263	97	2007
2	1	273	0	2005
1	1	241	92	2008
1	2	252	92	2006
1	1	240	91	2009
1	2	0	91	2008
1	2	240	87	2008
1	2	0	92	2009
1	0	255	87	2007
1	2	0	93	2008
1	2	0	91	2009
1	2	249	93	2006
1	1	0	87	2008
2	1	279	0	2004
1	2	0	92	2006
1	1	273	92	2006
2	2	287	86	2005
1	2	0	87	2009
1	1	252	92	2009
1	1	287	87	2009
2	2	240	0	2005
1	2	249	93	2006
1	2	0	92	2009
2	1	0	0	2003
1	1	283	97	2007
1	1	241	93	2008
2	2	254	0	0
2	0	0	0	0
2	1	252	96	0
1	1	0	0	2008
1	1	249	92	2006
1	1	0	92	2009
1	2	0	92	2008
1	0	0	92	2008
2	1	241	0	2005
1	1	0	92	2009
1	1	0	87	2008
1	2	273	91	2008
2	2	252	0	2004
1	1	0	92	2008
1	2	249	0	2006
