status	gender	major	dorm	year
1	2	294	0	2006
5	1	293	0	2005
2	2	294	110	2005
1	1	295	121	2008
1	1	289	122	2006
1	1	299	128	2008
1	2	299	93	2008
1	2	0	89	2009
1	1	0	0	2009
1	1	247	0	2007
1	0	0	0	0
1	1	0	88	0
1	1	0	91	2009
1	0	240	0	2007
1	2	276	92	2009
5	2	0	0	0
1	2	296	0	2005
1	2	299	91	2009
1	2	248	92	2009
1	1	299	125	2007
1	2	276	89	2009
4	2	0	0	0
2	2	0	0	2005
1	1	247	136	2009
1	0	0	0	0
1	2	254	0	2006
1	1	278	0	2007
1	1	263	0	2006
1	2	292	114	2008
2	1	295	0	2005
1	2	299	92	2009
1	2	0	115	2005
1	1	300	0	0
1	1	266	121	2008
1	1	248	94	2008
2	2	291	0	2005
1	1	254	132	2009
1	2	294	139	2009
1	2	299	92	2009
2	2	302	115	2005
1	1	265	138	2009
1	1	266	124	2006
1	2	289	92	2009
1	0	0	0	0
1	2	300	137	2009
2	1	247	121	2005
1	1	296	123	2007
2	2	297	0	2004
1	2	265	0	2006
1	2	291	96	2008
2	0	295	0	2005
1	1	263	132	2009
1	2	293	0	2005
5	1	274	0	0
1	1	248	91	2009
1	1	298	89	2009
1	1	258	89	2009
2	1	299	124	2004
1	2	294	101	2007
1	2	254	87	2007
2	1	297	121	2005
1	2	271	88	2009
5	1	284	0	0
1	2	248	89	2009
1	2	250	0	2009
1	0	0	0	2007
1	2	299	0	2008
1	2	278	93	2007
1	2	0	0	2006
1	1	265	0	2009
1	2	300	86	2008
1	2	300	103	2006
1	1	250	89	2009
1	2	299	0	2009
5	1	284	0	2005
1	1	295	0	2007
1	1	299	92	2009
1	1	258	0	2006
1	2	284	0	2005
1	1	287	88	2009
2	2	254	0	2005
1	1	294	120	2008
1	2	299	92	2009
2	1	270	106	2005
1	1	247	123	2007
1	1	276	0	2005
1	2	297	96	2007
2	2	298	0	0
1	1	255	90	2009
2	2	293	113	2003
1	1	242	90	0
1	2	295	0	2007
1	2	292	0	2006
1	2	300	96	2009
1	1	268	123	2008
1	2	237	0	2007
1	1	241	86	2008
1	2	275	89	2009
1	2	297	88	2009
1	1	247	127	2006
5	1	295	123	2004
2	1	293	0	2005
2	1	295	122	2005
1	2	294	0	2006
1	2	299	88	2008
1	1	295	0	2007
1	0	0	0	0
1	2	293	0	2005
1	1	263	87	0
1	1	270	0	2007
2	1	303	128	2004
2	1	266	0	2005
1	2	300	91	2009
1	1	303	93	2008
1	2	299	0	2005
2	1	295	120	2005
1	2	289	0	2007
1	0	0	126	2007
1	2	297	102	2008
1	2	268	0	2005
1	1	299	86	2008
1	2	250	96	2007
1	1	0	89	2005
1	2	294	116	2007
1	1	291	93	2008
1	2	289	89	2009
1	2	0	0	2007
1	2	0	135	2009
1	1	299	121	2008
1	2	282	106	2007
1	2	248	86	2008
1	2	0	92	2009
1	2	302	112	2007
1	2	246	107	2005
1	2	247	96	2008
1	1	249	92	2009
1	2	291	0	2005
1	1	276	91	2009
2	2	294	0	2005
1	1	284	87	2007
5	2	300	0	2006
1	2	254	113	2006
1	1	299	92	2009
1	1	278	88	2008
1	1	299	91	2009
1	2	297	91	2009
1	2	274	102	2007
1	1	296	0	2008
1	0	300	117	2006
1	1	240	0	2007
1	1	300	93	2007
1	2	276	0	2007
2	1	301	0	2003
3	1	287	0	0
1	2	291	0	2006
1	2	300	115	2008
2	2	291	0	2005
1	2	291	87	2006
2	1	303	0	2005
1	1	266	0	2007
2	1	278	0	2005
1	2	302	134	2008
1	1	296	121	2006
5	2	254	116	2005
2	2	294	101	2005
1	1	0	122	0
1	0	287	126	2007
1	2	258	87	2007
1	1	298	126	2008
2	0	0	0	0
1	2	299	92	2009
1	2	299	86	2008
1	1	293	89	2009
1	1	268	89	2009
1	2	299	0	2008
1	2	294	115	2006
1	2	240	101	2008
1	0	250	105	2007
1	2	294	102	2006
1	1	0	0	2007
1	1	0	123	2006
1	1	258	86	2008
1	0	0	0	0
2	2	294	0	2004
2	1	294	0	2005
1	2	291	89	2008
1	1	300	132	2009
1	1	279	136	2009
2	2	305	0	2005
1	1	0	131	2009
1	2	263	89	2009
1	2	235	124	2007
2	0	250	0	2005
1	2	299	0	2009
1	1	284	0	2007
1	2	295	91	2009
1	2	246	0	2006
1	2	250	91	2009
2	2	293	105	2005
1	1	246	0	2006
1	2	289	91	2009
2	2	300	109	2003
1	1	0	0	2009
1	2	300	0	2007
1	2	240	115	2008
1	2	243	126	2008
2	1	296	0	2003
2	2	293	0	2004
1	2	289	0	2006
1	1	250	92	2009
1	1	300	86	2008
1	2	276	90	2008
1	2	240	109	2008
2	1	300	125	2004
1	1	299	88	2009
2	0	285	0	2005
1	2	254	87	2010
1	1	0	132	2009
1	2	294	87	2007
1	2	289	139	2009
1	2	300	0	0
1	2	289	88	2009
1	2	299	89	2009
1	1	247	89	2009
2	2	293	0	2005
1	1	0	122	2008
1	2	299	97	2006
1	1	0	134	2008
1	2	291	87	2006
1	1	278	0	2006
2	2	302	116	2005
1	2	295	132	2009
1	1	304	132	2009
1	2	291	97	2006
1	1	294	0	2005
1	2	299	86	2004
1	1	0	131	2009
1	2	241	106	2008
1	1	298	0	2009
1	2	278	0	2006
1	1	278	131	2009
1	1	236	0	2006
1	1	0	136	2009
1	2	299	92	2009
1	1	249	91	2009
1	2	0	91	2008
1	1	266	123	2008
1	1	278	92	2009
1	2	287	113	2007
1	2	300	92	2009
1	1	0	0	0
2	2	302	109	2004
1	2	295	105	0
1	1	258	126	2007
1	2	295	87	2005
1	2	0	0	2006
1	1	258	123	2008
1	1	299	92	2009
1	2	0	89	2009
1	1	289	93	2008
1	1	278	127	2007
1	2	291	92	2009
1	2	291	0	2006
2	1	294	0	2005
1	2	289	93	2007
1	2	295	87	2007
1	2	296	114	2007
1	2	299	0	2006
2	2	294	0	2002
1	1	0	95	2007
1	2	295	103	2006
1	2	273	137	2009
1	1	296	122	2006
2	2	294	0	2004
2	2	295	107	2005
1	2	248	0	2006
1	1	292	120	2007
1	2	243	86	2007
1	2	289	0	2007
2	1	294	0	2005
1	1	258	0	2005
1	1	296	125	2006
2	2	278	103	2005
2	2	268	113	2005
1	1	0	126	2008
2	2	257	119	2005
1	0	0	0	0
1	2	300	88	2009
1	1	292	89	2009
1	2	246	0	2005
1	2	254	0	2006
1	1	298	0	2009
1	2	300	92	2009
1	2	250	90	2008
1	2	251	89	2009
1	2	297	88	2008
1	1	274	93	2008
1	1	296	127	2006
1	1	299	122	2008
1	1	295	0	2007
1	1	0	88	2009
1	1	299	88	2009
1	1	299	95	2008
1	1	0	0	2007
1	2	295	0	2006
1	1	287	120	2006
1	2	300	88	2009
1	1	0	87	2007
1	1	263	128	2008
1	2	0	0	2007
1	2	299	89	2008
1	1	258	121	2007
1	2	294	0	2007
1	1	278	93	2007
1	1	248	128	2007
1	0	293	87	0
1	2	275	89	2009
1	2	248	99	2008
1	2	294	104	2007
1	2	266	89	2009
5	1	278	0	0
1	1	0	135	2009
1	2	300	93	2007
2	2	296	107	0
5	2	300	0	2004
1	2	250	139	2009
1	1	248	91	2007
2	1	248	0	2005
1	1	247	93	2007
1	2	0	90	2009
1	1	258	92	2009
1	1	296	87	2007
1	2	300	0	0
1	2	295	93	2007
1	2	240	115	2007
1	2	287	94	2006
2	1	246	0	2004
1	2	300	0	2006
1	1	265	89	2005
1	2	299	94	2008
1	1	0	95	2008
1	2	0	91	2009
1	2	300	0	2006
1	2	294	118	2007
1	2	276	135	2009
1	2	289	119	2006
5	2	254	0	2005
1	1	0	91	2009
2	1	294	0	2005
1	0	0	0	0
1	2	250	88	2009
1	2	240	91	2009
1	1	300	0	2006
2	2	254	0	2005
1	2	289	86	2008
1	1	0	91	2009
2	1	287	0	2005
1	2	270	0	2006
1	2	257	87	0
1	2	254	87	2006
1	2	250	132	2009
1	2	266	102	2007
1	2	302	0	2006
1	1	289	95	2008
1	2	300	92	2009
1	0	0	0	2006
1	2	295	0	2010
1	2	0	0	2007
1	2	257	0	2005
1	2	250	110	2007
2	2	297	0	2005
1	1	248	91	2009
1	2	278	103	2008
1	2	254	86	2007
1	2	300	0	0
2	1	236	121	2005
1	1	299	95	2008
2	2	296	0	2005
1	1	0	123	2007
2	0	0	0	0
2	2	295	0	2005
1	1	278	0	2007
1	1	276	120	2008
1	2	288	0	2008
1	2	300	117	2008
1	1	294	126	2006
1	1	296	0	2006
1	2	299	0	0
2	1	0	0	2004
1	2	0	90	2009
1	2	292	89	2009
1	0	240	0	2005
1	1	299	121	2007
1	2	248	0	2007
1	2	297	95	2008
2	1	293	128	2004
1	1	0	0	2007
2	0	240	87	2005
1	2	257	86	2008
1	1	248	86	2008
1	0	0	0	0
1	2	300	94	2007
1	2	300	0	2008
1	2	301	105	2006
2	2	289	0	2005
1	1	258	0	2005
2	1	0	0	2004
2	2	302	0	2005
2	2	300	97	1993
1	2	262	106	2007
1	2	289	92	2009
1	0	0	0	0
1	2	297	0	2007
1	1	257	135	2009
1	1	276	86	2008
1	1	293	127	2008
1	1	278	128	2008
5	1	298	122	2005
1	1	250	91	2009
1	1	250	0	2007
1	1	289	0	2007
1	1	274	0	2007
1	0	0	0	0
1	2	268	0	2006
1	1	299	126	2007
1	2	245	118	2006
1	0	291	0	2006
5	2	300	0	2006
1	2	240	111	2005
2	1	295	0	2005
2	1	300	0	2004
1	1	265	115	2006
1	2	250	0	2007
2	1	278	123	2005
1	1	299	132	2009
1	2	250	138	2009
1	2	0	95	0
1	2	248	89	2009
2	2	294	99	2005
1	0	0	0	0
1	2	291	0	2008
1	2	0	103	2008
2	1	295	121	2005
1	1	266	120	2006
1	0	0	0	0
1	1	266	132	2009
1	2	299	96	2009
2	2	257	100	0
1	2	294	109	0
1	1	265	87	2007
1	2	297	131	2009
1	1	278	0	2005
2	2	274	99	2005
1	2	299	114	2008
1	2	293	0	2006
2	1	295	0	2005
1	2	247	137	2009
1	2	300	86	2007
1	2	265	93	2008
1	2	291	111	0
1	2	0	0	2007
1	1	276	122	2008
1	1	296	131	2009
1	2	265	0	2007
1	1	247	128	2006
1	1	299	128	2007
1	1	250	0	2006
1	1	303	128	2008
1	2	300	111	2008
1	1	248	126	2006
1	1	265	128	2006
1	1	295	87	2006
1	2	300	91	2009
1	2	289	107	2008
5	0	0	0	0
2	1	278	0	2005
1	1	247	138	2009
1	2	0	0	2005
1	2	250	89	2009
1	0	0	0	0
2	0	0	0	0
1	2	295	0	2008
1	2	0	140	2009
1	1	266	0	2006
1	1	299	92	2009
1	1	295	86	0
1	2	302	89	2009
1	2	293	136	2009
1	2	0	138	2009
1	1	299	128	2008
1	1	274	0	2007
1	2	254	117	2006
1	1	284	0	2007
1	2	250	89	2009
1	2	240	131	2009
1	1	278	0	2006
1	1	274	0	2006
1	1	263	0	2007
1	1	0	91	2009
1	1	248	122	2007
1	1	292	131	2009
1	2	258	0	2007
2	2	291	114	2004
2	1	278	0	2005
1	2	0	100	2005
2	1	266	120	2005
2	1	258	126	2004
1	1	295	125	2008
1	2	273	0	2006
1	2	276	97	2006
1	1	299	138	2009
1	2	0	0	0
1	1	235	0	2004
1	2	274	105	2007
1	2	266	90	2008
5	2	293	0	2005
1	2	300	88	2007
1	2	300	91	2009
1	2	294	117	2006
1	1	292	92	2009
2	1	296	87	2005
5	2	254	0	2004
1	2	291	0	2007
1	2	293	0	2007
1	2	250	91	2009
1	1	265	128	2007
1	1	278	123	2006
2	2	261	0	2004
1	2	289	95	2008
2	2	295	0	2005
1	2	258	95	2008
1	2	248	92	2009
1	2	240	136	2009
1	1	0	89	2008
1	1	248	89	2009
1	2	0	88	2008
1	2	240	140	2009
1	1	278	122	2007
1	1	265	89	2008
1	1	302	88	2009
1	1	257	126	2005
1	1	295	93	2006
1	1	296	0	2006
2	1	279	0	2005
1	2	296	110	2006
1	2	258	107	2006
1	1	0	120	2008
1	0	250	0	2006
1	0	0	0	0
1	1	258	87	0
1	2	294	0	2005
1	1	251	0	2008
1	2	250	0	2006
1	2	292	86	2008
2	1	296	0	2004
1	2	289	0	2005
1	2	284	89	2008
1	1	294	0	2006
1	1	0	92	2009
1	2	300	102	2006
1	1	0	92	2008
1	0	0	115	0
1	2	302	86	2004
1	2	276	92	2009
1	0	0	95	2008
1	1	248	92	2009
1	2	278	106	2005
2	1	0	0	2005
1	2	294	95	2008
1	2	299	89	2009
1	1	278	0	2007
2	2	296	0	2004
1	2	289	0	2007
1	1	0	93	2008
2	2	250	0	2004
1	2	254	0	2006
1	2	254	95	2007
1	2	297	89	2009
1	2	250	94	2008
1	2	0	86	2008
1	1	295	126	2007
2	1	300	0	2005
1	2	294	116	2008
1	1	297	0	2006
1	2	293	116	2006
1	1	263	127	2008
2	2	250	0	2004
1	2	268	95	2008
1	1	257	121	2006
2	2	294	0	2003
1	1	266	91	2009
1	2	299	98	2008
1	2	287	113	2007
1	1	263	91	2009
4	1	0	0	0
1	1	249	94	2008
1	1	248	123	2008
1	2	272	0	2007
1	2	250	90	2008
1	1	248	89	2009
2	2	274	103	2004
1	1	242	89	2009
1	2	298	106	2007
1	2	299	137	2009
1	2	299	94	2008
1	2	0	95	2006
1	2	302	87	2006
1	2	297	113	2006
1	2	297	86	2008
2	2	300	0	2005
1	2	299	131	2009
1	1	274	89	2009
1	1	0	126	2008
1	2	0	0	2005
1	2	293	93	2007
1	2	0	0	0
1	2	265	0	2006
1	1	236	93	2008
1	1	254	87	2007
1	2	0	0	2008
1	2	292	138	2007
1	2	300	132	2009
1	2	248	91	2009
1	1	268	0	2007
1	2	242	88	2008
1	1	0	125	2008
1	1	246	122	2005
1	1	258	91	0
1	2	0	90	2009
1	1	291	89	2009
1	2	258	0	2009
1	2	0	0	2009
1	0	0	0	2006
2	2	293	113	2005
1	2	0	0	2007
1	1	240	0	2005
2	2	294	0	2004
1	2	302	88	2008
1	2	0	0	2007
5	1	258	90	2005
1	1	250	91	2009
1	1	299	86	2008
1	1	0	89	2009
1	1	278	0	2007
1	2	300	93	2007
1	1	296	93	2008
1	1	0	89	2009
1	2	0	92	2008
1	1	0	86	2008
1	2	294	131	2009
3	0	0	0	0
1	2	302	95	2008
1	2	0	86	2008
1	2	294	94	2008
1	2	299	117	2008
1	1	274	93	2008
1	1	294	0	2006
1	1	0	0	0
1	2	299	95	2008
1	1	240	88	2009
1	1	278	0	2006
1	0	278	122	2008
1	2	289	86	2007
1	1	276	86	2008
2	0	0	0	0
2	2	300	0	2005
1	2	291	89	2009
1	0	303	0	2007
1	1	296	0	2006
1	2	299	138	2009
1	2	254	89	2007
1	2	289	92	2009
5	1	284	0	2004
1	1	248	0	2005
1	2	302	89	2009
1	2	276	0	2008
1	1	250	128	2007
1	1	277	0	2006
1	2	289	86	2008
1	2	242	89	2009
1	2	300	0	2008
1	1	294	140	2009
1	2	299	91	2009
1	1	0	0	2007
1	2	295	90	2009
1	1	0	91	2009
5	1	298	0	2005
1	2	299	0	0
1	1	293	0	2006
2	2	257	0	2005
1	2	0	0	0
1	2	274	86	2008
1	2	295	116	2007
1	1	248	136	2009
1	2	296	0	0
2	2	293	110	2005
1	2	295	93	2006
1	0	265	95	2007
1	2	300	86	2008
1	2	257	116	2007
1	2	0	0	0
1	1	248	139	2009
1	2	288	0	2007
1	2	297	0	2007
1	2	250	0	2005
1	0	284	106	2007
1	1	0	120	2008
1	1	0	0	2009
1	2	294	106	2007
1	2	276	91	2009
1	2	292	140	2009
4	2	0	0	0
1	1	246	89	2009
4	1	298	0	2007
5	2	275	0	2004
1	2	289	0	2006
1	2	294	99	2008
1	2	302	0	2006
1	2	291	135	2008
1	2	298	115	2006
1	0	266	0	2006
2	2	299	113	2005
1	2	299	132	2009
5	2	300	0	2005
1	2	265	109	2008
1	1	0	120	2008
1	2	300	106	2007
1	1	248	121	2006
1	2	300	94	2008
1	0	0	122	0
1	2	0	0	0
1	2	295	116	2007
2	2	296	0	2005
1	2	291	0	2008
1	2	0	89	2009
1	2	257	0	2007
1	2	291	0	2005
1	1	0	95	2008
1	1	250	0	2006
1	1	299	125	2006
1	2	245	135	2009
1	1	0	139	2009
1	2	289	86	2008
1	2	293	137	2009
2	2	294	0	2005
1	2	274	101	2006
1	2	292	90	2009
1	0	0	0	0
1	2	289	105	2006
1	1	278	0	2006
1	1	263	93	2006
1	1	291	0	2007
2	0	258	126	2005
1	2	0	0	2007
2	1	295	0	2005
2	1	278	120	2005
1	1	296	125	2008
1	2	256	135	2009
1	2	295	97	2006
1	2	296	114	0
1	2	295	107	0
1	0	0	0	0
1	1	287	0	2004
1	2	250	0	2007
1	1	296	0	2006
1	2	289	0	2005
1	1	276	91	2009
1	1	268	140	2009
1	1	295	88	2009
1	1	293	87	2007
1	2	295	90	2009
1	2	300	96	2008
1	2	254	88	2008
1	2	299	101	2008
1	1	0	136	2009
2	1	0	0	2003
1	2	300	93	2007
1	2	293	0	2006
1	2	299	88	2009
1	2	300	89	2006
2	2	294	0	2005
1	1	248	0	2007
1	2	254	0	2008
1	2	302	89	2009
1	1	0	131	2009
2	2	300	0	2005
1	1	257	125	2008
1	2	284	0	2005
1	1	266	0	2007
1	1	248	88	2009
1	2	250	108	2008
1	2	300	109	2008
1	2	302	137	2009
1	1	0	91	2009
1	2	278	89	2009
1	1	292	0	2006
1	1	0	90	2009
1	2	0	0	2006
1	2	0	96	2009
1	2	300	92	2009
1	1	299	91	2009
5	1	278	126	2005
1	1	300	0	2005
1	1	274	95	2007
5	0	0	0	0
1	2	296	107	2005
1	2	250	118	2006
1	2	265	0	2007
1	2	302	140	2009
2	0	300	121	2005
1	1	295	87	2006
1	0	257	95	2007
1	2	293	0	2005
1	0	0	0	0
1	1	248	121	2006
0	0	0	0	0
2	1	266	0	2005
1	2	299	95	2008
1	2	250	90	2008
2	2	302	0	2004
1	2	263	106	2006
1	2	300	92	2009
2	1	0	0	2005
1	2	250	0	2006
1	2	300	0	2006
1	1	250	128	2008
1	2	0	0	2007
1	1	267	0	2010
1	2	270	0	2006
1	1	296	0	2009
1	2	257	0	0
1	2	250	92	2009
1	0	278	126	0
5	2	0	0	0
1	1	248	91	2009
1	2	240	92	2009
2	1	299	0	2005
2	1	295	0	2005
1	1	0	91	2009
2	2	261	0	2005
1	1	261	89	2009
1	2	294	109	2008
1	2	299	115	2008
1	2	299	112	2005
1	0	294	0	2007
2	1	278	0	2005
1	2	263	87	2005
2	2	292	0	2005
1	1	246	134	2008
1	2	293	0	2006
1	1	0	95	2008
1	1	276	89	2009
2	2	294	0	2003
1	2	289	112	2006
1	1	0	126	2008
1	1	298	0	0
1	1	0	89	2009
2	2	257	0	2005
1	0	263	107	2007
1	2	0	136	2009
1	1	248	0	2007
4	2	0	0	0
2	2	295	0	2004
1	1	242	91	2009
1	2	291	97	2007
1	0	258	126	2005
5	1	250	0	2005
1	1	0	131	2009
1	2	289	86	2006
1	1	292	135	2009
1	2	294	0	0
2	2	278	119	2005
1	2	258	0	2006
1	1	248	138	2009
1	0	0	116	2007
1	2	289	86	2008
1	1	246	121	2007
1	2	294	108	2005
1	2	293	0	2005
1	1	287	95	2008
1	2	0	99	2006
1	2	250	117	2006
2	1	294	0	2005
1	2	289	0	2006
1	1	295	87	2007
1	1	240	0	2006
1	2	300	0	2005
1	2	250	0	2009
1	2	254	0	2006
1	2	302	94	2007
1	2	300	96	2008
1	2	248	90	2009
1	2	294	116	2008
1	2	289	0	2005
1	2	295	99	2007
1	2	299	90	2009
1	2	258	101	2007
1	1	0	0	2007
1	2	0	92	2009
1	2	0	102	0
2	1	278	0	2005
1	2	293	131	2007
1	2	294	0	2008
1	0	274	125	0
2	2	265	0	2005
1	1	0	93	2008
1	2	275	0	2008
1	2	302	0	2005
2	2	301	103	2005
1	2	299	138	2009
1	2	248	0	2006
1	1	295	125	2008
1	1	0	95	2008
1	2	297	102	2006
1	1	240	0	2006
1	2	292	91	2009
2	1	274	0	2004
1	2	278	90	2008
1	2	0	91	2009
1	2	302	92	2009
1	1	246	128	2005
5	2	300	0	2007
1	2	294	0	2006
1	2	300	0	2006
1	1	0	89	2009
1	2	294	96	2008
1	2	300	95	2008
1	2	253	0	2005
2	2	258	0	2000
2	1	258	0	2005
2	2	300	95	2005
1	0	296	0	2006
1	2	299	89	2009
2	2	293	0	2004
1	2	0	96	2006
2	1	278	121	2003
2	2	293	0	2005
1	2	294	108	2007
1	2	299	95	2006
1	2	300	89	2009
1	1	276	94	2006
1	1	276	91	2009
1	1	248	0	2008
1	1	247	0	0
1	1	258	95	2008
2	2	306	0	2005
1	2	257	0	2009
1	1	293	122	2006
2	1	287	0	2005
1	1	292	128	2008
1	2	0	139	2009
1	1	289	121	2008
2	2	293	104	2003
1	1	258	90	2008
4	1	0	0	0
1	2	300	91	2009
1	1	248	131	2009
2	0	0	0	0
1	2	294	0	2007
2	2	295	87	2005
1	2	291	0	2009
1	2	258	104	2008
1	1	297	0	2006
1	1	0	0	2007
1	2	301	0	0
1	1	250	92	2009
1	1	248	0	2007
1	2	300	116	2007
1	1	278	93	2007
1	1	246	91	2009
1	1	278	126	2007
1	1	274	0	2007
1	2	293	110	2008
1	2	296	0	2006
1	2	276	92	2009
1	1	266	96	2008
1	2	0	89	2009
1	2	295	93	2007
1	2	242	88	2009
1	1	274	125	2006
1	2	272	93	2008
1	0	0	0	0
1	1	0	93	2007
1	2	300	96	2008
1	2	299	96	2008
1	2	300	137	2009
2	2	250	0	2004
1	1	300	89	2008
2	2	268	93	2004
1	0	265	0	2007
1	2	0	114	2008
1	0	295	122	2007
1	1	258	94	2008
1	1	299	120	2008
2	2	254	97	2005
1	2	274	89	2009
1	1	292	89	2008
1	1	274	125	2006
1	1	0	128	2007
1	2	242	92	2009
5	1	268	0	0
1	2	273	116	2006
2	0	295	0	2005
1	2	300	117	2007
1	2	296	0	2007
1	2	257	107	2007
1	2	254	95	2008
1	2	240	0	2007
1	2	299	136	2009
1	2	0	106	2007
2	2	301	0	2005
1	2	0	94	2008
1	0	294	103	2007
1	1	276	92	2009
3	2	247	0	0
1	2	0	91	2009
1	1	296	123	2006
1	1	248	123	2007
1	2	245	90	2008
1	0	272	124	2006
1	2	301	95	2008
1	2	254	0	2008
1	2	0	92	2009
1	1	250	0	2006
1	2	0	91	2009
1	2	274	103	2006
1	2	254	115	0
5	2	293	0	2006
1	2	240	0	0
1	2	300	94	2008
1	0	265	122	2006
1	1	278	125	2007
1	0	0	0	0
1	2	257	112	2005
1	1	278	123	2006
1	2	242	91	2009
1	2	247	0	2005
1	2	0	92	2009
1	2	278	0	2006
1	2	250	131	2009
2	1	268	0	2005
2	2	300	0	2004
1	1	299	123	2008
1	2	299	99	0
1	1	278	128	2008
2	0	294	126	2005
1	1	278	95	2006
1	1	248	87	2006
1	1	263	122	2007
1	2	0	0	0
1	1	299	0	2007
1	1	296	120	2007
1	2	274	89	2009
2	1	296	0	2005
1	2	299	92	2008
1	2	291	108	2005
1	2	295	105	2006
1	1	298	90	2009
1	1	299	127	2008
1	2	300	0	2009
1	2	300	94	2007
1	1	0	86	2008
5	2	294	99	2005
1	1	248	0	2008
1	1	287	0	2007
1	1	242	91	2009
1	2	276	92	2009
1	0	274	0	2007
2	2	294	106	2005
1	1	293	89	2008
1	2	254	89	2009
1	2	275	95	2007
1	1	298	0	0
1	2	299	139	2009
1	2	299	0	0
1	2	299	0	2006
1	2	300	93	2007
1	1	296	0	2005
1	1	293	0	2007
1	2	300	96	2008
1	2	297	131	2009
5	1	278	120	2005
1	2	295	0	2005
1	2	292	114	2008
1	2	294	103	2008
1	2	284	0	2004
2	2	296	109	2005
5	2	295	99	2004
1	2	299	137	2009
1	1	289	86	2008
1	2	289	91	2008
5	2	300	104	0
1	2	299	138	0
5	1	278	0	2005
1	2	300	0	2006
1	2	0	137	2009
1	2	299	89	2008
1	1	292	87	2006
1	1	276	86	2008
1	0	0	0	0
1	0	242	91	2009
1	2	295	0	2006
1	2	257	113	2008
1	1	250	0	2006
1	1	278	134	2008
1	1	299	121	2008
1	1	299	88	2008
1	1	295	89	2009
5	2	297	0	2005
1	2	300	91	2009
1	2	300	95	2008
1	1	278	87	2006
2	2	262	90	2005
1	0	0	0	0
1	1	303	89	2009
1	1	278	122	2008
5	2	257	0	2006
1	1	293	0	2007
1	2	250	117	2006
1	1	240	91	2009
2	2	294	115	2005
1	2	295	0	2005
1	1	0	0	2004
2	1	300	0	2005
1	2	302	100	0
1	2	300	0	2006
2	1	284	0	2005
1	1	247	0	2007
1	2	302	136	2009
1	2	293	110	2008
1	1	289	86	2008
1	1	291	123	2008
1	0	0	0	0
1	1	295	122	2008
1	1	284	0	2006
1	2	248	117	2006
1	2	297	87	2006
1	2	300	96	2009
1	1	291	87	2006
1	2	300	91	2009
2	2	300	105	2005
1	0	258	0	2006
1	1	276	125	2008
1	1	295	127	2006
1	2	266	0	2007
1	2	255	0	2005
1	1	296	87	2006
1	2	300	86	2008
1	1	278	0	2007
2	2	300	0	2005
1	2	270	138	2009
5	2	289	0	0
2	2	300	0	2004
1	1	297	93	2007
1	2	295	0	2005
1	2	300	91	2009
1	2	300	0	2006
2	2	278	0	2005
2	1	289	0	2005
2	2	294	106	2005
5	1	284	0	2005
1	2	0	95	2007
1	2	300	86	2007
1	1	0	91	2009
2	2	300	0	2005
1	1	0	128	2008
1	2	300	112	2006
1	2	289	90	2009
1	0	0	0	0
5	1	296	0	2005
1	2	294	0	2007
1	2	254	0	2005
1	1	278	91	2009
1	1	246	0	2006
2	2	293	0	2004
1	2	300	0	2008
2	2	296	0	2005
1	2	299	132	2009
1	1	258	0	2006
1	2	248	106	2008
1	2	299	97	2008
1	2	291	0	2006
2	1	302	121	2005
1	1	0	88	2009
2	1	295	0	2005
1	1	296	0	2007
1	2	291	0	2005
1	1	252	123	2006
1	2	254	87	2007
1	1	274	122	2008
1	2	293	87	2006
2	2	263	0	2005
1	1	0	91	2009
1	2	254	87	2005
1	2	0	103	2008
1	1	274	0	2004
2	1	278	0	2005
1	2	295	0	2006
1	2	299	89	2009
1	2	254	0	2006
1	2	299	115	2008
1	2	0	137	2009
5	2	293	0	0
5	2	250	0	2006
1	1	299	120	2007
1	2	278	0	2007
1	2	250	132	2008
2	1	296	0	2005
1	2	250	110	2005
1	2	258	92	2009
1	2	0	0	2006
1	1	298	0	2006
1	2	254	104	2007
1	2	265	92	2008
1	2	250	92	2009
1	2	0	93	2007
5	2	274	0	2005
1	2	296	91	2009
1	2	270	117	2008
1	2	294	105	2007
1	1	257	0	2006
1	2	299	104	2007
1	1	240	94	2007
1	2	296	0	2008
2	1	294	122	2005
1	1	278	0	2006
2	1	256	125	2004
1	2	242	92	2009
1	1	266	90	2008
1	2	300	0	2006
2	1	240	0	2005
1	2	0	0	2007
1	1	250	120	2007
1	2	300	110	2008
1	1	250	132	2009
1	1	0	0	0
1	2	293	99	2006
1	2	296	103	2006
1	2	299	88	2008
1	2	248	0	2007
1	1	294	0	2006
1	1	248	135	2009
1	2	299	106	2007
2	2	287	100	1990
1	1	258	90	2008
1	1	278	139	2009
1	2	300	0	2006
1	1	276	89	2009
1	2	300	119	2008
1	2	295	88	2008
1	1	0	126	2008
1	2	293	109	2007
1	2	276	0	2009
1	2	291	116	2007
1	2	250	86	2008
1	2	291	136	2009
4	0	0	0	0
1	1	278	86	2007
1	2	254	0	2007
2	2	294	109	2004
2	1	278	0	2005
1	1	278	0	2006
5	2	274	0	2005
1	1	267	126	2006
1	2	283	0	0
1	2	299	92	2009
4	2	272	0	0
1	2	294	86	2007
1	1	294	120	0
1	2	291	95	2008
1	2	294	136	2009
1	2	293	118	2005
1	1	293	0	2006
5	2	302	0	2005
1	2	285	0	2007
2	1	295	0	2005
1	1	284	0	2007
2	1	295	0	2005
1	2	250	116	2006
1	2	299	90	2009
1	2	302	0	2006
1	2	250	93	2004
1	0	0	0	0
5	2	286	0	2007
1	2	0	96	2008
1	2	289	87	2007
2	2	254	0	2005
2	1	289	0	2005
1	1	265	0	2006
5	2	284	0	2004
1	1	295	95	2007
1	2	303	94	2009
1	2	276	111	2007
1	2	300	112	2008
1	2	250	91	2009
1	2	293	87	2008
1	1	0	140	2009
1	1	299	91	2009
1	1	246	95	2008
1	1	278	86	2008
1	1	306	88	2009
1	2	242	0	2008
1	1	284	94	2008
1	1	240	89	2009
1	2	254	86	2006
1	2	294	92	2009
1	2	300	93	2007
2	2	0	0	2004
1	1	289	136	2009
1	2	255	110	2007
1	1	0	123	2008
2	2	265	0	2005
1	1	240	95	2007
1	2	300	92	2009
1	2	268	0	2006
1	1	303	95	2007
1	1	246	86	2008
1	0	0	0	0
1	2	302	94	2007
1	2	295	0	2009
1	2	274	0	2006
1	1	0	91	2009
1	1	0	89	2009
1	2	295	105	2007
1	2	289	90	2009
1	0	0	0	0
1	2	291	0	2007
1	1	249	87	2007
1	1	291	0	0
1	2	300	91	2009
1	1	280	109	2009
1	1	0	89	2009
1	2	250	113	2008
1	1	278	0	2007
1	1	299	90	2008
4	1	0	0	0
1	2	240	86	2007
5	1	257	0	2006
1	2	300	0	2007
1	1	274	122	2007
1	2	0	103	2007
1	2	299	86	2008
2	2	267	119	2004
1	0	263	0	2008
1	1	293	87	2007
2	1	0	124	2005
1	2	293	95	2006
1	0	0	0	0
1	2	242	112	2008
1	1	278	92	2009
2	1	240	0	2005
1	1	289	0	2006
2	2	303	0	2005
2	0	300	121	2005
1	2	294	118	2006
1	1	0	86	2008
1	2	295	118	2006
1	1	0	139	2009
1	2	294	103	2007
1	1	255	86	2008
1	2	295	119	2006
1	2	265	89	2009
1	2	291	93	2007
1	2	299	88	2009
1	2	297	86	2008
2	2	246	87	2005
1	1	296	0	2006
1	1	295	87	2006
1	2	291	92	2009
1	2	240	94	2008
1	2	0	96	2005
1	1	248	0	2006
1	1	299	0	2007
2	2	301	114	2005
1	2	292	91	2009
1	1	266	89	2009
1	1	248	94	2008
1	2	299	136	2009
1	1	294	122	2005
1	2	291	109	2006
1	2	289	90	2009
1	1	240	0	2007
1	1	278	87	2007
1	2	299	0	2009
1	1	268	135	2007
1	1	292	0	2007
1	1	0	0	2008
1	1	299	92	2009
1	2	294	136	2009
1	1	293	0	0
1	2	294	87	2006
1	2	300	92	2009
5	2	274	0	2005
1	1	292	0	2006
1	0	293	94	2008
1	2	268	135	2009
5	2	274	117	2004
5	1	298	127	2005
1	2	299	89	2009
1	1	246	128	2007
2	2	286	0	2004
1	1	237	127	2007
1	1	299	0	2009
1	1	295	0	2005
1	1	299	88	2009
1	2	294	99	2005
1	1	287	86	2008
1	1	250	123	2007
1	2	0	137	0
1	2	295	0	2007
1	1	299	89	2009
1	2	248	138	2009
2	2	0	0	2004
1	2	297	88	2009
1	1	278	91	2009
2	1	265	0	2005
1	2	243	115	2007
1	1	0	0	2008
2	1	241	0	2005
1	2	279	0	2007
1	1	299	94	0
1	1	274	89	2009
1	2	276	0	2009
1	2	250	0	2005
1	2	0	89	2008
5	2	250	108	2005
1	1	299	128	2007
5	0	0	0	0
2	1	247	121	2004
1	2	295	99	2005
1	2	293	135	2009
1	2	250	101	2007
2	2	240	0	2005
1	2	295	87	2007
1	2	247	0	2005
2	2	300	0	2003
1	1	0	132	2009
2	1	241	0	2004
5	2	295	0	2005
1	1	278	91	2009
5	0	266	0	2005
1	1	284	0	2006
1	1	304	91	2009
1	2	276	94	0
5	0	287	0	2004
1	0	0	0	0
1	2	0	90	2009
1	1	299	135	2009
1	2	266	0	2008
2	2	266	100	2004
1	1	297	94	2007
5	2	297	0	0
2	2	294	99	2005
1	2	274	102	2007
1	2	294	105	2007
1	2	300	95	2008
1	2	294	86	2008
1	2	240	0	2007
1	2	299	94	2008
1	1	278	128	2006
1	2	300	136	2009
1	1	293	121	2007
2	2	0	0	2004
2	1	246	126	2005
1	2	297	0	2007
1	2	300	0	2007
5	1	298	0	2005
1	2	257	96	2008
1	0	258	90	0
1	2	248	92	2009
1	1	278	92	2009
1	2	250	96	2008
1	1	299	95	2005
1	1	0	0	2008
2	2	294	119	2003
2	2	300	89	2003
1	2	289	116	2005
1	1	278	87	2006
1	1	295	126	2007
1	2	291	94	2009
1	1	292	0	2006
1	2	249	0	2005
1	2	294	119	2006
1	1	257	0	2006
1	2	300	91	2009
1	0	0	0	0
2	1	266	120	2005
1	1	0	127	2007
1	2	0	0	0
1	2	273	96	2008
1	2	250	0	2006
1	1	289	134	2008
1	1	0	122	2008
1	1	284	0	2007
1	1	248	87	2006
1	2	302	0	2006
1	2	299	89	2009
2	1	298	122	2004
1	1	0	91	2009
1	1	274	125	2008
1	2	305	0	2006
2	2	258	95	2005
2	1	278	0	2005
1	2	240	95	2007
1	1	0	88	2009
1	0	274	0	0
1	2	299	91	2009
2	1	245	108	2005
1	2	299	92	2009
1	2	0	90	2009
1	1	0	136	2009
1	2	289	100	2008
1	2	268	89	2009
1	2	296	99	2006
1	2	299	92	2009
1	1	276	95	2007
2	1	246	0	2005
1	1	299	88	2009
1	1	299	88	2009
1	2	292	91	2009
1	2	257	115	2006
1	2	300	87	2007
1	1	299	132	2009
1	2	300	91	2009
2	2	293	105	2005
1	0	0	0	0
2	1	278	89	2003
5	2	289	0	2006
1	2	248	92	2009
2	2	296	105	2004
1	1	0	0	0
1	1	257	89	2009
2	1	0	0	2005
1	1	299	89	2009
1	1	240	87	2006
1	1	0	132	2009
1	1	299	91	2009
2	1	296	0	2005
1	2	300	0	2007
5	1	298	128	2005
1	2	294	112	2008
1	2	300	90	2009
1	2	299	87	2007
1	1	291	121	2007
1	1	276	95	2008
5	2	235	97	2004
1	2	293	138	2009
1	2	254	91	2008
2	1	0	0	2004
1	1	246	127	2007
1	2	250	132	2009
1	1	248	89	2009
1	1	270	0	2006
1	1	0	95	2008
1	1	258	93	2007
1	1	250	89	2009
1	2	296	0	2005
1	2	301	0	2006
1	1	278	92	2009
1	2	300	89	2009
1	1	300	0	2008
1	2	301	113	2006
1	1	295	126	2007
1	2	289	110	2008
1	2	299	88	2009
1	0	0	126	2007
1	1	300	94	2008
1	1	0	89	2005
1	2	0	135	2009
5	2	254	0	2005
1	2	266	0	2007
1	0	0	0	0
1	1	299	95	2008
4	2	0	0	0
1	2	249	91	2009
1	0	0	0	0
1	2	255	0	2005
5	2	293	118	2005
1	1	289	86	2008
2	1	250	0	2003
1	2	273	100	2006
1	2	294	102	2008
1	2	292	95	2007
1	2	300	0	2006
1	2	292	99	2008
2	2	293	109	2004
2	1	268	0	2005
1	1	265	94	2006
1	1	296	126	2008
1	2	294	0	2006
1	1	0	89	2009
1	2	298	106	2007
1	2	292	98	2007
2	2	297	0	2005
1	1	278	122	2007
1	1	287	95	2008
1	2	300	92	2009
1	1	278	125	2007
1	0	0	0	0
1	2	0	0	0
1	1	299	91	2009
2	2	286	0	2004
1	2	289	114	2008
1	2	299	89	2009
1	2	294	0	2007
1	1	0	140	2009
1	2	299	0	2007
1	0	0	0	0
2	0	289	93	2004
1	2	0	102	2008
1	2	250	0	2006
1	2	263	91	2009
1	1	0	91	2009
1	1	299	92	2009
1	1	296	0	2006
1	2	300	0	2006
2	1	296	120	2005
1	2	0	92	2009
1	1	293	91	2009
1	1	278	90	2009
1	1	278	127	2006
1	2	299	116	2008
1	1	303	0	2006
2	2	289	118	2002
1	2	284	92	2008
1	2	278	0	2006
1	2	274	0	2007
1	2	273	89	2009
1	2	293	90	2009
3	0	0	0	0
2	2	250	0	2005
2	1	289	0	2005
5	1	298	96	2005
1	1	257	138	2009
1	1	248	120	2007
1	1	0	91	2008
1	1	268	87	2006
1	1	258	89	2006
1	2	274	0	2006
1	1	0	91	2009
1	1	0	95	0
1	2	299	96	2008
1	2	302	0	2005
1	1	294	87	2006
1	1	240	0	2007
1	2	0	102	2008
1	2	291	93	2006
1	2	242	0	2006
1	2	293	108	2007
1	1	0	0	2006
2	1	236	0	2005
1	1	250	122	2007
1	1	294	125	2006
1	1	240	90	2008
1	1	295	123	2007
1	2	282	0	2005
1	1	299	126	2008
1	1	248	87	2007
1	1	0	0	0
1	1	296	101	2008
1	2	295	0	2007
1	0	240	0	2006
5	1	266	0	2004
1	2	300	92	2009
1	2	289	137	2009
1	1	300	89	2009
1	2	287	96	2008
1	1	268	95	2008
1	2	297	93	2008
1	2	302	88	2009
1	1	298	134	2008
2	2	301	0	2005
1	2	302	90	2008
1	2	300	103	2008
1	1	278	128	2008
1	1	263	126	2006
2	1	296	125	2005
1	2	296	0	2006
1	2	254	0	2009
1	1	265	0	2006
1	2	293	131	2009
1	2	295	0	2006
1	2	300	104	2008
1	2	299	90	2008
1	0	258	122	2005
1	1	274	87	2007
1	1	248	122	2006
1	1	299	95	2008
1	2	299	132	2009
1	1	257	0	2006
1	2	300	96	2008
1	2	300	95	2007
1	2	300	132	2009
1	2	299	92	2009
1	2	300	91	2009
1	1	246	121	2008
1	1	306	0	2008
1	2	300	107	2005
1	1	257	0	2006
2	1	263	0	2005
1	2	254	93	0
1	1	265	0	2006
1	1	0	0	2007
1	2	245	0	2007
1	2	295	114	2007
1	2	0	89	2009
1	2	295	0	2006
2	2	295	0	2005
1	2	242	96	2009
1	1	299	126	2008
2	2	254	0	2005
1	2	293	118	2007
2	2	302	0	2005
1	2	289	100	2006
1	1	250	0	2007
1	2	265	0	2007
1	1	246	90	2009
1	1	296	0	2007
1	2	292	96	2008
1	1	267	93	2006
5	2	297	0	2005
1	1	246	0	2007
1	1	276	89	2009
1	2	299	131	2009
1	2	276	0	2009
2	2	300	117	2005
1	2	295	0	2007
1	1	242	91	0
2	0	0	0	0
1	2	289	0	2007
1	2	300	99	2008
1	2	299	106	2008
1	1	274	123	2006
1	2	299	135	2009
1	2	284	98	2007
1	2	293	117	2007
1	2	291	134	2008
1	1	278	0	0
1	2	299	101	2008
1	1	294	91	2009
1	2	293	0	2005
1	2	300	91	2009
1	2	248	101	2008
2	2	294	0	2005
1	1	0	92	2009
1	1	292	93	2007
1	2	292	87	2007
1	2	257	88	2008
1	2	250	95	2006
2	1	295	0	2005
1	1	242	88	2009
2	1	263	124	2003
1	1	278	89	2009
2	1	301	121	2003
1	1	266	89	2009
1	2	240	135	2009
1	2	250	91	2009
2	2	294	101	2005
1	1	258	0	2007
1	1	246	95	2007
1	0	0	0	0
2	2	254	0	2005
1	2	250	109	2006
1	2	0	91	2009
1	1	295	131	2009
1	2	297	113	2006
1	1	250	0	0
1	2	296	111	2008
2	2	295	118	0
1	2	0	125	2008
1	2	297	115	2006
1	2	295	0	0
1	1	287	121	2007
1	2	291	0	2008
5	2	263	0	2007
5	1	295	0	2004
2	2	301	104	2003
1	2	268	108	2007
5	1	295	128	2005
1	2	249	94	2006
1	1	258	95	2007
1	0	0	0	0
1	2	0	93	2008
1	2	291	93	2007
2	2	235	0	2005
1	1	250	92	2009
1	2	0	114	2007
1	2	294	0	2006
1	2	300	0	0
1	2	257	103	2007
1	2	0	93	2008
1	1	258	122	2006
1	2	0	0	0
1	1	0	0	2008
2	2	293	0	2005
1	0	257	126	0
1	2	300	91	2009
1	1	240	93	2006
1	1	241	0	2007
1	1	294	93	2008
1	2	302	93	2006
1	2	0	0	2006
1	2	301	100	2006
1	1	274	91	2009
1	1	248	0	2007
1	1	304	140	2009
2	2	295	109	2004
1	1	304	92	0
1	0	300	0	0
2	1	294	120	2005
1	1	265	127	2008
1	2	278	86	2007
1	2	297	115	2006
2	1	240	0	2005
2	2	250	106	2005
1	2	293	89	2009
1	2	299	119	2007
2	2	295	101	2005
1	2	250	97	2005
1	2	246	107	2005
2	2	293	101	0
1	2	300	0	2007
1	1	250	95	2007
1	1	293	86	2008
1	1	289	0	2007
1	2	240	87	2007
1	2	294	100	2005
1	2	299	0	2008
1	2	299	113	2006
1	2	0	91	2009
2	1	301	0	2005
1	2	0	89	2009
1	1	294	0	2005
5	2	291	0	2004
1	2	300	103	2008
1	2	273	91	2009
1	2	297	94	2008
1	2	300	86	2007
1	2	0	93	2008
1	1	0	0	2008
1	1	299	89	2009
1	1	240	90	0
1	1	276	89	2009
1	1	250	121	2008
1	2	300	91	2009
1	1	0	87	0
1	2	282	106	2008
1	1	254	91	2009
5	2	298	0	2007
1	2	299	101	2007
1	2	278	90	2006
1	2	306	135	2009
2	1	248	0	2004
1	1	296	0	2006
1	2	292	138	2009
5	0	266	0	0
1	2	0	0	2006
5	2	289	0	2005
1	1	258	0	2006
1	2	291	92	2009
1	2	279	0	2007
1	1	295	0	2006
1	2	302	0	2007
1	1	250	89	2009
1	2	300	106	2008
1	1	258	95	2007
1	2	291	94	2008
1	2	271	0	2007
1	1	270	95	2008
2	2	299	0	2005
5	1	278	0	2005
1	2	0	90	2009
1	1	294	120	2007
1	2	300	86	2008
1	2	278	0	2006
1	1	0	91	2009
1	2	249	0	2006
1	1	299	90	2008
1	0	0	92	0
1	1	266	0	2008
1	1	250	126	2007
2	2	257	0	2003
1	2	0	91	2008
5	2	257	0	2007
1	2	299	91	2009
1	2	235	108	2007
1	1	299	91	2009
1	2	299	91	2009
1	1	266	120	2007
5	1	295	127	2005
1	0	249	0	2006
1	2	240	0	2006
2	2	295	0	2004
1	1	0	86	2008
2	1	294	0	2005
1	2	276	116	2008
1	1	266	92	2009
1	1	257	96	2006
2	1	0	0	0
1	0	292	0	2007
1	2	255	0	0
1	1	0	91	2009
1	1	0	140	2009
1	1	268	0	2005
1	2	293	0	2006
1	1	266	0	2008
1	1	300	128	2008
1	1	0	120	2007
1	1	248	134	2008
1	2	291	92	2008
1	1	0	95	2008
1	0	294	0	0
1	1	299	0	2008
1	1	294	122	2007
1	2	291	89	2009
1	2	294	114	2006
2	2	293	101	2005
5	0	0	0	0
2	1	0	0	0
1	1	0	126	2007
1	2	0	89	2009
1	1	278	123	2008
1	1	0	120	2008
1	2	291	116	2007
1	2	0	99	2008
1	1	258	86	0
2	1	297	0	2004
2	2	268	0	2005
1	1	240	94	2008
1	2	0	101	2005
1	1	0	128	2006
1	1	266	0	2007
1	2	299	88	2009
1	1	254	90	2008
1	1	270	128	2006
1	2	300	109	2007
1	2	294	0	2005
1	1	241	125	2007
1	1	0	128	2007
1	2	299	86	2008
1	2	295	94	2005
1	2	294	91	2009
1	2	294	0	2006
1	0	0	0	0
2	1	293	0	0
2	2	300	105	2005
2	1	258	128	2004
1	2	295	108	2006
1	2	299	0	2005
1	1	292	88	2008
1	2	284	106	2008
2	1	295	127	2005
1	2	0	91	2009
1	1	299	91	2009
1	1	265	125	2006
5	2	293	0	2005
2	2	294	0	2005
1	2	299	91	2009
1	1	298	87	2006
1	2	296	0	2006
1	1	296	87	2007
1	1	0	121	2008
1	2	302	88	2008
1	1	240	132	2009
1	2	254	0	2006
1	2	289	116	2006
2	1	274	128	2005
2	1	246	127	2004
1	2	254	95	2008
1	1	0	89	2009
1	1	276	89	2009
1	0	0	0	0
1	2	299	0	2007
1	1	0	89	2009
2	2	248	0	2005
1	2	0	91	2009
1	2	258	0	2007
4	0	0	0	0
1	1	273	0	2008
1	0	299	94	2008
1	1	292	0	2007
1	1	250	90	2008
5	2	254	0	0
1	2	300	96	2009
2	2	297	0	2004
1	2	289	109	2006
1	2	299	137	2009
1	2	242	89	2008
1	1	258	89	2008
1	2	240	114	2008
2	2	300	109	2003
1	0	0	0	0
1	2	263	96	2008
1	2	278	94	2008
1	1	0	132	2009
1	2	300	0	2006
1	2	240	0	0
1	2	294	119	2008
1	2	300	88	2009
1	2	242	89	2009
1	2	0	95	2008
1	1	300	123	0
1	2	274	0	2009
1	1	274	92	2007
5	2	300	0	2004
1	1	299	122	2008
1	1	294	0	2006
1	2	248	91	2009
5	2	300	0	2009
1	1	276	91	2009
1	1	265	0	2009
1	1	295	121	2007
1	2	274	0	0
2	2	0	107	2004
1	2	274	94	2008
1	1	266	134	2008
1	2	254	0	2007
1	1	0	89	2009
1	2	0	136	2009
1	1	289	0	2007
1	2	300	0	2006
2	1	278	0	0
1	2	257	92	2009
1	2	0	92	2009
2	2	300	99	2005
1	2	289	93	2007
1	2	299	137	2009
2	2	293	0	2005
2	0	0	0	0
1	2	250	90	2009
1	1	245	93	2008
1	0	0	0	0
1	1	0	0	2008
1	1	299	89	2009
1	1	296	128	2008
1	1	0	91	2009
1	2	294	87	2007
1	2	294	105	2006
1	1	292	89	2009
1	0	0	0	2008
1	2	299	115	2008
1	1	265	0	2006
1	1	256	87	2007
1	1	299	91	2009
2	2	294	103	2005
1	1	258	0	2006
1	1	296	0	2006
1	1	250	0	2007
1	2	299	92	2008
1	1	278	0	2006
1	1	292	86	2008
2	2	294	0	2003
1	1	296	0	2006
1	2	265	0	2007
1	1	250	95	2006
1	2	306	0	0
2	1	266	0	2005
1	1	294	128	2008
1	2	0	92	2009
1	1	0	92	2009
1	1	240	86	2008
1	1	265	0	2006
1	1	0	92	2009
1	1	299	91	2009
2	2	240	0	0
5	2	300	0	0
1	2	294	104	2006
1	1	248	126	2008
1	1	250	120	2008
2	1	255	121	2005
1	2	295	107	2006
1	1	276	89	2009
1	2	264	89	2009
1	2	246	94	2008
1	1	0	91	2009
1	1	299	0	2007
2	1	295	0	0
1	2	296	0	2006
1	1	287	127	2007
1	2	254	102	2005
1	0	276	86	2008
1	1	278	91	2009
1	2	276	90	2009
1	2	257	117	2008
1	2	0	92	2009
1	2	300	0	2009
1	1	292	86	2008
1	0	0	0	0
1	0	0	126	2008
1	1	299	136	2009
1	2	300	115	2007
1	1	270	0	2006
1	2	300	89	2009
2	1	278	123	2005
1	1	295	0	2005
1	2	299	91	2009
1	1	250	91	2009
1	2	248	140	2009
2	1	266	0	2005
1	1	285	89	2009
1	2	0	92	2009
1	2	272	92	2009
1	2	278	102	2007
1	2	289	88	2009
1	1	255	121	2006
1	1	299	121	2008
2	1	294	0	2005
1	0	240	0	0
1	2	292	92	2009
1	2	274	103	2006
1	2	254	105	0
1	1	276	127	2008
1	1	276	90	2009
1	0	295	122	2007
1	2	254	117	2006
1	1	258	0	0
1	2	242	0	2008
1	1	299	0	0
1	2	0	98	2008
1	1	293	125	0
1	1	0	91	2009
1	2	254	0	2005
1	2	273	86	2004
1	2	274	94	2008
1	2	291	114	2006
1	1	299	123	2008
1	2	293	0	2005
1	2	256	0	2006
1	1	0	89	2009
2	1	293	121	2005
2	1	278	0	2005
1	0	0	0	0
1	1	300	93	2008
2	2	0	0	2004
1	2	291	124	2009
1	0	0	0	0
1	1	274	0	2006
2	2	266	0	2005
1	1	299	120	2008
1	2	299	92	2009
1	1	258	136	2005
4	0	0	0	0
1	1	0	91	2009
1	1	299	0	2009
1	1	0	91	2009
1	1	299	91	2009
1	2	300	119	2007
1	1	0	0	2007
2	1	246	0	2005
1	2	289	89	2008
1	2	299	89	2009
1	0	258	0	0
1	1	299	89	2009
5	0	0	0	0
2	1	258	120	2005
2	2	294	0	2005
1	2	300	104	2006
1	1	294	0	2006
1	2	299	114	2008
2	1	295	0	2005
1	2	300	0	2006
1	1	299	123	2008
1	1	299	125	2008
1	1	268	95	2008
1	1	278	0	2006
1	1	276	89	2005
1	2	301	0	2005
1	2	296	0	2006
1	2	300	0	2006
1	1	295	87	2007
2	1	294	0	0
1	1	276	88	2009
1	0	0	0	0
5	0	0	0	0
1	1	299	0	2007
1	2	248	0	2006
1	2	295	110	2005
1	1	246	89	2009
2	2	257	86	2000
1	2	0	105	0
1	2	263	0	2005
1	1	0	89	2009
1	2	240	95	2007
1	1	0	91	2009
1	2	299	0	2008
2	2	0	119	2003
1	2	292	91	2009
1	1	263	0	2006
2	2	248	0	2004
1	2	294	0	2007
1	0	0	0	0
1	2	291	0	2007
1	0	300	92	2009
5	2	298	115	2005
1	2	292	95	2006
2	0	258	100	2005
1	2	294	99	2006
2	2	254	0	2004
2	2	293	0	2005
1	2	250	0	2007
1	2	291	93	2007
1	2	300	87	2007
1	1	284	0	2006
1	2	291	0	2006
1	1	266	125	2008
1	1	299	88	2009
1	2	246	90	2008
1	1	265	0	2007
5	1	278	0	2005
1	2	294	101	2006
1	2	299	96	2008
1	1	241	92	2008
1	1	0	93	2008
1	1	0	86	2008
5	1	265	0	2005
1	1	0	91	2009
2	2	274	0	2005
1	0	241	0	2005
1	2	302	95	2008
1	1	249	86	2008
1	2	263	95	2007
1	2	257	91	2008
2	1	274	124	2004
1	2	254	89	2009
1	1	299	125	2007
1	1	300	0	2005
2	1	265	0	2005
1	1	265	0	2007
1	2	272	86	2008
1	2	297	116	2006
1	1	292	128	2005
1	2	299	93	2007
2	1	270	0	2005
5	0	0	0	0
1	2	299	119	2008
1	1	0	125	2008
2	1	266	93	2005
1	1	0	88	2009
1	1	293	0	2007
2	1	246	128	2005
2	2	294	103	2004
1	2	291	112	2007
1	2	302	0	0
1	2	299	131	2009
2	2	278	111	2005
2	1	284	128	2005
1	2	300	112	2006
1	1	287	89	2009
1	1	296	126	0
1	1	278	86	2008
1	1	0	0	2006
1	2	250	0	2006
1	2	266	112	2006
1	2	263	0	2007
1	0	0	0	0
1	1	295	87	2006
1	2	254	135	2009
3	2	272	0	0
1	2	300	0	2008
1	1	258	0	2006
1	2	299	91	2009
2	2	294	106	2004
1	1	299	0	2007
1	1	0	91	2009
1	1	0	89	2009
5	2	298	0	2004
1	2	287	88	2008
1	2	293	0	2007
1	1	257	0	2006
1	1	237	122	2007
1	2	276	89	2009
2	2	300	0	2005
1	2	246	86	2008
2	2	266	0	2005
1	2	300	0	2006
1	1	296	126	2008
1	2	0	0	0
1	2	296	87	2006
4	2	0	0	0
5	2	295	111	2005
1	1	0	0	2007
1	2	0	92	2009
1	1	284	89	2009
1	2	300	96	2008
1	1	295	139	2005
5	0	302	0	2005
2	2	297	0	2004
1	2	296	0	2005
1	1	299	131	2009
1	2	294	0	2005
1	2	254	0	2006
1	2	300	0	2007
1	2	300	95	2008
1	2	293	0	2007
1	2	300	107	2008
1	1	289	96	2006
1	2	253	95	2006
1	1	270	128	2006
1	1	266	0	2006
1	2	299	90	2009
1	2	250	0	2009
1	2	248	96	2009
1	1	0	0	2006
1	2	289	115	2008
1	1	236	0	2006
1	2	295	0	2007
1	1	306	89	2009
2	2	299	103	2005
1	1	295	0	2006
1	1	298	95	2008
2	1	278	0	2005
2	2	305	0	2005
1	1	0	91	2008
1	2	257	0	2006
1	2	242	90	2008
2	1	287	0	2004
1	2	240	116	2008
1	1	294	123	2007
2	2	272	93	2003
1	2	240	107	2007
2	1	241	123	2005
1	2	299	98	2008
1	2	263	0	2007
2	1	0	0	2004
2	2	294	0	2004
1	0	0	0	0
1	2	294	114	2006
2	2	254	100	2004
1	2	295	0	2007
1	2	274	103	2007
1	1	294	95	2008
1	2	242	109	2007
1	1	296	91	2009
1	2	299	91	2009
1	2	263	0	2004
1	2	297	91	2009
2	2	263	110	2000
1	1	296	0	2006
2	1	289	0	0
1	2	292	0	2008
1	1	303	87	2006
1	2	300	89	2009
1	1	285	0	2006
1	1	285	90	2008
1	1	240	89	2009
3	2	258	0	2005
1	1	294	0	2006
2	2	266	118	0
1	0	246	0	2006
1	1	295	121	2007
1	1	0	89	2009
1	1	278	86	2008
1	1	299	91	2009
1	2	263	0	2005
1	1	299	128	2008
1	2	289	91	2009
1	1	278	0	2006
1	2	292	94	2008
1	2	299	135	2009
1	1	266	127	2006
1	1	247	0	2008
1	1	284	121	2006
1	1	0	91	2009
2	1	278	0	2005
1	1	295	125	2007
1	2	299	0	2008
1	2	300	0	2008
1	2	250	91	2009
1	2	254	0	2007
1	1	248	86	2008
1	1	240	128	2008
1	2	254	87	2007
1	2	243	0	2005
2	1	284	95	2005
1	2	250	91	2009
1	1	0	92	2009
1	2	299	91	2009
1	1	274	122	2007
1	2	250	115	2008
2	1	305	0	2005
2	1	304	0	0
1	2	300	109	2008
1	1	0	91	2009
1	1	0	89	2009
1	1	240	120	2007
1	2	289	94	2008
1	2	299	86	2008
1	1	255	91	2009
1	2	242	95	2008
2	1	278	125	2005
1	2	254	95	2008
1	0	0	0	0
2	2	270	0	0
1	1	0	93	2008
5	1	257	121	2005
1	1	300	93	2007
1	2	258	0	2005
1	2	263	0	2006
1	1	295	0	2007
1	1	258	0	2007
1	1	261	123	2006
1	2	257	111	2008
1	1	0	89	2009
2	1	274	0	2005
1	1	292	0	2007
1	1	255	0	2006
1	2	240	0	2006
1	0	266	122	2007
1	1	248	127	0
1	1	299	123	2008
1	2	296	0	2005
1	1	275	120	2007
1	2	294	101	2006
1	2	299	131	2009
1	2	300	0	2007
1	2	303	0	2006
1	1	297	95	2007
2	2	278	0	2005
2	1	293	125	2005
1	0	300	134	2008
1	2	302	0	2006
2	2	300	0	2005
1	1	0	0	2007
2	1	240	0	2005
1	1	287	87	2007
1	1	278	95	2007
2	0	300	0	2005
1	2	289	0	2006
1	1	296	0	2008
1	1	292	91	2009
1	2	295	87	2007
1	1	256	128	2007
1	1	278	121	2007
2	1	258	0	2005
2	1	278	125	2005
1	2	265	93	2007
2	2	257	0	2005
1	2	299	92	2009
2	0	300	110	2005
2	2	288	117	2005
1	2	296	0	2007
1	2	240	90	2008
1	2	299	0	2009
1	2	250	0	2007
2	2	254	112	2005
2	1	300	0	2004
1	2	300	109	2007
1	2	240	0	2006
2	1	0	0	2005
1	2	0	0	2008
1	2	292	0	2007
1	2	296	0	2007
1	1	297	0	2006
2	1	284	121	2004
2	1	246	123	2005
1	2	263	0	2007
1	1	0	91	2009
1	1	299	91	0
2	1	274	0	2005
1	2	299	88	2009
1	1	257	134	2008
2	2	296	0	2000
1	2	284	0	2006
1	1	0	95	2008
2	1	257	0	2005
1	2	289	110	2008
2	2	296	0	2005
1	0	0	0	0
1	1	278	122	2007
1	1	300	86	2006
1	1	258	120	2008
1	2	295	92	2009
1	1	295	0	2007
1	2	240	89	2009
1	2	298	0	2006
1	2	0	94	2008
1	1	274	91	2007
1	2	285	111	2007
1	2	300	131	2009
1	2	295	0	2006
1	2	242	91	2009
1	1	278	87	2006
1	2	241	89	2008
1	1	258	0	2007
1	1	248	86	2008
2	2	0	0	2005
2	1	296	0	2005
1	2	254	90	2007
1	1	299	0	2008
1	1	0	93	2008
1	0	0	0	0
1	2	247	116	2005
1	1	278	126	2007
1	1	298	89	2006
1	1	278	0	2005
1	1	278	120	2007
1	1	0	92	2009
1	2	272	0	2005
1	0	0	0	0
2	2	300	0	2004
1	2	241	90	2005
1	1	274	89	2009
1	2	299	89	2009
1	2	0	138	2009
2	1	293	0	2005
2	2	289	0	2004
1	2	291	113	2006
1	1	296	0	2006
2	1	246	0	2004
1	2	250	135	2009
1	2	263	90	2008
1	2	302	86	2008
2	2	301	105	2005
1	2	0	138	2009
1	2	250	108	2008
1	2	299	88	2009
1	2	294	105	2006
1	2	299	91	2004
2	1	303	0	2004
1	2	291	0	2005
1	2	248	95	2007
2	1	261	0	2005
1	1	294	123	2006
1	2	303	138	2009
1	2	254	94	2008
1	1	257	91	2008
1	2	300	0	2006
1	1	284	122	2007
1	1	258	126	2007
2	2	294	0	2004
1	1	300	123	2007
1	1	0	0	2008
1	1	299	126	2008
1	1	241	0	2006
2	1	296	120	2005
1	1	0	131	2009
1	2	302	116	2005
2	1	250	128	2004
1	2	300	0	2007
1	2	0	0	2007
1	2	0	118	2006
2	2	300	0	2005
1	2	299	0	2009
1	2	254	91	2009
1	1	278	120	2007
1	1	278	93	2007
1	1	284	96	2008
1	1	248	132	2009
1	0	240	126	2007
1	1	299	132	2009
1	2	292	91	2009
1	2	0	91	2009
2	0	265	0	2005
1	2	295	0	2006
2	2	0	0	0
1	1	257	128	2008
1	2	296	0	2005
1	2	299	109	2008
1	0	295	125	2006
1	1	294	0	2006
1	1	250	0	2006
1	2	294	109	2006
1	1	293	87	2006
1	1	265	127	2008
2	1	278	0	2005
1	1	278	0	2006
1	2	295	113	2007
1	0	248	0	2007
1	0	0	0	0
1	2	301	0	2007
1	1	278	123	2004
1	1	0	91	2009
1	2	0	89	2008
2	2	289	0	2004
2	1	255	0	2005
2	2	301	0	2005
1	1	291	0	2006
1	2	0	139	2009
1	1	0	89	2009
1	2	248	89	2009
2	1	0	0	2004
1	1	270	91	2009
1	2	278	116	2006
2	1	246	126	2005
1	1	298	89	2009
1	1	263	89	2009
1	1	258	0	2005
1	1	0	122	2007
1	2	0	89	2009
1	2	294	0	2007
1	2	295	86	2007
1	1	241	0	0
1	1	284	0	2007
2	2	296	0	2005
3	0	0	0	0
1	1	278	0	2007
1	2	299	90	2009
1	0	0	0	0
1	0	0	0	0
2	1	246	0	2004
1	1	0	89	2009
1	2	299	108	2004
1	1	278	86	2008
4	2	0	0	0
1	2	250	0	2007
1	1	278	89	2009
1	2	291	90	2009
1	1	0	0	2007
1	1	0	89	2009
1	2	296	0	2006
1	2	0	91	2009
1	1	248	122	2008
1	2	259	0	2005
1	1	265	96	2008
1	2	294	87	2006
1	2	299	0	2006
1	1	258	87	2006
2	1	289	0	2005
1	2	0	134	0
5	2	302	0	2005
1	1	0	89	2009
1	0	0	0	0
2	2	248	0	2005
1	1	296	127	2006
1	2	300	0	2006
1	1	0	0	2007
1	2	0	89	2009
1	2	297	0	2004
1	2	300	91	2009
1	2	0	115	2007
1	2	296	106	2006
1	2	0	113	0
1	1	266	122	2008
1	2	294	119	0
1	0	274	0	2007
1	1	278	95	2007
1	1	294	0	2006
1	2	300	97	2007
1	1	0	122	2008
1	2	300	92	2008
2	1	278	0	2005
1	2	291	87	2007
1	1	295	120	2007
1	1	246	126	2008
1	1	278	87	2006
1	2	294	109	2007
2	1	278	126	2005
2	1	294	0	2005
1	0	0	0	0
1	1	246	91	2009
1	2	299	117	2008
1	0	0	0	0
1	2	248	0	2008
2	1	285	0	2005
1	1	248	0	2006
2	2	302	0	2004
1	2	250	95	2008
1	2	278	136	2009
1	1	0	89	2009
1	2	0	91	2009
1	1	246	126	2008
1	2	300	91	2007
1	1	266	132	2009
1	2	248	0	2006
1	2	248	0	2006
1	2	299	91	2009
1	1	278	87	2006
1	1	294	0	2006
1	2	266	93	2007
1	1	274	89	2007
1	1	0	136	2009
1	2	265	0	2007
2	1	266	0	2005
1	2	250	0	2007
2	1	298	0	2004
1	1	258	123	2006
5	1	298	87	2005
1	2	294	0	2006
1	2	256	0	2007
1	2	300	90	2007
1	1	299	127	2008
1	1	297	87	2006
1	2	294	0	0
1	2	240	92	2009
2	1	296	126	2005
1	2	240	103	2005
5	1	257	0	2005
1	2	300	93	2004
1	2	299	117	2007
1	1	299	88	2009
1	0	0	0	0
1	1	248	89	2009
1	1	0	120	2007
1	2	298	118	2006
1	2	289	140	2009
1	1	265	0	2006
1	2	245	0	2006
1	2	302	92	2009
1	2	299	92	2009
1	0	0	0	0
1	1	296	0	2006
2	1	278	125	2005
1	2	250	91	2009
1	1	250	135	2009
1	2	265	95	2008
1	2	284	86	2007
1	1	0	122	2008
1	1	265	89	2009
1	2	300	93	2007
1	2	254	0	2006
1	1	294	120	2008
2	2	0	101	2005
1	2	0	0	2007
1	1	296	131	2009
1	2	293	103	2008
1	2	294	116	2008
1	2	250	114	2006
1	2	265	111	2008
1	1	276	122	2008
5	2	274	0	2004
1	1	238	87	2006
1	1	0	91	2009
1	2	291	0	2006
1	2	302	112	2006
1	1	299	135	2009
1	2	299	91	2009
1	2	278	89	2008
1	1	266	123	0
2	2	300	0	2005
1	2	278	0	2006
1	2	300	89	2009
1	2	257	96	0
1	2	300	138	2009
1	2	300	0	2006
1	2	294	97	2005
1	2	297	0	2006
1	1	268	0	2005
1	1	299	89	2009
1	2	297	0	2006
1	1	267	87	2006
1	0	0	0	0
2	1	258	0	2005
1	2	0	0	2009
1	2	254	94	2008
1	2	291	0	0
1	0	0	0	0
1	2	250	86	2008
1	1	292	0	2006
1	1	299	140	2009
1	1	246	0	2006
1	1	294	0	2007
2	2	291	99	2005
1	1	257	91	2008
1	1	292	0	2009
2	1	296	120	2005
1	2	265	0	0
1	1	299	88	2009
1	2	263	107	2007
2	1	295	123	2005
2	2	246	0	2005
5	1	246	0	2005
1	1	246	86	2008
1	2	270	89	2007
1	2	265	116	2006
1	2	289	0	2005
1	2	300	92	2009
2	1	274	123	2004
2	1	257	0	2004
1	2	240	126	2008
1	1	293	87	2007
1	2	300	91	2009
1	2	297	89	2009
2	1	289	0	2005
1	2	262	0	2009
1	2	300	87	2007
1	1	241	0	2007
1	2	289	92	2008
1	2	294	103	2008
1	1	263	91	2009
1	0	0	0	0
1	1	257	0	2006
2	0	0	0	0
2	2	293	0	2005
1	2	295	110	2006
1	2	300	0	2006
1	2	300	116	2006
1	2	295	97	2006
1	1	273	0	2005
1	1	304	0	2008
1	2	242	92	2009
1	1	258	123	2007
1	1	293	0	2006
1	2	299	86	2008
1	1	299	89	2008
1	1	298	0	2007
1	2	299	91	2009
1	1	299	89	2009
1	2	274	0	2007
1	2	0	0	2006
1	0	300	0	2005
1	2	289	86	2008
1	2	0	0	0
1	2	250	0	0
1	1	265	90	2008
2	1	250	0	0
1	1	253	89	2009
1	1	266	128	2008
1	1	303	127	2007
2	2	265	0	2004
2	0	240	0	2005
1	1	270	0	2010
1	1	274	127	2006
1	2	258	90	2008
1	0	295	0	2006
1	1	253	123	2008
1	0	0	0	0
1	2	291	0	0
1	0	0	0	0
1	2	300	94	2007
5	1	298	121	2004
1	2	295	103	2006
1	2	305	0	2005
1	1	296	0	2006
1	2	294	101	2005
1	2	274	89	2009
1	0	0	0	0
2	1	296	0	2003
1	1	298	0	2008
1	2	299	92	2009
1	2	300	100	2007
1	1	249	89	2009
1	2	294	119	2007
2	1	0	121	0
1	2	302	89	2009
2	1	287	0	1993
1	2	250	107	2008
2	2	291	114	2004
1	2	249	131	2009
1	2	289	113	2008
2	2	294	0	2005
5	1	241	0	2005
1	2	300	91	2009
1	2	299	89	2009
1	2	255	0	2007
2	1	240	0	2004
1	1	240	89	2009
1	2	257	87	2006
4	2	0	0	0
1	2	302	86	2008
1	2	296	0	2005
2	1	266	96	2003
1	1	299	121	2008
2	2	300	0	2005
1	2	250	95	2008
1	2	243	0	0
1	0	294	125	0
1	1	294	94	2008
1	2	294	101	2007
1	1	292	91	2009
2	1	268	0	2005
1	1	258	0	2006
1	1	0	86	2008
1	2	0	96	2009
1	1	268	86	2008
2	2	274	0	2005
1	0	0	134	2008
1	1	294	0	2006
5	2	250	0	2005
2	1	295	124	0
1	2	278	86	0
1	2	292	0	2007
4	1	0	0	0
1	1	248	91	2009
1	2	299	91	2009
1	2	273	135	2009
1	2	294	110	2006
1	1	257	125	2007
1	1	301	124	2007
4	0	0	0	0
1	2	257	114	2006
2	2	299	0	2004
1	2	295	95	2008
1	2	300	113	2007
1	1	266	0	2008
1	0	258	0	0
1	2	295	0	2005
1	0	0	0	0
1	2	273	91	2009
1	1	294	0	2006
1	1	0	86	2008
1	0	0	0	0
2	0	0	0	0
1	1	250	91	2007
1	1	268	89	2009
1	2	296	0	2007
1	1	266	86	2008
1	1	246	87	2007
1	2	240	110	2007
1	1	294	120	2008
2	1	284	0	2005
5	2	291	0	2005
1	2	300	96	2007
1	2	288	0	2007
2	2	240	0	2005
1	1	240	0	2006
1	1	278	0	2006
1	2	247	91	2009
1	1	266	123	2007
1	1	274	0	2007
1	1	299	89	2007
1	2	294	0	2005
1	1	293	126	2008
1	1	294	125	2007
1	1	294	93	2007
1	1	292	95	2008
1	1	278	0	2007
2	2	296	97	2005
1	1	263	0	2007
1	2	300	94	2008
1	2	295	115	2006
1	2	300	0	2007
1	1	291	131	2009
2	1	298	126	2004
1	2	300	0	2008
1	2	257	110	2006
1	1	258	0	2007
1	2	299	107	2008
1	2	299	92	2008
1	2	291	91	2009
1	2	268	112	2007
1	2	292	0	2006
1	2	279	87	2006
1	2	289	111	2007
1	2	268	92	2008
2	2	279	96	0
1	2	300	93	2008
2	1	266	0	2004
1	2	300	88	2009
1	1	278	0	2007
2	2	254	0	2005
1	1	265	127	2006
1	2	300	0	2008
1	2	293	95	2007
1	2	296	109	2005
1	2	302	137	2009
2	1	254	0	2005
1	1	0	86	2008
1	2	302	86	2006
2	2	295	0	0
1	2	303	108	2007
1	1	295	121	2007
1	2	250	89	2009
1	2	250	91	2009
1	2	263	98	2006
1	2	246	89	2007
2	1	258	0	2005
5	1	250	0	2005
1	2	248	89	2009
1	1	299	90	2009
1	2	294	0	2007
5	0	0	0	0
1	0	292	116	2006
4	1	0	0	0
1	2	293	86	2007
1	1	296	123	2007
1	2	295	0	2005
1	2	294	89	2009
1	2	300	96	2008
1	2	300	94	2008
1	1	265	86	2008
1	1	287	0	2007
1	1	258	0	2007
1	2	300	91	2009
1	1	276	93	2007
1	1	263	91	2009
1	2	237	94	2008
1	2	299	119	2008
1	2	275	95	2007
1	1	246	0	2007
2	2	296	113	2004
2	1	278	0	2004
1	2	0	95	0
1	1	292	90	2009
2	2	295	0	2005
1	2	299	95	2008
2	1	299	0	2004
1	1	292	95	2008
1	1	250	0	2006
1	2	274	0	2006
1	2	274	0	2008
1	2	300	86	2008
1	2	300	86	2008
1	1	249	95	2008
1	2	295	0	2006
1	2	293	103	2006
1	1	248	121	2006
1	1	240	91	2008
1	0	0	0	0
1	1	270	92	2009
1	2	258	111	2008
1	2	292	0	2006
1	1	274	93	2008
1	1	248	128	2008
1	2	0	0	2009
1	1	299	138	2009
1	1	263	0	2007
1	1	278	87	2006
1	1	258	128	2008
1	2	250	116	2006
2	2	296	0	2005
1	2	300	108	2007
1	2	276	92	2009
1	2	249	91	2009
1	2	297	114	2006
1	1	0	89	2009
1	1	254	0	0
1	2	292	92	2009
1	1	300	90	2009
1	2	302	88	2005
1	2	277	0	2008
1	2	263	0	2005
2	0	0	0	0
2	1	266	0	2005
1	2	254	94	2007
2	2	240	0	2004
2	2	246	0	2004
1	1	0	123	2008
2	2	278	102	2005
1	2	257	86	2006
1	1	246	0	2007
2	2	295	100	2005
5	2	0	0	2004
1	2	295	97	2007
1	2	0	0	0
2	2	297	105	2004
1	1	278	0	2007
3	0	0	0	0
1	2	300	89	2009
1	2	278	86	2008
2	2	302	0	2005
1	1	248	89	2009
1	2	0	138	2009
2	2	247	95	2004
1	2	300	0	2008
1	1	295	0	2006
1	2	265	0	2006
1	2	274	88	2009
1	2	302	110	2006
1	2	289	89	2009
1	1	0	89	2009
1	2	291	91	2009
1	1	257	0	2006
1	2	299	140	2009
1	2	295	99	2007
1	1	299	0	0
2	2	0	108	2005
1	2	295	0	2007
3	2	300	0	2008
1	1	257	95	2007
1	1	255	128	2007
1	1	0	91	2009
2	1	266	0	2005
1	2	299	132	2009
2	1	266	0	2005
1	1	278	86	2008
1	1	274	0	2008
1	1	278	125	0
1	2	240	112	2007
1	1	257	86	2008
1	1	294	126	2007
1	2	250	90	2009
1	2	271	0	2005
1	1	265	91	2009
5	0	0	0	0
1	0	250	0	2007
1	1	254	94	2007
1	2	0	95	2008
1	2	289	89	2009
1	2	292	86	2008
1	2	258	116	2006
1	1	299	90	2009
1	1	296	122	2007
1	1	274	125	2007
1	1	294	0	2007
1	1	0	86	2008
2	2	296	109	2005
1	1	295	121	2007
1	1	0	0	2008
1	2	294	98	2007
2	2	300	0	2005
1	1	259	0	2005
2	1	293	0	2005
2	1	295	0	2004
2	1	0	0	0
5	1	238	0	2004
1	1	270	0	0
2	1	240	0	2005
1	1	266	86	2008
1	2	299	139	2009
1	1	299	0	2008
5	1	298	0	2005
1	0	299	0	2006
1	1	0	89	2009
1	2	294	98	2006
1	1	289	0	2007
1	2	300	94	2008
1	2	289	92	2009
1	2	292	93	2008
1	2	294	101	2007
1	1	299	88	2009
2	1	270	128	2005
1	0	0	0	0
1	1	294	0	2006
2	1	241	0	2005
1	2	242	89	2009
5	1	300	0	2005
1	1	276	91	2009
2	1	296	0	2005
1	0	299	134	2008
1	1	0	135	2009
1	2	250	0	2006
1	2	300	87	2007
1	1	299	122	2008
1	2	299	91	2009
1	2	296	117	2007
1	1	248	90	2008
1	0	0	0	0
2	2	299	99	2004
1	2	299	87	2006
1	1	278	123	2006
1	1	0	91	2009
1	2	0	91	2009
1	1	278	0	2006
1	2	300	87	2005
1	2	292	94	2008
1	1	0	0	0
1	2	276	93	2008
1	1	294	0	2006
2	2	291	118	2005
1	2	294	99	2007
1	0	0	0	0
1	2	295	87	2006
2	1	295	0	2005
1	1	300	127	2006
2	0	0	0	0
4	1	274	0	1999
1	2	278	115	2007
1	1	0	138	2009
1	2	268	89	2009
2	1	266	123	2005
1	1	0	89	2009
1	1	0	122	2008
2	2	241	0	2005
1	2	293	94	2006
1	1	246	125	0
1	0	248	0	0
1	2	278	103	2006
2	2	287	0	2005
1	2	300	91	2008
1	1	299	125	2008
1	1	254	89	2009
1	1	278	89	0
2	1	274	0	2005
1	2	299	88	2009
1	1	265	87	2007
1	2	250	90	2009
1	2	0	99	2008
1	0	248	134	2008
2	1	278	120	2005
1	1	266	89	2009
1	2	295	111	2006
1	2	299	106	2008
2	1	278	127	2004
1	2	250	86	2008
1	1	266	95	2006
1	1	296	92	2009
1	2	299	91	2005
1	1	278	89	2009
1	2	0	119	2007
1	1	259	89	2009
1	1	295	122	2007
1	1	258	0	2006
1	2	295	115	2008
1	0	0	0	0
1	2	299	112	0
1	2	250	0	2007
1	2	257	0	2006
1	1	263	0	2007
1	2	0	95	2008
1	1	248	95	2008
1	1	258	122	2007
1	2	265	87	2006
1	1	265	89	2009
1	2	300	0	2007
1	0	0	0	0
1	2	272	0	2005
1	1	240	86	2007
1	1	299	120	2007
1	2	291	131	2009
1	2	299	94	2008
1	2	292	86	2008
1	2	257	0	0
1	2	276	95	2008
1	2	0	102	2008
1	1	0	128	2007
2	2	251	0	2007
1	0	0	0	0
1	1	0	125	2006
1	1	293	86	2008
2	2	0	0	2002
1	2	250	101	2007
2	1	255	126	2005
1	2	278	0	2006
1	1	292	94	2008
1	2	299	0	2007
1	1	255	0	2006
2	2	296	116	2004
1	1	274	121	2006
2	2	300	0	2005
1	1	296	128	2008
1	0	0	0	0
1	2	300	140	2009
1	0	0	0	0
1	2	289	95	2006
1	2	299	135	2009
1	2	299	91	2009
1	0	0	95	2008
2	2	293	111	2004
1	2	265	0	2005
1	2	289	89	2009
2	2	300	0	2005
1	2	248	102	2005
1	0	0	0	0
1	2	299	111	2008
1	2	0	0	2006
1	2	276	137	2009
1	1	293	87	2006
1	2	291	95	2007
1	2	0	88	2008
1	2	257	93	2007
1	1	292	132	2009
1	2	265	115	2008
2	1	289	0	2005
1	2	294	103	2006
2	2	0	0	2004
1	1	0	0	2008
1	2	299	89	2009
1	2	265	115	2006
1	1	278	91	2009
1	0	265	121	2007
1	2	300	95	2006
1	1	266	0	2007
1	2	302	0	2005
1	0	0	0	0
5	2	291	0	2005
1	2	299	137	2009
3	2	300	106	2007
1	0	294	110	2007
1	2	295	107	2006
1	1	248	91	2008
2	1	293	124	2003
2	0	296	0	2005
1	1	0	123	2007
1	1	293	120	2007
1	2	265	103	2007
0	0	0	0	0
1	1	258	0	2007
2	2	294	0	2005
1	2	291	135	2009
1	2	297	96	2008
1	2	299	136	2009
1	1	248	86	2008
1	1	299	91	2009
1	2	248	0	2006
1	1	252	0	2006
2	1	257	0	2002
1	1	240	93	2008
1	2	270	106	2007
1	1	0	91	2009
1	2	299	135	2009
1	1	299	91	2009
1	2	301	87	2006
1	2	240	99	2006
1	2	296	111	2006
1	2	289	0	2005
1	1	292	91	2009
1	2	289	113	2008
1	1	266	89	2009
1	1	300	126	0
3	2	265	0	0
1	2	296	0	2006
1	2	300	139	2009
1	1	299	92	2009
1	2	297	0	2005
1	1	250	122	2008
1	1	0	88	2008
1	2	294	0	2006
1	2	246	94	2007
1	2	250	89	2009
1	2	254	0	2005
1	0	270	0	2008
1	1	275	122	2008
1	0	0	0	0
1	2	254	132	2009
1	1	296	0	2007
1	2	300	87	2006
1	1	248	94	2007
1	1	266	131	2009
1	2	302	0	2007
1	1	266	123	2007
1	1	278	93	2008
1	2	292	0	2008
1	2	289	91	2009
1	1	293	124	2007
1	1	266	90	2008
2	2	302	0	2005
1	1	293	122	2006
1	1	265	0	2007
1	2	291	0	2006
1	2	299	139	2009
1	2	240	113	2008
1	2	291	94	2007
1	1	257	0	2006
1	2	247	116	0
1	0	0	0	0
1	2	278	0	0
1	2	0	109	2008
1	1	296	0	2008
1	1	263	92	2009
1	2	294	99	2007
1	2	296	0	2006
1	1	0	91	2009
2	2	300	111	2004
1	1	258	126	2006
1	1	0	93	2008
1	1	278	121	2008
1	1	294	0	2006
1	1	258	126	2008
1	2	250	0	2008
1	2	0	92	2009
1	2	278	104	2006
1	2	299	92	2009
1	2	0	88	2009
1	2	297	89	2009
2	1	274	121	2004
1	0	0	0	0
1	2	296	106	2008
2	2	254	104	2004
1	2	300	86	2006
2	2	282	0	2005
1	2	250	112	2008
1	1	248	92	2008
2	1	247	0	2005
1	0	0	0	0
1	2	237	0	2008
2	1	240	0	2005
1	1	278	0	2007
1	2	293	95	2006
1	1	250	88	0
1	2	278	87	2006
1	1	242	131	2010
2	1	278	125	2005
2	2	288	100	2006
1	1	250	91	2009
1	2	258	93	2007
1	2	276	93	2007
2	2	282	106	2004
2	2	300	87	2004
1	2	299	102	2008
1	1	242	87	2006
2	1	300	122	2005
1	1	276	89	2009
1	2	239	89	2009
1	1	295	0	2007
2	0	0	0	0
1	2	250	91	2009
1	1	299	91	2009
1	2	278	0	2007
1	1	246	122	2007
1	2	300	137	2009
1	1	289	86	2008
1	0	0	0	0
1	1	0	96	2008
1	2	0	95	2008
2	1	258	128	2004
2	2	300	0	2004
1	2	278	116	2007
1	1	296	132	2009
1	1	289	0	2007
1	2	299	0	2008
1	1	278	138	2009
1	1	299	123	2008
1	1	278	0	2009
2	2	302	0	2003
5	2	256	0	0
1	2	302	87	2007
1	0	278	0	2006
1	1	292	126	2008
1	1	272	0	2007
1	1	0	92	2009
1	1	268	95	2008
1	0	0	0	0
1	1	250	88	2005
1	1	0	91	2009
1	1	274	128	2008
1	0	0	0	0
2	0	300	100	2005
1	1	274	125	2006
1	2	302	87	2007
1	2	294	101	2008
1	1	299	94	2008
1	1	0	123	2007
1	1	278	92	2009
1	0	0	0	0
1	2	268	90	2009
1	2	240	0	2006
1	1	285	0	2005
1	1	299	87	2007
1	2	299	139	2009
1	0	293	122	0
1	2	0	140	2008
1	2	254	0	2005
1	0	0	0	0
1	2	293	114	2006
1	2	0	0	2008
2	2	254	0	2005
1	1	0	0	2007
1	1	263	91	2009
1	2	289	91	2009
1	2	299	89	2009
1	1	295	93	2007
1	2	270	112	2007
1	2	300	89	0
1	2	254	0	2005
1	1	0	89	2009
1	1	292	121	2006
1	2	268	0	2006
1	1	0	89	2009
1	0	259	91	2008
1	2	245	89	2009
1	2	242	92	2009
1	1	248	139	2009
2	1	300	123	2005
1	2	272	0	2009
1	2	0	91	2009
5	2	258	0	0
1	1	0	0	0
1	1	301	94	2008
5	1	298	0	2007
1	2	289	0	2007
1	2	293	102	2005
2	1	246	122	0
1	1	240	91	2009
2	2	300	0	2005
1	2	250	90	2009
1	1	278	124	2006
1	2	296	0	2007
2	2	257	0	2005
1	1	0	94	2008
1	1	255	95	2008
1	2	292	119	2008
1	2	248	87	2007
1	1	267	0	2005
1	2	300	96	2008
1	1	258	126	2006
1	2	258	108	2007
1	2	276	89	2009
1	2	294	108	2008
2	2	302	113	2004
1	2	295	116	2008
1	1	278	91	2009
1	2	295	109	2007
1	2	300	0	2009
1	1	0	122	2005
1	2	292	0	2007
1	2	291	137	2009
1	0	0	0	0
1	1	284	0	2006
1	0	0	0	0
2	2	274	0	2004
1	1	296	86	2008
1	2	294	87	2007
1	1	240	89	2007
1	2	291	132	2009
1	2	289	116	2006
1	2	300	105	2006
1	2	240	91	2009
1	2	299	90	2009
1	0	300	109	0
1	2	0	92	2008
1	0	0	108	0
1	2	249	91	2008
1	0	0	0	0
1	2	288	140	2009
1	1	299	95	2007
1	2	300	115	2008
1	2	299	87	2007
1	1	0	91	2009
1	2	300	91	2009
1	2	300	86	2008
2	2	297	117	2005
5	0	0	0	0
1	1	240	0	2004
1	2	300	89	2009
1	2	276	131	2009
1	1	294	95	2008
1	1	294	120	2008
2	2	300	0	2005
2	2	296	98	2005
1	2	299	91	2009
1	2	294	0	2007
1	2	296	115	2006
1	2	299	89	2009
1	1	0	139	2009
5	2	302	0	2005
1	2	254	0	2007
1	1	247	0	2005
1	1	254	0	2007
1	2	289	90	2009
1	2	294	90	2008
1	1	285	95	2006
2	1	301	127	2004
2	1	265	122	2005
1	1	303	93	2008
1	2	250	109	2007
1	2	0	0	2006
1	2	300	111	2008
1	2	264	116	2007
1	2	293	105	2007
5	1	300	127	2005
1	2	294	119	2007
1	2	300	87	2007
1	2	295	113	2005
1	1	299	136	2009
1	2	299	104	2007
1	0	0	0	0
2	2	295	0	2005
2	2	294	112	2005
1	2	294	0	2007
1	2	293	91	2007
1	0	248	0	2007
1	1	297	122	2008
1	2	278	0	2007
1	2	278	104	2006
3	2	245	0	0
2	1	292	0	2005
1	2	295	119	2007
1	2	247	0	2009
1	2	292	87	2006
1	2	289	86	2005
1	0	0	0	0
2	1	254	0	2003
1	1	296	0	2007
1	1	278	89	2009
1	1	299	92	2009
1	2	300	101	2006
1	1	248	86	2008
1	2	250	0	2008
1	1	278	126	2006
1	1	295	0	2006
2	2	303	0	2005
1	1	265	89	2009
1	2	258	107	2007
1	1	0	120	0
1	1	250	120	2008
1	2	299	101	2008
2	2	240	0	2005
1	2	249	138	2009
1	0	248	0	2006
1	2	0	90	2008
1	2	299	0	2007
3	0	245	0	2005
1	2	266	0	2006
1	2	257	87	2006
1	2	242	116	2008
1	1	299	87	2007
1	2	293	91	2008
1	2	274	117	2006
1	2	0	91	2009
1	1	257	122	2005
1	2	299	94	2008
2	0	294	123	2005
1	0	0	0	0
1	2	302	137	2009
1	1	299	125	0
1	2	299	137	2009
5	2	274	106	2005
1	2	240	91	2009
1	2	295	87	2006
1	2	300	89	2009
1	2	293	92	2009
1	2	0	92	2009
2	1	294	127	2005
1	2	294	0	2007
1	2	299	135	2009
1	1	303	126	2008
1	2	293	86	2007
1	1	279	87	2006
1	2	292	117	2007
1	2	299	139	2009
1	2	246	87	2006
1	1	295	87	2007
1	1	274	91	2009
1	2	250	0	2007
1	1	266	123	2006
1	2	289	89	2009
2	2	274	0	2003
1	2	265	0	2006
1	1	259	92	2009
2	2	294	118	2005
1	2	295	0	2007
1	1	250	94	2007
1	2	0	89	2008
1	2	299	91	2008
1	2	291	118	2007
1	1	294	0	2006
1	1	274	0	2006
1	2	299	91	2009
1	2	0	0	2007
1	1	298	91	2009
1	1	240	0	2006
1	1	240	91	2009
1	1	299	0	2009
1	0	0	0	0
1	2	294	99	2007
1	1	0	95	2008
1	1	294	95	2008
1	0	295	98	2007
1	2	287	0	2005
2	1	245	0	2005
1	2	294	0	2007
1	2	300	86	2007
1	2	274	0	2006
1	1	242	89	2008
1	2	250	0	2007
5	2	250	0	2004
1	2	300	93	2006
2	2	301	0	2005
5	1	284	0	0
1	1	296	0	2006
1	2	265	0	2007
1	1	274	122	2006
1	1	299	125	2008
1	1	299	89	2009
1	1	246	89	2009
1	2	270	116	2005
5	1	274	0	2005
1	2	299	92	2009
1	1	296	0	2006
1	1	278	87	2006
1	1	0	88	2009
1	1	278	86	2008
2	2	294	0	2005
2	2	294	116	2004
1	2	302	94	2006
1	2	300	0	2009
1	1	299	0	2009
1	1	248	88	2009
1	2	302	96	2008
1	2	299	90	2009
1	1	276	92	2008
1	0	294	109	2007
1	2	289	0	2006
5	2	274	0	2004
1	1	0	126	2006
1	0	0	0	2007
1	2	291	140	2009
1	2	254	87	2007
1	1	297	91	2009
1	2	271	91	2008
1	2	0	0	2007
1	2	300	88	2009
1	1	259	0	2006
1	2	302	91	2008
1	1	246	0	2005
1	0	0	0	0
1	2	0	95	2006
1	2	291	94	2008
1	1	248	91	2009
1	1	254	93	2007
1	1	274	89	0
1	2	294	110	2007
2	2	295	0	2005
2	0	296	0	0
1	1	248	88	2008
1	2	289	100	2006
1	2	299	107	2008
1	1	299	87	2006
1	2	289	86	2007
1	2	250	0	2007
2	1	296	0	2005
1	2	291	116	2007
1	2	299	137	2009
1	2	291	116	2008
1	0	0	0	0
1	2	257	91	2009
1	2	276	89	2008
1	1	299	131	2009
1	1	274	122	2005
1	1	247	91	2009
1	2	300	99	2007
1	1	274	0	2008
1	1	250	86	2008
1	2	294	101	2006
1	2	0	91	2009
1	2	295	0	2007
2	1	241	122	2004
2	2	237	0	2004
2	1	296	0	2005
2	2	257	0	2005
1	2	294	101	2006
1	1	265	89	2009
1	1	0	88	2009
1	2	289	114	2008
1	2	276	86	0
1	0	296	0	2007
1	2	302	101	2006
1	1	263	91	2009
1	0	0	0	0
1	2	276	116	2008
1	1	258	87	2007
1	1	295	122	2006
1	2	275	132	2009
1	1	0	89	2008
1	2	250	93	2007
1	1	0	0	2007
1	1	265	93	2007
1	1	300	91	2009
2	2	271	116	2005
1	2	291	86	2007
1	1	266	131	2009
1	2	299	86	2008
1	1	278	127	2008
1	1	299	95	2007
1	1	299	122	2008
1	2	246	95	2006
1	1	254	0	2006
1	2	254	93	2007
1	2	294	0	2008
1	1	299	125	2008
1	2	295	118	2007
2	1	0	126	2005
1	1	258	0	2006
1	0	294	121	2008
1	1	299	86	2008
2	1	241	124	2005
1	2	249	91	2009
1	1	0	89	2009
2	1	294	125	2005
1	1	0	90	2009
1	1	0	90	2009
1	1	0	127	2008
1	2	250	116	2006
1	2	248	0	2007
1	2	289	93	2007
1	2	299	0	2007
1	2	0	0	2007
1	2	280	96	2008
1	2	254	95	2006
2	2	291	0	2005
5	1	294	0	2006
1	1	291	0	2006
1	1	258	93	2007
1	1	268	0	2007
1	1	284	0	2006
1	2	250	114	2006
1	1	296	123	2007
5	0	0	0	0
2	1	293	127	2005
1	2	291	86	2008
1	1	294	0	2006
1	1	293	93	2007
1	2	293	0	2006
1	2	300	95	2007
1	2	0	137	2009
1	2	305	95	2008
1	1	278	0	2006
2	1	274	0	2004
1	1	268	93	2008
1	1	250	87	2006
1	2	291	0	2006
1	2	297	0	2006
1	2	270	0	2007
1	2	265	0	2007
1	1	248	89	2009
1	2	0	92	2009
1	2	296	105	2007
1	2	294	103	2007
1	1	295	125	2006
1	1	266	89	2008
1	1	249	93	2008
1	1	298	87	0
1	1	0	0	2006
1	2	0	0	2009
1	2	292	120	2008
1	1	289	122	2008
1	2	300	0	2006
1	1	299	87	2007
1	1	249	134	2008
1	1	274	91	2009
1	2	242	136	2009
1	2	294	95	2006
1	2	276	91	2008
1	1	299	136	2009
1	2	0	0	2005
5	2	298	0	2005
1	2	291	0	2006
1	2	254	89	2009
1	1	250	139	2009
1	2	274	0	2006
1	1	278	0	2005
1	1	296	127	2006
1	2	303	96	2008
1	2	0	88	2008
5	2	239	0	2005
1	1	248	89	2009
1	0	248	109	2007
1	2	0	86	2008
1	0	0	126	2006
2	2	254	0	2004
1	2	300	92	2009
1	2	299	114	2006
1	1	266	0	2006
1	1	294	0	2008
2	1	296	126	2005
1	2	254	105	2006
1	1	270	89	2008
1	1	258	139	2008
1	1	299	135	2009
1	1	289	0	2005
1	1	299	95	2008
1	2	299	90	2009
1	1	0	0	2008
2	1	305	120	2005
1	2	258	110	2006
5	2	250	112	2005
1	2	294	93	2007
1	2	254	114	2008
1	2	294	109	2007
1	1	276	86	2008
2	2	294	0	0
1	1	0	107	2010
1	1	299	88	2009
1	1	296	121	2006
1	2	292	91	2009
1	2	302	87	2005
1	1	248	89	2009
1	2	300	95	2008
1	1	240	86	2008
1	2	242	92	2009
1	2	270	86	2007
1	0	297	0	2006
1	2	300	115	2008
5	1	278	0	0
1	1	242	89	2009
1	1	247	86	2008
2	0	305	0	2005
1	0	0	0	0
1	1	246	120	2006
1	1	258	95	2006
1	0	0	0	0
1	0	294	126	2007
1	1	299	91	2009
5	2	273	0	2008
2	1	278	0	2005
2	1	296	0	2005
1	1	271	0	0
1	2	299	86	2008
1	2	250	140	2009
1	2	294	89	2009
2	2	254	0	2001
2	2	291	0	2004
1	1	0	86	2008
1	2	294	110	2006
5	2	293	0	2004
1	1	289	0	2006
1	2	297	86	2007
1	2	266	0	2006
1	2	255	86	2008
1	1	299	91	2009
1	2	300	86	2008
1	2	248	135	2009
1	2	291	0	2006
1	2	294	119	2007
1	2	265	110	2006
1	1	298	123	2008
1	2	294	96	2005
2	2	300	105	2005
1	2	257	91	2009
2	2	257	119	2005
5	2	291	0	2006
2	2	249	0	2005
1	1	295	0	2006
2	2	274	0	2005
1	2	300	0	2005
1	1	293	86	2008
2	0	0	0	0
1	0	0	0	0
1	2	248	87	2007
2	2	293	0	2005
1	0	246	0	2006
2	2	282	113	1975
1	1	279	0	2006
1	2	262	97	2006
1	2	292	108	2007
1	2	300	0	2007
1	2	293	116	2005
2	2	296	118	2002
1	1	0	91	2009
5	2	240	0	2005
1	2	273	132	2009
1	1	246	120	2007
1	0	0	0	0
1	1	245	0	2005
1	1	278	0	2007
1	1	294	0	2005
2	2	294	103	2005
1	0	293	93	2007
1	2	302	90	2009
1	2	294	93	2007
5	2	243	99	2008
1	2	300	0	2005
1	1	0	89	2009
1	1	265	0	2007
1	2	0	92	2008
2	1	296	0	2005
1	2	278	0	2006
1	2	295	92	2009
5	2	236	0	0
1	2	300	137	2009
4	2	0	0	0
1	2	299	90	2008
1	1	274	125	2008
4	2	274	0	0
1	1	240	90	2008
1	0	0	0	0
1	2	0	96	2009
2	1	295	0	2003
1	2	293	112	2006
1	1	274	0	2007
1	1	276	92	2009
1	0	248	92	2009
1	2	294	0	2007
1	2	299	105	2006
1	2	0	86	2008
1	2	293	102	2006
1	2	300	89	2009
1	2	274	0	2007
1	0	0	0	0
2	1	274	0	2004
1	2	299	0	2007
1	2	0	90	2008
1	2	247	0	0
1	1	248	125	2007
1	2	300	88	2009
1	2	254	95	2008
1	1	299	140	2009
5	2	294	0	2005
5	2	294	116	2005
1	2	296	119	2007
1	2	300	0	2005
1	1	299	121	2008
1	2	265	0	2008
2	2	0	110	2005
1	2	0	91	2009
1	1	300	92	2009
1	0	279	0	0
1	2	263	0	2008
1	2	300	0	2005
1	2	292	0	2006
1	2	296	0	2007
1	2	292	115	0
1	2	278	0	2006
1	2	300	0	2006
2	1	278	125	2004
5	1	278	120	0
1	1	296	122	0
1	2	294	135	2009
1	1	299	91	2009
1	0	0	0	0
1	1	291	0	2006
2	2	295	116	2004
1	2	263	0	2006
1	1	249	89	2009
1	1	278	0	2006
2	1	296	122	2005
2	1	278	0	2003
5	0	0	0	0
1	2	261	0	2007
1	1	246	128	2006
1	1	242	132	2009
1	1	246	90	2009
1	1	293	0	2007
1	1	258	0	2006
1	1	295	93	2004
1	1	259	0	2007
2	1	266	0	2005
2	1	266	0	2005
1	1	266	120	2007
1	2	299	92	2009
1	0	250	113	0
1	1	300	91	2008
2	1	274	0	2004
1	1	299	128	2007
1	2	250	91	2009
1	2	274	0	2007
1	2	294	103	2008
1	2	246	106	2006
1	1	279	0	2007
1	2	300	92	2009
1	1	289	123	2007
1	2	300	110	2008
1	1	296	0	0
2	1	265	126	2005
2	2	305	109	2003
2	2	235	0	1950
1	2	268	91	2009
1	1	0	140	2009
1	2	264	0	2008
2	1	295	87	2005
1	1	278	95	2007
1	2	301	107	2006
1	2	250	0	2008
1	1	289	86	2005
1	2	0	137	2009
1	2	242	0	2009
2	1	296	0	2005
1	2	0	104	2008
1	2	291	139	2009
1	2	278	137	2009
5	2	300	99	2004
1	1	295	0	2007
1	1	240	0	2007
2	1	270	0	2005
1	2	276	89	2009
1	2	296	0	2007
1	2	292	89	2009
2	2	296	0	0
1	1	295	87	2006
1	1	299	90	2009
1	1	265	123	2008
1	2	250	88	2009
1	2	294	0	2006
1	2	300	91	2009
1	1	0	126	2007
1	1	250	86	2008
1	2	299	96	2009
1	1	0	0	0
1	2	295	0	2006
1	2	291	0	2007
1	2	299	91	2009
2	1	296	0	2004
1	2	250	92	2009
1	1	294	0	2008
2	1	272	0	2005
1	1	276	95	2008
1	2	250	0	2006
1	2	303	86	2008
1	0	0	0	0
1	2	289	139	2009
1	2	276	87	2007
2	1	293	128	2005
1	1	258	0	2007
5	2	300	0	2005
2	2	289	0	2004
1	2	265	111	2007
2	1	274	0	2005
1	1	0	93	2008
1	1	299	140	2009
2	2	0	0	0
2	2	294	0	2005
1	2	268	0	2009
2	2	305	0	2005
1	2	301	97	2006
1	0	294	108	2008
1	1	278	93	2008
1	2	242	131	2009
1	2	294	98	2006
5	2	299	0	1975
1	2	277	113	2004
2	2	0	138	2004
1	2	254	106	2006
1	1	289	0	2006
1	1	294	125	2007
1	2	299	103	2007
1	1	0	88	2009
2	2	250	117	2005
2	2	0	0	2004
1	1	266	136	2009
1	2	302	90	2009
1	2	300	131	2009
2	1	265	0	2005
1	2	0	132	2009
1	2	299	92	2009
1	2	246	131	2009
2	2	293	0	2004
2	2	289	0	2005
1	2	294	86	2008
1	2	300	94	2007
1	2	0	89	2009
1	2	254	137	2009
1	1	0	96	2008
1	1	289	86	2008
1	1	295	0	2006
1	0	250	102	2008
1	2	299	0	2007
1	2	294	0	2006
2	1	295	0	2005
1	2	303	91	2009
1	1	299	125	2007
1	2	294	95	2008
1	2	296	0	0
2	1	270	0	2005
1	2	258	0	2006
1	1	295	121	2007
1	2	299	119	2007
1	1	289	121	2006
1	1	0	89	2009
1	1	250	122	2007
5	1	278	0	0
1	2	293	101	2007
1	2	299	0	2007
1	2	0	101	2008
2	1	296	0	2004
1	2	291	94	2006
2	2	301	0	2005
1	1	299	135	2009
2	2	302	0	2005
1	2	294	101	2008
1	1	270	91	2009
1	0	0	0	2006
1	1	289	96	2008
1	2	276	89	0
2	2	296	0	2005
1	2	299	87	2007
1	2	291	87	2007
1	1	296	0	2006
1	2	257	93	2006
1	1	292	95	2007
1	2	257	0	2007
1	2	300	105	2007
1	1	299	88	2008
1	2	289	86	2008
2	2	301	0	2005
1	2	277	96	2007
1	2	299	91	2009
1	0	0	0	0
1	1	0	91	2009
1	2	300	140	2009
1	1	276	135	2009
2	2	253	0	2004
1	2	254	0	2005
1	1	268	127	2006
1	2	295	0	2009
1	2	250	92	2007
1	1	294	0	2007
3	2	295	0	0
1	2	300	86	2008
1	0	270	0	2006
1	2	291	86	2008
1	2	299	110	2007
1	1	278	92	2009
1	1	0	120	2008
2	0	0	0	0
1	2	294	119	2008
1	2	242	91	2009
1	1	278	88	2008
1	1	250	0	2007
1	2	271	0	2006
1	2	300	0	2005
1	2	297	139	2009
1	2	294	0	2006
1	2	263	0	2007
1	2	294	131	2009
1	1	274	120	0
1	2	278	0	2006
1	2	0	89	2009
1	2	293	89	2009
1	2	0	86	2008
1	2	299	0	2007
1	2	0	92	2009
1	1	278	0	2007
1	1	0	123	0
1	2	250	88	2008
1	1	276	0	2008
1	2	300	88	2008
1	2	299	91	2009
1	1	248	86	2008
1	1	247	120	2008
2	0	300	0	2004
1	2	273	0	2010
2	2	300	0	2005
1	1	0	91	2009
1	2	250	96	2008
2	1	265	0	2005
1	2	300	90	2009
1	2	291	0	2007
1	1	284	0	2007
1	1	267	94	2008
2	0	0	0	0
1	2	294	109	2008
1	2	257	98	2008
1	1	291	90	2009
2	1	246	0	2005
5	2	292	0	0
1	2	299	88	2008
1	1	258	95	2007
1	2	299	108	2008
1	2	271	0	0
1	1	265	0	0
1	1	274	140	2009
2	2	278	97	2005
2	2	295	0	2004
1	1	296	125	2006
1	1	249	95	2007
1	1	248	127	2008
1	2	291	0	2006
5	2	297	0	2004
1	2	266	0	2005
1	1	266	91	2009
1	1	278	88	2008
1	1	248	87	2006
1	2	299	92	2005
1	2	291	116	2008
1	2	287	0	2007
1	1	241	0	2007
1	1	278	127	2007
1	2	235	110	2006
1	2	274	102	2007
1	2	295	100	2005
1	2	300	90	2008
1	2	299	92	2009
1	2	299	89	2008
2	2	263	0	2005
1	2	254	0	2006
1	1	0	92	2009
1	1	0	0	2008
1	2	302	97	2007
1	1	0	89	2009
1	2	0	91	2009
1	1	247	0	2006
1	0	0	0	0
5	1	298	0	2004
2	1	267	0	0
1	1	249	94	2006
1	2	303	0	2006
1	1	0	0	0
1	2	254	93	2007
1	1	0	90	2009
1	2	274	106	2006
1	2	294	136	2009
2	2	235	0	2005
1	2	266	0	2008
1	2	292	89	2009
1	2	289	117	2006
1	1	278	0	2006
1	1	278	123	2005
1	1	292	86	2008
1	2	291	0	2007
1	2	300	91	2008
1	1	299	86	2008
1	1	266	120	0
1	1	292	0	2006
2	2	294	0	2005
5	1	297	0	2005
1	1	248	131	2009
1	2	295	105	2007
1	1	250	0	0
1	2	293	96	2008
1	2	291	91	2009
1	2	240	139	2009
2	1	246	125	2005
1	2	0	0	2009
2	2	276	100	2005
2	2	274	0	2004
1	1	285	89	2009
1	2	295	116	2006
1	2	296	102	2007
1	2	0	137	2009
1	1	265	91	2009
1	2	254	95	2006
1	0	0	0	0
1	2	299	0	2009
1	2	299	86	2007
1	2	0	89	2009
1	2	299	132	2009
1	1	297	0	2007
1	2	276	91	2009
2	2	299	118	2003
1	1	296	0	2007
1	2	255	91	2009
1	2	0	91	2009
1	2	276	87	2007
1	2	302	0	2007
1	1	242	88	2009
1	1	295	131	2009
1	2	250	0	2006
1	1	250	88	2009
1	2	278	95	2006
2	1	257	125	2005
1	1	279	93	2007
1	1	266	136	2009
1	1	278	96	2008
1	2	250	0	2006
1	1	278	125	2008
1	1	0	128	2008
1	2	299	90	2009
1	1	299	120	2008
1	1	300	0	2007
1	1	250	93	2007
1	2	294	110	2008
1	1	266	123	2005
1	1	294	0	2006
1	2	240	111	2005
1	1	250	87	2007
1	0	0	0	0
1	2	294	107	2007
1	2	293	90	2009
1	2	300	90	2009
1	2	295	0	2006
1	2	287	87	2007
1	2	299	88	2009
1	2	294	0	2006
1	2	295	87	2007
2	1	266	0	2005
1	2	300	0	2007
1	1	276	89	2009
1	2	296	0	2005
1	2	296	97	2006
1	2	274	0	2009
1	1	247	0	2006
1	2	245	87	2008
2	1	246	122	2005
1	2	0	0	2007
5	1	298	89	2005
1	2	257	132	2009
2	2	266	116	2003
1	0	0	0	0
1	1	0	88	2009
1	2	297	0	2006
5	1	258	0	0
1	1	295	0	2006
1	0	284	0	2006
1	1	236	95	2006
2	1	270	0	2005
1	1	289	135	2009
2	0	265	0	2005
1	2	248	95	2008
1	2	250	86	2008
1	0	254	0	2006
1	2	242	91	2009
1	1	243	113	2007
1	0	0	0	0
1	1	266	0	2006
1	2	294	92	2009
1	1	299	91	2009
1	2	302	0	0
1	1	265	0	2006
1	2	254	91	2009
2	1	295	120	2005
1	1	296	0	2006
1	1	278	86	2007
1	1	0	92	2008
1	2	0	0	0
1	1	268	0	2005
1	1	240	131	2009
1	2	289	94	2008
1	2	299	91	2009
1	2	265	90	2008
1	1	246	0	2006
2	1	237	0	2005
1	2	275	0	0
1	1	250	0	2006
1	2	300	89	2009
1	1	299	123	2007
1	1	0	90	2009
1	1	279	95	2008
1	1	285	91	2009
1	1	258	136	2009
1	2	0	106	0
1	1	284	0	2006
1	1	0	91	2009
1	1	293	0	2006
1	2	278	118	2005
1	2	254	91	2009
2	2	300	105	2005
1	2	303	119	2007
1	2	247	138	2009
1	2	263	0	2006
1	1	296	0	2006
1	0	257	125	2007
1	1	299	91	2009
1	1	237	121	2008
1	1	0	0	2007
2	2	296	0	2005
1	0	265	0	2006
2	2	296	0	2004
1	1	295	121	2008
1	0	0	0	0
1	1	248	120	2008
1	1	0	138	2009
1	2	300	0	2006
1	2	0	137	2009
1	1	278	121	2008
1	2	300	0	2007
1	1	257	90	2008
2	0	0	0	0
1	1	241	128	2007
1	2	289	89	0
5	2	0	0	2005
1	2	250	86	2008
1	1	298	140	2008
1	0	0	0	0
2	1	285	0	2004
1	1	294	0	2006
1	2	289	0	2005
1	1	296	92	2009
1	1	0	122	0
1	1	299	0	2009
1	2	304	118	2010
1	1	294	92	2009
2	2	240	0	2005
0	0	0	0	0
1	1	293	91	2009
1	1	258	120	2006
1	1	265	91	2009
1	1	248	86	2005
5	2	250	0	2005
1	1	278	92	2009
1	2	291	136	2008
1	1	294	120	2007
1	2	300	0	2007
1	2	289	91	2009
4	2	0	0	0
1	2	289	0	2007
1	1	278	128	2007
1	1	240	94	2008
1	1	255	128	2008
2	1	300	0	2005
1	0	254	0	2006
1	1	295	121	2007
1	2	265	115	2006
1	1	294	87	2007
1	2	299	0	2006
2	2	240	109	2004
1	1	278	0	2006
1	1	246	121	2007
1	1	0	90	2009
1	1	276	0	2006
5	0	0	0	0
1	2	289	96	2008
2	1	294	0	2005
1	2	250	88	2008
1	1	299	134	2008
5	1	254	0	2005
1	1	278	0	2006
2	2	296	0	2002
1	1	258	122	2006
5	1	257	0	2006
1	2	0	90	2009
1	2	287	0	2007
1	2	293	0	2007
1	1	300	86	2008
1	2	291	86	2005
1	2	0	0	0
1	1	250	91	2009
1	2	0	98	2006
5	2	0	0	0
1	1	303	89	2009
2	1	293	127	2005
1	2	247	87	2007
1	2	291	100	2006
1	2	254	105	2008
1	2	0	86	2008
1	2	294	116	2006
1	2	0	96	2009
1	0	240	110	2008
1	1	249	93	2007
1	1	299	93	2008
1	1	274	125	2005
1	2	268	0	2006
1	1	306	94	2008
5	2	295	0	2006
1	2	257	92	2009
1	2	242	0	2007
2	1	295	121	2005
1	2	292	0	2006
1	2	300	0	2008
1	2	240	87	2006
1	1	243	0	2006
1	0	289	86	2008
2	1	294	0	2005
1	2	294	0	2006
1	1	299	89	2009
1	2	254	106	2007
1	0	0	0	0
1	1	278	91	2009
2	2	293	0	2005
2	2	289	105	2005
1	2	250	0	2009
1	1	266	121	2008
1	1	294	121	2006
2	2	278	0	2005
1	1	292	89	2009
1	2	291	91	2009
1	2	240	93	2007
1	1	278	122	2006
1	1	264	128	2008
1	1	258	0	2005
1	2	274	115	2006
1	2	250	93	2008
1	2	297	89	2008
1	2	300	91	2009
1	2	294	104	2006
1	2	263	95	2006
2	2	294	108	2005
1	1	265	0	2006
2	2	294	0	2005
1	1	266	125	2008
1	2	300	89	2009
2	1	300	122	2005
5	0	0	0	0
1	2	299	0	2009
1	2	0	137	2009
1	0	0	125	2008
1	1	268	90	2008
1	2	250	136	2009
1	2	272	0	2005
1	1	276	91	2009
1	2	294	0	2006
1	2	300	0	2005
2	2	240	122	0
1	1	0	91	2009
1	1	0	91	2009
1	1	299	91	0
2	1	241	0	0
1	2	289	0	2008
1	1	296	122	2006
1	2	297	0	2006
2	0	294	0	2005
2	2	295	0	0
1	1	292	127	2007
1	1	250	86	2008
1	2	240	89	2008
1	2	254	87	2007
1	2	293	108	2006
1	2	300	91	2008
1	2	294	108	2008
2	1	0	0	2003
1	0	250	102	2006
2	0	0	0	0
1	2	299	92	2009
1	1	294	95	2008
1	2	295	101	2006
1	1	278	0	2008
1	1	287	95	2007
1	2	302	94	2008
1	2	254	100	2006
1	2	250	0	2009
1	0	258	0	2004
1	2	292	116	2008
1	2	298	95	2007
1	2	297	96	2008
1	2	300	109	2008
1	2	295	103	2005
1	2	0	93	0
1	2	300	91	2008
1	2	300	96	2009
1	2	0	0	2009
2	2	294	113	2005
1	1	0	90	2008
1	2	300	93	2007
1	2	242	136	2009
5	2	300	0	0
2	2	291	0	0
1	2	248	86	2007
1	2	291	89	2009
1	2	291	95	2006
5	1	293	0	0
1	2	265	0	2007
1	1	246	95	0
1	1	240	126	2008
1	1	248	89	2008
1	2	250	91	2009
1	1	258	94	2008
1	1	246	125	2008
1	2	291	87	2006
1	1	246	0	2007
1	1	263	0	2008
1	2	299	93	2008
1	2	275	123	2006
1	1	248	89	2009
1	2	294	0	2006
1	2	249	0	2006
1	2	242	95	2007
1	2	291	95	2007
1	2	279	0	0
1	1	266	140	2009
1	2	289	112	2007
1	2	246	0	2005
1	0	0	0	0
1	2	274	92	2008
1	2	303	106	2008
1	2	276	89	2009
1	1	299	91	2009
2	2	274	0	2004
1	2	302	0	2007
1	1	292	87	2007
1	2	0	0	2008
1	2	299	96	2008
2	2	300	104	2005
1	1	296	126	2006
1	2	278	91	2007
2	2	254	0	2004
1	2	299	0	2009
1	1	296	0	2006
1	2	299	95	2006
1	2	240	87	0
1	2	247	87	2007
1	1	0	92	2009
1	2	300	95	2006
1	2	294	87	2006
1	1	247	140	2009
1	2	250	105	2007
1	1	299	140	2009
1	2	291	0	2006
4	1	0	89	0
1	1	295	125	2007
1	2	250	0	2005
1	1	276	91	2009
1	2	294	139	2008
1	2	0	102	2007
2	0	279	0	2005
1	1	291	89	2009
1	1	0	91	2009
1	2	248	92	2009
1	2	299	95	2008
1	1	0	0	2009
2	1	289	125	2005
1	2	294	94	2008
1	2	250	95	2007
1	2	266	115	2008
1	2	278	92	2009
2	1	265	125	2005
1	1	270	88	2009
1	1	278	128	2007
1	1	275	86	2008
1	2	295	0	2007
1	2	301	0	2006
1	1	287	88	2009
2	1	297	0	1995
1	1	296	125	2006
1	2	0	137	2009
1	2	299	92	2009
1	2	274	86	2006
1	1	300	0	2004
1	2	300	95	2006
5	2	273	0	2005
1	1	266	121	2008
2	2	296	0	2005
1	2	274	101	2006
1	1	248	0	0
1	2	250	93	2007
1	1	299	123	2007
1	2	294	116	2008
1	1	299	91	2009
1	2	247	90	2009
1	2	302	115	2006
1	2	250	0	2009
2	2	300	0	2005
1	2	257	114	2007
1	1	241	127	2007
5	0	0	0	0
2	1	274	0	2005
1	1	248	90	2009
1	2	257	88	0
1	1	246	0	2009
1	2	268	0	2004
2	2	250	0	2005
2	2	289	0	2005
1	0	0	0	0
1	2	0	88	2009
1	2	300	115	2006
1	0	0	0	0
2	1	246	0	2005
1	1	245	136	2009
1	1	257	0	2006
1	1	241	86	2008
2	2	266	103	2003
1	2	250	93	2007
1	1	248	122	2008
1	0	300	0	0
1	1	0	125	0
1	1	298	86	2008
2	1	257	122	2005
1	1	0	86	2008
1	2	0	89	2009
1	0	0	0	2006
2	2	294	0	2005
1	1	284	0	2007
1	2	0	97	2008
2	2	300	0	2005
1	1	0	121	2007
1	2	301	87	2005
1	1	266	0	2007
5	1	274	0	2005
1	2	254	112	2006
1	2	0	95	2007
1	2	300	0	2006
1	2	258	0	2006
1	2	302	95	2007
1	2	254	0	2005
2	2	289	0	2005
1	1	297	86	2008
1	2	294	0	2007
1	0	0	0	0
1	1	0	91	2009
1	1	0	128	2008
1	0	0	0	0
5	1	294	128	2005
1	2	274	0	2007
2	2	258	0	2005
1	2	249	112	2006
1	1	0	0	2007
1	2	0	140	2009
2	1	294	0	2005
1	1	265	86	2008
1	1	274	120	2007
1	2	289	138	2009
1	1	294	95	2008
1	2	248	89	2009
1	2	300	0	2006
2	2	289	87	2005
1	2	257	116	2006
1	1	303	87	2007
1	1	295	125	2008
5	1	298	0	2006
1	1	278	87	2006
2	2	293	109	2005
2	2	254	107	2005
1	2	246	0	2006
2	0	257	0	2005
1	2	300	96	2008
1	0	0	0	0
1	2	250	106	2008
1	2	291	87	2007
1	1	295	123	2006
1	2	300	92	2009
1	2	240	88	2008
1	1	297	0	2005
1	2	282	0	2007
1	2	248	0	2007
1	2	258	0	2007
1	1	0	86	2008
1	2	294	110	2007
2	1	257	0	2005
1	1	303	0	2007
1	2	265	98	2008
1	2	0	108	0
1	2	302	0	2007
1	1	0	89	2009
1	1	266	120	2006
1	1	303	0	2007
1	0	0	103	0
1	1	278	131	2009
1	1	268	91	2009
1	1	241	0	2007
1	2	254	95	2007
1	1	265	0	2008
2	1	265	0	2005
1	1	270	0	2006
1	2	284	0	2006
1	2	0	0	0
2	2	305	119	0
1	2	299	0	2008
1	2	249	92	2009
1	2	296	0	2006
2	2	266	0	0
1	1	0	96	2008
1	1	296	0	2007
1	2	0	92	2009
1	2	0	91	2009
1	2	0	111	2008
1	2	300	136	2009
1	2	291	0	0
1	1	278	0	2007
2	1	248	0	2004
1	1	296	93	2008
1	2	248	92	2009
1	2	294	98	2007
1	1	265	123	2006
1	1	0	91	2009
1	2	299	95	2008
1	2	276	91	2009
1	0	293	0	0
1	2	258	92	2009
1	1	299	139	2009
1	2	300	96	2009
5	1	0	0	2005
1	2	245	118	2006
1	1	0	123	2008
1	1	258	127	2006
1	2	295	99	2005
1	2	300	90	2009
4	1	0	0	0
1	2	257	0	2006
1	1	257	0	2006
1	2	300	0	2007
1	1	237	95	2008
1	0	0	0	0
5	2	302	0	2004
2	2	248	0	2005
1	2	295	105	2006
1	0	299	90	2008
1	1	265	0	2007
1	2	291	0	0
3	2	260	0	0
2	1	278	0	2005
1	2	299	102	2007
1	0	283	94	2008
1	1	265	0	2008
1	1	284	0	2006
1	2	254	90	2008
1	2	295	0	2008
1	1	0	0	2007
1	1	278	89	2009
1	1	257	95	2007
1	1	0	0	2008
1	1	248	89	2009
1	2	289	104	2008
1	1	294	0	2006
1	1	299	122	2008
2	1	240	0	2005
1	2	299	86	2008
2	2	294	0	2004
1	1	295	123	2008
1	1	278	123	2004
2	1	294	0	2005
1	2	296	106	0
1	1	293	124	2005
2	2	0	110	2005
1	1	299	0	2007
1	2	293	116	2006
2	2	300	0	2005
1	0	0	0	0
1	0	0	0	0
1	1	295	121	2007
2	1	293	0	2004
1	2	0	91	2009
1	2	268	92	2009
1	2	250	111	2007
1	1	299	89	2008
2	1	0	128	2004
1	2	296	102	2006
2	2	248	0	2005
1	2	299	136	2009
1	1	265	95	2008
1	1	278	92	2009
2	1	305	125	2005
1	1	271	94	2008
1	2	265	104	2008
1	1	294	120	2008
1	1	266	126	2006
1	2	0	101	2008
1	1	250	121	2007
1	2	0	91	2009
1	2	254	93	2007
1	2	292	0	2006
1	2	273	89	2009
1	2	300	0	2005
1	2	302	94	2007
1	1	278	0	2006
1	1	0	125	0
1	0	0	0	0
2	0	257	0	2005
1	1	276	89	2009
1	2	299	140	2009
1	0	274	126	2007
1	0	0	126	0
1	1	296	128	2007
1	1	242	90	2009
2	2	302	0	1999
1	2	299	91	2009
1	2	300	110	2005
1	1	258	134	2008
1	0	0	0	0
1	2	295	94	2008
2	1	246	0	0
1	2	300	110	2007
1	2	281	104	2007
1	1	274	94	2008
1	2	299	92	2009
2	1	270	0	2005
1	2	299	90	2009
2	2	243	110	2004
1	1	0	132	2009
1	1	299	89	2009
1	1	239	86	2008
1	0	0	0	0
1	2	279	0	2007
1	2	299	89	2009
1	2	240	91	2009
1	2	295	0	2006
2	1	289	87	2005
1	2	300	0	2005
1	1	295	0	2006
1	0	293	98	2007
1	2	299	0	2008
1	2	295	86	2007
1	1	242	92	2008
1	2	250	88	2009
1	2	300	87	2006
1	2	293	0	2008
1	2	299	0	2008
1	2	294	115	2007
1	1	266	126	2007
2	2	291	0	2005
1	1	242	91	2009
1	2	300	88	2009
2	2	296	0	2005
1	1	265	89	2009
1	0	295	136	2007
1	1	278	0	2006
1	2	300	110	2005
1	1	0	95	2008
1	2	254	0	2005
2	1	293	128	2005
1	2	302	0	2008
1	1	265	128	2006
1	2	294	117	2006
1	2	242	0	2007
2	2	274	97	2005
1	2	0	0	2007
1	2	0	0	2008
1	2	296	105	2005
1	1	299	89	2008
1	1	0	91	2009
1	2	257	0	2007
5	2	0	0	2004
1	2	299	102	2007
1	2	305	119	2007
1	2	250	97	2006
1	1	296	91	2009
1	2	302	95	2008
1	2	299	88	2008
1	1	0	95	2008
1	2	294	110	2006
1	2	265	99	2007
1	0	0	108	0
1	0	293	87	2006
1	1	294	0	2006
1	1	0	0	2008
1	1	0	135	2009
1	2	289	0	2006
1	1	250	87	2006
2	2	235	110	2005
2	2	294	110	2004
1	2	295	86	2008
1	2	301	86	2007
2	1	296	0	2005
1	1	257	128	2007
1	2	300	0	2005
1	2	268	89	2009
2	1	296	123	2004
1	2	296	102	2006
1	1	248	92	2009
1	2	299	96	2009
1	2	257	0	2006
1	1	303	0	2006
1	1	271	0	2006
1	1	0	0	2004
1	0	0	0	0
1	2	294	108	0
1	2	0	0	2004
1	1	248	89	2009
1	2	292	103	2007
1	2	300	86	2008
1	2	299	111	2008
1	2	278	0	2009
1	2	294	87	2007
2	2	294	0	2005
1	2	299	92	2009
2	1	293	0	2003
1	1	294	95	2007
1	2	294	108	0
1	0	0	0	0
1	2	250	0	2006
2	2	247	0	2005
1	2	257	137	2009
1	2	274	0	2007
1	2	274	0	2007
1	0	0	0	0
1	1	268	95	2006
1	2	300	140	2009
2	2	295	0	2005
1	2	0	0	0
1	1	265	140	2009
2	2	250	0	2005
1	2	294	0	2007
1	0	265	0	2006
1	1	0	94	2008
1	2	248	88	2008
1	1	294	122	2008
1	2	265	87	2007
1	1	289	89	2007
1	1	299	122	2007
2	2	302	117	2004
1	2	299	91	2009
1	1	257	0	2006
5	1	294	128	2005
1	2	250	91	2009
2	1	300	0	0
1	2	243	90	2008
1	1	292	0	2006
1	2	246	111	2007
5	2	302	0	2005
1	2	254	0	2005
1	2	294	109	2004
1	1	274	0	2009
1	2	291	110	2008
2	1	299	0	2005
1	1	0	89	2009
1	1	278	95	2007
1	2	297	113	2006
1	2	291	0	2006
1	1	258	0	2006
2	1	298	0	2004
1	2	299	96	2009
2	2	300	0	2004
5	1	247	0	2005
1	1	300	91	2009
1	2	265	119	0
1	2	291	0	2006
1	2	294	117	2007
1	1	278	93	2008
1	1	293	123	2008
1	1	0	91	2009
2	1	0	0	2005
1	2	295	107	2007
1	0	0	0	0
1	0	299	0	2008
1	2	294	90	2008
1	2	294	0	0
1	2	294	109	2006
1	1	257	0	2007
1	1	0	92	2009
2	1	254	126	2005
1	2	246	0	2006
1	2	291	0	2006
1	2	274	0	2006
2	1	299	122	2004
1	1	296	126	2007
1	2	250	137	2009
1	1	295	87	2007
1	2	294	0	2005
1	1	0	88	2009
2	2	0	0	2004
1	1	236	94	2008
2	2	255	0	2005
1	2	301	122	2006
2	1	289	0	2002
1	1	303	0	2008
1	2	299	92	0
1	2	294	90	2008
1	2	293	0	2007
5	0	286	0	2004
1	1	295	95	2007
1	2	0	96	2008
1	2	291	0	2006
1	0	299	0	2008
1	1	278	88	2009
1	2	0	0	0
1	1	278	91	2009
1	2	291	86	2008
1	2	296	103	2006
