status	gender	major	dorm	year
1	1	0	322	2009
2	2	48	0	2002
1	2	14	294	2006
1	2	39	310	2008
1	2	66	293	2006
1	2	7	306	2007
1	2	53	307	2006
1	1	78	304	2004
1	1	0	0	0
1	1	28	0	2008
1	1	60	296	2009
1	1	76	0	0
2	1	7	306	0
2	2	85	320	2005
2	2	66	0	2005
2	0	76	0	2004
1	2	76	331	2006
1	2	24	293	2008
1	2	0	322	2009
1	1	3	322	2008
5	1	0	298	2006
1	2	65	0	0
1	1	84	322	2009
5	0	13	0	0
2	2	25	0	2005
2	2	93	0	2005
2	2	59	316	2005
2	1	28	0	2004
1	2	76	0	2008
1	2	51	306	2006
1	1	28	0	2006
1	2	66	293	2006
1	1	24	307	2008
1	2	28	306	2006
1	1	7	310	2008
1	2	48	305	2007
1	1	29	293	2008
1	1	7	293	2006
1	2	51	300	2007
1	1	9	0	2006
1	2	41	305	2009
1	1	53	322	2009
1	1	0	0	0
1	1	77	306	2007
1	1	65	306	2006
1	1	59	322	2007
1	2	53	322	2009
2	2	0	0	0
1	1	24	0	2007
1	1	86	293	2007
1	1	9	305	2009
5	2	18	310	2007
1	1	0	293	2008
2	1	38	0	2005
2	2	51	0	2005
1	2	18	322	2008
5	2	64	0	0
2	1	0	0	2005
1	2	76	0	2007
1	0	77	329	2005
1	1	0	305	2009
1	1	7	292	2007
1	1	12	306	2006
1	1	0	0	2006
1	2	7	316	2005
2	1	76	0	2005
1	2	9	305	2009
1	1	28	0	2006
1	2	28	298	2007
1	0	0	0	0
5	2	25	0	2006
1	2	24	0	2007
1	1	28	310	2006
2	2	23	302	2005
2	2	7	0	2005
1	2	39	302	2008
1	2	14	320	2006
1	2	66	322	2008
1	2	66	0	2006
5	1	0	326	2006
1	1	28	305	2009
1	1	24	322	2009
1	2	18	310	2006
1	2	32	305	2008
1	1	0	322	0
1	2	24	0	2007
1	0	0	0	0
1	2	24	0	2006
1	1	53	322	2009
2	2	65	320	2005
1	1	76	298	2006
1	1	0	322	2009
1	0	28	293	0
1	1	38	306	2007
1	2	6	295	2007
1	1	0	325	2007
1	2	4	296	2006
1	1	28	0	2005
1	1	62	296	2005
1	0	49	0	0
2	1	38	306	2005
1	1	65	310	2008
2	1	76	0	2005
5	2	7	320	2006
1	1	4	0	2006
1	1	28	0	2007
1	1	39	293	2007
1	2	28	310	2008
1	2	45	296	2009
1	1	6	307	2009
2	2	9	0	2004
1	2	24	290	2006
1	2	60	296	2008
1	1	84	322	2008
1	1	4	296	2008
1	2	9	305	2008
1	2	6	325	2006
1	2	77	0	2005
1	2	7	322	2008
1	2	53	298	2008
1	1	76	318	2008
1	2	77	0	2007
1	2	18	322	2007
1	1	7	305	2009
1	1	85	0	2006
1	1	28	322	2007
1	1	77	306	2007
1	2	0	0	2005
1	2	7	322	2009
2	2	66	0	2005
1	1	77	298	2007
1	1	77	318	2006
1	0	0	0	0
1	2	14	298	2008
1	0	0	0	0
1	1	25	0	2007
1	1	0	307	2009
3	0	0	0	0
1	2	76	322	2008
2	0	0	0	0
1	1	7	0	2006
2	1	28	293	2004
1	1	60	0	2006
1	1	5	293	2007
1	1	72	305	2009
1	0	0	0	0
1	1	77	297	2006
1	1	9	305	2009
1	2	18	322	2009
1	1	0	305	2009
2	2	28	0	2005
1	2	24	293	2008
5	2	14	0	0
1	1	0	322	2008
1	1	53	305	2009
1	2	63	0	2006
1	2	76	316	2007
2	0	0	0	0
1	1	53	298	2008
2	2	0	0	0
1	2	13	0	2006
1	2	48	322	2008
2	1	24	0	2005
2	2	25	0	2005
1	2	0	307	2009
1	2	60	306	2007
2	1	65	0	2005
1	2	24	297	2007
1	2	51	322	2009
1	1	7	322	2009
1	2	39	298	2008
1	2	4	296	2009
1	1	76	0	2006
1	1	34	325	2008
1	2	76	310	2008
1	2	7	307	2008
1	2	24	327	2007
1	2	17	293	2008
1	1	62	0	2007
2	2	72	0	2005
1	2	77	316	2008
1	2	24	322	2008
1	1	9	294	2008
1	2	58	325	2007
1	2	34	290	2007
1	2	7	306	2007
1	2	77	325	2008
1	2	60	0	2006
1	1	11	0	2006
1	2	18	306	2007
1	1	11	297	2006
5	0	25	0	0
1	2	24	0	2006
1	2	24	302	2006
1	2	7	325	2007
1	1	7	0	2006
1	2	11	322	2009
1	1	3	318	2006
1	1	76	325	2007
1	1	24	310	2008
1	2	9	305	2009
1	2	63	322	2008
2	0	0	0	0
1	2	24	0	0
1	1	34	0	2006
2	2	18	0	2005
1	1	7	306	2006
2	1	27	0	2005
1	1	77	0	2009
1	0	0	0	0
1	1	48	325	2008
1	1	0	0	2008
2	2	77	0	0
2	1	0	0	2003
1	1	7	306	2006
1	1	7	305	2007
1	2	60	0	2006
1	2	12	293	2007
1	1	51	314	2008
2	2	18	0	2004
2	2	48	0	2005
1	1	0	322	2009
1	1	77	292	2006
1	2	39	305	2008
1	2	51	0	2008
2	2	28	0	2004
1	2	3	0	2007
5	2	11	0	0
1	1	0	305	2009
1	2	83	306	2006
1	1	66	297	2008
1	1	39	0	2006
1	2	51	322	2009
1	1	0	322	0
1	2	61	0	2007
2	1	1	0	2004
2	1	66	0	2005
2	2	82	0	2005
2	1	77	0	2005
2	1	76	0	2004
1	2	24	293	2007
1	1	7	294	2008
1	1	60	0	0
2	1	17	304	2005
1	0	13	293	2008
2	0	24	0	2005
2	2	4	296	2005
1	2	66	290	2008
1	2	51	310	2008
2	2	80	0	2005
1	0	11	0	0
1	2	76	327	2006
1	1	0	294	2008
2	2	71	0	2005
1	1	76	293	2008
1	2	73	0	2006
1	2	91	322	2008
1	1	0	322	2009
1	2	39	0	0
1	1	51	322	2009
5	2	64	0	0
1	1	0	314	2007
1	2	18	306	2006
1	2	7	306	2008
1	2	78	322	2009
5	2	55	320	2004
1	2	7	290	2007
1	1	53	322	2009
1	1	0	298	2008
1	1	28	306	2008
1	1	7	322	2009
1	2	31	293	2007
1	2	62	293	2007
1	1	0	322	2009
1	1	39	0	2006
1	1	65	306	2007
1	1	0	293	2008
1	1	12	293	2007
1	1	77	305	2007
1	2	60	322	2009
1	1	65	322	2009
1	1	9	293	2008
1	2	0	307	2009
1	1	7	322	2009
2	1	77	0	2005
1	1	29	322	2009
1	2	18	310	2007
1	1	9	0	2007
2	1	77	0	2005
1	2	14	306	2005
1	2	45	0	2008
1	2	18	298	2007
1	1	77	0	2005
1	1	4	296	2007
1	2	11	0	2006
1	2	18	293	2007
1	2	0	305	2009
1	0	4	296	0
1	2	76	305	2009
1	1	7	322	2008
1	1	13	325	2008
1	1	4	296	2009
1	2	59	306	2006
3	2	37	0	0
1	1	0	322	2008
1	2	25	306	2007
1	2	18	0	2007
1	1	53	325	2008
1	1	51	306	2007
1	1	46	0	2006
1	2	13	293	2008
1	2	76	297	0
2	2	76	306	2005
1	1	4	296	2008
1	2	7	293	2008
1	2	13	0	2006
1	1	53	322	2009
1	2	77	0	2005
1	0	0	0	2008
1	2	18	310	2008
1	2	7	0	2006
1	1	0	322	2008
1	2	0	325	2008
2	2	76	293	2005
2	0	0	0	0
1	1	28	307	2009
1	2	9	298	2008
1	2	64	296	2006
1	2	24	307	2008
1	2	39	319	2005
1	2	51	322	2009
1	1	39	322	2009
1	2	28	295	2007
1	2	12	293	2006
1	1	77	322	2009
1	1	54	304	2007
1	2	0	322	2009
1	2	9	325	2006
1	1	76	0	2005
4	1	0	0	0
1	0	0	0	0
1	1	66	307	2009
1	1	39	306	2006
5	0	77	0	0
5	1	0	298	2006
1	1	65	0	2007
1	0	76	306	2007
1	2	39	306	2005
1	2	73	0	2006
1	1	60	0	2006
2	0	0	0	2005
1	2	0	0	2009
1	1	62	296	2008
1	2	53	327	2006
1	1	7	306	2006
1	2	76	293	2007
1	1	23	0	2006
1	0	24	297	2008
1	2	18	306	2007
1	2	0	322	2009
1	1	31	328	2006
1	2	77	0	2006
1	2	7	322	0
1	2	18	325	2008
1	2	24	327	2006
1	1	12	0	2006
1	1	9	322	2007
5	2	25	0	2005
1	2	9	305	2009
1	1	38	322	2009
1	1	80	322	2009
1	1	7	307	2009
1	1	0	293	2008
1	2	9	306	0
1	2	48	298	2008
1	2	59	0	2006
1	2	69	296	2006
1	1	77	293	2007
1	1	0	305	2008
1	2	55	0	2006
1	2	11	327	2007
1	1	3	328	2008
1	0	0	0	0
1	2	72	306	2006
1	2	48	0	2007
5	1	44	298	2006
1	1	60	296	2009
1	1	60	296	2007
1	2	24	306	2006
1	1	77	0	2006
1	2	77	322	2009
1	2	6	298	2007
1	2	90	0	2006
1	2	76	293	2006
1	2	60	296	2007
1	2	28	293	2007
1	1	28	310	2007
1	2	7	322	2009
1	2	18	293	2007
1	2	9	305	2009
1	1	65	298	2008
5	0	0	0	0
2	1	39	0	2005
1	2	9	306	2008
1	0	0	0	0
1	2	24	290	2008
1	1	7	0	2004
2	1	77	0	2005
1	1	13	0	2007
1	1	78	0	2006
1	1	51	297	2006
2	1	66	0	2005
1	1	7	307	2009
1	2	66	325	2007
1	1	77	293	2006
1	2	4	296	2009
1	2	4	296	2008
2	1	4	0	2005
2	2	76	324	2005
1	1	53	298	2008
1	1	7	0	2006
1	2	39	306	2005
1	2	25	293	2007
1	1	60	322	2009
1	2	76	325	2007
1	1	76	0	2007
3	0	63	0	0
1	2	24	0	0
2	1	24	318	2004
1	2	87	307	0
1	1	4	0	2006
1	2	0	293	2008
1	1	28	329	2007
1	1	11	322	2007
1	2	76	297	0
1	2	14	322	2009
1	2	0	322	2008
1	2	39	306	2007
1	1	9	322	2009
1	1	38	293	2007
1	1	76	314	2006
1	2	24	322	2008
1	1	76	318	2007
1	1	0	0	2008
1	2	6	0	2007
2	1	11	306	2005
1	1	38	306	2006
1	2	7	310	2008
1	1	51	0	2006
1	1	66	294	2006
1	1	60	0	2008
1	2	76	298	2006
4	1	0	0	0
1	2	51	322	2009
1	0	38	0	2006
1	1	7	298	2008
1	1	53	322	2009
1	1	39	293	2008
1	2	4	0	2007
1	2	48	293	2007
1	2	6	0	2006
2	2	24	0	2004
4	1	0	0	0
1	2	51	306	2006
1	1	0	325	2008
1	2	77	323	0
1	1	76	298	2008
1	1	77	0	2006
1	2	60	0	2006
1	1	12	318	2007
1	1	0	298	2008
1	0	0	0	0
1	1	60	296	2006
1	2	24	293	2007
2	2	59	300	2005
1	1	71	0	2006
1	2	0	305	2008
1	1	39	305	2008
1	1	11	292	2007
1	2	18	0	2006
1	2	72	322	2008
1	1	39	307	2008
1	2	60	0	0
1	1	78	305	2009
1	2	24	310	2007
1	1	77	318	2007
1	2	46	322	2009
1	1	7	310	2007
2	1	24	0	2005
1	1	77	306	0
1	2	72	322	2008
1	2	9	322	2009
1	1	28	299	2008
5	0	0	0	0
1	1	38	306	2006
1	2	35	0	2006
1	1	28	306	2006
1	1	76	322	2009
1	2	51	322	2008
2	2	51	319	2005
1	2	9	322	2009
1	2	9	294	2008
5	1	39	0	0
2	1	28	0	2005
1	2	43	0	2005
1	1	7	307	2009
1	2	76	316	2006
1	2	9	0	2006
1	1	23	0	2007
1	2	80	0	2006
1	2	4	0	2007
1	1	53	307	2009
1	2	60	296	2008
1	2	24	330	2008
1	2	71	307	0
2	1	77	0	2005
5	2	49	0	2004
1	1	59	293	2008
1	1	7	310	2007
5	1	53	0	2008
2	2	65	0	2005
1	2	60	296	2009
2	2	31	306	2005
1	2	73	0	2007
1	1	0	298	2007
1	1	7	322	2009
1	2	0	322	2009
1	1	0	305	2009
1	2	66	0	2005
1	2	0	322	2009
5	2	72	0	0
1	2	76	305	2004
1	1	78	297	2006
1	2	24	0	2008
1	2	51	297	2006
1	2	24	317	2006
1	2	87	0	2006
1	2	69	0	0
1	2	25	293	2008
2	0	76	0	2003
1	2	77	293	2007
1	1	0	305	2009
3	2	0	0	0
1	2	25	294	2006
1	2	77	294	2008
1	1	11	0	2007
1	2	60	0	2006
1	2	4	0	2005
1	1	32	322	2009
1	2	59	307	2009
1	2	4	0	2009
1	1	65	307	2009
1	2	0	293	2008
1	1	28	310	2007
1	2	89	0	2009
1	1	11	293	2006
1	2	66	310	2008
1	1	7	293	2008
1	2	53	305	2009
2	1	4	296	2004
1	1	0	322	2009
1	1	14	298	2006
1	2	11	320	2006
1	2	73	305	2009
1	2	24	0	2009
1	2	24	305	2009
1	1	24	297	2007
1	2	54	322	2009
1	2	24	323	2005
1	1	28	293	2007
1	2	7	330	2006
1	2	24	323	0
1	1	60	0	2006
1	1	13	298	2007
2	1	28	306	2005
2	2	65	0	0
1	1	0	307	2009
1	1	12	293	2006
2	0	24	0	2005
1	1	77	0	2007
1	1	6	0	2006
1	2	0	322	2008
1	2	0	323	2007
2	2	24	298	2005
5	0	0	0	0
1	2	62	0	2004
1	2	82	306	2005
1	1	60	296	2007
2	2	28	306	2005
1	1	4	296	2009
1	1	60	310	2008
2	1	28	292	2005
1	2	60	296	2008
1	1	0	322	2009
1	2	60	296	2008
1	2	60	296	2008
1	1	76	0	2006
1	2	18	322	2009
1	1	77	310	2007
1	1	0	0	2007
1	1	55	298	2007
1	2	4	296	2009
5	0	0	0	0
1	0	0	0	0
1	2	7	322	2009
1	1	80	305	2009
1	1	0	297	2007
1	1	14	307	2009
1	1	38	298	2006
1	2	24	307	2009
1	1	28	322	2009
1	1	0	322	2009
1	2	53	307	2008
1	1	0	322	2009
2	2	66	0	0
1	1	0	310	2008
1	1	7	322	2009
2	1	1	0	2005
2	2	72	306	2005
1	2	6	0	2008
1	2	24	0	2009
1	1	46	303	2006
1	1	48	322	2009
1	1	28	299	2008
1	0	0	0	0
1	1	9	306	2005
1	1	14	314	2007
1	2	53	322	2009
1	2	53	310	2008
1	2	22	322	2009
1	2	60	296	2008
1	1	48	293	2006
1	1	28	306	2007
2	1	1	0	2005
1	1	0	0	2008
1	2	57	293	2007
2	2	83	303	2002
1	1	60	0	2009
1	1	77	293	2007
1	1	55	0	2007
1	1	11	299	2006
1	2	34	293	2005
1	1	0	322	2009
1	2	24	322	2009
1	2	44	305	2006
1	1	7	322	2009
1	1	7	322	2008
1	1	0	305	2009
1	2	25	291	2007
1	1	77	310	2007
1	1	76	0	2007
1	1	78	294	2007
1	2	4	296	2007
1	1	11	306	2007
1	1	0	305	2009
2	2	51	0	2005
2	2	44	306	2005
1	1	0	329	2007
1	1	24	322	2009
5	0	0	0	0
2	1	38	0	2005
1	1	6	305	2009
1	1	66	305	2009
5	2	64	0	0
1	0	0	0	0
1	2	72	325	2008
1	1	9	307	2008
1	1	80	294	2006
1	1	77	0	2006
2	1	49	0	2004
2	2	60	298	2003
1	1	11	294	2007
1	2	39	319	2007
1	2	78	298	2007
1	1	4	296	2007
1	1	77	322	2009
1	2	7	302	2007
1	1	39	293	2008
1	1	24	297	2006
1	1	0	305	2009
1	1	20	322	2009
1	1	76	305	2009
1	2	4	0	2008
1	0	0	0	0
5	2	24	0	2008
1	1	60	296	2006
1	2	0	322	2009
1	0	39	294	2008
1	1	79	293	2006
2	1	76	306	2005
2	1	12	293	2005
1	1	4	296	2008
1	1	11	306	2006
1	1	7	310	2007
2	2	24	317	2005
1	2	6	322	2009
1	1	60	0	0
1	1	31	322	2009
1	1	84	298	2007
1	2	66	290	2006
1	2	51	293	2008
1	1	28	294	2006
1	1	4	0	2006
1	2	76	306	2006
1	1	60	304	2010
1	2	60	296	2009
1	2	9	0	2009
1	1	4	0	2008
1	1	6	310	2008
1	2	7	293	2008
1	1	0	305	0
1	2	7	293	2008
1	1	60	0	2008
1	2	11	322	2009
1	2	7	325	2007
2	2	25	0	2005
1	2	24	294	2008
1	2	28	0	2007
1	1	76	306	2007
1	1	4	296	2008
1	1	77	306	2007
1	1	76	293	2007
1	1	57	322	2009
1	1	24	306	2007
1	2	4	296	2007
1	2	4	0	2006
1	2	9	298	2007
1	1	48	310	2008
2	0	0	0	2004
1	1	7	294	2008
5	2	24	0	2006
1	2	48	0	2006
1	2	60	0	2006
2	1	0	0	2003
1	1	28	306	2007
1	1	29	307	2009
1	1	84	325	2008
1	2	6	293	2007
1	2	0	0	0
1	1	0	322	2009
5	2	53	320	2008
1	1	0	322	2008
1	2	72	322	2008
1	2	51	322	2009
2	2	4	0	2005
1	2	48	322	2008
2	1	77	0	2004
1	1	0	293	2008
5	2	60	0	2005
1	1	14	322	0
1	0	31	298	2008
1	1	33	305	2009
1	1	13	299	2006
1	1	9	293	0
1	2	24	316	2007
2	1	39	0	0
1	2	24	327	2006
1	2	59	322	2009
1	0	0	0	0
1	1	60	0	2008
1	1	7	298	2007
1	2	50	322	2009
2	0	0	0	0
2	1	1	298	2005
1	1	80	325	2008
1	2	62	0	2008
1	2	9	322	2009
1	2	51	310	2008
1	2	77	322	2009
1	2	7	303	2006
1	1	0	322	2009
5	2	53	0	0
1	2	18	307	2009
2	0	0	0	0
1	2	71	298	2007
1	1	39	0	2007
1	2	73	306	2006
2	2	76	0	2003
1	2	90	0	2006
1	2	39	306	2005
1	2	72	322	2009
2	1	39	305	2005
5	2	53	0	2008
1	1	7	325	2008
1	1	51	293	2006
4	1	0	0	2005
5	2	76	323	2004
1	1	28	0	2006
1	2	39	322	2009
2	2	7	0	2005
1	2	11	322	2009
1	1	11	294	2007
1	1	77	322	2009
1	1	48	322	2007
1	2	60	0	2007
2	1	23	0	2005
1	1	76	305	2008
1	1	28	322	2009
1	2	4	296	2008
1	2	51	325	2008
1	2	18	293	2008
1	2	13	322	2009
1	2	4	296	2009
2	2	24	316	2004
1	1	62	305	2009
1	2	24	305	2008
1	1	77	0	2006
1	1	65	0	2008
2	1	7	299	2005
1	1	43	293	2006
1	2	59	306	2007
1	2	18	293	0
1	2	18	293	2007
5	2	73	0	2004
1	1	7	0	2009
1	1	9	305	2009
1	2	9	300	2007
2	0	0	0	0
1	0	0	0	0
1	2	78	298	2006
1	2	18	293	2006
1	2	51	298	2007
1	0	7	305	2008
1	1	4	296	2007
1	2	6	298	2006
1	2	0	305	2009
1	2	7	0	2009
1	2	31	293	2008
2	2	9	306	2005
2	2	24	290	2005
1	1	59	322	2009
1	2	76	327	2007
1	2	14	322	2009
1	1	7	293	2007
1	1	24	322	2009
2	2	22	0	1989
1	2	25	291	2006
1	2	11	306	2006
1	1	62	296	2008
1	2	78	325	2008
1	1	28	306	2007
1	1	7	325	2008
1	2	28	0	2006
1	1	77	0	2007
5	2	10	0	0
1	1	48	293	2007
1	1	17	297	2007
1	1	77	314	2006
1	2	24	310	2006
1	1	60	296	2008
1	2	51	322	2009
2	2	7	306	1996
5	2	28	293	2005
1	1	78	0	2006
1	1	38	329	2006
2	2	6	293	2004
1	1	71	293	2007
1	1	0	305	2009
1	1	77	329	2008
1	1	11	306	2006
1	2	76	293	2007
1	1	77	310	2007
1	1	33	322	2009
2	0	0	0	2005
2	1	28	0	2004
2	1	24	314	2005
1	1	1	318	2005
5	2	25	0	0
1	1	39	325	2008
1	2	76	298	2007
1	2	12	291	2007
1	1	0	0	2009
1	2	55	307	2009
1	1	6	294	2008
2	1	76	0	2005
2	1	11	0	2005
2	1	0	0	2005
1	2	53	310	2007
1	2	48	293	2007
2	1	7	0	2005
1	2	9	306	2008
2	2	66	0	2003
1	2	66	307	2006
1	2	60	308	2007
1	1	65	322	2007
1	1	53	306	2008
1	1	9	306	2006
1	1	11	322	2009
1	2	4	296	2008
5	1	77	298	2005
1	2	77	293	2007
2	2	72	0	0
1	1	77	328	2007
2	1	46	298	2005
1	1	83	0	2006
1	1	13	322	2008
1	1	76	325	2006
1	1	14	307	2009
1	1	24	310	2008
1	1	77	322	2009
1	1	31	297	2006
2	1	65	0	2005
1	1	0	294	2008
1	2	6	305	2009
1	1	4	0	2006
2	2	39	0	2005
1	1	59	0	2007
1	2	28	306	2006
1	2	72	0	2007
1	0	0	0	0
1	2	51	322	2009
1	1	53	0	2009
1	1	28	322	2008
1	0	0	0	0
1	1	46	306	2005
5	1	9	0	2005
2	2	39	310	2004
1	1	77	0	2007
1	2	12	319	2007
1	2	39	328	2007
1	1	12	0	2006
1	2	39	306	2007
1	2	0	305	2009
1	1	34	298	2008
1	2	0	0	2007
1	1	62	296	0
1	1	77	298	2005
1	2	53	322	2009
2	1	38	0	2004
1	1	5	318	0
1	1	72	0	2009
2	2	77	0	2005
1	1	51	325	2008
5	2	76	331	2005
1	1	3	298	2007
1	2	12	0	2007
1	2	7	305	2009
1	1	4	0	2009
1	2	0	310	2008
1	2	6	310	2008
2	2	82	0	2004
1	0	28	293	2006
1	2	24	305	2009
1	1	28	0	2006
1	0	39	298	2006
1	2	72	298	2007
2	2	76	0	2005
5	2	60	0	0
1	2	13	322	2009
2	1	9	0	2005
1	2	14	0	0
1	1	0	0	2007
1	2	9	0	2008
1	1	14	294	2006
2	1	0	0	2003
1	2	45	0	2008
2	2	7	0	2004
1	2	76	298	2008
1	1	76	298	2007
2	2	18	0	2005
1	1	6	306	2006
1	1	7	0	2006
1	1	53	310	2008
2	1	12	304	2005
1	2	13	322	2009
2	1	38	299	2005
2	2	45	0	2004
1	2	53	307	2009
1	2	18	298	2008
1	2	24	306	2006
1	1	77	0	2006
1	2	72	310	2007
1	2	24	298	2007
3	2	25	0	0
1	0	0	0	0
3	2	76	298	2006
1	1	7	293	2008
1	2	4	0	2005
1	2	53	293	2008
2	2	7	0	2004
1	2	0	310	2008
1	2	53	322	2008
1	1	60	0	2009
1	2	76	327	2007
1	1	0	298	2008
1	1	14	293	2007
1	2	9	322	2008
1	1	6	293	2008
1	2	24	290	2006
5	1	53	0	2008
1	1	46	310	2008
1	2	7	327	2008
5	2	14	0	0
1	0	76	295	2007
1	1	6	325	2008
1	1	78	325	2006
1	1	9	306	2006
1	1	76	310	2008
2	2	72	0	2004
1	2	26	322	2009
1	1	7	306	2006
1	1	7	298	2007
1	2	14	306	2007
2	2	39	303	2005
2	2	18	0	2004
1	2	61	296	2008
2	2	76	0	2004
1	2	82	293	2006
1	1	7	307	2009
5	1	38	0	2004
2	2	39	0	2005
1	1	15	299	2006
1	1	38	0	2007
1	2	39	293	2006
1	1	86	318	2006
2	2	0	0	0
1	2	28	306	2006
1	2	25	322	2009
1	2	43	0	2004
1	2	24	322	2007
2	2	25	306	2005
1	1	77	307	2008
1	2	77	291	2007
2	1	38	0	2004
1	0	0	0	0
1	0	76	322	2009
1	1	59	299	2008
3	2	0	0	0
1	1	0	293	2008
1	2	76	293	2008
1	1	39	299	2007
1	1	78	298	2008
1	1	26	305	2009
1	0	0	0	0
1	2	25	0	2006
1	1	12	0	2006
1	1	13	0	2007
1	2	18	293	2006
1	1	24	322	2009
2	2	76	0	2005
1	1	7	294	2006
1	2	60	0	2008
5	2	60	0	2006
1	1	77	294	2006
1	1	48	0	2006
2	1	62	0	2005
1	2	76	293	2008
1	2	9	305	2008
1	0	0	0	0
1	2	3	0	2006
2	2	43	298	1996
1	2	0	322	2009
1	1	7	293	2008
1	2	4	296	2008
1	1	77	306	2006
1	2	39	307	2009
2	2	48	0	2005
1	2	51	300	2007
1	1	76	306	2007
1	2	24	297	2008
1	2	76	0	2006
1	2	66	293	2007
1	2	26	307	2009
1	0	6	328	2007
1	1	6	322	2009
1	1	65	322	2009
1	1	24	0	2008
1	1	77	298	2008
1	2	60	296	2009
1	2	13	307	2009
1	2	71	0	2009
1	1	77	0	2008
1	1	24	318	2008
1	2	40	310	2008
1	1	25	293	2007
1	2	76	297	2006
2	0	0	0	2004
1	2	9	306	2007
1	2	7	307	2009
1	2	72	305	2009
5	1	0	0	2005
5	2	70	0	0
1	2	0	322	2009
1	1	39	0	2006
1	2	76	293	2007
1	2	14	307	2009
1	0	0	314	2006
1	2	0	305	2009
1	2	28	0	2007
2	0	0	0	0
1	1	40	306	2006
2	2	51	0	2005
1	1	27	305	2009
1	1	7	307	2009
5	1	0	0	2005
1	1	76	306	2007
1	2	39	305	2009
1	1	0	307	2009
2	2	44	0	2005
1	1	28	304	2006
1	1	72	310	2007
1	2	24	0	2007
1	1	48	328	2006
1	2	24	330	2006
1	2	28	290	2008
1	1	77	306	2006
1	2	14	305	2009
1	0	24	300	0
1	2	11	322	2009
1	2	90	298	2006
1	2	4	296	2009
1	2	14	0	2006
2	2	11	0	2005
1	1	76	305	2009
1	2	7	325	2008
1	1	7	305	2009
1	1	76	293	2006
1	2	38	317	2007
2	2	24	323	2005
2	2	76	331	2005
2	1	32	0	2004
2	1	77	304	2003
1	0	51	329	2007
1	1	59	306	2006
1	0	0	0	0
1	2	24	305	2009
1	2	0	307	2009
1	1	60	296	2009
1	1	28	299	2006
1	2	9	293	2006
1	2	60	296	2006
1	1	48	0	2009
1	2	0	322	2009
1	1	7	318	2007
2	1	78	0	2005
1	1	38	304	2007
1	1	6	0	0
5	0	0	0	0
1	2	0	322	0
1	2	24	293	2008
1	2	76	298	2008
2	2	71	0	2005
1	1	60	0	2006
1	1	6	322	2009
1	1	28	325	0
1	2	13	306	2006
1	1	28	318	2006
4	2	0	0	0
1	2	76	322	2008
2	2	14	0	2005
1	2	28	293	2007
1	2	25	325	2008
1	0	0	0	0
1	1	0	322	2009
1	2	80	331	2006
1	2	24	322	2008
2	1	76	306	2005
2	1	4	0	2005
1	2	11	305	2009
1	1	28	0	0
1	1	38	298	2006
1	2	72	310	2008
2	1	76	0	2005
1	2	28	305	2008
1	1	58	318	2008
1	1	0	293	2008
2	2	6	0	2005
1	2	25	322	2008
2	1	82	0	2004
1	2	18	310	2006
1	2	0	322	2009
1	2	25	297	2006
1	1	14	305	2009
2	2	3	306	2005
1	2	66	297	2006
1	1	7	305	2009
1	2	18	0	0
4	2	0	0	0
1	0	51	306	2007
2	1	39	0	2005
1	1	48	322	2009
1	1	62	296	2009
1	1	12	298	2008
1	1	38	318	0
1	2	53	0	0
2	2	18	0	2005
1	2	72	322	2009
1	1	60	0	2008
1	2	45	0	2005
1	2	14	0	2009
1	1	28	298	2008
1	2	65	298	2007
1	1	0	322	2008
1	1	7	294	2007
1	2	38	305	2008
1	1	76	318	2007
1	2	60	296	2008
1	2	24	322	2009
2	1	78	0	2004
1	0	3	0	2007
2	2	14	0	2005
2	1	0	0	2005
1	1	28	298	2007
2	1	0	0	0
2	2	82	331	2005
1	1	4	0	2008
5	2	66	0	2006
1	1	9	322	2009
1	0	71	0	0
1	2	9	297	2007
1	1	28	306	2006
1	2	1	306	2006
1	2	24	316	2006
2	2	78	0	2005
1	1	76	0	2006
1	2	66	298	2006
2	1	77	0	2004
1	2	13	307	2008
1	2	31	293	2006
1	2	4	0	2008
1	1	0	322	2009
5	2	53	0	2005
1	2	25	306	2006
1	2	24	300	0
2	1	78	0	2004
1	1	24	298	2006
1	1	76	314	2008
1	2	0	293	2006
1	1	4	296	2007
1	1	6	306	2006
1	1	76	325	2008
1	2	76	0	2007
1	1	0	0	2009
1	2	7	322	2008
1	1	53	322	2009
1	0	0	0	0
2	1	78	0	2005
1	2	48	310	2008
1	2	24	293	2007
1	2	77	322	2009
1	2	4	0	2007
2	1	77	0	2004
1	2	51	305	2009
1	2	60	296	2007
1	1	24	0	2006
2	2	65	0	2005
1	1	7	310	2008
2	2	24	327	2002
1	2	80	293	2007
1	2	72	322	0
2	2	14	0	2004
1	2	60	0	2004
1	1	71	293	2008
1	1	38	298	2008
1	2	53	325	2007
2	2	31	0	2005
5	0	72	0	2000
1	2	4	296	2006
5	2	60	0	2006
1	1	77	307	2009
1	2	28	325	2007
1	2	14	310	2008
1	2	4	0	2005
1	1	60	0	2008
1	1	26	306	2006
1	2	66	310	2007
2	1	48	0	2005
2	1	78	0	2005
1	1	84	305	2009
1	2	82	305	2008
1	2	76	310	2008
1	1	77	310	2008
1	2	83	303	2007
1	2	43	310	2006
1	2	45	0	2008
1	2	77	306	2005
1	2	0	307	2009
2	1	4	0	2005
1	2	51	322	2009
1	1	60	296	2008
1	2	65	298	2008
1	1	7	0	2008
1	1	48	0	2006
2	2	71	302	2005
1	2	14	297	2007
1	2	7	305	2009
1	1	55	0	2006
1	1	54	298	2007
1	0	0	0	0
1	2	60	0	0
1	2	60	0	2007
1	1	28	307	2009
1	1	76	305	2009
1	1	82	329	2006
1	1	38	322	2009
1	1	28	305	2009
2	2	24	0	2005
2	1	23	0	2005
1	2	4	296	2009
2	1	3	0	2005
2	1	36	306	2005
1	1	7	0	2009
1	2	77	0	2006
2	1	11	0	2005
1	2	49	322	2009
2	2	24	0	2005
1	1	33	322	2009
1	1	53	307	2009
1	2	83	306	2008
1	1	43	0	2006
1	1	39	322	2008
1	2	89	293	2005
1	2	66	325	2008
1	1	77	322	2009
1	1	33	294	2006
5	2	93	0	2005
1	2	24	0	2007
2	1	11	0	2005
2	2	80	0	2007
2	1	76	0	2005
1	1	54	293	2008
1	1	48	0	2006
1	2	36	306	2006
1	2	4	296	2008
1	1	76	322	2009
2	1	24	0	2005
1	2	76	305	2009
1	1	0	305	2009
1	1	65	293	2008
1	2	31	0	0
1	1	0	322	2009
1	1	65	314	2007
1	2	0	0	0
1	1	9	307	0
1	2	39	0	2008
1	2	24	295	2005
1	1	11	293	2007
1	1	12	0	2006
5	1	24	0	2006
1	2	0	322	2009
1	2	38	322	2009
1	1	32	306	2007
1	1	77	322	2009
2	2	9	0	2005
1	1	53	305	2009
1	1	7	0	2008
1	2	24	325	2007
1	2	13	310	2008
1	0	0	0	0
1	1	31	322	2009
1	2	49	0	2006
2	2	24	0	2003
2	2	24	297	1995
2	1	39	0	2005
5	2	51	0	2005
1	2	76	307	2007
1	2	6	322	2009
1	2	0	298	2008
1	2	76	307	2009
1	1	0	294	2008
1	2	31	322	2008
1	1	60	296	2007
1	1	54	306	2007
1	1	8	297	2008
4	2	0	0	0
1	2	39	293	2007
1	2	31	298	2005
1	1	73	293	2006
1	2	4	296	2008
1	2	45	296	0
1	1	77	0	2008
1	2	60	296	2008
1	1	23	310	2008
3	0	2	0	0
1	1	4	0	2007
1	1	0	322	2009
1	2	0	330	2007
1	1	0	307	2009
1	1	4	296	2008
1	1	12	325	2007
1	1	60	296	2006
1	1	0	322	2009
1	2	39	298	2007
1	1	24	298	2006
1	2	0	307	2009
1	1	77	294	2007
1	2	60	0	2006
1	2	87	290	2005
1	1	60	0	2009
1	1	77	297	2008
2	0	77	0	2005
1	2	24	323	2006
1	0	11	0	2008
1	2	82	298	2007
5	2	53	320	2009
2	1	60	299	2005
2	1	11	0	2005
1	1	7	307	2005
2	2	13	0	2005
1	2	76	320	2006
2	2	24	0	2004
1	1	6	293	2007
1	1	65	293	2008
1	2	76	322	2009
1	2	77	305	2009
1	1	65	298	2006
2	1	11	0	2005
1	1	9	322	2009
1	2	59	322	2008
1	2	82	305	2007
1	1	0	0	2007
1	1	0	329	2008
1	2	72	310	2008
2	1	9	306	2005
2	1	76	0	2005
1	1	76	294	2007
5	2	53	0	2008
1	1	60	296	2008
1	2	0	0	0
1	1	79	0	0
1	0	38	0	2007
1	2	6	307	2008
1	1	4	299	2007
1	1	0	322	0
1	2	24	328	2006
1	1	28	322	2008
1	1	72	0	0
2	1	12	299	2005
1	1	76	294	2007
1	2	65	322	2009
2	1	0	0	2005
1	2	51	310	2008
1	1	43	307	2009
1	1	39	298	2007
1	2	9	294	2008
1	2	87	310	2008
1	1	77	293	2007
1	1	60	0	2005
1	0	62	296	2009
1	1	4	296	2009
1	1	4	0	2005
1	2	24	297	2008
1	1	0	0	2007
2	1	65	0	2005
1	1	0	305	2009
1	1	76	0	2006
1	1	48	310	2007
1	2	76	327	2008
1	1	53	322	2009
2	2	76	0	2005
1	2	39	0	2005
1	1	11	293	2008
1	2	77	310	2007
1	0	0	0	2005
1	2	11	322	2009
1	1	51	0	2006
1	2	76	310	2008
1	2	7	293	2008
1	2	9	322	2009
1	2	60	296	2007
1	2	18	298	2007
2	1	79	0	2005
1	2	31	325	2008
1	1	4	296	2009
2	2	24	0	2005
1	2	60	0	2006
2	1	71	0	2005
1	2	0	307	2009
1	1	0	0	2007
2	1	28	0	0
1	1	46	293	2008
1	1	30	297	2007
1	2	24	300	2006
1	1	24	325	2005
1	2	60	310	2008
2	2	89	324	2005
1	2	39	295	2006
1	1	6	322	2009
1	1	28	298	2006
1	1	6	322	2009
1	2	76	293	2007
1	2	7	322	2009
1	1	60	296	2009
2	1	77	0	2005
1	2	18	297	2006
1	2	22	298	2007
1	1	3	322	2008
1	2	7	322	2009
1	2	65	305	2009
1	2	0	305	2009
1	2	76	302	2007
1	2	0	293	2008
1	0	0	0	0
1	0	76	293	2008
1	2	3	0	2007
1	2	28	0	2007
5	1	63	0	2009
1	2	24	305	2009
1	2	76	293	2008
1	2	82	320	2008
1	2	60	296	2005
1	1	76	307	2009
1	1	4	0	2006
1	2	62	296	2009
1	2	51	298	2007
1	1	23	293	2008
1	0	60	296	2007
1	2	4	0	2006
1	2	14	297	2007
1	1	4	0	2007
1	1	53	299	2007
1	1	65	298	2008
1	1	76	306	2006
1	1	1	298	2008
1	1	77	298	2008
5	2	93	0	2006
1	2	24	293	2008
1	0	0	0	0
1	1	60	306	2006
1	1	53	322	2009
1	2	9	0	2007
1	2	24	322	2009
1	0	0	0	0
1	1	14	298	2006
1	1	13	322	2009
1	2	25	298	2008
1	2	39	322	2009
1	2	24	0	2008
1	1	7	298	2008
1	1	55	293	2008
1	0	0	0	0
1	1	61	293	0
1	1	7	322	2009
1	1	77	0	2007
1	2	80	298	2006
1	1	82	298	2008
1	2	76	316	2006
1	1	12	294	2006
2	1	77	0	2005
1	1	5	314	2007
1	2	0	0	2008
1	1	76	298	2007
1	2	76	0	2006
5	1	9	0	2005
2	0	46	306	2005
1	1	53	293	2007
1	2	14	307	2009
1	2	66	293	2008
1	1	23	293	2007
1	2	65	322	2009
2	1	24	293	2004
1	1	53	306	2007
1	1	28	322	2009
1	2	24	295	2008
1	2	51	0	2007
2	2	77	0	2004
1	2	60	293	2008
1	1	14	306	2006
1	2	9	0	2008
1	2	76	306	2005
1	2	73	327	2006
1	1	4	0	2007
1	2	11	326	2006
1	2	9	298	2007
1	1	0	305	0
1	1	28	0	2006
1	1	77	0	2006
1	1	77	0	0
1	2	72	0	2008
2	2	22	0	2004
1	1	0	322	2009
1	2	0	305	2009
1	1	76	306	0
1	2	14	310	2008
1	2	13	322	2009
1	1	76	310	2008
5	2	51	0	2006
1	1	14	299	2007
1	2	3	307	2006
1	0	0	0	0
1	2	51	305	2009
1	1	53	322	2009
1	2	24	325	2007
1	1	33	306	2007
1	1	53	305	2009
1	2	60	296	2009
1	2	39	298	2006
1	1	7	310	2008
1	1	9	322	2009
5	0	0	0	0
1	1	76	307	2009
1	2	59	319	2006
1	2	0	307	2009
1	1	77	306	2007
1	1	77	0	0
1	0	46	293	2007
1	0	0	0	0
1	1	24	305	2008
1	1	39	0	2007
1	0	0	0	0
1	1	34	322	2008
1	2	13	305	2008
1	1	78	322	2009
1	1	11	322	0
1	1	53	299	2006
1	1	65	310	2008
1	1	77	0	2006
2	0	0	0	0
5	2	53	0	2005
1	2	4	296	2008
1	1	4	296	2009
2	2	2	319	2001
1	1	77	306	2006
2	1	79	0	2005
1	2	0	298	2008
3	2	60	0	0
1	1	7	322	2009
1	1	25	0	2007
1	0	0	0	0
1	2	9	297	2008
1	1	55	307	2007
1	1	76	305	2009
1	0	24	0	2006
1	2	77	293	2008
1	1	60	0	2006
1	1	60	0	2006
1	2	80	302	2006
5	2	48	0	0
1	2	82	306	2007
1	2	76	0	2005
1	1	4	0	2006
1	1	12	305	2006
1	2	48	306	2007
1	2	0	0	0
2	1	11	0	2005
1	1	60	0	2006
1	1	24	314	2007
1	1	7	0	2009
1	2	48	298	2007
1	2	14	0	2005
1	2	18	306	2005
1	2	39	305	2008
1	2	0	297	2008
5	2	53	0	2009
1	1	77	293	2007
1	1	28	310	2005
1	2	39	300	2006
1	2	18	325	2007
1	2	78	320	2005
1	2	76	327	2007
1	2	48	293	2007
1	2	9	293	2008
1	2	44	0	2006
2	1	14	0	2005
1	0	28	328	2007
1	2	76	293	2008
1	1	4	296	2009
1	2	3	322	2008
2	1	7	0	2004
1	2	24	293	2007
5	2	25	0	2006
1	1	0	322	2009
1	1	0	307	2009
1	2	24	298	2008
1	2	39	306	2005
1	1	77	314	2008
2	2	0	0	0
1	2	0	307	2009
2	2	14	0	2005
2	1	77	0	2005
1	1	53	298	2008
1	2	7	323	2007
1	1	60	0	2008
1	1	0	322	2009
1	2	28	331	2006
1	2	24	0	2007
1	2	24	325	2006
1	0	0	0	0
1	1	60	0	2009
2	2	7	319	2005
1	2	9	307	2007
1	1	65	298	2006
4	1	4	0	2005
1	1	77	0	2006
1	0	0	0	0
1	2	9	322	2008
1	2	0	305	2008
1	1	14	306	2006
1	1	0	305	2008
2	1	0	0	1978
1	2	14	322	2009
1	1	49	298	2006
1	1	76	293	2007
1	2	43	293	2007
1	1	53	307	2009
1	2	24	297	2006
1	1	62	296	2008
2	2	0	0	0
1	1	14	322	2009
1	2	25	0	2008
1	1	7	322	2009
1	1	11	322	2009
1	1	0	325	2008
1	2	39	293	2006
1	2	0	322	2008
2	2	14	0	2003
1	1	76	298	2008
1	2	13	306	2006
2	2	39	0	2005
5	2	11	0	2010
1	0	60	0	0
1	2	24	0	2007
1	1	24	0	2007
1	2	25	322	2009
1	1	59	325	2006
2	0	24	0	2005
1	1	53	305	2009
5	1	77	0	2005
1	1	68	322	2008
1	0	4	0	0
1	1	7	306	2006
1	2	14	290	2008
1	1	53	325	2007
2	0	0	0	0
2	1	65	299	2005
1	1	76	0	2006
1	0	0	0	0
1	2	72	0	2006
2	2	7	306	2005
1	2	4	296	2009
1	0	0	0	0
1	1	78	310	2008
1	1	29	0	2006
1	2	4	0	0
1	1	24	322	2009
1	1	60	293	2008
2	2	24	0	2005
1	1	0	322	2009
1	1	38	307	2009
2	2	76	0	2004
1	2	76	294	2006
1	2	76	322	2009
1	1	0	310	2008
1	2	25	325	2008
2	1	76	0	2004
1	1	0	0	2008
1	1	53	293	2007
5	2	53	0	2008
1	2	25	293	2008
5	2	53	0	2008
1	1	53	305	2008
1	1	53	307	2009
1	2	24	324	2006
1	2	89	0	2005
1	2	28	326	2007
1	1	11	321	2007
1	1	53	322	2009
1	2	24	293	2008
1	2	9	305	2009
1	2	60	0	2007
1	1	78	293	2008
1	1	12	305	2007
1	1	77	0	2007
1	2	48	293	2007
1	1	60	296	2005
1	2	24	324	2006
1	1	76	306	2005
2	1	28	318	2005
1	0	9	293	2007
5	1	9	0	0
1	1	0	322	2009
1	2	25	320	2006
2	2	76	0	2005
1	1	3	294	2006
1	2	0	0	2009
1	1	45	296	2007
1	2	9	320	2006
2	1	3	306	2005
1	1	65	310	2008
1	2	24	293	2006
1	0	51	327	2008
2	2	77	0	2004
3	2	41	326	2007
1	2	24	305	2009
1	0	0	0	0
2	2	9	0	2005
1	2	48	0	2006
1	2	60	296	2008
1	2	24	0	2006
1	2	66	310	2008
1	1	60	296	2006
1	2	24	298	2007
1	2	4	0	2007
1	2	0	325	2007
1	2	14	0	2007
1	1	24	0	2006
1	2	86	305	2009
1	1	4	0	2007
1	2	63	296	0
5	2	78	0	2004
1	1	62	296	2007
2	2	4	296	2005
1	1	7	293	2007
1	2	51	322	2009
1	1	28	322	2009
1	2	9	302	2006
1	1	82	293	2008
1	1	65	328	2008
1	1	0	0	0
1	2	14	306	2006
1	0	9	314	2006
1	2	4	0	2008
1	1	7	298	2008
1	2	45	0	2007
1	2	51	305	2006
2	1	77	318	2005
1	2	46	305	2009
1	1	7	325	2008
2	2	76	322	2005
5	1	66	0	2005
1	0	0	0	0
1	1	12	294	2007
1	2	9	319	2007
1	2	66	310	2007
1	2	25	325	2008
1	1	77	293	2008
2	2	76	316	2005
1	2	6	320	2006
1	1	72	322	2009
1	1	24	329	2007
1	1	53	0	0
1	0	24	0	2005
5	2	70	0	2008
1	1	77	293	2008
1	1	32	294	2008
1	1	7	0	0
2	1	28	0	2005
1	2	76	293	2008
1	2	7	0	2005
1	2	45	296	2009
2	1	31	297	2005
1	1	53	307	2009
1	2	39	293	2008
1	2	31	322	2009
1	0	0	0	0
1	1	24	294	2008
1	0	0	330	2010
1	2	9	330	2007
1	2	51	325	2008
1	1	4	0	2009
1	2	65	298	2008
1	1	60	293	2007
1	0	76	322	2008
1	1	6	298	2005
1	2	51	0	2007
1	0	24	319	2007
1	2	18	306	2006
5	2	24	0	2006
1	1	77	298	2006
1	1	0	322	2009
1	1	28	306	2006
1	1	6	325	2007
1	1	60	296	2008
1	2	24	293	2008
1	2	24	306	2006
2	2	18	0	2005
2	2	39	0	2005
1	1	45	293	2006
1	2	76	294	2007
1	1	14	294	2008
1	2	18	0	0
1	2	39	0	2005
1	2	31	0	2006
2	1	60	0	2005
1	2	7	310	2007
1	1	0	322	2009
1	1	77	293	2008
2	1	7	306	2005
1	2	4	296	2006
2	2	28	0	2005
1	2	6	302	2006
1	1	54	298	2007
2	2	9	0	2004
1	1	0	0	2008
1	2	76	322	2009
1	1	78	306	2007
2	2	24	297	2005
1	1	0	329	2006
1	1	28	0	2007
1	1	7	0	2007
1	2	9	293	2006
1	1	73	310	2008
1	1	53	305	2009
1	1	24	322	2009
2	2	76	302	2005
1	2	45	296	2007
1	0	4	0	2007
2	2	7	306	2005
1	0	53	325	2007
2	1	76	318	2005
1	2	24	0	2004
2	1	50	306	2005
1	1	0	293	2008
5	1	0	292	2006
1	2	72	293	2007
1	1	7	322	2009
1	2	76	0	2008
1	0	0	0	0
1	0	7	0	2007
1	2	7	0	0
1	2	76	328	2006
1	2	24	310	2007
1	2	24	306	2006
1	1	11	322	2007
1	2	60	0	2006
6	0	15	0	0
1	2	31	0	2006
1	1	4	296	2007
1	2	48	297	2008
1	1	66	306	2006
1	2	0	322	2009
1	1	6	298	2008
1	1	6	307	2009
1	2	13	307	2009
5	2	53	0	2008
2	1	13	293	2005
1	2	80	307	2008
1	1	78	322	2007
1	2	60	296	2009
1	1	9	305	2009
1	2	18	306	2006
1	1	11	297	2008
1	2	70	295	2005
5	1	0	0	2006
1	0	0	0	0
1	2	7	307	2009
1	1	4	0	2008
1	2	77	0	2007
1	2	84	306	2006
1	2	66	302	2008
1	1	62	296	2009
1	2	76	293	2007
1	1	65	305	2009
1	2	9	0	2009
2	2	66	0	2004
1	2	25	322	2009
1	1	7	307	2009
1	1	34	325	2007
1	1	11	0	2006
1	2	62	296	2009
1	0	59	0	0
1	1	53	292	2007
1	1	51	294	2005
1	2	9	322	2009
1	1	7	305	2009
1	2	76	290	2008
1	2	60	296	2008
1	1	0	325	2008
1	1	7	310	2008
1	1	24	314	2006
1	2	76	293	2008
1	2	18	0	2006
2	2	18	0	2005
5	1	69	0	2008
1	1	7	307	2009
2	2	51	0	2004
1	1	11	310	2007
5	1	3	0	2005
1	1	7	294	2007
1	2	76	307	2009
1	1	7	305	2009
1	2	7	317	2008
1	1	11	298	2007
1	2	7	305	0
1	2	24	316	2006
1	1	82	0	2006
1	1	76	310	2007
5	1	77	0	2005
1	2	41	0	2006
5	1	0	0	2006
1	2	53	320	2008
2	1	38	0	2005
2	1	39	299	2005
2	2	75	0	2004
4	1	0	305	2009
1	2	12	305	2009
1	1	24	325	2007
1	2	53	322	2009
1	1	6	293	2007
1	1	72	293	2007
1	2	51	0	2008
1	2	18	306	2006
1	1	24	322	2008
1	1	0	296	2009
1	2	7	293	2007
1	2	11	322	2009
1	2	51	310	2008
1	1	1	0	2006
5	2	0	0	0
1	1	4	296	2008
1	1	51	0	0
1	1	76	305	2008
1	2	89	293	2008
1	1	4	296	2006
1	2	76	298	2007
1	2	60	298	2007
1	1	0	305	2008
1	1	76	0	2005
1	2	4	296	2007
1	1	65	322	2009
5	1	53	0	2008
1	1	59	328	2007
1	2	7	310	2008
1	1	0	322	2009
1	1	51	322	2008
1	1	0	0	0
1	0	0	293	0
1	1	62	296	2009
1	2	51	322	2009
1	1	80	319	2006
1	2	72	294	2008
2	1	5	0	2005
2	2	24	306	2005
1	1	65	305	2007
1	1	7	314	2007
1	1	6	322	2009
1	2	0	316	2010
2	1	71	0	2005
1	1	77	0	2006
1	2	58	305	2008
1	1	7	293	2008
1	2	38	298	2006
1	1	48	298	2006
1	1	7	325	2008
1	1	77	305	2009
1	1	53	322	2009
1	1	7	293	2008
1	2	73	322	2009
1	2	24	0	2007
1	1	13	307	2009
1	0	33	298	2006
2	1	76	318	2005
5	1	62	0	2006
2	1	13	0	2005
1	2	7	306	2007
1	1	7	310	2007
1	2	1	294	2007
1	2	7	305	2009
1	2	6	322	2009
1	1	24	299	2007
1	1	7	294	2006
1	1	23	306	2006
1	1	0	305	2008
1	2	60	296	2007
1	2	31	306	2007
1	2	40	306	2006
1	1	9	322	2009
1	1	60	296	2008
1	2	38	303	2007
1	1	11	305	2009
1	1	28	297	2006
5	2	0	0	2006
1	1	77	298	2008
1	2	66	293	2007
2	2	38	0	2005
1	2	24	0	2007
1	2	7	310	2007
1	1	7	0	2009
1	2	14	306	2008
1	2	13	310	2007
1	2	76	322	2009
1	2	18	300	2006
1	1	73	294	2008
1	2	80	294	2007
2	1	24	318	2005
1	2	3	322	2009
1	1	78	292	2007
6	0	60	0	0
1	1	24	306	2005
1	2	0	0	0
2	2	39	0	2002
1	2	39	306	2006
1	1	6	325	2008
1	1	24	0	2007
1	1	0	325	2008
1	0	48	0	2007
1	2	60	0	2005
1	1	0	322	2008
1	1	76	322	2006
1	2	0	293	2006
1	2	4	296	2008
1	2	66	307	2009
1	2	76	323	2006
1	1	77	325	2008
1	0	0	0	0
1	1	66	297	2007
1	2	76	330	2008
1	1	25	298	2006
1	0	0	0	0
1	1	29	307	2008
1	2	13	322	2009
1	1	9	299	2006
1	2	9	325	2005
2	1	7	0	2004
1	0	0	0	2008
1	2	0	0	2008
1	0	0	0	0
1	1	9	325	2008
1	2	76	320	2008
1	1	24	307	2009
1	2	24	294	2008
1	1	60	0	2007
1	1	0	322	2009
3	0	62	296	2007
1	2	13	305	2009
1	1	3	293	2006
1	2	53	322	2009
1	2	7	327	2006
1	1	24	306	2005
1	2	66	325	2007
1	1	23	322	2006
1	1	76	294	2006
1	2	48	294	2006
1	2	24	293	2008
1	1	23	306	2006
2	1	60	0	2004
2	1	23	294	2005
1	1	48	307	2006
1	1	11	310	2008
1	1	4	292	2008
5	2	89	0	0
2	2	39	0	2002
2	1	82	0	2004
1	2	4	296	2007
1	1	65	298	2008
1	2	24	290	2008
1	1	83	0	2007
1	1	24	305	2009
1	1	76	322	2009
1	1	9	310	2008
1	2	0	306	2007
1	2	41	325	2008
1	1	7	0	2009
1	2	28	293	2007
1	2	76	293	2007
1	1	77	0	2007
1	2	0	307	0
1	2	66	0	0
2	1	77	292	2005
1	2	93	322	2009
1	2	76	322	2009
1	0	0	0	0
2	1	77	0	2005
1	2	24	325	2007
2	2	3	0	2003
1	2	24	323	2006
2	2	0	0	2005
2	2	86	0	2004
1	2	23	300	2007
1	2	24	322	2006
2	1	78	0	2005
1	1	7	293	2008
2	1	77	0	2005
1	1	77	318	2007
1	1	53	325	2008
5	1	66	0	2006
5	0	0	0	0
1	2	65	319	2006
1	1	77	310	2007
1	1	77	292	2007
1	0	0	0	0
2	2	76	290	2005
1	2	9	306	2007
1	0	0	0	0
1	2	0	322	0
1	1	59	322	2009
1	2	13	322	2009
1	2	51	291	2008
1	2	24	0	2005
1	2	14	306	2007
1	1	78	318	2007
5	2	9	316	2006
2	2	18	0	2005
1	0	0	0	0
1	2	0	0	2007
1	2	7	322	2009
1	2	53	322	2009
1	1	73	293	2008
2	1	51	0	2005
2	2	39	0	2005
1	1	33	293	2006
1	1	7	322	2009
1	1	11	0	2008
1	2	4	296	2007
1	1	48	325	2008
1	2	51	330	2006
1	1	9	305	2009
1	1	23	294	2008
1	1	7	0	2008
1	1	24	314	2005
1	2	53	293	2008
1	1	77	0	2006
5	2	65	0	2006
1	1	23	0	2007
1	1	76	293	2007
1	2	65	293	2007
1	1	60	296	2008
1	1	38	328	2008
1	2	51	293	2008
1	2	51	306	2007
5	2	25	0	2005
1	1	11	0	2005
1	1	1	306	2007
1	2	48	302	2008
1	1	60	0	2006
1	2	0	305	2009
5	0	0	0	0
2	2	28	324	2005
1	1	0	0	2008
1	2	4	296	2008
1	2	77	328	2007
1	2	24	298	2007
1	1	7	325	2008
4	2	0	0	0
2	2	60	0	2005
1	2	60	0	2005
1	2	39	306	2007
1	0	0	0	0
1	2	9	293	2007
1	1	59	294	2007
1	1	40	325	2007
1	2	0	322	2008
1	2	4	296	2009
1	1	82	325	2008
1	2	0	0	2006
5	1	93	0	2006
1	2	55	306	2007
1	2	13	322	2008
1	2	31	0	2007
1	1	65	299	2008
1	1	0	310	2008
1	1	7	294	2008
2	2	72	298	2005
1	2	9	305	2009
2	1	4	0	2005
1	1	9	305	2009
2	1	83	0	2005
1	2	31	293	2008
1	1	4	296	2007
1	1	53	298	2008
2	2	77	0	2005
5	2	60	0	2007
1	2	28	0	2006
1	2	24	322	2009
1	2	18	298	2008
2	2	86	0	2005
1	2	48	293	2008
1	2	49	310	2007
1	2	72	322	2009
1	2	9	322	2009
2	2	28	0	2004
1	1	0	310	2008
1	2	6	322	2009
1	2	18	298	2007
1	1	9	294	2008
1	2	23	293	2006
1	1	38	0	2006
1	2	80	302	2008
5	2	25	0	2008
2	0	76	0	0
1	1	7	307	2009
1	1	60	296	2007
1	2	51	293	2008
1	1	28	294	2007
1	2	65	298	2007
1	2	4	296	2007
1	2	65	322	2007
5	2	53	0	0
2	1	78	0	2005
1	1	59	293	2008
1	1	77	297	2008
1	1	76	322	2009
1	1	65	306	2006
1	2	76	325	2008
1	1	28	314	2005
2	2	60	0	2005
2	1	24	306	2005
1	0	77	0	2006
1	1	12	322	2009
1	1	48	322	2009
1	1	43	294	2008
1	2	23	0	2008
1	1	11	294	2008
1	1	0	322	2009
1	1	24	310	2007
1	2	76	0	2006
1	1	46	293	2007
2	1	9	308	2005
1	2	39	295	2007
1	2	0	322	2004
1	2	7	305	2009
1	2	76	293	2007
1	2	28	306	2006
1	2	54	0	0
1	2	39	305	2008
1	2	0	0	0
1	1	0	0	0
1	1	5	293	2008
1	1	0	297	2008
1	1	0	0	0
2	2	18	322	2005
2	2	18	302	2005
1	2	77	291	2007
1	1	48	322	2009
1	2	6	293	2007
1	1	82	305	2009
1	1	0	322	2009
1	0	48	0	2008
5	2	62	0	0
2	2	25	320	2005
1	1	1	0	2005
1	1	7	293	2008
1	1	3	322	2009
1	1	89	294	2007
1	1	6	322	2009
1	1	43	325	2007
1	1	4	0	2006
1	2	39	325	2008
1	1	77	293	2008
1	2	4	296	2007
1	1	0	293	2007
1	2	9	297	2007
1	2	24	0	2006
5	1	0	0	2006
1	2	70	305	2009
1	1	84	293	2008
1	1	77	307	2007
1	2	6	322	2009
2	2	77	0	2005
1	2	7	293	2008
1	1	0	293	2007
2	1	38	0	2005
1	2	45	0	2010
1	1	32	293	2007
1	1	24	325	2006
1	1	28	305	2008
1	2	24	322	2009
1	1	76	0	2007
1	1	3	305	2009
1	2	45	296	2008
1	2	6	322	2009
2	2	76	0	2005
1	0	76	0	2006
1	1	5	0	2007
2	0	0	0	0
1	1	24	322	2009
1	2	62	296	2008
1	1	86	294	2005
1	2	24	0	2008
1	1	7	322	2009
2	2	24	0	2005
5	2	9	0	2006
1	2	53	307	2008
1	2	11	0	2006
1	2	45	307	0
1	1	77	297	2007
1	2	24	322	2009
1	1	38	293	2006
1	2	24	293	2007
1	1	7	298	2007
1	1	28	322	2009
1	2	77	305	0
1	2	14	322	2009
1	2	59	322	2009
1	2	3	0	2006
1	2	9	305	2006
1	2	27	322	2009
1	2	0	307	2009
1	2	60	0	2008
1	0	25	0	2005
1	2	60	296	0
2	1	7	0	2005
1	1	24	0	2006
4	2	0	0	0
1	0	60	296	2006
2	1	7	318	2004
1	2	13	325	2008
1	2	0	325	2008
1	2	24	306	2007
1	1	4	296	2008
1	1	38	0	2006
2	2	78	0	2005
2	0	0	0	2005
2	2	11	0	0
1	2	53	322	2009
2	1	0	0	2005
1	0	61	0	2006
1	2	76	293	2006
1	2	51	305	2009
1	2	4	0	2007
1	2	24	327	2007
2	1	62	0	2005
2	1	78	0	2005
2	2	18	0	2005
1	0	59	0	0
2	1	76	0	2005
1	2	39	293	2008
1	2	76	317	2008
1	2	0	305	0
5	2	65	0	2005
5	0	0	0	0
1	1	7	322	2009
1	1	6	293	2008
1	2	59	298	2007
1	2	24	306	2006
1	2	9	322	2008
2	2	6	0	2005
1	2	51	297	2008
1	0	0	0	0
1	2	24	293	2006
1	1	7	322	2008
1	2	6	322	2008
1	2	44	298	2005
1	2	24	305	2009
2	2	51	0	2005
1	2	53	322	2009
1	2	31	305	2009
1	2	53	322	2009
5	2	93	0	2006
1	1	43	310	2006
1	1	59	294	2007
1	2	77	310	2008
1	1	53	297	2008
1	2	4	296	2007
1	2	65	293	2008
1	1	25	0	2006
1	2	9	305	2009
1	1	77	322	2009
1	1	65	0	2009
1	2	7	0	2006
2	1	82	0	2005
1	1	24	325	2008
1	2	93	302	2006
1	2	51	0	2008
1	1	16	303	2008
1	1	7	322	2009
1	2	38	293	2008
1	1	0	305	2009
1	2	18	295	2006
2	1	0	318	0
1	2	0	293	2007
1	2	60	0	2007
1	2	9	322	2008
1	2	66	308	2006
1	1	77	0	2005
1	1	7	304	2006
2	2	82	0	2005
1	2	0	325	2008
2	0	0	0	0
1	1	7	0	2007
1	2	9	305	2009
2	1	7	294	2005
1	2	66	298	2008
1	1	3	0	2005
1	2	11	303	2006
1	1	9	322	0
2	2	72	0	2004
1	2	76	0	2006
1	1	3	0	2006
1	2	13	0	2007
1	2	6	293	2007
1	1	14	322	2009
1	1	0	305	2009
1	1	78	303	2008
1	1	0	325	2008
1	2	24	322	2009
1	1	77	305	2009
1	1	14	0	2006
1	1	7	329	2007
1	1	60	296	2008
1	0	4	0	2007
2	2	28	306	2005
2	1	38	0	2004
2	2	24	324	2005
1	2	0	0	0
2	2	4	0	2005
1	2	51	300	2006
1	2	39	307	2009
2	2	28	0	2004
1	1	34	0	2006
1	1	53	305	2009
1	1	34	306	2006
1	1	48	322	2009
1	2	59	305	2009
1	2	39	320	2008
1	2	24	306	2007
2	2	24	0	2005
1	2	18	320	2005
1	2	51	306	2007
1	1	11	298	2007
1	1	49	306	2007
1	2	13	305	2009
1	2	0	310	2008
1	2	71	306	2006
1	1	65	307	2009
1	2	24	328	2007
2	2	11	0	2005
2	2	72	320	2005
1	2	53	0	2008
1	2	77	331	2006
1	2	76	298	2007
1	2	49	320	2006
1	1	28	306	2006
2	2	77	0	2005
1	1	7	322	2009
1	2	7	315	2007
1	1	78	322	2008
1	2	39	295	2008
1	2	18	293	2008
1	1	51	325	0
1	2	65	322	2009
2	1	28	0	2005
1	1	6	310	2007
5	0	46	0	2005
2	2	24	0	2005
1	2	0	0	2006
1	1	76	0	2006
1	2	0	0	2005
1	1	0	298	2007
1	1	76	322	2009
1	2	0	296	2009
1	1	82	0	2007
1	2	18	325	2008
2	2	87	0	2005
1	1	86	318	2006
1	1	51	294	2008
1	1	28	0	2006
1	1	24	304	2006
1	1	53	293	2007
1	2	9	305	2009
1	2	31	297	2006
1	2	53	305	2009
2	1	77	0	2005
1	0	76	0	0
1	1	14	293	2008
2	1	11	0	2005
1	1	3	297	2006
1	1	6	298	2007
1	2	0	0	0
1	1	24	310	2008
1	2	13	322	2009
1	2	76	307	2008
1	2	76	291	2005
1	2	11	306	2006
1	0	48	293	2007
1	2	71	325	2008
1	2	39	298	2007
2	2	36	0	2005
1	1	11	310	2006
1	1	1	322	2009
2	1	76	0	2005
1	0	0	0	0
1	2	59	305	2009
1	1	77	307	2009
1	2	60	296	2004
1	1	60	0	0
1	2	6	322	2009
1	2	77	0	2006
1	2	0	0	0
1	0	73	310	0
1	1	66	0	2007
1	1	7	0	2009
1	1	48	305	2008
1	2	0	322	2009
1	2	79	298	2006
1	1	76	293	2007
1	1	24	0	2006
1	1	3	322	2009
1	2	4	0	0
2	1	31	304	2005
1	1	14	307	2009
1	1	0	0	2008
1	1	6	322	2009
5	1	62	0	2005
1	2	26	307	2009
2	1	77	306	2005
1	2	60	293	2008
1	1	28	322	2009
1	2	6	306	2006
1	2	76	291	2006
1	2	9	298	2006
1	2	82	298	2007
2	1	9	305	1975
1	2	76	0	2005
1	2	65	305	2009
1	2	24	293	2006
1	1	59	0	2006
1	1	53	305	2009
2	2	53	306	2005
2	2	76	0	2005
1	1	29	293	2008
1	1	53	322	2009
2	2	87	290	2005
1	2	71	303	2007
2	2	24	0	2005
1	2	76	305	2009
1	1	76	305	2008
1	2	51	293	2008
1	2	60	0	2009
1	1	84	304	2008
1	2	24	306	2007
1	2	76	330	2008
1	1	51	325	2008
1	1	28	0	2007
1	1	76	293	2007
1	0	0	0	0
2	1	65	310	2004
1	2	38	319	2007
1	1	7	0	2007
1	2	24	300	2006
1	2	25	298	2008
1	1	7	293	2008
2	2	82	0	2003
1	1	7	322	2005
1	2	9	302	2006
2	1	0	0	2004
1	1	0	0	2007
1	1	72	0	2007
1	2	25	322	2009
1	2	4	0	2006
1	1	77	299	2008
1	2	11	322	2009
1	2	0	322	2009
1	0	0	0	0
1	2	62	296	2008
1	1	4	296	2009
2	2	6	293	2004
1	2	76	322	2009
1	2	48	325	2008
1	1	76	314	2007
1	2	60	0	2009
2	2	24	300	2005
1	1	48	293	2008
1	1	7	322	2009
1	1	76	303	2008
2	2	60	0	2005
2	2	24	0	2003
1	1	28	293	2006
1	2	0	0	2008
5	2	7	0	2008
1	2	59	302	2007
1	1	89	307	2009
1	1	9	325	2007
1	1	0	294	2007
1	2	0	0	0
2	2	53	0	2005
1	1	82	0	2005
1	1	7	0	2007
2	2	76	0	2005
1	2	51	0	2007
1	2	0	322	2009
2	2	24	0	2005
1	2	0	310	2008
2	1	76	0	2004
1	2	2	313	2005
1	1	77	305	2009
1	2	4	296	2009
1	2	9	298	2008
2	2	0	0	2005
1	2	76	320	2007
1	2	24	293	2008
1	0	0	310	2004
1	2	0	305	2009
1	1	4	296	2009
1	1	77	306	2007
1	2	7	305	2009
1	2	53	310	2008
1	1	53	325	2008
1	1	59	0	2006
5	2	0	0	2004
1	1	54	322	2009
1	1	7	306	2006
2	1	6	0	2005
1	1	0	298	2008
1	0	0	0	0
1	2	25	298	2007
1	1	65	306	2006
2	2	28	0	2005
1	1	15	0	2007
1	1	45	296	2009
2	2	18	0	2005
1	1	0	318	2007
1	0	0	293	2007
1	1	77	307	2006
1	2	0	0	2006
1	2	24	306	2006
1	2	0	316	2007
1	1	7	318	2005
1	2	62	296	2008
2	1	77	0	0
1	1	0	307	0
1	1	76	322	2009
1	2	4	296	2005
2	1	79	322	2001
1	1	77	322	2009
1	2	4	296	2009
1	1	0	0	2010
1	2	38	293	2008
1	2	48	0	2005
1	1	0	322	2008
1	1	53	322	2009
2	2	86	0	2005
1	2	14	323	2006
1	1	0	322	2009
2	1	72	304	2005
1	1	6	0	0
1	1	59	305	2009
1	1	4	296	2009
1	2	0	310	2008
2	2	18	0	2005
1	2	18	305	2008
1	1	7	299	2006
1	1	65	305	2007
1	2	71	297	2006
2	2	28	0	2004
1	1	22	293	2008
1	2	13	327	2006
1	2	51	306	2006
1	1	28	293	2006
2	2	24	319	2005
1	2	0	305	2009
1	0	11	306	2006
1	1	89	328	2007
1	2	73	322	2006
1	2	28	324	2006
2	2	11	0	0
1	2	0	305	2009
2	1	65	0	0
1	2	9	294	0
2	2	18	0	2005
1	1	6	307	2009
1	1	0	322	2009
2	2	39	293	2005
1	1	0	305	2009
1	2	72	0	2008
1	1	60	0	2008
1	1	53	305	2009
1	1	80	0	2007
1	2	25	0	2006
2	2	77	0	2005
1	1	24	322	2009
1	1	82	328	2007
1	1	59	307	2008
5	1	59	0	0
1	1	31	322	2009
1	1	28	294	0
2	0	0	0	0
1	1	76	293	2007
1	1	53	322	2009
2	1	51	0	2005
1	2	66	295	2008
1	2	60	296	2009
1	2	28	0	2007
2	1	0	0	0
1	1	76	306	2007
1	1	31	0	2010
3	0	0	0	0
1	2	7	297	2008
1	2	24	298	2007
1	1	60	0	2005
1	2	65	0	2008
1	2	28	0	0
1	2	25	293	2008
1	2	11	307	2009
1	2	39	293	2007
1	2	71	319	2006
1	2	24	325	2008
2	1	4	0	2005
1	1	53	314	0
1	1	77	293	2007
2	2	71	297	2005
1	1	77	0	0
1	2	51	325	2008
1	2	24	291	2006
2	1	4	0	2005
2	1	11	0	2005
1	1	60	296	2008
1	1	3	310	2008
1	1	11	325	2006
2	1	28	0	2005
1	1	7	322	2009
1	2	24	295	2007
1	1	7	322	2009
1	1	60	292	2007
4	2	11	307	2008
1	2	45	0	2006
1	2	24	298	2007
1	2	77	306	2006
1	2	65	297	2008
1	1	39	0	2006
2	2	24	0	2005
2	2	49	0	2004
1	1	9	298	2005
2	2	24	303	2003
1	2	6	293	2007
1	1	11	306	2007
5	2	48	0	2003
1	2	75	0	2006
1	2	76	305	2009
1	1	11	0	0
2	2	65	0	2005
1	2	14	297	2006
1	2	11	305	2009
1	2	0	322	2008
2	1	77	0	2005
1	2	6	306	2007
1	0	0	0	0
2	1	3	0	2003
5	2	9	0	2004
1	2	76	307	0
1	2	51	322	2009
1	2	3	294	2007
2	2	24	0	2005
5	2	0	0	2006
2	1	73	0	2005
1	2	24	293	2006
1	1	24	322	2009
2	1	3	294	0
1	1	48	325	2008
1	1	38	322	2009
1	2	6	0	2007
1	2	51	325	2008
1	1	76	306	2007
1	2	76	298	2007
1	1	0	310	0
1	2	24	298	2007
1	2	14	298	2008
1	2	24	0	2006
5	2	72	0	0
2	0	0	0	2005
1	1	65	305	2009
1	1	46	307	2009
1	1	76	314	2007
5	1	69	0	0
1	2	25	322	2009
1	2	82	0	0
2	2	28	294	2005
5	2	62	0	2004
1	1	51	0	2008
1	1	14	322	2008
1	2	65	290	2008
1	1	0	293	2008
1	1	77	306	2007
1	1	24	329	2008
2	2	23	0	2005
1	2	28	0	0
1	1	49	0	0
1	0	0	0	0
2	2	60	0	2005
1	1	48	306	2006
1	2	4	0	2005
1	1	11	306	2006
1	0	0	0	0
1	2	0	298	2007
1	2	6	322	2009
1	1	39	297	2007
1	1	60	0	2006
1	2	24	316	2007
1	1	24	0	2005
1	2	7	291	2007
1	2	0	0	2005
1	2	7	327	2008
1	2	39	325	2008
1	2	39	306	2006
1	2	6	322	2009
1	1	12	293	0
1	2	51	305	2009
1	0	7	0	2008
1	1	71	298	2008
1	1	14	310	2008
1	2	25	297	2005
1	1	51	293	2008
1	1	3	293	2007
1	2	9	305	2009
1	2	76	322	2008
1	1	69	0	2007
2	2	76	0	2005
1	2	9	305	2008
1	1	25	322	2009
1	2	3	297	2006
1	1	53	325	2008
1	2	18	293	2006
1	2	7	298	2008
1	1	28	298	2006
1	1	0	314	2007
1	2	46	305	2009
1	0	0	0	0
1	1	11	322	2009
1	2	24	0	0
1	1	13	0	2008
1	2	39	322	2007
1	0	0	0	0
1	2	71	306	2007
4	0	0	0	0
1	1	77	307	2009
1	2	39	0	2007
1	2	72	293	2007
1	2	39	293	2008
1	2	72	306	2006
1	1	77	298	2007
1	2	76	0	2006
1	2	48	322	2009
1	2	53	307	2009
2	2	76	0	2005
2	2	18	0	2004
1	2	24	0	2005
2	2	77	0	2004
1	2	0	0	2009
1	1	18	293	2005
1	2	18	307	0
1	1	7	307	2009
1	1	11	292	2007
1	2	53	310	2006
1	2	77	306	2006
1	2	28	303	2006
1	1	4	0	2007
1	1	9	322	2009
1	2	89	306	2007
1	0	0	0	0
1	2	24	305	2009
2	1	76	0	2005
1	2	14	307	2009
1	1	78	322	2009
1	2	7	330	2008
1	2	23	322	2009
4	1	0	0	0
1	1	77	0	2009
1	1	1	0	2009
2	1	24	0	2005
1	0	53	322	2009
1	2	0	297	2008
1	2	49	323	2007
2	1	28	303	2005
2	2	26	316	2003
1	2	7	322	2006
2	2	18	0	2005
1	2	0	325	2008
1	0	0	0	0
2	2	9	0	2005
1	1	77	322	2007
5	1	24	0	0
2	1	77	0	2004
1	1	9	306	2007
2	2	24	293	0
1	2	51	322	2009
1	2	38	298	2008
1	1	6	322	2008
1	2	24	307	2009
1	1	28	292	2008
2	2	76	0	2005
1	1	48	322	2009
1	2	24	316	2006
1	1	65	322	2009
1	1	7	310	2008
1	1	0	305	2009
1	2	55	305	2009
1	1	71	325	2007
1	1	12	306	2006
1	1	26	305	2008
1	2	9	306	2006
2	2	24	320	2005
1	1	65	310	2008
1	1	4	296	2006
1	1	16	322	2009
1	1	24	0	2009
1	1	78	294	2006
1	2	44	310	2008
1	2	60	296	2009
1	0	0	0	0
1	1	77	306	0
1	2	77	316	2007
1	2	51	322	2009
1	2	39	310	2008
2	2	84	0	2005
1	1	48	293	2006
1	1	31	297	2007
1	2	24	325	2008
1	2	0	322	2009
1	2	7	322	2009
1	1	28	306	2006
1	0	0	0	0
1	2	25	0	2007
1	1	43	328	2007
1	1	7	305	2009
1	2	39	322	2009
1	2	60	0	2006
1	1	24	298	2007
1	2	76	290	2007
1	1	28	293	2008
1	1	86	297	2007
1	2	53	306	2006
5	2	73	0	0
2	1	76	0	0
1	0	77	298	2008
1	2	39	298	2005
1	1	25	322	0
1	1	77	0	0
1	1	6	322	2009
1	1	62	0	2006
2	2	76	306	2005
1	2	0	322	2009
1	1	77	297	2006
1	0	79	325	2008
2	1	24	298	2005
1	1	77	294	2006
1	2	66	293	2007
2	1	8	308	2005
1	2	90	305	2009
1	2	28	293	2006
1	1	7	0	2009
1	2	24	307	2009
2	2	0	319	2004
1	0	0	0	0
1	0	0	0	0
1	1	28	293	2006
1	2	48	310	2008
1	1	4	0	2006
1	2	13	306	2007
1	2	0	305	2009
5	1	0	0	2006
1	2	0	322	2009
1	1	60	296	2009
2	2	0	0	0
2	2	76	0	2005
1	2	73	297	2006
2	1	65	0	2004
1	1	5	297	2006
1	1	24	298	2007
1	2	18	0	2006
1	2	65	298	2006
1	2	7	316	2006
1	2	53	293	2007
1	2	39	0	2005
1	1	24	322	2009
5	0	0	0	0
2	1	38	0	2005
1	1	90	306	2005
1	0	24	0	0
1	1	4	296	2009
5	2	0	0	2006
1	1	31	322	2008
2	1	11	298	2005
1	0	0	0	0
1	2	24	0	2006
1	2	11	300	2007
1	1	60	0	2005
1	1	58	299	2008
5	1	0	0	2006
1	2	7	298	2007
1	2	0	294	2007
1	1	33	322	2009
1	2	53	305	2009
1	2	4	0	2006
1	2	6	298	2007
2	2	24	0	2005
1	2	24	317	2008
1	1	9	306	2007
1	2	34	0	2007
1	1	77	293	2008
1	1	4	296	2007
3	2	72	0	0
1	2	48	0	2006
1	2	24	319	2006
1	2	11	291	0
1	1	4	296	2008
1	1	72	322	2009
1	1	11	298	2006
1	2	13	322	2009
1	1	7	293	2008
1	2	7	298	2007
1	2	9	305	2007
1	1	65	305	2009
1	1	81	0	0
2	1	77	318	2005
1	1	36	322	2009
1	2	53	327	2006
1	2	66	306	2007
1	1	28	0	2007
1	2	50	305	2009
1	2	18	293	2006
1	2	76	0	2005
1	1	9	298	2007
1	1	51	297	2006
1	1	62	0	0
5	2	93	0	2006
1	1	4	0	2005
1	1	59	322	2009
1	1	0	322	2009
1	1	14	322	2009
1	1	11	0	2007
1	2	0	298	2006
1	2	0	293	2008
1	1	60	298	2006
1	1	9	305	2009
1	1	4	0	2007
1	1	77	325	2007
2	2	66	0	2005
1	0	25	0	0
1	1	15	314	2006
2	2	28	0	2005
1	1	76	325	2008
1	2	9	298	2007
1	2	0	322	2009
1	1	28	322	2009
2	1	60	0	2005
2	2	71	0	2005
1	1	34	0	2007
1	1	0	299	2007
1	0	0	0	0
1	1	9	322	2009
1	2	66	0	2009
1	1	82	0	2005
1	1	78	314	2006
2	2	12	0	2005
1	1	0	322	2009
1	1	24	293	2008
1	1	0	293	2008
1	0	23	297	0
1	1	71	325	2008
1	1	65	322	2009
1	2	9	320	2006
1	1	76	306	2007
1	2	69	298	2007
2	2	78	0	2005
1	1	7	318	2006
1	2	4	296	2008
1	2	53	0	0
1	2	39	293	2007
1	1	0	0	2008
1	1	68	310	2007
1	2	76	317	2007
1	2	6	293	2008
1	2	7	293	2008
2	1	28	0	2005
1	2	24	300	2006
1	1	4	0	2005
2	2	24	327	2002
1	1	0	0	2009
2	2	66	327	2004
1	2	31	0	2007
1	1	53	305	2008
1	1	0	322	0
1	2	25	306	2006
4	2	11	0	0
1	1	76	293	2007
1	2	51	305	2009
2	2	39	0	2005
1	1	9	306	2006
1	2	4	296	2009
1	2	13	305	2009
1	2	7	310	2007
1	2	72	293	2007
2	2	24	293	2005
1	1	0	322	2008
1	2	51	319	2008
1	2	13	0	2008
1	2	51	306	2006
1	2	65	0	2006
1	1	51	307	2009
1	2	24	0	2006
1	1	6	294	2006
1	1	53	293	2008
1	2	24	0	2005
1	2	9	0	2008
1	1	76	0	2006
1	1	4	0	2009
1	1	62	296	2009
1	2	7	325	2007
1	2	4	296	2007
1	2	72	0	0
1	1	76	292	2008
1	2	48	298	2005
1	1	4	0	2006
1	2	60	0	2005
1	1	60	0	2005
1	1	38	297	2007
1	1	39	307	2008
2	2	9	0	2004
1	0	0	0	0
2	2	18	0	2005
1	1	4	0	2007
1	0	0	0	0
1	1	5	0	2006
1	1	0	305	2009
1	2	4	0	2007
2	2	48	0	2005
1	1	71	328	2006
1	1	4	0	2006
1	2	0	323	2008
1	2	4	0	2007
2	1	38	0	2005
1	1	48	298	2006
5	2	47	0	0
1	2	18	0	2005
1	2	60	0	2007
1	2	53	306	2007
1	2	24	306	2006
1	2	9	305	2009
1	2	60	296	0
5	2	72	0	0
1	2	24	0	2006
1	2	7	293	2007
1	2	72	320	2007
1	1	7	322	2006
1	1	71	299	2007
1	2	0	0	2009
1	2	76	293	2008
1	2	4	296	2009
1	1	0	307	2009
1	1	24	318	2006
1	1	60	306	2006
2	1	24	0	2005
1	2	93	305	2009
5	1	11	0	0
1	2	23	316	2008
1	2	48	297	2006
1	1	48	0	2007
1	1	12	0	2007
2	1	76	0	2005
1	2	60	296	2009
1	1	0	306	2007
1	1	4	296	2009
1	1	28	0	2006
1	1	4	0	0
2	0	38	329	2003
1	1	38	0	2007
1	1	24	321	2006
1	2	76	306	2006
1	1	77	299	2007
1	2	60	296	2007
2	2	18	306	2005
1	1	28	298	2008
5	1	80	0	2007
1	1	60	0	2006
2	1	77	0	2005
1	1	11	305	2009
1	2	60	296	2009
1	1	7	322	2009
1	2	13	307	2009
2	2	76	0	2005
1	2	60	296	2008
1	1	1	0	2005
1	2	4	296	2008
1	2	25	310	2008
2	2	78	0	2005
1	2	13	293	2008
1	2	24	330	2006
1	1	76	322	2009
4	2	0	0	0
1	1	77	322	2009
2	2	18	320	2005
1	1	53	318	2008
1	2	73	294	2007
1	2	31	307	2009
4	1	0	0	0
1	2	76	307	2009
1	2	72	294	2007
1	2	0	310	2008
2	1	76	0	2005
1	2	7	293	2008
1	1	7	298	2007
1	2	76	0	2006
1	2	28	0	0
2	2	24	0	2005
1	1	7	293	2007
5	2	28	0	2004
1	1	65	322	2008
2	2	38	0	2005
1	1	28	310	2008
1	2	76	305	2009
1	2	76	293	2007
1	1	3	322	2009
1	0	0	0	0
2	0	0	0	0
1	2	18	293	2007
1	2	66	293	2008
2	1	39	0	2005
1	1	60	0	2008
1	1	5	308	2007
1	2	60	0	2008
1	2	18	0	2005
1	0	0	0	0
2	1	7	306	2005
3	1	28	0	2006
2	1	28	329	2004
1	1	9	293	2008
1	1	28	328	2007
1	2	60	0	2005
1	1	77	0	2005
1	2	39	305	2009
2	2	28	294	2005
1	1	7	307	2009
1	2	51	322	2009
1	1	11	322	2009
1	2	24	306	2006
1	2	32	0	2006
1	1	11	0	2006
1	2	72	0	2006
2	1	11	0	2004
1	1	78	325	2007
1	1	6	306	2006
1	0	63	0	2006
1	1	9	307	2009
1	1	38	310	2007
2	1	60	0	2005
2	1	77	0	2005
2	1	76	0	2005
1	0	0	0	0
1	1	39	293	2006
1	2	5	310	2007
1	1	0	293	2008
1	2	71	306	2005
1	2	6	310	2008
2	0	0	0	0
1	1	0	322	2009
2	1	11	314	2005
1	2	0	322	2009
2	2	18	319	2005
1	2	77	298	2007
1	0	0	0	0
1	1	24	307	2009
1	2	24	0	2005
1	1	6	310	2008
1	2	51	322	2009
1	1	0	322	2008
1	1	60	296	2007
1	1	65	293	2008
1	1	0	292	2008
5	1	53	0	2008
1	2	77	298	2008
2	2	24	0	2004
1	2	77	297	2008
1	2	73	322	2008
2	1	82	0	2004
1	0	0	0	0
1	2	45	296	2009
2	1	6	0	2005
2	0	0	0	0
1	1	4	0	2007
1	1	38	322	2009
1	1	7	297	2008
1	0	0	0	0
1	1	4	296	2007
2	1	28	0	2005
1	2	60	296	2009
2	1	24	0	2005
1	2	4	0	2006
1	1	76	322	2009
1	0	23	0	2006
1	2	86	0	2005
1	0	48	306	2005
1	1	4	296	2008
1	1	7	306	2006
1	1	65	299	2008
1	2	6	322	2008
1	1	43	292	2008
1	2	76	305	2009
1	2	60	310	2008
2	1	24	0	2005
1	1	13	0	2009
1	2	48	322	2009
1	2	0	307	2009
1	2	48	325	2007
2	0	0	0	0
1	1	9	0	2006
1	1	78	0	2006
1	1	80	307	2009
1	2	9	322	2009
1	2	65	325	2008
1	2	82	0	2007
1	2	38	0	2006
1	1	7	305	2009
1	1	38	292	2006
1	1	77	325	2006
2	0	0	0	0
1	1	4	296	2009
2	2	38	0	2003
1	2	51	327	2007
1	1	0	0	2006
1	1	53	294	2008
1	2	11	300	2007
2	1	65	0	2005
1	2	76	327	2005
1	2	7	293	2008
1	1	4	0	2009
1	1	48	294	2007
1	1	24	0	2005
1	2	76	0	2007
2	2	18	0	2005
1	0	0	0	0
1	1	53	318	2007
1	2	45	0	2008
2	2	24	0	2004
1	2	24	306	2006
1	2	7	322	2009
1	2	91	325	2008
1	2	0	293	2008
1	2	24	322	2009
1	2	13	322	2008
2	1	84	0	2005
1	2	78	293	2006
1	1	1	0	2007
1	1	65	307	2009
1	1	62	0	2006
2	1	38	0	2005
1	1	28	305	2009
1	1	53	306	2007
1	1	5	0	2006
1	1	0	0	2007
1	2	39	320	2006
2	1	28	0	2005
2	2	39	0	2005
1	2	51	0	2006
2	1	9	299	0
1	1	0	325	2008
1	1	24	293	2008
1	2	78	322	2004
1	2	25	0	2006
1	2	25	306	2006
1	1	76	293	2008
4	0	0	0	0
1	2	7	325	2008
1	1	12	328	2006
1	2	7	306	2008
2	2	0	0	0
5	2	51	0	2007
1	2	48	293	2007
1	0	0	0	0
1	1	76	304	2007
2	0	77	0	2004
1	1	77	306	2008
1	1	4	0	2006
5	2	73	0	0
1	1	46	293	2006
1	2	76	305	2009
1	2	7	0	0
2	2	50	330	2005
1	2	72	305	2009
1	2	7	306	2006
1	2	62	296	2007
1	2	9	298	2006
1	0	76	310	2008
1	2	18	305	2009
1	1	1	296	2007
1	1	0	322	2009
1	2	63	296	2008
1	2	66	307	2008
1	2	24	322	2009
1	1	77	314	2006
1	2	77	325	2006
1	1	14	307	2009
1	1	76	0	2007
1	1	77	305	2009
1	2	0	0	2008
1	1	24	0	2007
2	0	0	0	0
2	0	83	0	2005
1	2	76	310	2007
2	2	0	0	2005
1	2	39	325	2008
1	1	28	318	2007
1	2	0	0	2008
1	2	72	306	2007
1	2	51	293	2007
1	2	24	293	2007
1	1	77	314	2006
1	1	60	296	2008
1	1	7	322	2009
1	0	0	0	0
1	2	60	298	2007
2	2	25	0	2005
1	2	53	307	2009
1	0	28	0	0
5	0	0	0	0
1	1	7	307	2009
1	2	4	296	2008
5	2	25	0	2007
1	1	26	0	0
1	1	66	322	2008
1	1	84	298	2008
1	2	77	319	2007
1	0	0	0	0
1	2	0	0	2007
1	1	53	306	2007
2	1	55	0	2005
1	2	77	0	2006
2	2	25	0	2005
2	2	0	0	1982
2	0	38	0	2005
1	2	0	322	2009
1	1	0	0	0
1	2	0	325	2008
1	1	77	293	2008
1	0	62	296	2007
1	1	0	0	2007
1	2	4	296	2007
2	2	25	303	2004
1	2	72	296	2009
1	2	11	293	2006
2	1	78	0	2005
1	2	0	322	2009
5	0	0	0	0
2	0	4	0	0
1	2	53	305	2009
1	2	0	322	2009
1	1	0	305	2009
1	2	24	293	2007
5	2	53	0	2006
1	1	7	0	2006
1	2	9	305	2009
1	1	38	305	2008
1	1	7	322	2009
2	1	78	304	2005
1	2	0	305	2009
2	1	3	0	2005
1	2	45	0	2008
1	1	4	0	2008
1	1	9	293	2007
1	1	28	322	2009
1	2	0	322	2009
1	2	60	0	2007
1	2	76	328	2006
1	2	26	322	2009
1	2	39	293	2008
2	2	76	0	2004
2	2	39	0	2004
1	2	73	310	2008
1	1	77	0	2007
1	1	81	0	2006
1	2	4	0	2009
1	1	14	322	2004
1	1	84	293	2008
1	1	60	0	2007
1	1	0	0	2007
1	2	39	302	2008
1	1	0	322	2009
1	2	14	307	2009
1	2	48	298	0
1	2	60	0	2007
2	2	76	319	2004
1	1	7	322	2009
1	2	0	322	2009
1	1	65	322	2008
1	2	7	290	2005
2	2	84	0	2004
5	2	14	0	0
1	2	76	306	2007
1	2	11	293	2007
1	1	65	306	2006
1	1	77	307	2009
2	2	25	0	2005
2	1	11	0	2004
1	1	7	322	2007
1	2	25	307	2008
1	2	13	0	2007
1	2	7	322	2008
1	1	65	293	2007
1	2	11	0	2007
1	1	28	307	2008
1	2	0	305	2009
1	2	25	322	2009
2	2	76	0	2005
1	1	9	0	2007
1	2	24	296	2006
1	1	38	298	2006
1	2	54	293	2008
1	1	65	298	2007
2	2	77	0	2005
1	2	72	293	2006
1	2	76	0	2007
1	2	72	327	2006
2	0	9	0	2005
1	1	7	322	2009
1	1	65	306	2006
1	2	6	325	2007
5	2	62	0	0
1	1	13	294	2008
1	1	77	310	2008
1	2	65	307	2009
1	1	0	0	2008
1	1	65	304	2006
1	1	13	0	2006
1	2	0	298	2008
1	1	24	305	2009
1	1	59	0	2006
1	2	0	0	0
1	1	7	306	2006
1	2	45	0	2008
1	1	77	325	2008
1	2	39	306	2007
1	1	31	325	2008
1	1	12	299	2006
1	1	0	307	2008
1	2	72	291	2007
1	1	48	298	2007
1	1	61	0	2005
1	1	6	0	2007
1	0	0	0	0
1	2	0	316	2007
1	1	77	0	2007
3	2	75	0	0
1	1	3	0	2006
1	2	24	298	2007
1	1	51	293	2008
1	2	75	305	2008
1	2	24	298	0
1	0	0	0	0
5	2	18	0	2007
1	2	24	305	2009
1	1	0	322	2009
2	2	65	0	2003
5	2	65	0	2004
2	2	90	328	2010
1	2	3	322	2009
1	2	13	307	2009
1	2	7	307	2009
1	1	76	293	2008
4	1	65	0	0
2	2	39	330	2005
1	1	77	0	2007
1	1	5	298	2007
1	1	65	322	2007
2	2	53	327	2004
1	2	18	306	0
1	1	6	0	2007
1	1	28	299	2006
1	2	24	323	2005
1	1	11	305	2008
1	2	65	295	2008
1	2	28	297	2006
1	0	17	306	2006
1	1	53	0	2006
5	2	48	0	0
1	2	7	322	2008
1	0	0	0	0
1	2	65	0	2005
1	2	65	0	2007
2	1	82	293	2004
1	1	84	314	2006
1	1	11	293	2008
5	2	25	0	0
1	1	4	296	2008
1	1	6	322	2009
1	1	71	298	2007
1	2	51	325	2008
1	2	60	296	2008
2	1	48	293	2005
1	2	9	322	2009
1	2	85	0	2007
1	1	19	293	2005
1	2	14	306	2007
1	2	0	293	2007
1	1	7	322	2009
3	1	89	322	1901
1	2	76	327	2007
5	1	60	0	2007
1	2	24	330	2007
1	2	45	0	2008
1	1	7	293	2007
5	2	25	298	2005
1	2	76	298	2007
1	2	48	0	2005
1	2	28	290	2006
5	1	60	0	0
1	2	7	0	2008
1	2	4	296	2006
1	1	9	306	2007
1	1	9	292	2006
1	1	28	0	2008
1	2	51	293	2008
1	2	45	296	2007
2	0	0	0	0
1	1	0	0	2009
1	2	65	325	2007
1	2	76	305	2009
1	2	77	293	2008
5	2	78	0	2005
1	1	80	297	2007
1	1	5	298	2008
1	1	50	322	2009
1	0	0	0	0
1	2	55	310	2007
1	2	9	0	2006
1	1	7	293	2008
1	2	53	322	2009
1	1	60	296	2008
1	2	51	293	2008
1	1	0	322	2009
1	1	77	293	2007
1	1	65	303	2007
1	2	7	0	2007
1	2	0	322	2009
1	1	28	329	2005
2	1	31	0	2005
2	2	83	0	0
1	1	77	322	2007
1	1	9	305	2009
1	2	76	293	2006
1	1	77	297	2008
1	0	0	0	0
1	1	24	322	2009
1	1	7	298	2008
1	2	4	296	2007
1	2	9	306	2006
1	1	60	296	2006
1	0	0	0	0
1	0	0	0	0
2	2	60	0	2003
1	2	51	0	2006
1	1	24	293	2009
1	2	4	0	2006
1	1	0	305	2009
1	1	11	0	2007
1	2	28	305	2007
1	1	60	296	2009
5	1	9	0	2005
2	2	24	0	2003
1	2	25	298	2008
1	2	24	0	2006
2	1	7	294	2005
1	1	60	0	2006
2	2	28	0	0
1	1	11	0	2006
1	2	72	310	2004
1	2	6	294	2007
1	2	7	302	2008
2	1	28	0	2005
1	1	76	0	0
1	2	28	322	2009
2	2	18	0	2005
1	2	76	0	2007
1	1	43	0	2006
1	2	60	296	2006
1	2	31	0	2006
1	2	25	322	2009
1	1	11	306	2008
1	2	65	306	2005
1	2	24	0	2008
1	0	7	294	2007
1	2	0	307	2008
1	2	31	293	2008
1	2	65	0	2006
1	1	39	298	2006
2	2	39	306	2005
2	1	1	298	2004
1	2	0	322	2008
1	2	77	310	2007
1	1	77	310	2008
1	1	77	322	2009
1	2	13	305	2008
1	2	18	322	2009
1	2	39	0	2005
1	2	24	305	2009
2	1	86	0	2005
1	1	65	306	2007
1	1	0	305	2009
1	1	60	0	2007
2	1	7	0	2005
1	2	76	327	2007
1	2	7	327	2007
1	2	66	298	2007
1	1	76	322	2009
1	2	24	322	2009
1	2	24	297	2008
2	1	32	0	2005
1	2	48	293	2008
1	1	0	325	2008
1	1	72	298	2007
1	1	60	296	2008
1	2	0	315	2006
1	2	28	317	2007
1	2	0	305	2009
2	2	82	0	2007
1	1	24	310	2007
1	2	11	322	2009
1	1	85	293	2007
1	2	32	293	2007
1	2	66	307	2009
1	1	7	298	2008
2	1	0	0	0
1	2	66	293	2007
1	1	7	322	2009
4	2	0	0	0
1	2	59	322	2009
1	2	59	322	2009
5	2	24	0	2005
1	1	32	293	2006
2	1	77	0	2004
2	2	77	0	2005
2	1	7	0	2005
2	1	71	0	2003
1	2	4	296	2008
2	2	11	0	2005
1	2	66	325	2007
1	2	7	306	2006
1	1	39	0	2006
5	1	4	296	2006
1	1	6	298	2007
1	2	77	322	2009
1	1	0	0	2008
1	2	76	307	2009
1	1	48	293	2006
1	0	82	0	2006
1	2	39	324	2007
2	1	60	0	2005
5	1	39	0	0
1	2	0	0	2006
1	1	7	307	2009
1	1	80	298	2006
1	1	28	325	2006
1	1	48	304	2008
1	2	45	0	2006
1	2	18	325	2007
2	2	13	0	2005
1	2	24	305	2008
2	0	0	0	2005
1	2	18	0	2006
1	1	74	322	2009
1	2	24	316	2006
3	2	7	298	1927
1	1	82	305	2009
1	2	0	293	2008
1	2	24	307	2009
1	1	36	322	2008
1	2	71	0	2008
1	2	9	307	2009
1	2	14	316	2005
1	0	77	0	0
1	2	76	293	2007
1	2	77	323	2006
1	1	79	0	2006
1	2	9	322	2008
1	2	24	297	2006
1	1	4	296	2009
2	2	24	0	2005
1	1	4	296	2009
2	1	24	0	2005
1	1	60	0	2006
1	2	4	296	2008
1	2	51	322	2009
1	2	45	0	2009
1	2	18	305	0
2	2	28	291	2003
1	2	24	322	2006
1	2	76	300	2006
1	2	4	296	2009
2	2	12	0	2004
1	2	51	305	2006
1	2	51	307	2009
1	1	0	0	2008
1	2	76	325	2008
1	2	66	322	2009
1	1	9	293	2006
1	1	0	322	2009
1	1	11	0	2007
1	1	6	0	2007
1	2	51	0	2006
1	1	71	293	2006
1	2	60	0	2008
1	1	83	293	2004
1	0	0	0	0
1	2	39	0	2006
1	1	0	322	2009
1	1	59	307	2009
2	2	45	296	0
1	1	76	298	2008
1	1	57	322	2008
1	2	24	298	2008
1	1	0	297	2008
1	2	13	322	2008
1	1	39	322	2009
2	2	59	0	2005
2	2	89	0	2005
2	2	18	0	2005
1	2	24	306	2005
2	2	0	0	2006
1	2	18	303	2007
1	1	28	306	2006
1	1	14	298	2006
1	1	53	322	2009
1	1	60	0	2007
1	1	0	322	2009
1	2	25	295	2006
1	1	38	293	2008
1	2	13	317	2007
5	1	60	0	0
1	1	76	325	2007
1	1	7	322	2009
1	2	77	305	2009
1	2	48	297	2008
1	1	78	322	2009
1	2	18	297	2007
1	1	7	322	2009
1	1	60	296	2007
1	2	51	322	2009
2	1	24	0	2004
5	2	53	0	2008
1	2	9	298	2008
1	2	48	293	2008
1	1	28	305	2009
1	2	82	293	2005
1	2	50	317	2008
1	1	31	322	2009
1	2	39	297	2007
1	2	60	0	2006
1	1	77	305	2009
1	2	66	298	2006
2	2	73	0	2005
1	2	72	293	2008
1	1	11	314	2006
1	1	31	297	2006
1	2	6	305	2009
1	1	28	322	2009
1	2	76	293	2008
1	1	0	305	2009
2	1	39	314	2005
1	1	72	322	2009
1	2	9	310	2006
1	1	0	0	2009
1	1	24	298	2007
1	2	45	0	2006
1	1	13	306	2007
1	2	18	310	2008
1	2	0	298	2007
4	2	0	0	0
1	2	77	0	2005
1	1	78	0	2005
1	2	0	322	2009
1	2	18	298	2008
1	0	77	318	2006
2	2	18	0	2004
2	1	43	0	2005
1	1	7	294	2007
1	1	28	322	2009
1	2	77	310	2008
1	1	0	322	2009
1	2	72	306	2006
2	1	28	0	2005
1	1	4	296	2009
1	2	0	322	2008
1	2	13	0	2008
1	2	24	322	2008
2	2	82	0	2005
1	2	71	293	2008
1	1	9	305	2009
1	1	4	0	2009
1	2	82	320	2006
1	1	11	293	2008
1	2	4	296	2009
1	2	31	0	2006
1	1	77	325	2008
1	2	76	293	2008
1	2	9	0	2006
1	1	0	0	2008
5	2	4	0	2007
2	1	82	0	2005
1	1	28	322	2009
1	2	0	305	2009
2	1	77	0	2005
1	2	77	325	2008
1	1	4	296	2008
1	2	24	323	2006
1	2	24	0	2006
1	2	28	0	2006
1	1	11	293	2007
2	2	66	0	2005
1	1	59	298	2008
1	2	28	0	2008
1	1	4	296	2007
1	1	76	0	2007
1	2	60	296	2008
1	1	7	322	2009
1	1	6	306	2006
1	1	76	293	2008
1	1	28	318	2006
5	2	25	0	0
1	0	0	0	0
5	2	80	0	0
1	2	72	322	0
1	2	24	306	2006
1	2	0	322	2009
1	0	0	0	0
2	2	7	306	2005
1	2	62	307	2009
2	1	59	0	2005
1	1	11	310	2007
1	2	24	327	2006
1	2	7	293	2007
1	2	11	0	2008
1	1	11	293	2006
1	2	25	293	2005
1	2	24	305	2009
1	2	80	322	2009
2	2	24	0	2005
2	1	28	0	2005
1	2	0	305	2009
1	1	0	322	2008
1	1	0	322	2008
1	1	15	306	2007
1	2	72	307	2009
1	2	9	306	2008
1	2	50	298	2006
1	2	66	295	2007
1	2	66	298	2008
1	2	7	325	2007
1	1	11	298	2006
1	1	71	294	2006
1	1	5	322	2009
2	1	28	0	2005
1	2	4	0	2006
1	2	48	305	2009
1	2	3	328	2006
1	1	60	0	2007
1	1	39	306	2006
1	1	38	0	2008
4	0	0	0	0
1	2	6	307	2009
1	1	7	293	2006
1	2	48	0	0
1	2	89	310	2007
2	2	24	0	2005
1	1	76	293	2005
1	1	28	293	2008
1	1	73	307	2009
1	2	24	323	2006
1	2	39	293	2008
1	2	66	293	2008
1	1	62	0	2007
1	2	62	296	2008
1	1	24	322	2009
1	0	4	296	2008
1	1	72	0	2005
1	1	11	310	2008
1	2	76	293	2006
1	0	0	0	0
1	2	49	325	2007
2	1	78	322	2005
1	2	18	322	2009
1	2	14	320	2008
5	2	14	0	0
1	1	0	305	2008
1	1	0	322	2009
1	1	7	310	2008
1	2	25	0	2007
4	1	0	0	0
1	1	22	322	2009
2	2	11	0	2004
1	0	0	0	0
1	2	11	293	2008
1	2	60	296	2008
1	2	9	305	2007
2	2	0	327	0
5	1	14	326	2007
1	2	0	325	2008
1	1	51	292	2006
1	1	0	305	2009
1	1	7	297	2008
1	1	77	322	2009
1	2	9	0	0
1	2	77	298	2008
1	2	51	293	2006
2	2	60	305	2003
1	1	3	322	2009
1	2	53	305	2009
2	2	76	0	2005
1	2	34	310	2008
1	0	39	0	2007
1	1	7	306	2006
1	1	53	310	2008
1	2	24	0	2009
1	1	9	322	2009
1	1	38	328	2007
1	2	82	323	0
2	2	24	0	2005
1	1	6	318	0
1	1	6	322	2009
1	1	11	305	2007
2	1	24	318	2005
2	2	24	0	2005
1	2	76	316	2006
1	1	29	307	2008
2	2	76	0	2005
1	2	60	0	2008
1	0	72	306	2006
1	2	24	325	0
2	1	86	293	2005
1	2	7	322	2009
1	2	4	296	2009
1	2	60	293	2007
5	0	25	0	0
1	1	78	298	2008
1	1	13	322	2009
2	2	76	0	2005
1	1	39	0	2008
1	1	0	0	2006
1	2	77	306	2006
2	2	0	0	2004
1	2	51	310	2008
1	2	53	322	2009
1	1	24	294	2008
1	1	0	307	2009
1	1	0	310	2007
1	2	73	307	2009
2	2	82	320	2005
1	1	15	322	2009
1	1	77	305	2008
5	1	0	0	2005
1	1	73	305	2007
1	1	5	0	2005
2	1	24	0	2004
1	2	25	290	2007
2	2	59	298	2005
1	2	60	296	2007
1	2	24	293	2008
5	0	51	0	0
1	2	51	322	2009
1	2	27	322	2009
2	2	51	0	2004
1	2	65	0	2007
2	1	28	0	2005
1	2	62	296	2008
1	1	32	325	2008
1	1	7	293	2008
1	1	53	322	2009
1	1	39	307	2009
1	1	39	294	2006
1	2	51	300	2006
1	1	38	306	0
1	1	7	322	2009
2	1	0	0	0
1	1	77	318	2007
1	1	14	322	2009
1	2	24	297	2006
1	2	0	0	2008
2	1	24	0	0
1	1	65	0	2006
1	2	76	322	2006
5	2	0	0	2007
1	2	25	297	2006
1	1	4	296	2009
1	0	0	0	0
1	1	11	306	2006
1	2	43	310	2006
1	1	7	307	2009
1	2	51	322	2009
1	2	0	305	2009
1	2	45	0	2007
1	1	60	305	2009
1	1	77	307	2008
1	2	0	294	2008
1	1	7	0	2008
1	1	39	298	2008
1	2	60	296	2009
1	1	39	0	2006
1	1	1	306	2006
1	1	53	305	2009
1	1	11	318	2006
1	1	77	298	2007
1	1	7	322	2009
2	1	14	0	2004
1	2	66	307	2009
1	2	61	296	2008
1	2	0	322	2008
2	1	60	0	0
1	1	28	310	2008
1	2	63	296	2006
1	1	77	322	2009
1	1	77	298	2008
1	2	76	291	2008
1	1	53	325	2008
2	1	4	0	2005
1	0	0	0	2006
1	1	0	322	2009
1	1	0	305	2009
1	1	48	297	2006
1	0	11	0	2007
1	1	39	0	2006
1	1	34	294	2007
2	1	28	0	0
2	0	82	0	2005
2	1	76	0	2004
1	2	24	306	2005
1	1	7	306	2005
1	1	77	0	2009
2	1	76	0	2004
1	1	24	322	2009
1	0	0	0	0
1	1	0	325	2008
1	1	65	298	2007
1	1	77	306	2007
2	2	84	0	2005
1	2	53	297	2006
1	2	46	298	2007
1	2	75	306	2008
1	2	76	298	2008
5	1	62	296	2005
1	2	76	293	2008
1	2	18	305	2009
1	2	77	322	2009
1	1	39	322	2009
1	1	80	305	2008
5	2	53	0	2008
1	2	66	293	2008
1	0	9	0	2005
2	1	78	0	2005
1	1	9	293	2008
1	2	28	305	2008
1	1	0	307	2009
1	1	71	0	2009
1	1	28	325	2008
1	1	77	307	2008
1	2	28	298	2007
1	2	51	293	2008
2	1	28	0	2005
1	1	0	322	2009
1	1	0	293	2008
1	1	9	297	2008
2	2	60	0	2003
1	1	77	293	2008
5	0	93	0	2006
1	0	24	298	2005
1	1	28	0	2007
1	1	28	322	2009
1	1	48	306	2006
2	2	25	306	2005
1	2	0	294	2008
1	1	65	306	2007
1	2	24	330	2006
1	1	53	322	2008
1	1	9	305	2009
1	1	53	305	2009
1	2	30	0	2007
2	1	11	0	2005
1	2	66	306	2006
1	1	7	297	2008
2	1	11	0	2004
2	1	79	0	2005
5	2	72	0	0
1	2	24	0	2007
1	0	0	298	2008
2	1	7	303	2004
1	2	60	298	2008
1	2	31	325	2008
1	2	82	0	2006
5	2	66	320	2005
1	2	25	306	2006
1	1	60	310	2008
1	2	28	306	2008
1	1	4	0	0
1	1	82	306	2006
1	1	11	322	2005
1	2	25	0	2006
1	1	7	322	2009
2	1	9	318	2005
2	1	9	0	2005
2	2	39	0	2004
1	2	0	322	2009
2	2	29	0	2005
1	1	4	296	2008
1	2	24	322	2009
1	0	0	0	0
1	1	7	322	2008
1	2	76	306	2006
1	1	77	306	2006
1	1	28	310	2007
1	1	39	0	2007
1	2	24	293	2007
1	2	4	296	2007
1	0	0	0	0
1	1	28	303	2008
1	2	9	298	2008
1	1	82	328	2007
1	1	82	0	2006
1	2	76	293	2008
1	1	11	306	2005
2	2	76	0	2005
1	1	0	0	2004
1	1	53	0	2007
1	2	6	322	2008
1	1	60	0	2008
1	1	28	0	2007
1	2	0	293	2008
1	1	77	0	2009
1	1	7	325	2007
1	1	78	322	2009
1	2	60	0	2008
1	1	7	299	2006
1	2	11	305	2009
2	2	53	0	2005
1	2	18	305	2008
1	2	72	293	2008
1	2	24	319	2006
1	2	4	0	2006
1	1	7	310	2008
5	2	27	326	2004
1	1	11	318	2007
1	2	9	322	2008
1	2	72	306	2006
1	2	18	325	2008
1	2	26	322	2009
2	1	39	0	2005
1	2	24	307	2008
3	2	63	0	0
1	2	18	322	2009
1	2	85	330	2006
1	1	51	0	2008
1	2	6	0	2007
2	1	76	0	2005
1	1	0	322	2009
1	2	53	322	2009
1	2	80	306	2006
1	1	76	305	2009
1	2	7	305	2008
1	1	23	310	2008
1	1	39	306	0
2	2	24	0	2005
1	1	82	0	2006
2	2	0	298	2005
1	1	0	322	2009
1	2	76	325	2008
1	1	28	0	2007
1	2	18	298	2006
5	2	25	0	2005
1	2	25	310	2008
1	1	77	304	2008
1	1	22	0	2009
1	1	60	296	2009
1	1	28	0	2008
1	2	18	307	2009
4	0	0	0	0
1	2	51	0	2009
1	1	65	0	2007
1	2	71	297	2008
1	1	0	322	2009
1	1	13	292	2006
5	1	24	0	0
1	2	76	306	2006
1	1	77	306	2007
1	2	0	293	2008
1	1	28	310	2007
1	2	28	0	2005
1	2	9	0	2006
5	2	9	0	2004
1	1	65	292	2007
1	1	28	308	2007
1	2	7	298	2007
2	1	77	306	2005
1	2	4	0	2008
1	1	59	306	2007
5	2	93	0	2006
1	2	9	0	2008
1	2	49	0	0
1	2	25	297	2008
2	1	80	0	2005
1	2	60	0	2006
1	1	7	298	2007
1	2	76	0	2006
1	2	31	322	2009
1	2	24	0	2006
1	2	65	297	2008
1	2	39	0	2007
1	1	79	310	2008
1	2	9	307	2008
1	1	4	296	2009
1	1	9	0	2007
1	0	0	294	2008
1	1	4	296	2008
2	2	33	0	2005
1	1	11	0	0
2	2	25	0	2005
2	1	29	0	2005
2	1	7	304	2005
1	1	59	308	2006
1	2	24	293	2008
1	1	24	0	2007
1	1	0	306	2008
1	1	60	322	2007
1	0	0	0	0
2	2	24	0	2005
1	1	79	0	2008
1	1	4	296	2009
1	1	28	298	0
1	0	0	0	0
1	2	4	296	2009
1	2	60	296	2008
1	2	77	330	2007
2	2	51	0	2005
1	1	28	322	2009
1	1	17	293	2008
1	1	12	293	2007
1	2	45	0	2007
1	1	78	298	2008
1	1	38	0	2006
1	0	0	0	0
1	1	11	293	2008
2	2	65	0	2005
2	0	0	0	0
1	0	0	0	0
1	2	24	306	2005
1	1	77	298	2007
2	1	28	0	2005
2	2	51	0	2005
1	2	39	298	2005
1	1	0	322	2009
1	1	85	314	0
1	0	0	0	0
1	1	58	297	2007
1	0	32	0	2005
1	1	0	307	2007
1	2	4	296	2008
1	2	39	305	2009
2	2	11	297	2005
1	2	48	0	2006
1	2	89	305	2008
1	1	60	0	2008
1	2	39	310	2006
1	1	76	306	2007
1	2	31	306	2006
1	2	90	0	0
1	2	51	322	2009
1	1	0	307	2009
1	2	0	293	2008
1	2	76	0	2006
2	1	51	320	2005
1	1	0	305	2009
1	1	7	297	2006
1	2	77	0	2007
2	1	14	0	2005
1	2	53	322	2009
1	1	71	307	2009
5	0	0	0	0
1	2	0	322	2009
1	2	9	305	2009
1	1	0	305	2009
1	2	2	322	2009
2	2	18	0	2005
2	2	39	293	2004
1	2	7	322	2009
2	1	28	0	2005
1	1	78	307	2009
3	2	60	0	0
1	2	7	330	2008
1	1	7	322	2009
1	2	4	296	2007
1	2	60	0	2007
1	1	76	306	2006
5	2	53	0	2007
1	1	60	0	2009
1	1	0	321	0
1	2	51	306	2006
1	1	34	307	2008
1	1	1	305	2009
1	2	76	325	2006
1	1	72	305	2009
1	1	24	298	2007
1	2	51	0	2008
1	2	72	306	2007
1	2	48	322	2009
1	2	76	322	2009
1	1	14	305	2009
1	0	0	300	0
1	2	0	327	2008
1	1	77	325	2008
1	2	24	293	2006
1	1	0	305	2008
1	2	48	0	2008
5	2	25	0	2008
2	1	11	0	2005
1	2	4	296	2008
1	2	76	0	2007
1	2	24	290	2007
1	2	25	325	2008
2	2	7	293	2002
2	2	76	0	2005
1	1	7	307	2006
1	1	66	293	2008
1	2	85	0	0
1	0	0	0	0
2	2	27	298	2005
1	1	46	306	2006
1	1	80	0	2007
1	1	11	0	0
1	2	76	294	2008
1	1	76	305	2009
1	1	77	304	2007
1	2	28	322	2009
1	2	0	305	2009
1	1	0	0	0
1	0	0	0	0
1	1	0	322	2009
1	2	53	305	2009
1	1	24	293	2008
1	2	44	297	2006
5	1	7	298	2005
2	1	65	0	2004
2	1	9	293	2005
1	1	24	307	2009
5	1	53	0	2004
2	1	0	0	2004
1	2	65	0	2006
1	1	44	293	2007
1	2	18	298	2007
2	2	55	0	2003
1	2	24	293	2007
1	2	0	0	2006
1	1	9	322	2006
2	1	24	318	2005
1	1	77	0	2007
1	2	7	305	2009
1	1	9	322	2009
1	2	0	322	2009
1	1	39	0	2006
1	2	41	325	2007
1	2	46	0	2006
1	2	24	322	2009
1	1	77	322	2009
1	2	76	327	2006
1	2	63	0	2009
2	2	59	0	2005
1	1	82	305	2008
5	2	72	0	2003
2	0	77	0	2005
1	0	0	0	0
1	1	65	304	2007
1	1	0	0	2008
1	1	76	0	2007
1	2	14	306	2006
2	2	0	0	2003
1	2	77	306	2007
1	1	80	314	2006
2	1	9	0	2004
1	2	85	0	2005
1	1	78	294	2006
1	2	0	322	2009
1	1	4	0	2006
5	1	62	294	0
1	2	28	295	2006
1	0	76	290	0
1	2	28	293	2008
1	1	65	294	2007
1	2	72	316	2005
1	2	80	325	2007
3	2	53	310	2008
1	2	6	307	2009
1	2	24	300	2006
1	2	66	0	2005
1	0	0	0	2006
1	1	59	298	2006
1	1	77	322	2008
1	1	23	293	2007
1	2	85	298	2006
1	2	65	320	2006
1	1	0	305	2009
