status	gender	major	dorm	year
1	2	113	342	2006
1	1	0	340	2008
1	2	109	338	2006
1	1	132	330	2008
1	2	110	338	2009
1	2	114	338	2006
1	0	131	0	2006
2	1	95	0	2005
2	1	109	0	2005
2	1	132	0	2005
1	1	132	338	2006
1	1	121	330	2008
1	1	95	330	2008
1	1	118	330	2006
1	1	98	330	2007
1	0	134	0	2007
1	0	0	0	0
2	2	108	0	2005
1	2	95	340	2008
1	2	106	0	0
1	1	131	333	2006
1	1	132	338	2009
1	1	94	338	2007
1	1	0	340	2009
2	2	92	0	2005
1	1	131	335	2008
1	1	131	338	2006
1	2	132	334	2007
2	0	109	0	2005
2	1	90	0	2004
1	2	114	331	2008
1	1	106	334	2008
1	2	129	331	2009
1	1	0	333	2009
2	1	106	0	2005
1	2	131	342	2006
2	0	116	332	0
2	1	93	338	2005
1	1	108	328	2009
1	2	0	329	2008
1	1	94	330	2006
2	2	114	0	2005
1	1	95	335	2008
1	2	134	338	2006
1	1	114	327	2009
2	2	109	342	2005
2	2	106	0	2005
1	2	107	332	2006
1	2	106	333	2009
1	2	135	333	2007
1	2	108	340	2009
1	2	106	331	2009
1	1	105	0	2006
1	1	0	329	2007
1	1	109	0	2005
1	2	131	338	2005
2	2	106	332	2005
1	0	0	0	0
2	1	95	0	2004
1	1	118	330	2009
2	2	114	335	2003
1	2	108	338	2006
2	1	134	331	2005
1	0	120	335	2007
1	1	109	335	2007
1	2	106	338	2009
2	1	132	0	2005
1	1	135	338	2006
1	2	109	340	2009
1	2	114	338	2005
2	2	104	0	2001
5	2	95	0	2005
1	2	108	335	2006
1	2	114	0	2006
1	2	95	340	2008
1	1	130	331	2006
1	2	0	327	2009
1	1	130	340	2009
1	2	0	0	0
1	2	134	0	2007
2	1	118	0	2005
1	1	94	0	2007
1	0	0	0	0
1	1	0	333	2008
1	0	134	338	2006
1	2	94	338	2009
1	1	109	335	2007
2	2	109	342	2005
2	0	135	0	2005
1	2	131	328	2007
4	2	106	338	2006
2	2	134	0	2005
1	1	114	331	2009
1	1	108	340	2008
1	2	95	340	2005
1	0	0	0	2007
1	1	106	0	2007
1	2	108	336	2007
1	2	108	333	2007
1	2	108	0	2006
1	0	120	0	2007
1	1	135	338	2006
1	2	120	328	2006
1	1	109	340	2007
1	1	0	340	0
1	0	90	332	2007
2	2	108	0	2005
1	2	108	338	2009
1	1	0	338	2009
2	1	90	0	2005
1	1	95	333	2007
1	2	95	338	2006
1	1	131	333	2009
1	2	134	330	2008
2	2	106	0	2003
1	2	94	331	2006
1	0	91	340	2008
1	2	106	338	2009
1	2	129	331	2009
1	2	109	333	2006
1	2	92	330	2010
2	2	114	0	2004
2	1	131	338	2005
1	2	131	340	2008
1	2	131	338	2009
1	1	102	338	2006
2	1	114	0	2005
1	1	111	331	2009
1	1	126	332	2007
1	2	106	327	2007
1	1	0	328	2008
1	2	108	340	2009
1	1	131	331	2006
1	1	0	331	2009
1	2	131	328	2009
1	2	130	331	2009
1	1	106	328	2007
2	2	132	0	2001
1	0	91	338	2006
1	1	0	336	2008
1	2	129	338	2007
2	2	108	0	2005
1	1	95	328	2009
1	2	127	328	2009
1	1	95	330	2006
1	1	0	334	2008
1	1	95	340	2008
2	2	114	330	2004
1	2	109	338	2006
2	1	109	0	0
1	2	106	340	2008
1	1	0	340	2008
1	2	130	340	2008
2	1	109	0	2005
2	1	114	338	2004
2	2	108	338	2005
1	2	95	331	2009
1	1	132	333	2008
2	2	108	342	2005
2	2	109	0	2004
2	1	107	0	2005
1	1	132	338	2009
1	1	91	337	2008
3	2	106	340	2008
1	2	104	330	2006
1	1	131	0	2009
1	1	0	0	0
1	0	0	0	0
1	1	132	0	2006
1	1	114	331	2009
1	1	114	338	0
1	1	0	330	2008
1	0	131	331	2007
2	2	131	338	2005
2	1	135	0	2005
1	1	131	335	2007
2	1	90	0	2005
1	1	114	338	2008
1	1	101	333	2006
2	0	129	0	2004
1	2	0	340	2009
1	1	95	0	2006
1	1	121	340	2007
1	2	95	0	2006
3	2	109	0	0
2	1	135	0	0
1	1	114	331	2008
2	2	104	0	2005
1	1	95	332	2006
1	2	104	328	2008
1	2	0	328	2009
1	2	0	338	2006
1	1	106	334	2008
1	1	0	338	2009
1	1	95	338	2006
1	2	132	338	2007
1	2	118	0	2007
2	2	109	0	2003
2	1	109	0	2005
2	1	114	338	2005
1	1	98	340	2009
1	1	0	331	2008
4	1	0	0	0
1	2	131	0	2005
1	2	108	340	2008
1	2	131	342	2007
1	1	132	331	2007
1	0	0	0	0
1	1	109	0	2006
1	1	0	333	2009
1	1	0	336	2008
2	1	108	334	2005
1	2	108	328	2008
1	2	95	330	2008
2	2	135	0	2002
1	1	134	335	2008
2	1	95	0	2005
1	2	135	338	2009
1	2	130	327	2007
1	1	0	0	2007
2	2	100	330	2004
1	1	131	336	2008
2	1	94	0	2005
1	1	136	341	2008
1	2	0	340	2008
1	2	109	337	2008
1	1	0	330	2007
1	1	98	331	2006
1	1	119	332	2009
1	1	132	335	2008
2	2	132	0	2005
2	2	106	338	2005
1	1	95	338	2005
1	1	109	340	2008
1	1	131	340	2008
2	2	106	0	0
1	2	108	327	2008
2	2	104	0	2003
1	1	0	340	2009
1	1	106	333	2009
1	2	95	340	2007
1	1	95	331	2006
1	0	137	0	0
1	2	118	0	2007
1	0	0	0	0
1	2	0	328	2009
2	2	131	0	2005
1	1	0	340	0
1	1	0	338	2009
2	2	109	0	2003
2	2	131	342	2005
1	1	95	332	2006
2	1	109	338	2003
2	2	130	338	2005
1	1	114	332	2009
2	2	106	0	0
2	2	104	0	2005
1	2	130	340	2007
2	1	95	0	2005
1	2	109	342	0
2	2	102	0	2005
2	2	109	331	2005
1	1	0	328	2009
1	2	0	335	0
1	1	134	332	2006
1	2	133	338	2009
1	1	135	340	2008
1	1	0	340	2008
2	2	114	333	2002
1	1	106	0	2006
1	2	108	331	2007
2	1	135	0	2005
1	1	0	0	2008
1	1	93	330	2007
2	1	90	0	2005
1	2	0	338	2009
1	1	109	342	2006
1	1	120	335	2008
1	1	108	333	2009
2	2	131	342	2005
1	1	130	340	2009
1	0	131	0	2007
1	2	0	340	2009
1	1	123	0	2007
1	1	95	338	2006
1	1	114	0	2007
1	1	98	331	2006
1	1	121	340	2009
1	1	90	340	2007
5	1	108	332	2005
1	1	0	328	2009
1	1	95	327	2009
1	0	131	0	0
1	1	106	330	2007
1	2	106	331	2009
1	2	94	340	2009
1	1	95	340	2007
1	1	0	0	2007
1	2	109	331	2007
1	2	109	338	2009
1	0	106	330	0
2	1	132	0	2005
1	1	95	331	2009
1	1	95	338	2006
2	2	95	327	2003
1	2	0	331	2009
1	2	120	337	2008
1	2	94	340	2008
2	1	109	0	2005
2	1	109	338	2005
1	1	95	0	2007
1	2	131	0	0
1	2	106	328	2006
1	2	120	0	2007
1	1	109	328	2009
1	1	120	330	2008
1	1	106	336	2007
1	1	106	340	2008
1	2	99	336	2008
1	2	0	340	2008
1	2	132	338	0
2	1	132	0	2005
1	1	106	0	2007
2	2	97	0	0
2	2	0	0	2005
2	2	114	0	2003
2	2	132	0	2005
1	2	0	340	2008
1	1	0	337	2008
1	2	95	333	2009
1	2	108	338	2006
1	2	106	327	2009
1	0	109	341	2007
1	2	98	0	2008
1	2	114	342	2006
2	0	0	0	0
1	2	118	330	2007
1	2	95	338	2006
1	2	114	338	2007
3	2	114	338	2006
1	0	0	0	0
1	1	120	333	2006
2	0	129	0	2005
1	1	0	340	2008
1	1	132	336	2008
1	2	131	328	2009
1	2	106	340	2008
2	1	95	0	2005
1	2	132	0	2007
1	1	95	340	2007
1	0	0	338	2009
2	1	132	0	2004
1	1	95	340	2007
2	1	103	0	2004
1	1	107	0	2006
1	1	131	332	2007
2	2	94	336	2005
1	1	99	333	2009
1	2	135	334	2008
1	1	134	332	2009
1	2	131	0	2006
1	1	108	340	2008
1	2	135	340	2008
1	2	108	333	2009
1	2	135	0	2006
1	2	114	337	2007
1	1	0	340	2009
1	2	106	327	2009
1	2	130	331	2006
1	2	106	340	2007
1	0	98	0	2006
1	1	127	340	2008
1	2	106	331	2008
1	1	129	340	2009
1	1	95	342	2005
1	0	109	0	2006
1	1	90	340	2008
1	2	125	329	2007
2	1	131	0	2005
2	2	132	0	2004
1	2	0	0	2008
1	0	114	342	2006
2	2	0	0	2003
1	0	109	0	0
1	2	108	336	2007
2	2	136	342	2005
2	1	132	0	2004
1	1	131	338	2006
1	1	131	330	2007
1	1	0	330	2008
2	2	106	338	2005
2	2	114	338	2005
1	1	132	0	2006
1	1	0	328	2009
1	1	91	0	2006
1	2	131	331	2007
1	2	114	0	0
2	0	135	0	2004
2	1	108	338	2005
1	1	122	337	2007
1	1	0	340	2009
1	1	0	0	2008
1	1	132	334	2008
1	1	103	340	2009
1	1	109	338	2006
1	2	114	331	2007
1	1	132	328	2009
1	0	0	0	0
1	2	118	0	2005
2	2	134	0	2005
1	1	95	332	2007
1	2	0	340	2009
1	1	118	332	2007
1	1	91	335	2008
1	2	129	342	2006
1	2	106	342	2005
1	2	108	332	2008
1	2	109	329	2007
1	1	93	331	2009
1	2	132	335	2007
1	2	106	331	2009
2	2	131	0	2005
1	2	0	0	0
2	2	104	0	0
1	2	108	340	2008
1	2	95	330	2008
1	1	135	340	2008
1	1	0	332	2009
1	1	120	338	2006
2	1	94	338	2005
1	2	129	338	2006
1	2	108	338	2006
1	1	0	330	2009
1	1	108	330	2008
1	2	0	328	2008
1	2	120	340	2008
1	2	98	0	0
1	2	131	342	2006
1	1	131	0	2007
1	2	104	338	2006
1	2	107	340	2008
1	2	120	330	2008
2	1	95	0	2005
2	1	131	0	2005
1	1	135	0	2006
1	2	106	342	2006
1	0	132	330	2006
1	1	114	338	2009
1	2	131	331	2008
1	1	131	327	2009
1	2	131	332	2009
1	0	0	0	0
1	1	95	333	2006
2	2	129	0	2005
1	2	95	338	2008
1	1	95	0	2007
1	1	114	342	2006
2	2	93	332	2005
1	2	123	333	2006
2	1	129	0	2005
1	1	135	338	2006
1	1	98	330	2007
1	1	106	336	2008
1	1	95	335	2008
1	1	0	340	2008
2	0	132	0	2005
1	1	0	340	2009
1	1	125	334	2006
1	1	109	0	2006
2	2	95	0	2005
1	2	130	338	2006
1	1	123	328	2009
1	2	129	338	2008
2	1	106	0	2005
1	0	109	0	2007
1	1	114	338	2006
1	2	95	336	2008
1	2	0	340	2009
1	1	132	342	2006
1	1	95	328	2007
1	2	131	340	2008
2	1	108	338	2005
1	1	132	340	2008
1	1	95	0	2008
1	2	109	328	2007
1	1	118	333	2009
1	1	98	336	2008
1	1	131	334	2008
1	2	108	338	2006
1	1	0	333	2009
1	2	111	338	2009
1	2	131	338	2009
2	2	106	337	2005
1	1	92	331	2007
2	1	135	0	2005
1	1	132	0	2006
4	2	0	0	0
1	2	95	331	2006
1	2	131	333	2009
1	1	106	340	2007
1	1	118	336	2007
2	2	106	338	2005
1	2	131	330	2009
1	1	131	334	2008
2	2	131	0	2005
1	2	131	340	2008
1	2	131	340	2007
1	2	114	328	2008
1	2	108	331	2009
1	0	107	0	0
1	2	106	328	2006
1	1	107	340	2008
1	2	129	342	2006
2	1	131	0	2005
1	2	0	340	2009
1	1	131	0	2007
1	2	95	0	2006
2	1	95	0	2005
1	1	108	333	2006
2	2	114	0	2005
1	2	0	332	2008
2	2	114	338	2004
1	0	109	0	2006
1	2	106	338	2006
1	1	95	342	2007
1	1	109	337	2008
1	0	120	0	2006
1	2	130	338	2006
1	1	132	331	2006
1	0	131	338	2006
2	2	108	327	2003
1	2	0	331	2007
1	1	137	340	2008
2	2	106	0	2005
1	0	95	337	2005
1	2	131	340	2008
1	1	118	343	0
2	1	135	0	2005
1	2	118	0	2007
2	1	107	0	2005
2	2	108	0	2000
1	1	109	0	2007
1	0	0	0	0
2	2	0	0	2005
1	1	90	342	2006
1	2	129	328	2009
2	0	0	0	0
1	1	132	332	2007
1	1	106	340	2007
1	2	130	338	2007
1	1	120	328	2008
1	1	95	333	2009
1	1	106	331	0
2	1	132	0	2005
1	2	132	332	2008
1	2	114	340	2010
2	2	129	331	2004
1	2	108	336	2007
2	2	91	0	2002
1	2	131	342	2007
1	2	108	338	2006
1	2	111	342	2006
1	1	131	333	2007
1	2	132	330	2008
1	2	108	333	2009
1	1	95	335	2006
1	0	0	0	0
1	1	131	340	2009
1	2	106	333	2006
1	1	123	332	2006
1	1	93	331	2006
1	2	106	338	2009
1	2	132	341	2007
1	2	0	338	2009
1	2	129	341	2008
1	1	109	332	2009
1	1	108	330	2008
1	2	120	327	0
1	1	0	340	2009
2	1	95	331	2005
1	1	133	340	2007
1	1	0	333	2008
1	1	95	329	2008
1	1	0	327	2008
1	1	135	338	2006
2	1	0	0	1999
1	2	130	340	2009
1	2	0	0	2008
1	2	91	0	2007
1	1	114	333	2006
1	2	103	0	2006
2	2	135	338	2005
1	2	0	338	2009
1	2	0	340	2009
1	2	120	0	2007
1	0	0	0	0
2	2	128	0	2005
2	2	95	0	2005
1	2	135	327	2007
1	2	0	340	2008
1	1	91	341	2008
1	2	132	327	2007
2	0	95	336	2005
1	2	108	338	2009
1	1	0	333	2009
1	1	0	338	2008
2	2	93	0	2005
1	1	95	338	2009
1	2	131	340	2007
2	1	100	0	2005
1	0	0	338	2007
1	2	0	338	2009
1	1	122	338	2006
1	1	106	340	2008
1	1	118	329	2008
1	1	102	338	2009
2	1	91	0	2005
1	2	114	0	2006
1	1	132	0	2007
1	1	118	328	2008
2	1	114	0	0
1	2	108	0	2006
2	1	109	333	2005
1	1	95	327	2009
1	0	0	0	2008
1	2	0	331	2009
2	2	131	327	2005
1	1	95	342	2007
1	1	123	330	2008
1	1	127	328	2007
1	1	117	340	2009
1	2	120	340	2008
1	2	131	0	2006
1	2	135	0	2007
2	0	0	0	0
2	2	106	0	2000
1	2	130	333	2006
1	2	120	327	2007
1	1	123	336	2007
1	1	129	338	2006
1	1	108	330	2008
1	1	134	340	2008
1	2	129	340	2008
1	2	0	331	2009
2	1	109	338	2005
1	1	135	331	2009
1	1	95	0	2006
1	2	131	332	2006
2	2	106	338	2005
1	2	106	332	2006
1	1	108	327	2008
1	2	114	342	2006
1	1	95	328	2007
1	0	0	0	0
1	2	95	333	2006
1	2	108	328	2009
1	1	109	330	2009
2	2	114	0	2005
1	2	0	332	2008
1	1	95	332	2006
1	2	0	333	2009
2	2	109	0	2005
1	1	95	331	2006
1	2	108	0	2008
2	1	134	0	2005
1	2	104	327	2008
1	2	104	328	2007
2	2	132	0	2005
1	2	106	0	2007
1	1	120	0	2007
1	2	109	331	2008
1	1	0	340	2008
1	2	107	331	2005
1	1	108	332	2006
1	1	103	337	2008
2	0	0	0	0
1	1	136	338	2009
2	1	93	0	2005
1	1	109	335	2006
1	2	108	327	2008
1	2	0	338	2008
1	1	95	334	2006
2	1	95	331	2005
1	1	95	0	2007
1	2	131	342	2006
2	2	104	333	2003
1	1	0	331	2008
1	2	114	340	2009
1	2	106	328	2007
1	0	0	0	0
2	2	108	332	2005
1	2	0	327	2009
1	1	95	0	2007
1	2	0	0	2007
1	1	0	330	2009
1	0	132	328	2007
2	1	95	333	2004
1	2	135	337	2007
1	1	90	335	2008
1	1	122	337	2005
2	1	95	0	0
1	0	95	0	2008
1	1	94	331	2009
1	2	135	333	2004
1	1	132	0	2006
5	1	90	0	0
2	0	0	0	0
1	0	0	0	0
1	1	0	330	2009
1	1	0	0	2006
2	2	135	338	2005
1	1	114	0	2006
1	1	100	0	0
2	0	0	0	0
1	1	95	332	2006
1	1	91	338	2008
2	2	95	338	2005
3	0	0	0	0
2	1	126	0	2005
1	1	0	337	2007
1	0	0	0	0
1	2	114	332	2008
1	1	135	328	2009
1	2	122	333	2009
1	2	114	331	2009
2	1	135	0	2005
1	2	130	330	2008
2	2	135	342	2005
1	1	110	340	0
1	1	0	340	2009
2	2	137	0	2005
1	1	131	327	2007
1	1	0	331	2007
2	1	120	338	2003
1	2	131	342	2007
1	1	93	328	2007
1	2	121	332	2006
1	1	129	331	2006
2	2	106	0	2004
1	1	109	340	2008
2	2	95	0	2004
2	2	120	0	2003
1	1	114	334	2008
1	2	98	336	2008
1	2	106	333	2007
1	1	132	334	2007
1	1	118	340	2007
1	2	106	335	2007
1	2	129	336	2008
1	1	0	340	2009
1	2	95	330	2008
1	1	132	340	2008
2	2	104	330	2004
1	2	98	331	2008
1	2	108	331	2006
1	1	0	340	2008
1	0	131	0	2006
1	0	0	0	0
1	1	129	338	2008
2	2	95	333	2003
1	0	0	0	0
6	2	137	327	2010
1	1	135	332	2007
1	1	132	330	2007
1	1	118	342	2007
1	2	130	330	2008
2	1	132	0	2004
2	1	98	0	2005
1	2	132	330	2007
2	2	106	338	2005
1	2	0	0	2008
1	2	98	333	2007
1	1	0	340	2009
1	1	114	334	2007
1	2	106	327	2007
2	1	95	0	2005
1	2	130	330	2008
1	1	120	0	2006
1	2	120	332	2006
1	1	0	331	2008
1	2	135	338	2008
1	2	135	0	2006
1	1	106	331	2009
2	2	126	0	2005
2	1	124	338	2005
1	2	94	340	2009
1	2	132	340	2007
2	2	129	331	2005
1	2	95	333	2009
1	1	109	0	2007
1	1	0	342	2007
1	1	110	331	2006
1	2	0	331	2008
1	1	131	330	2008
1	2	113	0	2006
2	1	131	0	2004
1	1	133	333	2009
1	1	0	338	2009
1	2	106	340	2007
1	1	108	339	2008
1	1	136	331	2006
1	1	131	340	2008
1	2	95	340	2008
1	2	0	327	2009
2	2	120	338	2005
1	2	106	340	2007
1	0	106	328	2008
1	0	103	332	2007
2	1	132	0	2004
1	2	131	336	2008
1	2	132	342	2007
1	1	131	328	2009
1	2	118	328	2007
2	1	94	0	2003
2	2	108	0	2004
2	2	108	0	2005
2	2	122	338	2005
1	0	0	0	0
1	1	101	327	2009
1	1	108	331	2009
2	1	90	0	2005
2	1	107	0	2004
1	2	132	331	2008
2	2	127	0	2004
1	0	0	0	0
1	1	135	332	2006
1	2	131	0	0
2	1	109	0	2005
1	1	0	331	2009
1	1	97	336	2008
2	1	106	0	2005
1	1	0	340	2008
2	1	126	0	2005
1	2	131	340	2008
2	1	114	0	2005
1	1	132	0	2007
2	2	106	0	2005
2	2	131	338	2005
1	1	131	0	2007
1	1	95	338	2006
1	2	108	338	2006
2	2	98	0	2005
2	1	135	0	2005
1	2	131	328	2007
5	2	120	0	2005
2	1	106	0	2001
1	2	0	332	2009
1	1	95	327	2009
2	0	123	342	2005
1	2	95	337	2007
2	2	104	0	2001
1	2	108	331	2008
1	2	108	330	2009
1	2	108	328	2008
1	2	0	331	2009
1	2	129	333	2006
1	1	132	0	2007
1	0	94	336	2008
1	2	109	338	2009
1	1	106	342	2005
2	1	135	338	2005
2	1	135	0	2005
2	0	106	0	2005
1	1	133	333	2009
1	1	132	342	2006
1	1	109	334	2007
1	1	91	337	2008
1	2	0	327	2007
2	2	135	327	2005
1	1	0	330	2009
1	2	95	338	2005
2	2	132	338	2003
1	1	90	331	2007
1	2	109	338	2009
1	1	123	0	0
2	1	111	0	0
2	0	0	0	0
1	2	130	341	2008
2	0	0	0	2003
1	1	90	331	2008
1	2	108	340	2008
1	2	95	333	2009
1	1	108	328	2008
1	1	120	340	2008
1	2	131	331	2009
1	1	108	340	2009
1	1	109	0	2007
1	2	0	338	2009
2	2	114	332	2005
2	2	0	0	2005
2	1	95	339	2005
2	2	95	338	2005
2	0	0	0	0
1	2	92	338	2005
1	0	0	0	0
1	0	98	330	2006
2	2	106	0	2002
5	2	108	332	2005
2	2	120	0	2004
1	2	108	341	2005
1	1	131	342	2007
1	1	95	327	2009
1	1	109	332	2006
2	2	130	330	1994
1	1	0	330	2008
1	0	109	0	2005
1	2	114	0	2007
1	1	109	0	2007
1	1	131	335	2008
1	1	0	328	2009
2	2	95	0	2004
1	1	0	338	2009
1	2	108	0	2007
1	1	131	340	2009
1	0	0	0	0
2	1	109	0	2005
2	2	109	0	2004
1	2	0	0	2008
1	1	108	333	2008
1	1	107	0	2006
1	2	0	328	2008
2	2	108	0	2004
1	2	106	342	2007
1	1	0	340	2008
1	2	0	328	2009
1	2	131	329	2008
2	1	135	0	2005
1	2	131	0	2007
1	1	131	338	2006
2	2	120	330	2005
1	2	129	340	2009
1	1	135	328	2009
1	1	120	330	2008
1	2	108	340	2009
1	1	0	328	2007
1	1	118	334	2007
1	2	118	0	2008
1	2	0	0	0
1	1	0	328	2008
2	0	95	331	2005
1	1	0	340	2009
2	1	109	332	2004
1	2	106	338	2007
1	2	131	0	2007
1	2	0	340	2009
1	2	131	331	2007
1	2	108	331	2008
2	1	95	0	2003
1	2	106	331	2008
2	2	114	0	2005
1	1	132	327	2007
2	2	98	338	2004
1	1	98	331	2009
1	1	94	334	2007
1	2	104	333	2007
1	1	109	330	2006
1	2	109	0	2006
1	0	0	0	2007
1	2	120	337	2008
2	2	131	0	2004
1	1	109	340	2008
1	1	0	335	2008
1	1	117	338	2009
1	2	0	338	2009
1	2	106	338	2006
1	2	131	340	2007
1	1	109	333	2009
2	2	130	0	2003
1	2	129	335	2006
1	1	106	332	2007
1	2	130	328	2009
1	1	109	338	2009
1	1	120	327	2007
1	1	106	0	2006
1	2	129	327	2007
1	1	118	330	2008
1	1	120	332	2006
1	2	0	336	2006
1	1	90	340	2007
1	2	106	327	2009
1	1	0	333	2009
2	2	106	342	2004
1	2	129	331	2006
1	1	0	0	2008
1	2	109	332	2006
1	1	132	331	2008
1	1	132	327	2009
2	1	126	338	2004
1	2	108	327	2009
1	1	131	338	2006
1	1	109	342	2006
1	1	95	331	2006
1	1	0	338	2008
1	1	107	327	2008
2	1	131	0	2005
1	1	135	342	2006
1	0	0	338	2006
1	0	0	0	0
1	0	0	0	0
2	2	94	0	2005
1	0	0	0	0
1	0	0	0	0
2	2	95	338	2005
1	2	0	0	0
2	2	134	0	2004
1	0	0	0	0
2	1	106	329	2003
2	0	127	0	2005
2	2	129	0	2004
2	2	98	0	2005
1	2	130	334	2008
1	1	0	0	2008
1	1	0	340	2009
1	2	93	330	2007
1	2	98	331	2009
2	0	0	0	0
2	0	0	0	0
1	2	130	0	2006
1	2	108	327	2009
1	0	0	0	0
1	2	130	340	2009
2	2	98	331	2005
2	1	132	0	2003
2	2	95	0	2004
2	2	108	0	2002
1	2	127	0	2006
1	1	100	330	2007
1	2	106	328	2009
1	2	106	328	2007
2	2	114	0	2004
1	2	0	331	2009
1	2	131	328	2007
1	2	120	332	2008
1	1	114	333	2006
1	2	135	0	2007
2	1	131	0	2004
1	2	131	0	0
1	1	95	342	2006
2	1	0	0	2005
1	2	131	338	2009
1	1	0	340	2009
2	2	106	0	2005
1	2	95	338	2005
1	1	0	338	2009
1	2	0	338	2006
1	1	94	340	2007
1	1	107	334	2005
1	0	114	335	2007
1	2	95	328	2009
2	1	132	0	2005
2	2	132	342	2005
1	1	135	327	2006
2	2	109	338	2005
1	1	95	336	2008
1	0	0	336	0
2	1	94	0	2004
2	0	0	0	0
1	1	0	338	2009
2	2	129	0	2004
1	2	120	332	2008
1	1	135	0	2006
2	1	106	0	2005
1	1	95	327	2007
2	2	108	331	2005
2	2	123	0	2000
1	2	120	328	2008
1	1	131	340	2006
1	2	0	331	2009
1	2	130	0	2008
2	2	95	0	2005
1	2	109	340	2008
1	1	131	336	2008
1	1	127	328	2007
1	0	131	335	2007
2	2	129	0	2004
1	1	131	341	2008
2	2	125	0	2005
1	2	108	338	2009
1	1	134	328	2007
1	0	0	333	2007
1	0	108	336	2008
1	1	135	0	2008
1	1	125	338	2006
1	1	136	335	2007
2	1	131	0	2005
1	2	108	338	2006
1	1	132	331	2009
1	1	131	327	2009
1	1	114	338	2006
1	1	118	332	2009
2	1	95	0	2005
1	2	95	340	2009
1	1	132	338	2006
1	1	131	327	2009
1	2	132	330	2009
1	1	109	338	2009
1	2	120	327	2009
1	1	136	333	2009
2	1	102	338	2004
1	1	135	333	0
1	2	94	338	2007
2	2	130	0	2005
1	2	130	338	2007
1	1	111	338	2006
1	1	131	340	2006
1	1	109	338	2009
1	2	95	338	2006
1	2	0	331	2008
1	1	95	338	2009
1	2	0	340	2009
1	2	0	340	2008
2	2	108	331	2005
1	2	130	331	2006
1	0	0	0	0
1	1	131	340	2008
1	2	0	333	2009
1	0	111	327	2006
2	1	131	338	2003
1	2	130	338	2010
1	0	0	329	0
2	0	109	0	0
2	1	104	0	2004
2	1	131	0	2003
1	2	95	0	2008
1	2	130	340	2008
1	0	129	338	2006
1	2	108	333	2006
1	1	124	327	2007
1	1	109	0	2007
1	2	132	332	2006
1	1	131	338	2009
1	1	95	328	2008
1	1	118	336	2008
1	2	106	340	2007
2	1	93	0	2005
1	2	104	334	2008
1	2	127	331	2009
1	1	106	338	2007
1	1	114	338	2009
1	2	131	340	2007
1	2	104	0	2007
1	2	108	331	2009
1	2	136	333	2009
1	2	0	0	2006
1	1	132	334	2008
1	2	95	340	2008
2	1	114	0	2005
1	1	131	335	2008
1	1	95	331	2006
1	1	106	327	2007
1	2	118	338	2006
1	2	135	0	2008
1	2	107	333	2006
1	1	135	327	2009
1	2	106	340	2008
1	1	122	0	2006
2	1	92	0	2004
2	1	106	338	2004
1	1	0	0	2008
2	1	131	0	2004
2	1	92	327	2005
2	1	132	0	2005
1	2	0	331	2009
1	2	0	335	2008
1	0	131	328	2007
2	1	131	0	2005
2	2	108	0	2005
2	1	129	0	2005
1	1	94	330	2009
1	1	0	340	2008
2	2	114	0	2004
2	1	95	0	0
1	1	106	330	2009
1	1	0	330	2009
2	1	131	0	2005
1	1	111	340	2007
1	1	109	328	2009
2	1	91	333	2005
1	2	95	340	2008
2	2	108	333	2005
2	2	114	0	2004
1	1	0	0	2008
1	2	0	335	2007
1	1	126	340	2007
1	1	95	342	2007
1	2	133	0	2006
1	1	132	340	2007
2	1	95	0	2003
1	2	114	331	2006
1	1	128	329	2008
1	1	95	340	2007
1	1	131	340	2009
1	2	130	340	2009
1	1	109	338	2009
1	1	101	0	2006
1	2	0	327	2008
2	1	135	331	2005
1	1	0	0	2007
1	1	132	328	2006
1	2	106	334	2008
1	2	98	333	2007
1	1	0	328	2008
1	2	0	338	2008
1	2	129	0	2006
1	2	130	340	0
2	2	120	0	2005
1	1	109	332	2007
1	2	95	331	2009
1	2	0	328	2009
1	2	109	342	2006
1	1	132	340	2008
2	1	106	0	2005
1	2	131	340	2008
1	1	135	338	2009
1	2	106	335	2007
1	2	132	340	2006
1	0	115	333	0
2	1	136	0	2005
1	2	120	327	2007
1	1	0	335	2008
1	1	114	0	2006
1	2	95	331	2008
1	1	95	331	2007
1	1	130	338	2006
1	2	109	0	0
1	1	95	338	2008
1	0	94	334	2007
1	1	0	0	0
1	2	0	332	2008
5	2	131	0	2004
1	1	135	340	2009
1	2	131	331	2009
1	2	95	331	2009
1	1	132	338	2006
1	1	109	331	2006
1	1	108	327	2009
2	2	109	338	2005
1	2	0	328	2009
1	1	114	0	2006
1	1	131	340	2009
1	2	95	337	2008
2	2	118	338	2005
1	1	131	333	2007
1	2	109	0	2005
1	2	108	334	2006
1	1	0	338	2008
1	2	95	340	2008
2	1	136	0	2005
2	1	114	0	2004
1	2	106	342	2006
1	1	133	329	2007
1	2	95	338	2009
1	2	0	338	2008
1	0	0	0	0
1	2	106	331	2008
1	2	131	336	2008
1	0	0	0	0
1	2	114	327	2009
1	2	94	332	2006
1	2	91	0	2006
1	1	109	339	2006
1	1	114	0	2006
1	1	91	0	2007
1	1	0	333	2009
1	2	108	338	2009
1	1	131	0	2006
2	2	106	334	2004
1	1	129	340	2009
1	2	0	331	2009
1	1	129	331	2009
1	1	0	327	2009
1	1	0	0	2008
2	2	108	0	2004
2	1	132	0	2003
2	2	118	0	2005
1	2	114	335	2007
1	0	114	328	2008
1	1	109	340	2009
2	1	97	0	2005
2	2	109	0	2005
1	1	114	331	2009
1	2	106	331	2009
1	1	0	0	2006
1	2	101	335	2008
5	2	120	338	2004
1	1	131	330	2006
1	0	0	335	2007
1	2	95	328	2008
1	1	109	335	2008
2	1	132	0	2003
1	2	0	340	2009
1	0	109	0	2008
1	1	109	0	2006
1	1	135	340	2007
1	2	103	336	2008
1	1	132	336	2007
1	1	132	0	2007
2	1	98	0	2005
1	1	91	331	2009
1	1	131	338	2009
1	1	109	327	2009
2	2	106	329	2004
1	2	95	0	2006
1	2	114	331	2006
1	1	98	340	2007
1	1	109	330	2007
1	2	135	333	2006
1	2	0	340	2007
1	2	106	0	2006
2	2	106	0	2005
4	0	0	0	0
1	2	95	0	2007
2	2	109	0	2005
2	2	114	0	2004
1	1	95	327	2006
1	2	98	0	2006
1	1	109	333	2008
1	2	127	327	2008
1	0	0	338	0
1	2	106	334	2007
1	2	104	336	2007
1	1	109	0	2007
1	1	131	338	2009
1	1	131	338	2009
1	2	106	333	2007
2	2	109	0	2005
2	1	131	0	2005
1	0	0	0	0
1	0	0	0	0
1	1	107	329	2008
1	1	95	328	2006
2	2	109	330	2005
2	1	135	0	2005
1	0	0	0	0
2	2	108	0	2005
1	1	109	338	2006
1	1	131	327	2007
1	2	135	0	2007
2	2	95	338	2005
1	1	95	0	0
1	1	127	330	2008
1	2	109	330	2009
1	1	131	340	2008
1	2	90	329	2007
1	2	95	340	2009
1	0	0	0	0
1	1	0	331	2009
1	1	118	338	0
2	1	114	0	2004
1	2	0	332	2009
2	0	0	0	0
1	2	106	340	2007
2	1	107	342	2005
2	0	131	0	2005
1	2	104	330	2006
1	0	0	0	0
1	1	0	340	2009
1	2	127	335	2008
1	2	129	0	2007
1	1	0	342	0
1	2	108	340	2008
1	2	106	340	2007
1	1	95	336	2008
1	2	0	331	2009
2	2	108	0	2005
1	1	114	333	2008
1	2	129	328	2007
1	1	109	341	2007
1	1	133	338	2008
1	2	107	338	2006
2	1	104	333	2003
1	1	95	0	2007
1	2	136	0	2006
1	2	0	0	2008
1	1	0	340	2008
2	1	95	0	2005
1	2	95	333	2008
1	2	106	331	2006
2	2	131	0	2004
1	1	108	331	2009
2	2	0	330	1988
1	1	131	340	2007
1	2	130	329	2007
1	2	135	0	2007
1	2	134	329	2007
1	2	104	333	2007
2	1	131	0	2005
2	1	132	0	2003
1	2	124	335	2008
2	1	106	0	2004
1	1	95	341	2008
3	0	0	0	0
1	2	0	340	2008
1	2	0	340	2009
1	1	109	0	2005
1	2	131	0	2007
2	2	111	0	2004
1	2	0	329	2008
1	2	120	342	2005
1	2	114	341	2008
1	2	104	338	2006
1	2	131	342	2007
1	1	135	0	2008
1	1	105	340	2009
1	1	130	330	2006
1	2	106	333	2009
1	1	0	330	2008
1	1	132	333	2008
1	1	109	327	2009
1	0	0	0	2007
1	2	0	340	2008
1	1	95	342	2007
2	1	114	0	2005
1	0	120	342	2006
1	0	0	0	0
1	2	106	331	2009
2	1	131	0	2004
1	2	131	340	2009
1	1	114	337	2007
1	1	95	340	2008
1	0	0	0	0
1	2	98	330	2007
1	2	0	328	2008
1	2	95	335	2008
2	1	134	0	2005
2	2	129	333	2002
1	1	95	330	2008
1	0	0	0	0
1	1	0	338	2009
2	1	109	0	2005
1	1	129	342	2006
1	2	0	341	2008
1	2	106	342	2006
1	1	108	331	2007
1	2	120	338	2007
1	1	131	338	2006
1	2	135	338	2008
1	2	129	341	2008
2	2	136	0	2004
1	1	131	340	2009
1	1	118	340	2007
1	2	131	340	2007
1	1	131	327	2008
1	1	118	338	2007
2	1	131	0	2004
1	2	106	340	2008
1	1	95	330	2008
1	1	108	0	2006
1	2	95	333	2009
1	1	0	339	2008
1	2	95	329	2006
1	1	108	340	2008
1	2	96	339	2010
2	1	95	0	2005
2	2	105	0	2005
1	2	95	332	2006
2	1	95	0	2005
2	1	132	0	2005
1	1	135	0	2006
2	1	132	330	2004
1	2	104	335	2007
1	2	108	328	2007
1	1	127	330	2007
1	1	135	335	2007
2	1	132	0	2003
2	1	118	328	2003
2	1	95	0	2004
1	1	109	340	2008
1	1	95	338	2006
1	1	95	336	2006
1	1	111	333	2007
2	0	120	0	2004
1	2	131	332	2006
1	1	95	327	2009
1	1	95	340	2009
1	2	0	340	2009
1	1	120	342	2005
1	1	0	327	2009
1	1	109	340	2009
2	2	106	338	2005
1	0	0	0	0
5	2	100	0	0
2	2	109	0	2005
1	0	0	0	0
1	1	95	336	2008
1	2	0	0	2008
1	2	104	338	2006
1	2	106	340	2007
1	2	0	333	2009
1	2	130	330	2008
1	1	135	333	2008
1	1	132	340	2007
1	2	129	338	2008
1	1	108	340	2009
2	1	130	0	2005
1	1	99	332	2007
2	2	0	0	2003
1	2	101	330	2008
1	1	106	338	2006
1	1	106	335	2007
1	1	109	328	2009
1	0	0	0	0
1	1	106	328	2008
1	1	0	340	2007
1	2	108	327	2008
2	1	114	0	2005
2	1	131	0	2005
1	2	131	333	2009
1	1	118	328	2007
2	1	132	0	2005
1	1	109	327	2009
2	2	104	0	2004
1	1	0	338	2009
1	2	109	0	2008
1	1	0	340	2009
1	1	106	333	2008
1	0	0	0	0
1	1	131	331	2007
1	2	0	331	2008
1	1	129	340	2008
2	1	130	333	2003
1	1	95	327	2006
2	2	109	0	2004
1	2	109	328	2008
1	2	104	331	2008
2	2	132	0	2005
2	1	118	0	2004
1	2	130	328	2009
1	1	0	338	2009
2	1	107	0	2005
1	1	107	328	2007
1	2	131	333	2006
2	1	114	339	2005
2	1	132	0	2004
1	2	131	340	2008
1	0	114	0	2007
1	1	0	0	2007
1	2	101	334	2007
1	2	94	338	2008
1	2	104	340	2008
1	1	131	338	2006
1	1	95	328	2006
1	2	114	342	2006
1	1	91	341	2008
1	1	114	334	2007
1	0	109	0	2006
2	1	95	330	2005
1	2	131	340	2009
1	1	90	333	2006
2	1	106	0	2005
1	2	108	331	2006
1	0	135	338	2006
1	1	0	328	2009
1	2	108	330	2008
1	2	114	337	2006
1	2	134	327	2007
1	0	0	0	0
1	1	98	327	2007
1	1	95	0	2007
1	1	118	331	2009
1	2	131	340	2008
2	2	118	330	1999
1	2	131	331	2009
1	2	131	0	2007
1	0	108	0	2006
1	2	131	334	2007
1	2	0	340	2008
1	2	131	0	2007
2	2	131	334	2005
1	2	0	0	2008
1	1	114	336	2008
2	2	112	0	2005
2	0	101	0	0
2	2	95	0	2005
1	1	120	334	2007
1	2	131	333	0
1	2	109	328	2007
1	2	0	342	2008
1	1	131	342	2007
1	2	108	341	2008
1	2	0	342	0
1	1	0	328	2009
1	1	92	338	2006
2	2	114	342	2005
2	1	109	0	2005
2	2	90	332	2005
1	1	134	338	2007
1	2	131	338	2006
2	2	131	0	2004
1	1	0	0	2007
1	2	120	0	2006
2	1	100	0	2005
1	1	106	333	2009
1	1	91	332	2006
2	1	107	333	2003
1	2	106	332	2007
4	0	0	0	0
1	2	95	340	2009
1	1	0	333	2009
1	1	114	341	2008
2	2	95	0	2003
1	1	0	330	2009
1	2	108	329	2007
1	2	106	331	2006
2	1	132	0	2005
1	2	0	328	2008
1	2	0	340	2009
1	2	109	331	2009
1	1	90	339	2006
1	1	108	328	2006
2	1	95	0	2005
1	1	132	333	2009
2	2	104	0	2003
2	1	95	333	2005
1	2	135	340	2008
2	1	106	338	2004
1	1	106	331	2006
1	1	91	0	2006
1	2	136	329	2006
1	2	130	0	2006
1	1	131	335	2008
2	2	106	0	2005
1	2	90	333	2006
1	2	131	331	2008
1	1	114	340	2008
2	2	95	333	2002
2	1	100	0	2005
1	2	95	327	2009
1	2	114	333	2006
1	2	106	340	2009
1	1	95	342	2007
1	2	106	342	2006
1	1	132	338	0
2	2	134	0	2004
2	2	98	0	2004
1	0	0	0	0
1	1	109	333	2009
1	1	0	332	2009
2	2	108	332	2005
1	1	120	0	2007
1	2	132	334	2007
2	2	104	0	2004
1	2	132	342	2007
1	2	106	336	2008
1	2	132	327	2007
1	2	132	335	2007
1	1	0	340	2009
1	1	0	331	2009
1	1	118	331	2009
1	1	129	331	0
1	1	101	0	2006
1	1	95	330	2007
2	2	106	333	2001
2	1	95	0	2005
1	2	108	340	2007
1	2	92	332	2005
1	2	0	327	2009
2	1	130	0	2005
1	1	0	329	2008
