status	gender	major	dorm	year
1	1	175	60	2008
1	1	0	62	2008
1	1	164	71	2006
1	1	146	67	2008
1	1	0	59	2009
1	1	137	0	0
1	2	147	53	2008
1	1	160	72	2009
4	0	0	0	0
1	2	134	55	2007
1	1	128	67	2006
1	1	144	70	2006
1	1	147	66	2006
1	0	0	0	0
1	2	170	66	2008
1	1	170	55	2006
1	1	0	58	2008
2	1	137	0	2005
1	1	162	0	2006
1	2	0	67	2009
1	1	0	67	2009
1	2	0	0	2009
1	2	164	52	2008
1	1	137	61	2007
1	1	127	0	2008
1	2	147	51	2008
1	2	133	70	2005
2	2	153	0	2004
1	1	0	67	2009
1	0	0	0	0
1	2	134	72	2009
1	1	0	72	2009
1	2	134	60	2007
1	2	134	59	2009
1	1	160	69	0
1	1	125	71	2006
1	2	0	52	2009
1	2	0	72	2009
2	2	144	64	2004
1	0	0	0	0
1	1	160	52	2007
1	1	167	71	2007
1	2	134	67	2009
2	1	125	70	2005
1	2	164	0	2009
1	2	136	55	2009
1	1	166	0	2006
2	1	0	0	2008
1	1	170	62	2007
2	0	166	71	0
1	2	158	54	2007
1	2	137	65	2006
1	0	0	0	0
1	1	0	0	2007
1	2	134	75	2005
1	1	0	67	2009
1	1	168	62	2006
1	2	134	62	2007
1	1	147	67	2008
1	1	0	67	2009
1	1	135	63	2006
1	2	136	0	2007
1	1	166	71	2006
2	2	136	0	2005
1	2	162	0	2006
1	2	162	63	2008
1	2	137	61	2008
1	1	0	72	2008
1	2	162	72	2009
1	0	128	0	2007
1	1	128	75	2006
1	2	134	60	2007
2	1	166	0	2005
1	2	123	51	2007
1	1	134	63	2008
1	2	127	67	2009
1	1	0	67	2009
1	1	0	59	2009
1	2	137	72	2007
1	2	134	57	2007
1	1	166	58	2007
1	1	137	61	2009
2	2	134	0	2005
1	2	127	54	2007
1	2	0	0	2006
1	1	125	62	2008
2	0	0	0	0
1	1	158	57	2008
1	2	148	0	2006
2	1	164	0	2005
1	2	134	63	2006
1	1	144	63	2008
1	1	122	58	2008
1	1	127	0	2009
1	2	122	59	2008
1	1	0	72	2009
1	1	164	68	2006
2	1	134	0	2004
3	2	0	0	0
2	2	137	0	0
1	2	164	57	2008
1	0	0	0	0
1	1	137	55	2009
1	1	0	61	2009
2	2	164	0	2005
2	1	164	0	2005
1	1	127	63	2006
1	2	134	56	2007
2	1	134	0	2005
1	0	134	0	2006
1	1	134	71	2006
1	1	160	54	2008
1	1	0	0	2008
1	1	0	72	2008
1	2	164	62	2006
2	2	136	0	2004
1	1	125	63	2008
1	1	158	0	2007
1	0	137	59	0
1	2	136	62	2007
1	1	164	0	2007
1	2	164	0	2007
1	2	0	0	2009
2	2	127	0	2002
1	1	0	64	2008
1	2	168	51	2007
1	2	0	72	2009
1	2	147	60	2007
2	2	0	0	0
1	1	164	69	2008
1	1	136	58	2007
1	1	164	59	2008
1	1	137	60	2007
1	2	0	0	0
1	1	0	67	2009
1	2	0	0	2009
1	2	0	67	2009
4	1	0	0	0
2	2	173	0	2005
1	1	0	55	2009
1	2	134	63	2006
1	2	134	59	2009
1	1	0	61	2009
1	1	122	51	2008
1	1	134	0	2007
1	2	0	63	2008
2	2	164	0	2005
1	1	137	0	2007
1	1	153	64	2007
1	1	129	65	2006
1	2	168	63	2006
2	1	173	0	2005
2	2	147	0	2001
1	1	147	71	2006
1	1	0	67	2009
1	0	128	0	0
1	1	0	60	2007
1	2	144	71	2006
1	0	0	0	2007
1	2	0	61	2009
1	2	0	55	2008
1	2	0	67	2009
1	1	164	63	2007
1	1	0	61	2009
1	2	128	65	2008
1	1	162	58	2008
1	2	0	52	2009
1	1	166	71	2005
1	1	164	71	2006
1	1	166	0	0
1	1	127	53	2006
1	2	167	73	2007
1	1	0	72	2009
1	0	0	0	0
1	2	178	64	2008
1	0	125	63	2008
1	2	0	60	2008
1	2	137	60	2007
1	1	127	54	2006
1	1	127	61	2009
1	2	136	60	2006
1	1	167	60	2007
1	1	0	72	2008
2	2	175	0	2004
1	2	164	68	2007
1	2	128	0	2006
1	2	0	71	2006
1	2	144	67	2009
1	2	134	73	2008
1	2	134	0	2005
2	2	134	71	2005
1	1	144	70	2007
1	2	164	67	2009
2	1	148	0	2005
2	2	137	0	2003
2	1	133	0	2004
1	2	135	0	2006
1	2	127	70	2006
1	2	0	60	2008
1	2	0	52	2009
1	1	0	61	2009
1	2	0	0	2008
1	2	128	67	2009
2	2	137	0	0
2	0	0	0	0
1	1	0	67	2009
1	1	147	63	2006
1	1	0	61	2009
1	2	134	0	2006
1	1	0	61	2009
1	1	147	70	2006
1	1	0	58	2008
1	1	134	58	2008
1	2	0	0	2006
1	2	164	74	2007
1	2	136	57	2007
2	1	127	0	2005
1	2	136	63	2008
1	2	164	59	2008
1	2	134	57	2006
1	1	125	0	2007
1	2	137	71	2005
1	2	130	70	2007
1	2	166	58	2007
1	1	164	57	2008
1	1	125	70	2006
1	2	0	67	2008
2	2	122	0	2005
2	2	133	0	2004
1	1	0	67	2008
1	1	158	0	2007
1	2	0	57	2009
1	1	170	65	2006
1	1	137	0	2007
1	2	127	51	2007
1	1	0	0	2007
2	2	136	70	2005
1	0	0	0	0
2	2	144	0	2005
1	1	178	63	2007
2	1	122	0	2005
1	2	134	68	2007
1	2	162	60	2007
2	1	167	71	2005
1	2	134	66	2006
1	2	163	53	2007
2	1	164	71	2005
2	2	0	0	2004
2	1	164	0	2004
1	1	166	60	2007
1	1	134	64	2008
1	2	128	0	0
2	1	128	0	2005
1	0	137	0	0
1	1	0	58	2008
1	1	158	57	2008
1	1	0	61	2009
1	1	123	0	2007
1	1	127	57	2007
1	2	166	0	2007
1	1	160	58	2008
2	1	162	0	2005
1	1	146	63	2008
1	2	134	66	2006
1	2	164	0	2006
2	2	128	0	2005
1	2	134	0	2007
1	0	164	51	2007
1	2	0	61	2009
1	2	0	61	2009
1	2	134	59	2008
1	1	0	67	2009
1	0	134	67	0
1	2	0	0	2009
1	0	0	0	0
2	1	128	55	2004
1	2	139	0	2006
1	1	146	69	2006
1	1	164	0	2008
1	1	0	67	2009
1	1	128	67	2008
1	2	0	64	2007
2	1	160	0	2005
2	2	164	0	2005
1	1	144	0	2006
1	2	0	0	0
2	2	170	0	2004
1	1	164	0	2007
1	2	0	0	2009
1	1	0	52	2009
1	0	0	0	0
1	1	0	0	2006
1	0	134	0	2007
2	2	147	0	2005
1	1	175	60	2006
1	2	134	55	2009
1	1	0	57	2009
1	0	144	64	2007
2	2	166	0	2005
2	1	127	0	2005
2	1	0	0	2005
2	1	166	0	2005
1	1	166	57	2009
1	1	0	58	2008
1	2	0	59	2009
2	1	136	0	2005
2	2	134	0	0
2	1	135	0	2005
1	1	122	72	2008
1	1	144	61	2009
1	1	173	55	2009
1	2	134	72	2009
1	1	0	72	2009
1	1	167	52	2008
1	2	147	59	2009
1	2	134	61	2009
1	2	144	70	2007
1	1	0	52	2009
1	2	134	70	2006
1	1	147	67	2009
1	2	127	60	2007
1	1	0	52	2008
1	1	134	51	2005
1	2	164	60	2007
1	1	0	72	2006
2	1	135	0	2005
1	1	166	71	2006
2	2	164	71	2005
2	2	128	71	2005
5	0	144	0	0
2	1	164	0	2005
1	1	128	67	2009
1	0	0	0	0
1	2	0	0	2005
1	1	127	52	2006
2	1	137	0	2005
1	2	141	51	2008
1	0	0	0	0
1	1	134	0	2007
1	1	164	0	2005
2	1	153	0	2004
1	1	178	71	2006
1	2	0	0	2009
1	2	134	63	2008
1	1	0	62	2008
1	2	153	64	2007
4	1	0	0	0
1	2	128	70	2006
2	2	144	0	2005
1	1	127	54	2007
1	2	147	70	2007
2	2	133	0	2004
1	0	166	70	2006
1	1	0	56	2008
1	1	0	57	2009
1	2	0	67	2009
1	0	166	62	2007
1	1	147	0	2007
1	2	0	72	2009
1	1	0	72	2009
1	2	0	55	2008
1	2	167	63	2008
2	1	144	0	2003
1	1	0	67	2009
1	2	0	52	2008
1	1	0	0	2007
1	1	146	0	2007
1	2	136	51	2008
1	2	134	51	2008
2	1	166	0	2005
1	1	0	52	2009
1	1	0	67	2009
1	1	133	0	2006
1	1	137	58	2008
2	1	166	0	2004
1	1	170	71	2006
1	2	136	67	2009
1	2	168	70	2007
1	1	0	72	2009
1	1	128	59	2005
5	2	160	0	2003
1	2	134	69	2006
1	0	0	0	0
1	2	144	67	2008
1	2	136	52	2008
2	2	162	0	2005
1	2	134	0	2008
2	1	0	0	2004
1	1	162	64	2007
2	0	134	0	2005
1	2	134	57	2006
4	0	0	0	0
2	1	123	0	2004
2	2	134	0	2005
4	2	0	0	2006
1	2	0	72	2009
2	2	164	0	2005
1	1	144	57	2006
1	1	144	0	2007
1	2	168	53	2006
1	1	134	58	2007
2	0	136	0	0
1	2	164	75	2004
1	1	166	67	2008
1	1	134	0	2006
1	1	125	62	2007
2	2	166	0	2005
2	1	164	0	2005
1	2	134	51	2008
2	1	175	0	2004
1	1	166	0	2006
1	2	175	61	2009
1	2	164	63	2008
1	1	136	59	2008
1	2	136	60	2008
1	2	0	0	2009
1	2	0	61	2009
1	2	134	52	2009
1	1	166	0	2006
1	2	0	0	2009
1	1	137	63	2008
1	1	170	54	2007
1	1	137	71	2006
1	1	0	67	2009
2	2	127	65	2005
1	2	166	71	2006
2	2	168	0	2002
1	2	136	67	2009
1	2	164	0	2006
1	2	0	55	2009
1	2	128	59	2004
1	0	144	0	2005
1	1	153	63	2008
1	1	125	60	2006
1	1	166	72	2008
2	1	164	0	2005
2	1	167	0	2004
1	2	164	59	2008
1	1	0	60	2007
1	2	134	60	2007
2	1	137	0	2005
1	1	0	0	2007
1	2	166	0	2007
1	2	134	0	2006
1	2	147	72	2007
1	1	0	72	2009
1	2	0	0	2007
1	2	144	58	2006
1	2	164	64	2008
1	2	162	65	2006
1	1	0	60	2007
1	2	163	0	2006
1	1	0	67	2009
1	1	0	72	2009
1	2	139	57	2006
1	1	166	61	2009
1	2	134	72	2009
1	2	0	57	2009
1	2	164	0	2007
1	2	134	71	2006
1	2	164	67	2007
1	1	0	72	2009
1	1	164	52	2009
1	2	135	63	2008
2	1	137	0	2005
1	1	147	67	2009
1	1	166	61	2007
1	2	134	57	2006
1	2	134	65	2008
1	2	0	0	2006
2	1	166	65	2005
2	2	134	69	2005
1	1	0	67	2009
1	2	134	73	2007
1	2	179	59	2009
1	1	164	57	2009
1	2	144	0	2008
1	2	162	70	2007
1	2	127	55	2008
1	2	134	64	2008
1	0	0	0	0
1	2	0	57	2009
1	1	164	52	2009
1	2	163	52	2009
1	2	166	55	2009
2	1	137	71	2003
1	1	0	72	2009
1	2	134	67	2008
1	1	135	58	2007
1	1	153	58	2008
1	2	0	0	2009
1	1	0	55	2008
1	2	168	0	2006
1	2	129	62	2008
2	1	160	67	2004
1	1	134	70	2006
1	1	127	67	2007
1	1	0	72	2009
1	1	0	0	2007
2	1	166	0	2005
1	1	157	69	2006
1	0	172	62	2007
1	2	164	0	2006
1	1	135	75	2006
2	1	134	0	2004
1	1	123	63	2007
2	1	0	0	2005
1	2	134	59	2009
1	1	122	66	2006
1	2	0	0	2006
2	2	0	0	2004
4	2	167	61	2004
1	0	0	56	2008
1	2	0	59	0
1	2	137	0	2006
1	1	144	0	2007
1	2	134	0	2006
1	2	137	55	2009
1	2	0	63	2007
2	1	125	0	2005
2	1	175	0	2004
1	2	139	70	2005
2	1	134	71	2005
2	2	122	62	2003
1	2	0	67	2009
1	2	134	67	2009
1	2	128	63	2008
2	2	133	0	2005
1	2	0	72	2009
1	0	0	0	2008
1	2	164	0	2006
1	2	137	55	2008
1	2	166	63	2008
1	1	168	57	2006
1	1	0	57	2007
1	2	134	68	2008
1	0	0	0	0
1	1	137	64	2007
1	2	127	59	2006
2	1	0	0	2004
1	2	136	60	2008
1	0	0	0	0
1	2	144	60	2007
1	2	144	71	2005
1	2	146	52	2009
1	2	137	61	2009
1	2	127	58	2008
2	2	134	0	2004
1	1	137	57	2006
1	2	0	59	2009
2	1	135	0	2003
1	2	0	0	2006
1	1	164	58	2007
1	2	162	57	2008
1	1	0	72	2009
2	1	137	0	2005
1	0	164	0	2006
5	0	0	0	0
2	1	147	0	2005
1	2	160	60	2007
1	0	164	0	2007
2	2	0	71	2005
1	2	178	51	2008
1	2	167	0	2006
1	0	0	0	0
1	2	144	59	2008
1	2	136	70	2007
1	1	173	0	2006
1	2	144	62	2006
1	2	170	57	2006
1	1	166	62	2007
2	2	134	0	0
2	1	137	0	2005
1	1	0	72	2009
1	2	149	56	2007
2	1	170	0	2004
1	2	170	60	2007
1	1	158	61	2008
1	1	0	60	2007
1	1	144	68	2007
1	2	0	61	2008
2	1	133	0	2005
1	1	139	51	2008
1	0	177	57	2006
1	1	127	67	2009
1	2	0	52	2009
1	2	0	51	2008
1	1	0	67	2008
1	1	166	63	2007
2	2	136	0	2005
2	2	0	0	2004
1	1	0	52	2009
2	1	137	0	2005
1	1	0	58	2008
1	1	170	64	2007
1	2	164	0	0
1	2	147	70	2007
1	1	0	57	2009
1	0	164	60	2007
2	1	137	0	2005
1	0	167	70	2006
2	2	133	0	2001
1	2	134	66	2007
2	1	0	0	0
1	2	134	53	2006
1	1	0	55	2009
1	1	0	72	2009
1	1	125	75	2006
1	1	123	0	2007
2	2	136	0	2005
1	1	160	67	2008
1	2	0	61	2009
1	2	134	56	2007
1	2	143	63	2008
1	1	144	0	2006
1	2	0	61	2009
1	2	158	0	2007
1	1	147	67	2009
1	0	125	0	2007
1	1	160	54	2007
1	2	0	67	2009
1	2	137	61	2009
2	2	136	0	2005
1	1	125	75	2006
1	2	0	59	2008
2	1	164	0	2004
1	1	166	51	2008
1	1	0	55	2009
1	2	0	0	2008
1	1	0	59	2008
1	1	123	60	2008
1	1	128	58	2008
1	1	160	69	2006
1	1	0	61	0
2	1	122	0	2005
1	1	137	61	2008
2	2	166	0	2003
1	2	128	0	2008
1	2	144	71	2005
1	2	0	55	0
2	0	0	0	0
1	1	137	52	2009
1	2	144	0	2007
1	2	144	73	2005
1	1	164	61	2009
1	2	160	0	2007
1	2	127	61	2008
1	0	164	70	0
1	0	173	71	2005
1	2	0	67	2008
2	1	137	0	2005
2	1	166	0	2004
1	1	166	59	2008
1	1	120	58	2008
1	2	134	61	2009
1	1	164	67	2009
1	2	0	61	2009
1	1	0	72	2009
1	1	144	70	2006
1	2	0	68	2008
1	1	167	69	2007
1	2	123	67	2009
1	1	166	59	2006
1	1	175	61	2009
1	2	164	59	2008
1	2	127	63	2005
1	2	0	60	2008
1	2	134	63	2008
1	1	134	67	2007
2	0	147	0	2005
1	2	144	51	2006
1	1	137	70	2006
1	2	170	63	2008
1	1	0	51	2008
1	2	0	64	0
2	1	128	0	2003
1	1	128	58	2007
1	2	153	71	2006
1	1	0	57	2008
1	1	128	53	2007
1	2	144	57	2006
1	2	0	52	2009
1	2	134	72	2009
1	1	0	67	2009
2	2	134	0	2005
2	1	125	0	2005
2	1	166	70	2005
1	1	125	70	2006
1	2	144	61	2009
1	1	125	0	2006
1	1	127	67	2007
1	1	164	0	2007
1	2	134	62	2008
1	1	166	71	2007
1	0	0	0	0
1	2	153	63	2007
1	2	0	67	2009
1	2	144	0	2006
1	0	167	60	2007
1	2	134	71	2005
1	0	166	0	2007
1	1	128	60	2007
1	2	164	72	2009
1	1	136	59	2008
1	1	147	0	2007
2	2	134	0	2004
1	1	144	57	2009
1	1	127	61	2009
1	2	136	57	2006
1	2	160	67	2008
1	2	166	51	2008
1	2	164	57	2006
1	1	0	72	2009
1	1	147	0	2007
1	2	120	53	2006
3	0	0	0	0
1	1	123	0	2007
1	2	136	57	2006
2	1	166	71	2005
1	1	0	72	2009
1	2	0	68	2008
1	2	134	65	2008
1	1	172	71	2006
1	2	144	51	2008
1	1	144	61	2008
2	1	179	0	2003
1	2	0	63	2008
1	2	136	57	2009
1	1	137	62	2006
1	0	0	71	2006
1	2	164	70	2006
1	1	0	72	2009
1	0	128	75	2006
2	2	164	0	2004
1	0	0	56	0
1	1	127	67	2009
1	1	0	64	2008
2	1	166	0	2005
1	2	136	62	2007
2	1	166	71	2005
1	1	127	63	2008
1	2	147	52	2009
2	1	0	0	2004
2	1	164	0	2005
2	1	170	0	2005
1	2	134	57	2007
1	2	167	70	2005
1	1	164	0	2007
1	2	134	51	0
1	1	125	0	2006
1	1	178	75	2006
1	2	0	59	2008
2	1	135	0	2005
1	1	0	58	2007
1	1	164	75	2005
1	1	137	0	2006
2	0	164	71	2005
1	2	0	75	2007
1	0	164	71	2006
1	2	0	67	2009
1	2	143	63	2007
1	2	162	54	2008
1	1	137	0	2007
1	2	0	70	2008
1	2	0	64	2008
1	2	144	57	2007
1	1	173	63	2007
1	2	0	72	2009
1	1	166	74	2008
2	2	136	0	2002
1	2	164	57	2007
2	1	134	0	2005
1	0	162	71	2006
2	2	144	0	2005
1	2	133	55	2008
2	1	166	71	2005
2	1	166	0	2005
1	1	146	67	2009
1	0	0	74	2008
2	2	166	0	2005
1	0	0	72	2009
1	1	137	51	2008
1	2	137	0	2008
1	1	0	61	2009
1	1	144	71	2006
2	2	170	0	2005
1	2	0	0	2007
1	1	147	52	2009
1	2	0	61	2009
1	2	0	67	2009
1	1	167	58	2008
1	2	136	63	2008
1	1	0	55	2009
1	2	128	51	2007
1	2	165	69	2010
2	1	167	0	2005
1	1	166	72	2009
1	1	0	72	2009
2	2	0	0	2005
1	2	144	51	2007
2	1	125	70	2005
1	0	0	0	0
1	2	147	75	2007
1	2	127	55	2008
1	2	0	57	2009
1	0	0	0	0
1	1	0	72	0
1	2	0	71	2007
1	2	164	58	0
1	1	0	58	2008
1	1	0	72	2009
2	0	0	0	0
1	1	0	0	2007
1	2	0	67	2009
1	1	134	0	2007
2	2	175	61	2004
1	2	166	67	0
1	1	166	51	2008
2	1	136	0	2004
1	1	0	61	2004
2	1	135	0	2003
1	2	175	63	2008
2	2	134	0	2004
2	1	125	0	2004
1	1	166	0	2006
1	2	128	67	2009
1	2	135	70	2006
1	1	0	58	2008
1	1	166	61	2009
1	1	129	70	2006
1	1	164	57	2006
1	1	137	70	2006
1	1	0	59	2008
2	1	0	0	2004
1	2	163	0	2006
1	1	164	63	2008
1	2	0	57	2006
5	2	134	0	0
1	2	143	0	2006
1	2	0	59	2008
1	2	175	60	2006
1	1	173	61	2009
1	2	0	54	2006
1	1	127	66	2006
2	1	0	0	2004
1	1	128	58	2008
1	0	0	0	0
2	2	134	0	2005
1	2	137	0	0
1	1	123	51	2008
1	2	0	72	2009
1	1	125	63	2007
1	1	0	72	2009
1	2	144	59	2008
1	1	144	0	2008
1	1	0	74	2008
1	1	147	67	2008
1	1	0	72	2009
2	2	136	0	2004
1	2	162	72	2009
1	2	0	72	2009
1	2	164	70	2006
2	2	134	0	2004
1	2	136	67	2009
1	1	163	71	2006
1	1	0	70	2005
2	1	144	75	2005
1	1	127	58	2008
1	2	136	57	2006
1	1	147	0	2006
1	1	0	72	2008
1	2	133	74	2006
1	1	166	72	2009
1	1	0	67	2009
1	1	122	63	2008
1	2	178	67	2008
2	1	0	0	0
1	2	164	0	2006
1	1	147	0	2007
1	1	166	52	2009
2	2	170	0	2004
1	2	134	59	2008
1	1	137	61	2009
1	1	135	57	2007
2	1	166	0	2005
1	2	164	0	2007
1	1	0	62	2008
1	0	160	0	2010
2	0	147	0	2004
1	1	166	52	2008
1	1	137	75	2007
1	1	167	0	2006
1	2	144	54	2008
1	1	0	55	2009
1	2	125	54	2007
1	2	128	62	2007
1	1	166	70	2006
2	2	164	0	2005
1	1	170	0	2007
2	2	144	0	2005
2	1	135	71	2005
1	1	164	0	2009
1	1	166	67	2008
2	2	164	70	2005
2	2	134	0	2004
1	1	166	57	2009
1	2	0	61	2009
1	2	166	75	2006
1	1	149	0	2007
2	2	125	73	2004
1	2	134	55	2008
1	2	0	67	2009
2	2	144	0	2005
1	2	0	0	2007
2	1	139	0	2004
1	1	175	0	2007
1	2	134	73	2007
1	2	142	71	2005
1	1	0	59	2008
1	2	134	70	2006
1	1	0	61	2008
1	2	134	64	2007
1	2	147	0	2006
1	1	134	67	2008
1	2	164	58	2006
4	1	0	0	0
1	1	127	63	2007
2	1	136	0	0
1	0	0	0	0
1	1	167	71	2006
2	2	0	0	2004
2	2	133	0	2005
1	0	0	54	2008
1	2	0	65	2008
1	2	164	60	2007
1	2	153	63	2006
2	2	128	0	2005
1	1	0	59	2009
1	2	166	0	2008
1	1	170	67	2006
1	1	167	64	2008
1	2	162	63	2007
1	2	170	57	2006
1	2	144	61	2009
1	2	137	70	2007
1	0	130	0	0
1	1	137	72	2006
1	0	0	0	0
1	1	125	0	2006
1	1	166	62	2007
1	2	164	71	2005
1	1	166	58	2006
1	1	0	0	2006
1	2	0	55	2009
1	1	136	58	2008
1	1	167	59	2009
1	2	150	67	2009
1	1	166	58	0
1	2	134	57	2009
1	1	130	59	2008
1	1	0	67	2009
2	0	0	0	0
1	1	160	51	2007
2	2	130	0	2004
1	1	164	70	2006
1	2	143	0	2007
1	1	144	61	2009
2	2	164	75	2004
1	0	0	0	0
1	1	147	67	2006
1	1	127	60	2007
1	1	0	61	2008
1	1	0	56	2008
1	1	0	63	2008
1	1	166	58	2008
2	2	136	0	2005
1	0	0	0	0
2	2	166	0	2004
1	1	137	67	2006
1	1	0	64	2008
1	1	0	67	2009
1	1	0	72	2009
1	1	137	58	2007
1	2	144	75	2006
1	0	137	56	2007
1	2	169	64	2007
2	1	137	0	2003
1	2	127	57	2006
1	2	168	0	2006
1	2	0	72	2009
1	1	170	0	2008
2	2	167	0	2004
1	2	0	67	2009
1	2	0	51	2008
2	2	135	0	2003
2	1	175	0	2005
2	1	133	0	2005
1	1	147	57	2004
1	2	134	67	2009
1	1	134	70	2006
1	0	0	0	0
1	2	136	55	2009
1	2	137	70	2007
1	2	173	0	2007
1	1	125	0	2006
2	1	135	0	2004
1	0	0	0	0
2	0	125	0	2005
1	2	166	63	2006
2	2	134	71	2005
1	1	144	75	2006
1	2	137	0	2007
1	2	134	64	2008
1	2	164	59	2009
1	2	134	56	2007
1	2	127	70	2006
1	1	134	0	2007
1	1	146	58	2008
1	2	0	67	2009
2	2	153	0	2003
1	2	178	0	2007
1	1	147	72	2006
1	2	0	72	2009
1	0	0	0	0
1	2	137	66	2008
1	2	163	67	2009
1	1	0	61	2009
1	1	0	0	0
1	2	0	72	0
1	1	166	59	2007
1	1	128	57	2008
1	1	147	58	2007
1	2	153	65	2006
1	1	122	64	2007
1	1	127	72	2009
1	0	0	60	2007
1	2	170	63	2006
1	1	0	55	2009
1	0	160	75	2006
1	2	133	0	2006
1	1	0	55	2009
2	2	164	71	2005
1	2	134	59	2008
1	2	0	60	0
1	2	137	57	2006
1	2	144	74	2008
1	1	125	64	2007
1	1	127	64	2007
1	1	134	64	2007
1	2	0	55	2009
1	1	134	0	2007
1	1	0	74	2008
1	1	122	0	2007
1	1	174	70	2006
1	1	124	0	0
1	2	134	0	2007
1	1	128	51	2008
1	1	0	61	2009
1	2	164	73	2007
1	2	144	0	2006
1	2	134	60	2008
1	1	0	56	2008
1	2	125	65	2007
1	0	137	0	0
1	1	158	61	2009
1	1	166	63	2008
2	2	164	71	2005
1	2	173	0	2009
1	1	144	75	2006
1	1	0	61	2009
1	2	164	65	2007
1	2	178	75	2006
1	1	0	59	2008
2	2	133	63	2005
1	1	147	0	2006
2	2	133	0	2005
1	1	167	52	2008
2	0	0	0	0
1	2	144	0	2006
1	1	166	60	2006
1	1	137	0	2006
1	2	136	57	2007
1	2	162	0	2006
1	2	164	58	2008
1	0	137	0	2006
1	1	0	57	2009
2	2	123	75	2005
1	1	166	58	2007
1	2	130	75	0
1	2	144	71	2006
1	0	164	71	2005
2	2	134	0	2004
1	1	0	57	2007
4	0	0	0	0
1	1	0	72	2009
1	1	128	58	2007
1	1	164	66	2006
1	1	141	61	2009
2	1	170	0	2005
1	2	134	57	2007
2	1	125	51	2003
1	2	166	51	2008
1	1	0	55	2009
1	2	164	75	2007
1	1	166	62	2007
1	1	137	63	2006
1	1	137	72	2008
2	1	149	0	2004
2	1	133	0	2004
1	2	153	60	2006
1	1	178	0	2006
1	0	0	59	2008
1	0	0	0	0
1	1	0	63	2008
1	2	136	51	2008
1	1	153	0	2006
1	1	134	0	2007
1	2	164	66	2007
1	1	166	62	2007
1	1	153	63	2006
2	1	137	0	2004
2	1	164	0	2003
1	0	173	67	0
1	1	167	0	2006
1	1	164	63	2007
1	2	164	71	2006
2	1	127	0	2005
1	2	162	0	2007
1	0	0	0	0
1	2	167	0	2005
1	0	0	0	2006
2	1	137	0	2004
1	2	122	57	2007
2	2	0	0	2004
1	2	142	59	2008
1	2	166	51	0
1	2	127	57	2007
1	1	167	72	2007
1	1	149	69	2006
1	2	134	74	2007
1	2	137	71	2005
1	1	163	0	2008
1	2	136	60	2007
1	1	144	58	2007
1	0	164	0	0
1	2	164	67	2009
1	0	127	0	2006
1	1	0	67	2009
1	1	125	63	2007
1	2	134	0	2006
1	0	0	0	0
1	1	0	58	2008
1	2	144	63	2008
1	1	158	0	2006
1	1	175	63	2007
2	2	0	0	2005
2	1	125	0	2004
1	2	144	70	2006
1	2	128	54	2008
1	1	122	71	2006
1	1	136	55	2009
1	1	129	73	2006
2	1	126	0	2005
1	1	164	68	2006
1	1	147	52	2009
1	0	153	0	2006
1	2	0	59	2009
1	2	137	75	2004
5	2	160	0	2005
1	2	144	59	2008
1	1	166	75	2006
1	1	0	63	2007
1	2	144	70	2006
1	0	0	57	2009
1	0	166	75	0
1	2	134	72	2008
2	1	127	67	2004
2	1	0	0	2005
1	2	0	55	2009
1	2	158	61	2009
2	1	173	0	2005
1	1	0	51	2007
2	1	142	0	2005
1	2	0	57	2009
2	1	123	0	2004
2	1	137	75	2005
1	2	136	59	2008
1	2	144	0	2007
1	2	0	57	2009
1	2	144	60	2007
2	2	127	0	2004
1	0	0	57	2008
1	2	0	51	2008
1	2	144	61	2009
1	1	147	0	2006
1	2	144	67	2009
2	2	173	0	0
1	1	135	62	2006
1	1	135	60	2007
1	2	134	0	2007
2	1	142	0	2005
1	1	134	61	2006
1	0	125	57	2008
1	2	137	71	2006
1	2	0	52	2009
2	1	134	75	2005
1	1	134	52	2009
1	2	134	62	2006
2	0	144	0	2005
1	0	0	0	0
1	2	0	0	2009
1	2	167	63	2006
1	1	173	0	2006
1	1	0	61	2009
1	2	0	63	2008
1	2	153	60	2006
1	1	0	59	2009
1	1	160	61	2009
2	2	134	0	2004
1	2	128	55	2008
1	0	122	60	2007
1	1	147	61	2008
1	2	0	55	2009
1	2	0	67	2008
1	1	175	0	2007
1	2	162	0	2007
1	1	167	67	2009
1	1	166	58	2007
1	0	147	0	2006
1	2	167	0	2006
1	2	0	72	2009
1	1	0	58	2008
2	1	142	0	2005
1	2	166	0	2007
2	2	162	57	2005
2	2	147	0	2005
1	2	134	0	2007
1	2	162	73	2006
1	2	162	63	2008
1	2	136	59	2007
1	2	134	64	2008
1	1	135	75	2006
2	0	0	0	0
1	1	0	59	2009
1	2	136	59	2008
1	1	128	63	2008
2	1	125	0	2005
2	2	136	70	2003
2	1	125	0	2004
2	2	162	67	2005
1	2	164	72	2009
1	2	144	55	2007
1	2	134	62	2007
1	0	140	71	2006
1	1	134	58	2006
1	2	164	63	2005
1	2	136	64	2007
1	1	0	61	2009
1	1	164	61	2008
2	1	135	0	2004
2	2	136	0	2002
1	2	0	73	2007
1	2	137	72	2007
1	1	127	67	2009
2	2	0	0	2004
1	2	0	67	2009
1	1	0	0	2008
2	1	175	66	2005
1	2	167	0	2006
1	2	134	75	2006
1	1	137	0	0
1	2	128	51	2008
1	1	147	51	2007
1	2	0	67	2009
1	2	134	74	2007
1	2	158	70	2007
2	1	128	70	2005
2	2	137	0	2005
1	1	147	72	2008
1	2	0	0	0
1	2	134	0	2007
1	1	167	71	2006
2	0	0	0	0
1	1	139	71	2006
1	1	147	57	2008
1	1	135	0	2005
1	2	0	0	2007
1	2	134	0	2007
1	0	160	57	2006
1	1	162	64	2007
1	2	134	60	2007
1	1	172	0	2006
1	2	0	60	2007
2	2	125	0	2005
1	2	168	75	2007
1	1	134	57	2009
1	2	144	0	2006
1	1	172	0	2006
1	1	128	54	2008
2	1	127	0	2005
1	2	0	52	2008
1	0	0	0	0
1	1	0	67	2009
1	2	0	52	2009
1	1	128	60	2008
1	1	134	63	2007
1	1	137	60	2006
1	1	0	72	2009
1	1	164	51	2008
1	2	128	51	2007
3	2	149	0	0
1	2	0	61	2009
1	2	158	55	2009
1	2	134	0	2007
2	1	164	0	2004
1	1	166	72	2008
1	2	136	0	2007
2	1	0	0	0
1	1	128	72	2009
1	2	155	0	2008
1	2	136	0	0
1	1	0	56	2008
1	0	144	60	2007
2	1	127	0	2003
1	2	0	59	2009
1	0	134	0	2006
1	1	166	70	2006
1	1	160	0	0
1	1	137	66	2006
1	1	0	57	2009
1	2	136	67	2008
2	1	0	0	2005
1	2	127	70	2007
1	2	162	63	2008
1	1	164	0	2006
1	1	137	71	2005
2	1	147	72	2004
1	0	138	64	2008
1	1	0	58	2008
2	2	175	0	2005
2	2	0	0	2005
1	1	137	63	2007
2	1	125	0	2005
1	1	0	72	2008
1	2	0	0	2007
1	1	0	0	2008
1	1	133	70	2006
2	2	134	0	2004
1	2	164	52	2009
2	1	179	0	2004
1	2	0	58	2007
1	0	164	0	2006
1	2	0	55	2008
2	2	122	69	2005
2	2	134	70	2005
1	1	0	59	2009
2	2	149	0	2004
1	2	144	61	2006
1	1	166	60	2007
1	2	175	67	2008
1	1	166	51	2008
1	2	160	59	2008
1	1	127	54	2006
1	2	158	63	2008
1	2	134	59	2009
1	2	164	67	2009
1	2	164	73	2006
2	1	167	0	2005
2	1	137	0	2004
1	1	0	59	2009
1	1	134	0	2006
1	1	0	57	2009
1	1	164	56	2007
2	1	134	0	2004
2	1	125	0	2005
2	1	147	0	2005
1	2	137	0	2006
2	1	137	0	2005
1	2	0	59	2009
2	0	0	0	0
1	1	134	67	2008
2	2	147	0	2004
1	1	144	0	0
2	2	164	0	2005
1	1	162	0	2007
1	0	134	0	2008
1	0	134	0	2006
1	2	134	57	2009
1	2	128	52	2007
1	1	136	58	2008
1	1	166	75	2006
1	2	127	52	2008
2	2	0	0	2004
1	2	134	72	2008
1	2	0	67	2009
1	1	167	75	2006
1	2	137	74	2008
1	2	134	65	2007
1	1	0	57	2009
1	1	125	72	2009
1	2	136	67	2008
1	2	175	57	2009
2	2	0	0	2003
2	2	133	70	2005
1	1	0	59	2009
1	2	136	52	2009
1	1	137	0	2007
1	0	0	0	0
1	2	160	65	2006
4	2	0	0	0
1	1	164	75	2005
1	2	0	67	2009
1	1	0	63	2008
1	2	134	55	2008
1	0	137	0	2006
2	1	129	0	2005
1	1	164	62	2007
1	2	144	51	2008
1	2	133	65	2008
1	2	0	52	2009
1	1	144	57	2007
2	2	134	70	2005
1	1	175	56	2008
1	1	147	75	2005
2	1	164	73	2005
5	2	164	0	0
2	0	170	0	2005
1	2	162	0	2006
1	2	0	74	2008
1	1	144	51	2008
1	2	134	57	2007
1	2	0	59	2008
1	1	134	0	2007
1	0	139	60	2008
2	1	164	71	2005
1	2	160	63	2005
1	1	0	62	2008
1	1	157	0	2007
1	1	164	61	2008
1	2	128	67	2005
1	2	134	74	2008
2	1	164	0	2005
2	1	168	53	2005
2	1	125	0	2005
1	2	162	70	2006
5	0	0	0	0
2	2	144	73	2005
2	1	125	0	2005
1	1	127	57	2009
1	2	134	75	2006
1	1	0	57	2008
1	1	127	63	2008
1	1	0	72	2009
1	2	0	67	2009
1	0	0	0	0
2	1	166	0	2004
1	1	137	58	2008
1	1	135	69	2006
2	2	128	70	2005
1	1	0	52	2009
1	0	135	53	0
1	1	135	59	2009
1	1	140	0	2006
1	2	164	59	2008
2	1	153	0	2005
1	0	0	58	2008
2	1	162	71	2005
2	1	135	0	2004
1	2	139	70	2007
2	0	160	73	2003
1	2	0	67	2009
1	2	139	63	2006
1	2	133	63	2008
2	2	136	0	2005
1	1	125	63	2008
1	2	134	57	2009
2	2	127	0	2004
1	2	166	67	2009
1	1	134	51	2007
2	1	137	67	2004
1	2	166	70	2007
1	2	134	71	2006
1	1	144	63	2007
2	2	134	0	2004
1	1	0	57	2008
1	0	147	62	2007
2	2	134	0	2003
1	1	0	63	2008
2	1	166	65	2005
1	2	172	74	2008
2	1	125	0	2004
1	2	137	67	2008
1	2	128	66	2007
1	1	170	71	2006
1	1	128	60	2007
1	1	125	70	0
1	2	134	72	2009
1	1	123	71	2006
1	1	134	57	2009
1	1	160	56	2008
1	2	0	0	2007
1	1	0	55	2009
1	1	128	54	2006
1	2	128	63	2008
1	0	170	63	2006
1	2	134	71	2007
1	1	147	0	2009
1	1	122	58	2006
1	2	134	51	2006
1	1	147	57	0
1	1	0	72	2009
1	1	0	61	2008
1	2	0	68	2007
1	2	164	67	2009
1	1	137	0	2006
1	1	125	0	2007
1	2	164	58	2007
1	0	134	0	2007
2	2	128	0	2004
1	2	178	57	2009
1	1	0	72	2009
2	1	0	0	2003
1	1	162	69	2008
1	0	173	56	2008
1	2	0	0	2008
1	1	122	63	2007
1	1	0	58	2007
1	2	0	51	2007
1	2	164	71	2006
1	2	128	65	2006
1	1	134	65	2007
2	1	128	0	2004
1	2	128	51	2007
2	1	127	0	2004
2	2	144	0	2004
1	2	0	67	2008
1	2	0	52	2008
2	1	157	0	2004
1	2	157	60	2008
1	2	168	63	2006
2	1	144	0	2004
1	1	175	72	2008
1	1	128	0	2006
2	1	125	0	2005
1	1	136	59	2009
1	1	164	65	2007
2	2	130	71	2005
1	2	0	0	0
1	1	164	63	2006
2	0	0	0	0
2	1	166	0	0
1	2	133	58	2007
1	1	164	54	2008
2	2	133	0	2004
1	1	0	61	2009
1	2	0	64	2007
1	2	0	59	2008
1	1	0	54	2008
1	1	0	61	2009
2	1	137	0	2002
1	1	167	71	2006
1	2	0	0	2006
1	1	164	58	2007
2	1	153	0	2004
2	0	134	0	0
2	1	134	0	2005
2	0	130	0	2005
2	2	136	0	2004
1	2	0	71	2008
1	2	136	72	2009
2	0	127	0	2005
1	2	134	58	2006
1	1	166	59	2006
1	1	0	0	0
1	1	166	0	2006
2	2	134	53	2005
2	1	125	0	2005
1	2	135	65	2008
1	2	150	60	2008
1	2	147	55	2009
1	0	0	70	2007
2	2	164	0	2005
1	1	134	64	2008
1	2	0	0	2009
1	1	134	63	2007
1	1	147	59	2009
1	1	147	65	2008
1	2	0	72	2009
1	1	166	72	2009
1	1	164	75	2005
1	2	134	67	2009
1	1	138	0	2007
1	1	0	61	2009
2	0	0	0	2005
2	1	164	0	0
1	1	0	72	2009
1	1	0	59	2008
1	2	139	51	2008
1	2	164	55	2009
1	2	122	63	2006
1	1	0	72	2009
1	1	144	58	2007
1	0	0	0	2007
2	1	162	61	2005
1	2	0	72	2009
1	1	0	67	2009
1	2	134	0	0
1	1	166	69	2007
1	1	136	60	2006
1	2	134	52	2008
1	2	0	57	2009
1	0	166	0	2006
1	2	168	74	2008
1	1	175	0	2007
2	1	127	0	2004
2	1	164	0	2004
1	1	134	0	2006
1	0	0	0	2009
1	1	0	63	0
1	2	164	0	2006
1	1	0	64	2008
2	1	164	0	2005
2	0	0	0	0
2	1	160	75	2005
1	1	127	59	2008
1	1	137	62	2007
1	1	134	0	2007
1	2	0	55	2009
1	2	134	0	2006
1	1	134	60	2007
2	1	164	0	2004
1	1	172	53	2008
2	1	166	0	2004
2	1	175	0	2005
1	0	0	0	0
1	2	133	0	0
1	1	158	60	2007
2	2	130	0	2005
1	0	0	0	0
2	2	127	0	2005
1	0	162	70	2006
1	1	0	67	2009
1	2	0	61	2009
1	2	134	60	2006
1	2	0	59	2009
1	1	147	71	2006
1	1	155	75	2005
1	1	127	55	2009
1	2	134	70	0
1	1	144	67	2009
1	0	0	0	0
1	2	122	61	2007
1	1	137	0	2007
1	1	164	72	2008
1	2	160	53	2007
1	1	134	72	2008
1	1	160	0	2007
2	2	127	63	2005
1	1	166	52	2009
2	2	134	0	2004
4	2	0	0	0
1	2	0	71	0
2	0	137	0	2004
1	2	0	72	2009
1	1	166	65	2005
1	1	147	54	2006
2	0	0	0	0
2	2	152	0	2005
1	1	166	57	2007
4	1	178	0	0
1	1	134	0	2006
1	2	0	67	2008
1	2	128	0	0
1	2	136	51	2008
4	0	0	0	0
2	1	134	0	2004
1	1	166	67	2009
1	1	135	0	0
2	1	125	0	2005
1	2	158	72	2009
1	1	166	70	2006
1	1	144	58	2008
1	0	0	0	0
2	1	122	0	0
1	1	137	70	2006
1	1	170	61	2009
1	2	168	61	2008
1	1	0	65	2008
1	1	127	66	2006
1	1	134	52	2009
1	2	147	71	2006
1	2	134	60	2006
2	1	164	0	2005
1	1	0	62	2008
1	1	127	67	2009
1	1	0	51	2008
1	2	0	0	2006
1	1	170	65	2008
1	1	0	58	2008
1	1	144	67	2009
1	1	122	70	2006
1	1	166	58	2008
1	2	128	66	2007
1	0	166	0	2006
1	1	170	58	2008
2	1	126	0	2005
2	0	0	0	0
1	1	0	55	2009
2	1	134	67	2004
1	2	127	0	2009
1	2	134	65	2006
1	0	0	0	0
1	1	0	67	2009
1	1	0	55	2009
1	1	168	0	2006
1	1	164	0	2007
1	1	0	67	2009
1	1	0	67	2009
1	2	162	61	2008
2	2	144	0	2001
1	2	164	57	2006
1	1	164	0	2007
1	1	0	59	2009
1	2	0	59	2008
1	1	0	61	2009
1	2	136	67	2008
1	0	0	0	0
1	2	0	55	2009
1	2	128	65	2006
2	1	137	0	2005
2	2	166	0	2005
1	1	0	72	2009
5	2	133	0	2005
1	1	134	75	2007
1	2	176	67	2009
2	1	166	66	2005
1	1	0	56	2008
1	1	0	72	2009
2	2	124	0	2005
1	1	164	0	0
1	2	0	64	2008
1	1	0	57	2008
1	1	144	0	2007
3	1	146	72	1969
1	1	0	67	2009
2	1	137	0	2004
1	1	0	74	2008
1	1	137	62	2007
2	1	160	0	2004
2	1	134	0	2005
1	1	0	72	2009
1	0	123	0	0
1	1	164	0	2007
1	0	0	73	0
1	2	0	59	0
2	1	122	72	2003
3	0	0	0	1969
1	0	0	0	2006
1	1	166	0	2007
1	1	137	61	2009
1	2	134	72	2008
1	1	0	58	2008
1	2	0	68	2008
1	1	123	63	2006
1	2	0	59	2009
1	1	123	63	2008
1	2	0	64	2004
1	2	128	72	2009
2	1	0	0	2004
1	1	0	61	2009
1	2	0	74	2008
1	2	153	63	2007
1	2	166	0	2007
1	2	0	0	0
2	1	175	0	2005
1	1	160	72	2009
2	2	134	0	2004
2	1	142	0	2005
2	1	166	0	2004
1	2	134	60	2007
1	1	0	59	2009
1	2	144	63	2006
1	2	170	0	2006
1	2	128	61	2008
2	1	166	0	2005
1	2	0	56	2007
1	1	164	51	2007
1	1	170	65	2007
1	1	0	58	2007
1	1	0	59	2009
1	2	155	67	2009
1	1	139	58	2008
1	2	170	53	2006
1	1	122	69	2008
1	1	0	61	2009
1	2	134	51	2008
1	1	166	63	2006
2	1	164	0	2004
2	1	164	0	2004
2	2	134	75	2005
2	0	167	0	2005
1	1	137	58	2007
1	1	122	62	0
1	2	164	51	2008
1	2	128	63	2007
1	1	144	57	2008
1	1	0	58	2008
1	1	168	66	2006
1	2	126	51	2008
1	0	0	0	0
1	2	128	65	2005
1	1	0	58	2008
1	0	0	0	0
1	2	164	64	2008
2	1	0	0	2005
1	2	137	66	2007
1	2	162	0	2007
1	2	134	57	2006
1	1	0	59	2008
1	2	0	72	2009
1	2	137	59	2008
1	1	136	61	2009
2	1	147	0	2005
1	1	134	59	2009
1	1	164	73	2006
1	2	137	57	2006
1	1	170	55	2007
1	0	0	0	2008
1	1	147	0	2007
1	1	0	55	2009
2	2	136	0	2002
1	2	0	55	2009
1	2	137	63	2006
1	2	136	71	2006
1	2	160	70	2006
1	1	136	60	2007
1	2	134	75	2006
1	2	0	60	2007
1	1	0	65	2008
2	2	139	0	2005
1	2	160	70	2006
1	2	0	55	2009
1	2	0	58	2008
1	1	164	0	2006
1	1	0	59	2009
1	1	0	67	2009
1	1	144	62	2007
2	1	170	63	2004
2	2	136	0	0
2	0	0	0	0
1	0	168	0	2007
1	2	134	67	2007
3	2	0	0	0
1	2	128	68	2007
1	2	134	55	2009
2	2	134	0	2004
1	2	164	57	2006
1	1	0	61	2009
1	1	166	74	2008
1	1	166	64	2007
2	2	136	0	2005
1	2	0	69	2007
1	2	0	64	2008
1	1	0	60	2008
1	1	135	58	2006
1	0	123	0	2007
1	2	134	60	2007
1	1	127	72	2009
2	2	134	70	2005
1	1	135	67	2006
1	2	144	59	2008
1	2	137	75	2007
1	1	0	64	2008
1	2	0	59	2009
1	2	0	67	2008
1	2	134	67	2009
1	0	0	0	0
1	2	164	53	2006
2	2	164	0	2005
1	1	137	57	2006
1	0	0	0	0
2	1	123	0	2005
5	1	167	0	2010
1	2	0	0	2008
1	2	144	61	2009
1	0	175	0	2005
2	0	0	0	0
1	2	122	60	2007
1	2	147	65	2005
1	2	137	70	2006
1	1	163	65	2008
1	2	136	69	2007
1	1	166	56	2008
1	2	137	72	2009
2	2	164	0	2005
1	2	134	57	2009
2	2	137	0	2005
1	1	122	57	2006
1	2	150	72	2009
1	2	164	72	2008
1	2	0	55	2009
2	1	136	0	2005
1	1	120	0	2006
1	0	0	64	0
1	2	130	0	2007
1	1	0	64	2008
1	2	160	57	2007
1	2	147	61	2009
1	1	134	62	2007
1	2	0	52	2009
1	1	133	0	2007
1	2	134	59	2009
1	2	0	52	2009
1	1	166	69	2008
4	2	133	66	2008
1	2	134	0	2005
1	1	0	67	2009
1	2	0	63	0
1	0	162	63	2008
1	1	0	59	2008
1	1	153	57	2008
1	1	167	64	2007
1	2	134	55	2008
1	2	134	73	2006
1	2	133	60	2008
1	1	0	58	2007
2	1	135	0	2005
2	0	134	0	2005
1	1	0	72	2009
1	0	170	70	2006
1	2	162	70	2006
2	2	134	0	2005
2	2	127	0	2005
1	2	0	67	2009
1	0	168	71	2006
1	0	152	65	2005
1	0	173	0	2006
1	2	149	70	2007
1	2	144	64	2007
1	1	137	57	2009
1	0	0	0	0
2	1	166	0	2005
1	1	137	72	2009
2	1	175	75	2005
1	1	147	63	2008
2	0	0	0	2004
1	2	134	0	2005
1	1	164	59	2009
1	2	133	0	2007
1	0	0	0	0
1	1	0	61	2009
1	1	166	0	2006
1	1	160	58	2008
1	1	134	62	2007
1	1	166	71	2006
1	1	166	75	2006
1	1	157	63	2008
1	0	139	63	2006
2	2	139	0	2005
2	1	164	0	2004
1	2	134	51	2008
1	1	128	51	2006
1	1	0	72	2009
2	2	127	60	2005
1	1	166	62	2008
2	0	144	0	2005
2	0	0	0	2004
1	1	0	67	2009
1	2	164	62	2006
1	0	0	0	0
1	2	147	58	2008
4	2	122	70	2007
1	2	168	0	2007
1	2	166	61	2008
1	1	0	62	2008
1	2	162	57	2007
1	1	166	69	2008
1	2	127	63	2006
1	1	0	74	2008
1	1	0	72	2009
1	2	167	67	2009
1	2	134	52	2009
1	1	134	62	2007
2	1	153	0	2005
2	1	133	0	2004
1	0	166	0	2007
2	2	144	0	2002
1	2	144	75	2005
1	2	173	51	2007
1	2	164	58	2006
1	2	127	52	2008
1	2	0	72	2008
2	2	144	0	2005
1	1	164	59	2008
1	1	0	63	2008
2	2	164	0	2005
1	2	0	0	0
1	1	137	51	2008
1	1	134	58	2007
1	1	127	59	2009
1	2	170	60	2007
1	1	144	70	2006
1	0	0	0	0
2	1	127	0	2005
1	1	137	0	2007
1	1	0	52	2009
1	0	0	0	0
1	1	167	0	2007
1	0	0	0	0
1	1	128	64	2008
1	1	136	72	2009
1	2	133	63	2006
1	2	0	0	2008
1	1	167	67	2006
2	2	0	0	2005
1	2	158	70	2007
2	2	137	70	2005
1	1	168	75	2006
1	2	0	0	2007
2	1	137	0	2005
1	2	134	63	2007
1	2	167	0	2006
2	1	170	0	2004
1	1	0	72	2009
1	0	0	0	0
1	0	173	0	2007
1	2	157	62	2007
1	1	0	59	2008
1	2	178	0	2006
1	0	144	63	2008
1	2	122	0	2007
1	2	168	0	0
1	1	0	58	2008
1	1	164	67	2009
1	1	168	0	2006
5	1	167	0	2005
1	2	137	71	2006
2	2	123	0	2004
1	2	164	61	2009
2	2	134	0	2005
2	2	134	0	2004
1	2	137	59	2008
1	2	133	53	2006
1	2	0	0	2006
1	2	0	57	2009
1	1	125	60	2007
1	0	125	0	2007
2	1	166	66	2004
1	1	134	56	2008
1	2	134	51	2005
1	1	172	0	2006
1	1	130	58	2008
1	1	172	70	2006
1	2	167	69	2008
1	2	134	51	2007
1	2	0	57	2009
1	1	134	51	2008
1	2	144	63	2007
2	2	162	0	2005
1	0	0	0	0
2	1	127	0	2004
1	2	144	75	0
1	1	0	72	2009
1	2	127	57	2007
2	1	125	71	2005
1	1	0	55	2009
1	2	167	62	2007
2	2	144	0	2003
1	2	128	67	2006
1	2	166	51	2008
1	1	0	63	2008
0	1	166	54	2006
1	1	147	58	2008
1	1	135	63	2005
2	0	173	0	2005
1	1	168	70	2006
1	2	0	55	2009
1	1	166	63	2006
1	1	175	0	2007
5	1	167	60	2007
2	1	123	0	2005
1	2	128	69	2007
2	1	166	0	2005
1	2	134	52	2008
1	2	158	70	0
1	1	128	51	2007
1	1	167	0	2007
1	1	135	61	2007
4	0	0	0	0
1	2	134	0	2006
1	2	147	0	2007
1	2	0	57	2006
1	1	144	61	2009
1	2	164	68	2008
1	1	0	67	2008
1	2	164	59	2009
1	2	136	67	2005
1	2	129	65	2007
2	2	167	0	2005
2	1	164	0	2005
1	1	164	57	2006
1	2	0	55	2009
2	1	128	0	2004
1	1	164	60	2007
1	1	170	70	2006
1	1	125	0	2008
1	2	0	67	0
1	2	136	0	2007
1	0	0	0	0
1	2	0	67	0
1	2	164	0	2007
2	2	0	0	2004
1	1	135	0	2006
1	1	166	72	2006
1	2	0	59	2008
1	1	175	60	2008
2	1	166	0	2005
1	2	136	67	2009
1	1	164	0	2005
2	2	167	0	2005
1	2	136	53	2007
1	2	144	58	2007
1	0	137	65	2006
1	1	0	0	2008
2	2	164	0	2005
1	1	137	58	2007
2	2	172	0	2004
1	2	137	67	2008
1	2	0	61	2009
3	1	133	63	2008
2	2	162	0	2005
1	1	0	58	2008
1	1	137	66	2005
1	2	163	53	2007
1	2	0	63	2008
2	2	134	53	2005
2	2	134	0	2005
1	1	166	61	2009
2	0	0	0	0
1	2	0	0	0
1	2	136	0	2006
2	2	137	0	2004
1	2	128	59	2007
1	1	168	68	2007
2	0	0	0	0
2	1	128	0	2004
1	1	0	67	2009
1	2	144	0	2007
1	2	0	72	2009
1	0	0	0	0
2	0	137	0	2005
1	2	164	64	2008
1	2	147	72	0
1	2	130	60	2007
2	1	144	0	2004
1	2	0	0	2008
2	1	147	0	2004
1	1	137	51	2008
2	1	137	0	2004
1	0	147	60	2007
1	1	166	72	2009
1	0	0	0	0
1	1	164	0	2006
1	1	0	70	2007
2	1	153	0	2004
1	2	0	70	2010
1	1	125	57	2007
1	2	133	64	2007
1	2	137	51	2007
1	0	137	71	2006
1	1	0	0	2009
1	2	134	60	2007
1	2	136	70	2008
1	2	164	71	2005
1	2	0	52	2009
1	2	136	72	2009
1	1	167	57	2007
1	2	134	73	2006
1	1	160	65	2006
2	1	127	0	2005
1	2	133	56	2007
1	1	125	60	2007
1	0	136	0	2006
1	1	160	63	2008
2	0	0	0	0
1	1	146	63	2008
1	2	164	73	2006
1	2	166	72	0
1	2	0	52	2008
1	2	166	71	2006
1	1	173	0	2006
1	2	160	67	2008
1	2	0	72	2009
1	1	0	58	2008
1	1	127	58	2008
1	2	148	67	2006
1	1	0	55	2009
1	1	172	0	2007
1	2	134	51	2008
1	2	144	57	2006
2	1	0	0	2004
1	2	0	55	2008
1	2	0	72	2008
1	1	0	61	2009
1	1	164	68	2006
1	2	157	51	2007
1	2	137	70	2006
1	1	0	72	2009
1	1	147	0	2007
1	0	0	0	0
1	1	0	72	2009
1	1	125	58	0
1	1	164	54	2006
2	1	137	0	2005
1	0	0	0	2006
1	1	134	58	2006
2	0	0	0	0
2	2	164	0	2005
1	2	134	55	2008
1	1	0	63	2008
1	0	0	0	0
1	2	168	65	2007
1	2	134	71	2005
1	2	144	60	2007
2	2	0	0	2005
2	2	122	0	2003
2	2	133	0	2002
1	2	147	64	2008
1	2	0	0	0
1	1	170	63	2008
3	0	0	0	0
1	1	147	0	2009
2	2	127	63	2005
1	2	167	65	2008
1	1	0	59	2008
1	1	142	58	2007
1	0	0	53	2008
2	1	127	63	2005
1	2	0	72	2008
2	0	137	0	2004
1	2	140	63	2008
1	1	134	51	2008
1	1	0	63	2007
2	1	144	67	2004
1	1	166	54	2008
1	2	134	62	0
1	2	134	72	2009
1	2	0	67	2008
1	2	134	70	2007
1	0	0	0	2009
1	1	127	59	2009
1	1	153	57	2008
1	2	133	70	2005
1	1	125	73	2006
1	2	137	58	2006
1	0	0	0	0
2	1	164	0	2003
1	1	0	0	2007
1	0	0	0	0
2	2	127	0	2005
2	1	135	0	2005
1	1	166	52	2009
2	1	136	0	2003
2	2	164	0	2005
1	2	127	72	2009
1	1	136	63	2006
2	1	164	0	2005
1	1	173	51	2008
1	1	0	55	2009
1	1	0	67	2009
1	1	128	58	2008
2	1	137	0	2005
1	1	136	58	2007
1	2	167	0	2007
1	1	0	71	2006
1	2	134	63	2007
2	1	147	0	2005
1	2	0	61	2009
1	1	0	61	2009
2	2	136	0	2005
1	2	175	61	2009
1	1	166	60	2008
1	0	134	0	2007
1	1	125	63	2006
2	1	144	0	2005
1	0	167	0	2006
1	1	125	70	2006
1	2	134	75	2006
1	2	162	61	2009
2	2	137	70	2005
1	1	0	72	2009
1	0	0	64	2008
1	2	128	67	2009
1	1	164	60	2007
1	1	167	67	2009
2	2	144	0	2005
1	2	136	63	2008
1	2	134	73	2005
2	1	137	70	2005
1	1	166	67	2009
1	1	164	0	2006
1	2	0	52	2009
1	1	147	0	2007
2	2	142	70	2005
1	1	137	72	2009
1	1	0	52	2009
1	0	144	0	0
1	1	160	72	2006
1	2	0	52	0
1	1	150	0	2007
1	1	128	75	2006
1	2	133	53	2005
1	1	160	75	2006
1	1	0	52	2009
1	0	160	69	0
1	1	136	55	2008
1	1	170	63	2007
1	2	0	67	2008
1	1	139	0	2006
2	1	0	0	0
1	2	0	0	2008
1	1	158	61	2009
2	2	144	0	2004
2	1	164	61	2004
1	1	128	64	2008
2	2	134	0	2005
1	2	134	57	2008
1	1	137	63	2007
1	2	124	69	2008
1	2	147	55	2008
1	1	0	61	2009
1	2	0	67	2009
1	1	125	70	2006
2	2	0	0	2004
1	1	127	57	2009
1	1	0	57	2009
1	1	137	0	2006
1	1	172	0	2006
1	1	160	66	2006
1	1	134	58	2006
1	2	0	72	2009
1	2	144	57	2006
1	2	134	73	2006
1	1	130	59	2008
2	1	172	61	2004
2	1	147	0	0
1	2	128	60	2008
2	0	134	0	2005
1	2	0	0	2008
1	0	164	63	2005
1	2	164	70	2006
1	1	0	62	2007
1	1	166	69	2007
1	1	164	71	2006
1	1	0	59	2008
1	2	160	61	2004
1	1	0	64	2007
1	1	137	0	2007
2	0	164	0	2005
2	2	134	54	2005
1	2	134	57	2009
1	1	166	59	2007
1	2	134	0	0
1	1	0	0	2008
2	2	157	0	0
2	2	164	71	2005
2	1	134	0	2003
1	1	164	70	2005
1	2	134	0	2007
1	2	136	66	2007
1	2	160	72	2009
1	1	134	71	2006
1	1	135	51	2008
1	2	144	59	2008
1	0	0	0	0
1	2	0	59	2008
1	1	167	52	2009
1	2	164	0	0
1	1	134	61	2005
1	2	134	71	2006
1	2	144	68	2007
2	1	170	0	0
1	2	144	0	2006
1	1	166	0	2006
1	1	0	0	2006
1	1	123	61	2009
1	0	173	0	2007
2	2	135	71	2005
2	2	134	70	2005
1	2	134	70	2008
1	1	147	0	2006
2	1	162	55	2004
1	1	173	61	2009
2	2	164	61	2005
1	2	125	75	2006
1	1	166	62	2007
2	2	123	0	2005
1	1	175	56	2008
1	0	166	71	2005
1	2	127	51	0
1	2	166	72	2009
1	1	0	52	2008
1	2	166	55	2009
1	2	0	68	2008
1	2	144	0	2006
1	1	0	61	2009
1	1	123	63	2007
2	1	168	0	2004
2	1	173	53	2005
1	1	0	72	2009
1	2	0	57	2009
1	1	168	0	2007
1	1	144	71	2006
3	0	0	0	0
1	2	127	52	2009
4	2	0	0	0
1	2	0	64	2008
1	2	130	61	2006
1	2	168	60	2007
1	2	0	67	2008
2	1	164	0	2005
2	1	164	0	2005
1	2	128	65	2008
1	2	146	56	2007
1	1	173	0	2006
2	2	134	0	2004
1	2	144	0	2006
1	2	134	0	2008
1	1	146	55	2009
1	1	0	59	2009
1	1	160	53	2007
1	2	147	0	2007
4	0	0	0	0
1	1	162	56	2008
1	2	144	67	2009
1	2	128	59	2008
1	2	0	67	2009
1	2	134	60	2006
1	1	0	63	2008
1	1	166	57	2005
1	2	164	63	2006
1	0	0	66	0
1	2	164	56	2007
1	1	153	63	2008
1	2	134	64	2008
2	1	137	0	2005
1	2	167	70	2007
1	0	137	0	0
1	1	166	71	2005
1	2	134	60	2006
1	2	162	71	2006
1	2	0	0	2006
1	2	0	64	2008
1	2	136	55	2009
2	2	133	70	2005
2	0	164	0	2003
1	2	0	72	2009
1	2	144	61	2009
1	1	173	71	2006
1	2	0	59	2009
1	1	0	64	2008
1	2	160	67	2007
1	1	0	0	2009
1	2	157	0	2006
2	1	167	0	2004
1	1	0	58	2008
2	1	0	0	2004
1	2	147	55	2007
1	2	158	57	2009
1	2	134	0	2006
1	1	0	72	2009
1	1	170	63	2007
2	1	153	0	2003
1	1	163	52	2006
1	0	161	0	0
2	2	134	0	2005
1	2	136	67	2005
1	1	128	58	2008
1	2	123	72	2009
1	1	0	63	2008
1	1	0	61	2009
1	1	0	58	2008
2	2	175	0	2004
1	1	164	71	2006
1	1	162	70	2006
1	2	0	55	2009
1	1	0	69	2008
2	0	133	0	2005
1	1	137	64	2007
1	2	118	0	0
1	1	135	53	2008
1	2	137	51	2007
1	1	134	59	2009
1	2	140	59	2009
2	1	137	0	2004
1	2	139	0	2007
1	1	164	57	2005
1	2	164	75	2006
1	1	167	63	2007
1	2	164	0	2006
1	2	164	59	2007
1	1	0	59	2009
1	1	0	59	2009
1	1	122	55	2009
1	1	0	63	2007
2	1	134	0	2005
2	1	164	0	2005
1	2	0	55	2009
1	1	164	0	2006
2	2	174	0	0
1	1	0	51	2008
2	1	122	0	2005
1	1	164	55	2009
1	2	0	51	2007
2	2	147	0	2005
1	1	167	72	2007
4	2	0	0	0
1	2	0	72	2009
1	1	125	75	2005
2	1	137	0	2005
1	1	0	58	2008
1	1	0	61	2009
1	1	160	71	2007
1	2	0	64	2008
1	1	0	62	2008
1	1	0	57	2008
2	1	127	0	2004
1	1	166	58	2008
2	2	164	0	2005
1	2	0	55	2009
1	1	125	0	2007
1	1	166	51	2008
2	2	164	0	2003
1	2	158	0	2006
1	2	128	63	2006
1	2	137	61	2009
1	2	136	57	2006
1	2	0	64	2008
1	2	164	53	2007
1	1	122	64	2008
2	1	128	0	2005
1	0	0	0	0
1	1	0	51	2008
1	1	175	65	2006
1	1	0	58	2008
1	2	144	59	2008
1	2	134	58	2007
1	1	160	0	2008
1	1	134	0	2007
1	1	144	59	2008
1	2	0	61	2009
1	2	162	69	2007
2	1	166	0	2005
1	0	164	70	2006
1	1	137	54	2006
2	2	137	0	2004
1	0	144	70	2005
1	2	133	0	2006
1	2	134	74	2008
1	1	134	75	2005
1	1	147	59	2009
2	1	135	0	2004
1	0	0	58	2008
1	2	144	63	2007
1	1	125	67	2009
1	1	147	55	2009
1	0	153	62	2007
1	2	0	55	2009
2	2	137	0	2005
1	1	0	64	2008
1	2	0	52	2009
1	2	0	64	2008
2	1	166	0	2001
1	1	160	72	2006
1	2	167	63	2006
2	1	147	0	2005
1	1	147	74	2008
1	1	137	51	2008
1	2	126	55	2008
1	1	175	59	0
2	2	134	0	2004
1	0	134	60	2006
1	2	167	60	2007
1	1	144	0	2006
1	1	126	67	2009
1	1	0	64	2008
1	1	0	67	2009
1	2	134	73	2007
1	2	134	51	2007
1	2	126	51	2007
1	2	0	57	2009
1	2	133	0	2008
1	2	126	55	2009
1	2	127	54	2007
5	1	135	0	2004
1	2	134	57	2009
1	1	0	59	2008
1	0	160	67	2008
1	2	137	53	0
1	2	134	0	2006
1	1	0	61	2009
1	1	146	0	2007
1	1	172	65	2006
1	2	164	71	2006
2	1	0	0	2003
1	1	144	53	2006
1	1	0	63	2008
2	1	0	0	2004
1	2	162	61	2006
1	2	136	58	2007
1	2	134	57	2009
2	2	134	0	2004
1	1	0	61	2009
