status	gender	major	dorm	year
1	2	64	0	2005
1	1	0	83	2008
2	2	70	0	0
1	1	90	31	2010
1	1	85	83	2006
1	1	86	39	2008
2	2	85	0	2004
1	1	85	40	2008
1	2	52	38	0
1	1	0	35	2009
1	2	56	36	2009
1	2	52	45	2007
1	1	0	44	2008
1	2	100	44	2008
1	2	103	78	2006
1	1	0	38	2009
2	1	52	83	2005
1	1	102	0	2006
1	1	102	42	2008
1	2	0	81	0
1	2	89	34	2006
1	1	86	83	2007
1	1	92	83	2007
1	2	108	0	2008
1	1	61	83	2006
1	2	0	44	2008
1	2	61	40	2008
5	2	62	0	0
1	1	61	64	2007
1	2	98	0	2007
2	1	64	0	2005
1	1	86	42	2007
1	2	0	0	0
1	2	52	47	2008
1	1	99	0	2009
1	2	118	31	0
2	2	0	61	2004
1	1	86	83	2007
1	2	99	83	2007
1	2	52	83	2006
2	1	46	0	0
1	1	0	36	2009
1	1	0	41	2009
1	1	61	83	0
5	1	86	0	0
2	1	98	0	2004
2	2	102	0	2005
1	2	102	48	2006
4	2	0	0	0
1	0	0	0	0
1	1	85	32	2008
1	2	98	74	2006
2	1	52	83	2005
2	2	86	0	2004
1	2	61	83	2006
1	2	63	40	2008
1	1	121	72	2008
1	2	51	36	2008
1	0	0	0	0
2	2	51	0	2005
1	1	61	37	2005
1	0	0	0	2006
2	2	99	0	2004
1	1	98	0	2006
1	2	61	63	2008
1	2	103	44	2008
1	1	52	47	2007
1	2	64	0	2005
1	0	0	0	0
2	2	106	0	2004
1	1	94	31	2008
1	2	85	83	2006
1	0	0	0	0
1	1	102	83	2006
1	1	83	83	2007
1	1	98	0	2007
2	1	61	0	2005
1	1	92	37	2006
2	0	70	83	2005
1	2	0	47	2009
2	1	52	0	2003
1	1	98	38	2007
1	2	46	46	2006
1	2	110	33	2009
1	2	79	0	2009
1	1	98	46	2007
5	0	82	0	2008
1	1	0	0	0
1	2	123	42	2006
1	2	85	82	2009
1	1	102	0	2005
2	2	106	67	2004
1	2	0	35	0
1	1	0	36	2009
1	0	0	0	0
5	2	83	0	2005
1	1	69	78	2006
1	1	86	37	2005
1	1	52	0	2008
2	0	118	0	2004
2	2	64	0	2005
2	2	61	83	2003
1	1	86	37	2007
2	1	98	0	2004
5	2	56	0	0
1	2	52	46	2008
1	2	51	42	2006
1	2	60	32	0
1	0	101	0	2008
1	1	52	83	2006
1	2	117	36	2009
1	1	85	42	2009
1	1	86	0	2006
1	0	52	42	2008
1	1	86	0	2004
1	1	98	42	2009
1	2	46	44	2009
1	1	79	81	2006
2	1	121	34	2004
2	1	97	0	2005
1	2	103	47	2008
1	2	121	83	2007
2	2	83	0	2005
1	1	70	83	2007
1	2	52	36	2009
2	2	0	0	0
1	2	61	83	2007
1	1	86	82	2009
2	1	58	59	2003
1	1	86	42	2008
2	2	61	0	2004
2	0	0	0	0
1	2	98	36	2009
1	2	51	42	2007
1	2	105	62	2007
2	1	52	0	2004
1	1	103	42	2008
1	2	58	40	2008
1	2	56	35	2005
1	2	64	0	2007
1	1	86	34	2006
1	1	86	71	2007
2	2	103	0	2004
5	0	0	0	0
1	1	102	83	2005
1	1	86	82	2009
1	1	63	45	2008
1	2	61	43	0
1	2	121	83	2006
1	2	64	81	2008
1	1	65	81	2007
1	2	0	82	2009
1	1	0	81	2008
2	1	95	83	2005
1	0	0	0	0
2	2	52	32	2002
1	2	85	46	2007
1	0	0	79	2007
1	1	0	45	0
1	2	103	33	2009
2	1	52	0	2005
1	1	85	72	2008
1	1	64	42	2009
1	1	52	61	2006
2	1	98	0	2004
1	2	114	83	2006
2	1	98	0	2004
2	2	60	0	0
1	1	103	39	2009
1	0	0	0	0
1	2	97	44	2007
1	2	100	43	2008
1	1	0	40	2008
1	1	0	44	2009
1	1	86	36	2009
1	2	56	33	2008
1	1	63	0	2007
1	2	109	0	2006
1	1	52	39	2009
3	0	0	0	0
2	1	64	0	2005
1	2	47	35	2008
1	2	85	83	2006
1	2	98	82	2009
1	2	64	34	2006
1	1	85	35	2009
5	0	0	0	0
1	1	70	81	2005
1	1	125	83	2007
1	2	0	31	2007
1	2	58	39	2009
1	2	0	40	2008
1	1	0	33	2008
1	0	0	0	0
1	2	86	46	2007
1	2	83	78	2007
1	1	52	0	2007
1	2	100	43	2009
1	0	80	39	2006
2	2	85	34	2005
2	1	70	0	2004
1	1	121	31	2007
5	2	46	83	2005
1	1	64	0	2006
1	2	61	82	2009
1	2	85	37	2005
1	2	102	83	2004
1	1	0	33	2008
1	1	0	0	2008
1	2	52	47	2007
1	2	61	40	2007
1	1	61	38	2007
1	1	98	83	2006
1	1	124	0	2007
1	0	0	0	0
1	1	86	0	2005
1	1	53	43	2005
1	2	102	31	2008
2	1	125	0	2005
1	1	52	44	2009
1	1	0	45	2008
1	2	126	45	2006
1	2	94	83	2006
1	1	46	33	2008
1	2	85	81	2008
1	2	0	0	2007
1	2	86	42	2006
2	2	60	0	2004
2	1	85	0	2005
1	0	0	0	0
1	2	85	0	2006
1	1	61	83	2007
1	1	109	83	2006
1	0	0	0	0
2	1	117	0	2005
2	1	64	0	2003
1	0	0	0	0
1	1	64	0	2006
1	2	123	83	2007
2	2	48	83	2004
5	0	0	0	0
1	2	98	82	2008
4	2	0	0	0
1	1	85	0	2007
1	1	0	39	2008
1	2	98	44	2009
2	2	70	0	2004
1	2	64	0	2006
5	1	98	0	2005
1	2	63	43	2007
1	1	0	35	2009
2	1	46	0	2004
1	1	67	37	2006
1	2	118	47	2008
1	1	98	42	2008
1	0	0	0	0
2	2	85	0	2004
2	2	109	54	2005
1	0	0	0	0
1	1	0	47	2008
1	2	0	47	2009
1	1	52	40	2008
1	2	85	0	2006
1	1	64	42	2007
2	0	63	0	2004
1	0	0	0	0
2	1	86	0	2004
1	1	85	0	2007
2	0	0	0	0
1	2	62	82	2009
1	2	52	81	2007
5	1	102	83	2005
1	1	61	83	2006
1	2	85	82	2009
1	2	0	44	2009
1	2	56	36	2009
2	2	109	0	2004
2	1	0	0	2004
1	1	56	81	2005
2	1	121	0	2005
1	1	85	36	0
1	2	52	39	2009
2	1	105	0	2005
1	2	85	31	2007
2	1	47	0	2005
1	2	98	44	2009
1	2	0	36	2009
2	1	92	34	2005
1	2	99	45	2007
1	2	70	46	2008
2	1	91	81	1999
2	1	64	34	2004
2	1	52	0	2004
1	2	98	45	2008
1	0	0	0	0
4	2	108	67	2005
2	2	54	0	0
5	1	86	0	0
1	2	61	72	2005
1	1	80	83	2006
1	1	64	83	2007
1	1	51	36	2009
1	2	108	46	2008
2	1	98	0	2005
1	2	85	44	2009
1	1	0	40	2008
1	1	86	83	2006
1	2	124	31	2007
1	2	85	83	2007
5	2	99	0	0
1	1	52	35	2008
1	2	99	44	2009
5	2	78	0	0
1	1	46	45	2007
1	2	56	39	2008
5	2	79	83	0
5	1	82	0	0
1	1	64	83	0
1	0	0	0	0
1	1	52	34	2006
1	1	95	34	2007
1	2	52	83	2007
1	2	0	38	2008
1	1	0	35	2008
1	1	0	42	2009
1	2	85	56	2007
1	2	124	81	2007
2	2	83	0	2005
1	2	70	0	2005
1	1	98	0	2008
1	0	117	0	2006
1	0	0	0	0
1	0	109	83	2007
2	2	85	57	1948
2	2	63	45	2004
1	2	47	45	2008
1	0	97	0	2007
1	2	83	40	2008
1	2	98	36	2009
2	1	102	0	2004
2	2	64	0	2005
1	1	86	83	2007
1	1	48	83	2006
1	1	94	33	2008
1	2	102	83	2007
1	1	92	35	2009
1	1	0	44	2009
1	2	98	44	2008
1	1	52	54	2006
1	2	60	60	2007
2	1	46	0	2005
2	0	0	0	2004
1	1	64	83	2006
1	1	51	83	2005
1	2	61	83	2006
1	2	98	43	2006
1	2	85	82	2009
2	2	64	83	2005
2	2	123	0	2005
1	2	0	44	2009
1	1	98	0	2006
1	2	103	83	2007
1	1	0	42	2009
1	2	61	36	2009
1	2	0	57	0
1	2	61	82	2008
1	2	98	47	2008
1	2	85	0	2006
1	1	52	83	0
5	2	0	84	2008
1	1	98	61	2008
1	2	124	43	2005
2	2	85	0	2004
1	2	85	70	2005
1	1	0	33	2009
2	1	102	0	2005
2	1	105	0	2005
2	2	64	0	2005
2	2	98	74	2004
2	1	62	57	2001
5	1	0	0	2003
1	1	98	46	0
1	2	0	79	2007
1	1	98	45	2008
1	2	84	32	2008
1	1	86	42	2007
1	1	92	31	2006
1	2	123	83	2007
1	2	63	0	2008
1	1	98	72	2005
1	1	64	38	2009
1	1	63	47	2009
1	1	52	63	2006
1	2	0	39	2009
2	1	86	0	2004
1	1	98	83	2007
1	1	98	0	2007
1	2	69	0	2007
1	1	85	45	2008
2	2	103	0	2005
2	2	105	0	2004
2	2	79	59	2003
1	2	63	31	0
2	1	109	0	2005
2	1	92	0	2005
1	2	83	0	2007
1	2	98	81	2008
1	2	99	0	2009
1	1	0	33	2009
1	1	74	37	2007
1	1	86	0	2006
1	2	126	37	2006
1	1	118	82	2007
1	1	98	0	2006
1	1	0	46	2008
1	1	105	0	2005
1	1	94	0	2008
1	1	98	38	2008
1	1	65	37	2008
1	1	0	36	2009
1	0	109	0	0
1	2	53	35	2008
2	1	52	0	2004
2	2	64	0	2004
1	2	123	83	2007
1	1	61	72	2006
1	0	0	0	2005
1	0	0	0	0
1	1	63	42	2009
1	1	0	37	2008
1	2	0	44	2008
1	2	52	36	2008
1	1	121	34	2007
1	2	123	42	2009
1	2	109	34	2007
1	2	85	83	2006
1	2	109	42	2008
1	2	103	83	2007
1	2	123	83	2006
1	1	86	82	2009
1	1	0	37	2008
5	2	98	0	2006
2	2	98	0	2003
1	2	67	44	0
1	1	0	42	2009
1	0	47	83	2006
1	2	124	74	2006
2	2	83	0	2005
1	2	63	37	2008
1	1	85	83	2007
1	1	103	83	2006
1	1	44	83	2007
2	2	46	0	2004
2	2	0	0	2005
1	1	0	36	2009
1	1	98	83	2006
1	0	102	0	0
1	0	86	40	2008
2	1	86	0	2005
1	0	0	0	0
1	1	125	47	2007
2	1	56	0	2005
1	1	56	44	2009
1	2	118	40	2008
2	2	103	0	2005
1	1	0	33	2009
1	2	91	44	2008
2	1	86	0	2005
1	1	109	36	2009
2	2	70	0	2005
1	1	80	0	0
2	1	62	0	2002
1	2	65	33	2008
1	1	79	0	2008
1	1	52	36	2009
1	1	98	33	2007
1	2	98	33	2008
1	2	52	0	2007
1	1	52	82	2009
2	1	86	0	2004
1	1	0	45	2008
1	2	98	34	2007
1	1	86	0	2006
2	2	107	0	2003
2	0	97	0	2004
1	0	0	0	0
1	1	98	37	2006
1	1	98	45	2007
1	1	86	42	2007
1	1	72	81	2007
1	1	64	83	2007
2	1	109	0	2005
1	1	109	83	2006
1	1	67	47	2007
5	2	103	0	2006
1	1	109	83	2007
5	0	0	0	0
1	1	98	42	2009
1	2	75	83	0
1	1	46	83	2007
1	2	85	38	2008
1	1	79	42	2008
1	2	103	33	2008
1	2	70	37	2006
1	1	0	36	2009
1	1	61	83	2006
1	0	63	42	2008
1	1	105	0	2006
1	1	0	35	2008
2	1	86	0	2004
1	2	0	44	2009
2	0	52	0	2005
2	1	98	0	2004
1	1	0	42	2008
1	1	52	47	2008
1	1	0	82	2008
2	1	47	34	2004
1	1	49	42	2008
2	1	86	0	2005
1	1	52	0	2006
2	2	52	83	2005
1	1	86	32	2008
1	2	0	42	2009
1	2	121	83	2007
2	1	92	0	2003
2	2	56	0	2000
1	2	85	36	2007
1	1	52	36	2009
1	2	84	82	2009
1	1	0	38	2009
1	1	105	83	2006
2	1	85	0	2004
1	2	118	38	2008
1	2	61	79	2006
1	2	98	0	0
1	1	109	0	2005
1	1	86	83	2006
1	2	98	83	2006
1	1	0	35	2008
1	2	98	42	2008
2	2	53	0	0
1	2	64	36	2009
1	2	0	36	2009
2	1	109	0	2005
1	1	63	47	2009
1	2	70	34	2007
1	1	109	47	2008
1	0	0	0	0
2	0	0	0	0
1	2	98	35	2009
2	2	103	0	2004
1	1	48	83	2008
1	2	52	32	2006
1	2	103	38	2008
1	1	121	38	2008
2	1	86	83	2005
1	1	109	83	2007
1	2	124	0	2006
1	0	64	40	2008
1	1	98	82	2007
2	1	124	0	2004
2	1	109	0	2004
2	1	64	0	2005
1	2	60	83	2006
1	2	0	52	2006
4	2	0	0	0
2	1	98	83	2005
1	1	0	36	2009
2	2	98	0	2005
1	2	0	36	2009
1	1	52	32	2008
1	1	98	35	2009
1	2	0	0	0
1	2	94	44	2009
1	1	98	45	2007
2	1	98	0	2004
1	2	99	62	2006
5	2	63	0	2006
5	1	86	0	0
1	1	52	47	2008
1	2	98	0	2006
1	2	125	83	2007
1	1	64	0	2006
2	2	102	0	2004
2	2	103	0	2004
1	2	0	81	2009
2	1	52	83	2005
1	1	0	42	2009
1	1	63	38	2009
1	1	98	83	2007
1	1	61	34	2005
1	1	85	42	2008
1	1	100	42	2007
1	1	64	0	2006
2	1	105	0	2004
1	0	52	42	2008
1	0	0	0	0
2	1	117	0	2005
1	2	97	83	2006
1	2	70	31	2009
1	2	98	45	0
1	0	0	0	0
1	0	0	79	0
1	1	99	0	2008
2	1	0	0	2004
2	2	64	0	2003
1	2	0	83	2006
1	1	0	83	2007
1	2	64	34	2006
1	0	123	0	2006
1	2	98	0	2007
1	2	103	35	2009
2	2	99	0	2005
1	0	0	0	0
2	2	61	0	2003
1	2	0	37	2008
1	2	63	36	2009
1	2	70	0	2006
1	2	63	83	2006
5	0	61	0	0
2	1	98	0	2005
1	1	61	45	2007
1	1	0	0	2006
1	1	86	0	2006
1	2	98	39	2006
1	2	100	40	2008
1	2	118	83	2006
1	2	98	0	2007
1	2	52	42	2008
1	1	94	81	2009
1	2	85	36	0
1	1	86	34	2007
2	1	64	0	2005
1	2	64	0	2005
1	2	61	0	2006
1	2	61	83	2006
1	1	86	34	2007
1	2	0	42	2009
1	1	123	83	2006
1	2	61	45	2008
2	2	98	0	2005
1	1	64	82	0
2	1	98	81	2001
1	2	52	83	2006
1	2	102	60	2007
1	2	70	81	2007
1	1	64	0	2007
1	1	52	45	2008
1	2	99	47	2009
2	1	92	0	2005
1	2	99	40	2008
1	2	85	83	2006
2	1	125	0	2005
1	1	73	42	0
1	2	0	45	2008
1	0	125	42	2008
1	1	103	36	2009
1	0	0	0	0
1	2	70	31	2008
1	1	123	82	2009
2	1	98	83	2005
1	2	79	0	0
1	2	98	0	2007
1	2	85	82	0
1	1	118	37	2007
1	1	51	82	2008
5	2	98	83	2005
1	1	98	47	2008
1	2	61	0	2006
1	2	79	57	2007
1	2	0	42	2009
2	1	52	0	2005
1	1	0	40	2008
2	2	85	0	2005
1	2	98	47	2009
1	1	70	38	2009
1	1	61	46	2008
2	1	70	0	2005
1	0	0	0	0
1	1	98	32	2008
1	2	103	37	2008
2	2	60	0	2004
1	1	0	39	2009
1	2	52	42	2007
2	2	51	34	2004
1	0	86	0	2007
1	1	109	83	2006
2	2	61	0	2005
1	1	64	81	2008
1	1	83	83	2006
1	1	97	83	2007
1	1	0	38	2009
1	2	89	42	2006
1	2	109	83	2010
1	2	70	83	2007
1	1	109	0	2007
1	1	64	0	2006
1	1	64	83	2006
1	1	48	33	2005
1	1	0	83	2007
1	0	0	37	2008
1	1	52	0	0
1	2	0	37	2008
1	2	60	37	2005
1	1	86	33	2007
1	1	0	42	0
5	1	58	83	2005
1	1	0	47	2009
1	2	60	74	2006
1	1	85	0	2007
1	2	65	37	2007
2	1	64	0	2004
2	2	59	83	2004
1	1	123	48	2008
1	2	64	83	2006
1	1	0	45	2008
1	1	109	34	2007
1	1	0	36	2009
1	2	63	47	2009
1	2	0	33	2009
1	1	64	40	0
1	0	0	0	0
1	1	98	0	2005
1	2	98	0	2007
1	1	65	38	2007
2	1	86	0	2004
1	0	0	79	0
2	2	64	0	2004
1	1	64	83	2007
1	1	0	35	2008
1	1	0	82	2009
1	1	98	0	2005
1	0	0	0	0
1	2	98	47	2009
1	0	0	0	0
1	1	52	40	2008
1	1	52	47	2008
2	2	60	0	2004
1	2	98	47	2008
1	1	98	58	2006
1	1	0	36	2008
1	1	102	83	2007
1	1	65	42	2007
1	0	0	0	0
1	0	0	0	0
1	1	125	0	2007
1	2	99	0	2006
1	1	64	44	2009
2	2	85	39	2005
1	1	0	38	0
2	1	98	0	2005
2	1	46	0	2005
1	2	61	47	2007
2	1	64	0	2003
1	1	64	83	2007
1	2	98	45	2007
1	2	85	0	2007
2	2	60	0	0
1	1	98	36	2009
1	2	80	42	2008
5	2	99	65	2007
1	1	61	83	2006
2	2	0	0	2005
1	2	103	37	2008
1	2	0	31	2008
2	2	51	0	2005
1	1	64	83	2006
2	1	92	0	2004
2	1	118	0	2004
1	1	85	83	2007
2	2	82	63	0
1	2	103	38	2009
2	1	79	0	2004
2	1	74	0	0
2	2	64	0	2004
1	2	52	81	2009
2	1	61	0	2004
1	0	98	54	2007
1	1	125	83	2007
1	2	70	43	2005
1	0	0	0	0
1	1	64	0	2008
1	0	47	0	2006
1	0	0	0	0
1	2	52	0	2006
2	1	92	0	2004
2	1	0	0	2004
2	2	61	74	2004
2	2	99	0	2004
5	1	82	0	2005
2	2	99	0	2005
1	2	61	0	2005
2	2	51	37	2005
1	1	0	38	2007
1	1	98	0	0
2	1	85	0	2005
2	2	0	0	2004
1	2	70	83	2005
1	2	61	0	2005
1	1	102	71	2008
2	1	64	0	2003
1	2	0	42	2008
2	2	0	0	2005
1	1	52	44	2009
1	1	0	36	2008
2	0	70	0	2004
2	2	61	0	2005
2	1	123	0	2004
2	1	86	0	2004
1	1	125	40	2008
2	1	64	0	2005
1	1	85	81	2007
1	1	92	37	2007
1	0	99	83	2007
1	0	79	42	2007
1	0	85	0	2006
1	0	0	0	0
1	1	64	83	2006
1	1	0	81	2009
1	2	118	0	2005
2	1	0	0	2005
1	2	100	73	2005
1	1	98	81	2007
2	2	118	0	2004
2	2	53	0	2005
1	1	70	83	2005
1	2	0	38	2007
1	2	86	39	2009
1	2	90	42	2008
1	2	99	83	2007
1	1	103	38	2006
2	1	98	0	2005
1	1	109	36	2006
1	2	70	83	2007
2	2	102	0	2004
1	2	61	40	2007
2	1	98	0	2003
2	1	118	0	2004
2	2	0	0	2004
1	2	0	38	2007
1	1	73	38	2007
2	2	60	0	2003
1	2	85	33	2005
1	1	86	57	2006
1	1	105	0	2007
1	1	0	36	2009
1	2	71	36	2005
1	2	52	81	2006
1	1	61	40	2008
1	2	0	82	2009
1	1	0	40	2007
1	1	62	0	2007
1	2	61	0	2005
1	1	0	0	2007
1	1	86	0	2005
2	2	62	83	2000
5	0	0	0	0
1	2	60	0	2007
2	1	118	0	2004
1	1	105	0	2007
2	1	46	83	2005
1	1	86	0	2006
1	1	64	0	2006
1	2	94	34	2008
1	2	0	83	2009
1	1	0	37	2008
1	1	85	0	2007
1	2	100	36	2009
1	1	86	81	2008
1	1	117	83	2007
1	2	122	40	2008
1	1	97	43	2008
1	0	0	0	0
1	1	64	32	2008
1	0	61	83	2007
2	2	99	37	2005
1	0	0	40	2008
1	1	125	40	2008
1	0	0	0	0
1	1	102	40	2008
1	1	97	0	2007
4	0	0	0	0
1	2	0	82	2009
1	1	98	35	2009
2	0	64	0	2005
5	1	61	0	0
2	1	52	0	2005
1	0	0	0	0
1	1	100	83	2007
1	1	123	0	2006
1	1	70	83	2006
2	2	61	0	2005
5	1	62	0	0
1	2	105	37	2006
1	2	64	83	2007
2	2	103	0	2004
1	1	0	41	2008
1	0	103	0	2005
1	1	98	36	2009
1	2	103	45	2007
1	2	0	47	2008
1	1	85	46	2005
1	1	117	83	2007
1	2	61	38	2008
1	2	61	46	2008
1	1	118	0	2006
1	1	0	45	2008
1	1	0	83	2007
1	1	86	83	2007
1	2	49	83	2007
1	1	0	36	2009
2	2	63	0	2004
1	2	102	81	2008
2	2	88	0	0
1	2	0	0	2007
1	1	73	0	2008
1	0	0	0	2005
2	1	61	35	2004
1	2	0	47	2009
1	2	58	83	2005
1	0	0	81	2008
1	1	61	35	2008
2	2	0	0	2005
1	2	51	82	2009
2	1	98	0	2004
2	2	70	0	2005
1	1	0	43	2008
1	1	52	44	2009
2	1	86	0	2004
1	1	52	40	2008
1	1	109	0	2006
2	1	61	0	0
2	1	52	83	2005
1	1	86	83	2006
1	2	70	35	2008
1	2	98	83	2006
2	2	79	81	2005
1	1	52	37	2006
1	2	83	0	2006
1	1	0	0	2007
2	2	118	34	2005
1	1	108	49	2008
2	2	123	0	2002
1	2	103	83	2007
2	2	102	0	2003
2	1	46	37	2004
1	2	61	82	2009
1	2	103	36	2008
1	1	0	40	2008
1	2	98	36	2009
2	1	98	0	2004
1	1	85	0	2006
2	2	98	37	2005
1	1	97	33	2007
5	2	100	83	2005
1	1	110	83	2007
1	2	64	32	0
1	2	60	83	2007
1	1	92	0	2006
2	2	98	0	2004
1	2	85	36	2009
2	0	61	0	2004
1	1	79	44	2006
1	1	70	47	2008
1	1	97	0	2008
1	2	63	38	2008
1	1	86	72	2006
0	0	0	0	0
2	2	59	37	2005
5	1	102	83	2007
1	1	0	47	2008
1	1	51	44	2009
1	1	0	36	2008
2	1	61	0	2004
1	1	109	43	2007
1	1	103	0	2006
1	1	85	83	2007
1	2	98	39	2006
1	1	64	40	2008
1	1	98	39	2009
1	2	65	31	2008
1	1	85	0	0
1	1	0	81	2009
1	1	0	37	2008
1	2	98	83	2008
1	2	63	36	2009
1	2	98	0	0
1	1	47	0	2006
1	2	52	43	2006
3	2	61	83	2007
1	2	60	34	2007
1	2	123	42	2008
1	2	98	36	2009
1	2	61	45	2008
1	2	61	47	2007
1	2	118	44	2008
1	1	0	0	2007
1	1	61	45	2007
2	2	0	70	2003
1	1	86	42	2006
1	1	61	0	0
1	2	60	43	2008
1	2	52	81	2009
5	0	0	0	0
2	1	86	0	2005
2	1	65	0	2005
1	2	86	38	2007
1	1	67	64	2006
1	2	61	0	2006
2	2	52	0	2005
1	2	98	44	2009
1	1	98	40	2008
2	2	64	0	2005
2	1	70	0	2005
1	2	118	40	2008
2	2	122	83	0
2	2	61	38	2002
2	1	48	0	2004
2	2	109	0	2004
2	1	98	0	2005
5	0	102	83	2002
1	0	0	0	0
1	2	98	0	2007
2	1	109	0	2004
4	2	0	0	0
5	2	0	0	2008
1	1	52	37	2005
2	2	98	37	2005
1	2	103	31	2008
1	1	99	42	2007
1	1	86	83	2007
1	2	51	0	2005
1	1	61	83	2007
1	2	98	77	2006
1	2	0	36	2009
5	2	98	0	2006
1	1	100	63	2007
1	0	52	0	0
2	2	0	0	2003
1	1	64	31	2008
1	2	0	47	2009
1	1	98	0	0
1	2	61	81	2008
2	2	46	0	2005
1	1	98	40	2008
1	1	52	83	2007
1	2	52	0	2005
1	1	62	81	2007
1	1	86	83	2006
1	0	64	83	0
1	1	98	0	2006
1	2	98	0	2007
1	2	52	37	2008
1	1	0	81	2009
1	1	61	0	2006
1	2	98	39	2008
2	2	85	0	2004
1	2	123	42	2008
1	1	98	47	2008
1	1	0	82	2009
1	2	85	0	2006
2	1	52	83	2005
1	1	125	0	0
1	2	0	35	2009
1	2	98	0	2007
1	1	97	0	2006
1	2	61	0	2009
1	2	103	0	2006
1	2	103	37	2008
2	2	83	0	2005
1	1	80	83	2006
1	2	60	40	2008
1	1	61	0	2006
1	1	97	46	2008
1	2	85	0	2007
1	1	98	39	2009
1	1	98	0	2005
1	2	79	63	2007
1	2	56	38	2008
1	1	0	47	2008
1	1	98	0	0
1	2	64	40	2008
1	2	63	31	2008
1	1	61	83	2006
5	2	52	0	2005
1	0	0	83	2007
2	1	52	0	2004
5	2	0	83	2008
1	0	0	0	0
1	0	0	0	0
1	1	98	44	2009
1	2	103	83	2006
1	0	0	0	2005
5	2	52	83	2004
1	2	74	0	2008
1	2	85	36	2009
1	2	98	79	2007
2	2	99	83	2004
1	2	64	31	0
2	2	99	0	2005
1	1	0	32	2006
1	2	92	81	2007
1	2	63	40	2008
2	2	60	0	2000
1	1	52	40	2008
1	2	0	33	2008
1	0	61	0	2006
2	1	98	0	2005
2	1	86	0	2005
1	2	0	44	2009
1	1	0	81	2008
2	1	85	0	2004
1	1	83	0	2006
1	0	0	0	0
1	0	121	83	2007
2	1	64	0	2005
1	1	0	42	0
3	1	86	0	2005
2	1	0	0	2004
1	1	0	82	2009
2	1	46	0	2005
1	2	70	83	2005
1	1	86	81	2008
2	2	99	83	2003
1	2	64	83	2006
1	2	60	40	2007
1	1	0	54	2008
1	2	0	33	2009
1	1	86	72	2006
1	0	98	0	0
2	0	47	0	2005
1	1	61	42	2009
1	1	123	81	2009
2	2	64	83	2005
1	1	98	0	2007
1	2	98	34	2007
1	0	0	0	0
4	1	0	0	0
2	1	86	0	0
1	2	0	42	2008
2	0	61	0	2005
1	2	124	42	2009
2	1	86	0	2004
2	2	0	0	0
1	1	98	0	2007
1	1	61	83	2006
1	2	64	40	2008
1	2	52	81	2008
2	2	47	81	2005
1	2	52	31	2009
1	1	61	46	2007
1	2	63	83	2005
2	1	52	34	2004
3	0	0	67	0
1	1	48	42	2009
5	2	103	0	0
1	2	122	37	2007
1	1	64	34	2008
5	1	0	0	2005
1	0	0	0	0
1	2	60	0	2005
2	1	85	83	2005
1	1	79	83	2007
1	1	0	31	2009
1	2	61	74	2007
2	2	52	0	2005
1	2	92	83	2006
1	1	48	40	2008
2	1	46	37	2004
1	1	98	0	2007
1	2	0	82	0
1	2	83	83	2008
2	2	72	82	1992
1	0	85	43	2005
1	2	86	83	2007
1	1	85	34	2006
2	0	0	0	0
1	1	94	31	2008
2	2	85	0	2004
1	1	86	83	2007
2	1	85	83	2005
1	2	0	44	2009
1	1	56	42	2009
1	1	0	36	2008
1	1	86	73	2007
1	2	0	40	2008
1	2	80	32	2008
2	1	64	0	2004
5	2	85	83	2005
1	0	51	0	0
2	1	61	0	2004
2	2	100	0	2004
2	1	98	0	2004
2	1	98	0	2005
1	0	0	40	2008
2	1	99	0	2005
1	2	80	76	2006
1	1	47	40	2007
2	2	66	47	2003
1	1	109	73	2007
2	2	99	0	2004
2	1	86	0	2004
2	2	83	0	2005
4	0	0	0	0
2	1	60	0	2005
1	1	79	0	2007
1	2	118	83	2007
2	2	60	0	2001
1	1	0	0	2009
1	1	0	33	2009
2	2	85	0	2005
1	1	79	42	2008
1	2	117	63	0
1	2	98	83	2006
1	0	102	0	2005
1	1	61	36	2009
1	1	98	35	2009
1	2	85	83	2006
1	1	59	43	2008
1	1	61	0	2007
2	1	94	0	2004
1	1	0	81	2009
1	1	109	48	2006
1	2	103	83	2007
1	2	81	36	2009
1	1	102	83	2006
1	1	64	0	2005
1	2	102	40	2006
1	2	52	0	2007
1	2	102	81	0
1	1	52	83	2006
2	2	52	0	1998
1	2	48	83	2006
1	2	60	83	2006
2	2	103	0	2004
5	1	105	38	2005
1	2	85	36	2009
2	0	86	0	2004
1	1	123	83	2006
5	1	70	0	2005
2	2	124	83	2005
1	2	61	0	2006
1	1	0	38	2008
1	0	52	35	2008
2	2	86	69	2002
5	2	60	0	0
1	1	64	31	2009
2	1	85	0	2005
1	2	0	42	2009
1	1	117	42	2009
1	2	0	35	2009
1	2	0	36	2009
1	1	61	37	2006
1	1	61	0	2006
1	2	52	82	2008
1	2	98	38	2008
2	1	65	0	2004
2	1	109	0	2005
2	1	58	35	2004
1	1	0	47	2009
2	1	52	0	2005
2	2	80	0	0
1	2	85	83	2007
1	2	85	70	2007
1	1	99	81	2008
2	1	83	0	2005
1	1	121	0	2005
1	2	61	39	2008
1	1	52	36	2007
1	1	0	81	2008
1	2	46	0	0
1	1	0	47	2008
1	2	61	76	2006
1	1	0	42	2008
2	2	52	45	2004
2	1	46	0	2004
2	2	63	0	2004
1	1	52	38	2006
2	2	79	0	2004
1	2	85	0	2007
1	2	98	38	2009
1	1	52	83	2007
2	1	79	47	2004
5	1	86	0	0
1	2	0	0	2005
1	1	102	0	2007
5	1	60	83	0
1	1	98	82	2007
1	1	0	0	2009
2	1	98	0	2005
1	2	98	63	2008
1	1	98	43	2007
2	2	0	0	2005
1	1	105	81	2008
1	2	0	44	2009
2	1	52	0	2005
1	2	61	31	2008
1	2	100	44	2009
1	1	92	40	2008
1	1	118	38	2007
1	1	97	83	2007
1	1	0	44	2009
1	0	0	0	0
1	1	52	47	0
1	2	0	44	2009
1	1	98	83	2006
1	2	44	47	2008
1	1	85	35	2009
1	1	98	0	2006
1	2	0	45	2008
1	1	98	34	2007
1	1	109	83	2006
1	1	102	40	2008
1	1	98	36	2008
1	2	117	47	2008
2	1	86	0	2005
1	2	103	40	2008
1	1	0	33	2009
1	1	60	42	2009
1	1	109	47	2008
1	1	0	47	2008
2	0	98	0	2004
1	1	94	83	2007
1	2	0	83	2007
2	1	70	0	2005
1	1	109	42	2007
1	1	85	41	2009
1	1	109	34	2006
1	2	85	31	2009
1	1	0	56	2008
1	1	98	39	2009
2	2	123	0	2003
5	2	58	0	2007
1	0	123	0	2005
2	0	60	0	2001
1	2	0	36	2009
1	2	52	54	2008
2	1	86	37	2005
1	2	0	82	2007
1	1	0	42	2007
2	1	85	53	2004
1	1	48	33	0
1	2	52	83	2006
1	0	0	0	0
1	2	86	83	2006
2	1	47	0	2004
2	2	103	0	2003
1	1	105	83	0
2	2	118	0	2005
1	1	0	33	2009
2	2	85	0	0
5	2	46	0	2006
1	2	0	36	2009
1	1	103	0	2005
1	1	85	42	2007
1	1	94	47	2008
1	1	97	43	2008
1	1	64	37	2006
1	2	63	47	2009
1	0	0	0	0
2	1	86	83	2005
1	2	0	31	0
1	0	0	0	0
2	2	85	0	2005
1	1	63	41	2009
2	2	98	74	2003
1	2	98	0	2007
1	2	0	42	2009
1	2	84	0	2006
2	2	85	75	2004
1	1	86	59	2006
1	2	0	47	2008
1	1	110	37	2006
1	1	86	35	2009
1	2	64	38	2006
1	2	86	31	2008
4	2	0	0	0
1	1	52	0	2006
1	0	125	0	2006
2	2	78	0	2004
1	1	98	83	2006
1	1	85	42	2008
1	1	126	83	2006
1	1	0	38	2009
2	2	61	0	2005
1	1	64	57	2005
1	2	103	0	2007
1	1	0	42	2009
1	1	0	36	2009
1	1	92	83	2006
2	2	103	34	2004
1	1	86	82	2009
2	1	86	72	2004
2	2	64	0	2004
1	1	0	44	2009
2	2	0	80	2003
2	2	52	0	2004
2	2	64	0	2004
1	0	107	58	0
1	1	86	83	2006
1	1	0	82	2009
1	2	0	44	0
1	1	98	33	2009
1	1	0	38	2009
1	1	85	0	2005
1	1	98	83	2006
1	2	98	83	2006
1	0	52	0	0
1	1	65	32	2007
1	0	98	83	2007
1	1	67	0	0
1	1	98	83	2006
1	2	67	40	2007
2	1	52	0	2005
1	2	86	0	2006
2	1	123	0	2004
1	0	99	83	2005
1	1	0	0	0
1	2	64	83	2006
1	0	0	0	0
1	2	85	45	2008
5	2	60	0	2005
2	1	103	0	2005
1	1	0	38	2009
1	2	84	44	2009
1	2	102	82	2008
1	2	64	42	2008
1	2	99	33	2007
1	1	0	0	2007
1	2	98	43	2008
1	1	0	47	2008
2	2	98	0	2005
2	2	0	0	2004
1	1	70	41	2006
1	1	86	45	2008
2	1	125	0	2004
2	1	86	83	2005
1	2	0	33	2008
1	1	52	33	2008
2	1	86	0	2005
1	2	70	79	2007
2	1	109	73	2004
1	2	103	37	2007
1	1	85	0	2007
2	2	98	0	2004
1	1	0	81	2007
2	2	61	0	2005
1	2	105	34	2007
1	2	85	83	2007
2	1	61	0	2005
1	2	85	81	2007
2	2	53	70	2005
1	2	86	83	2006
1	0	0	0	0
1	1	52	36	2009
1	2	70	74	2007
1	2	48	83	2008
1	2	61	47	2008
1	2	52	81	2009
1	2	0	38	2009
5	2	123	83	2006
5	1	0	0	0
2	2	70	83	2005
2	1	122	83	2005
1	2	124	81	2007
5	2	86	0	2004
1	1	56	44	2007
1	1	52	42	2008
1	1	109	34	2006
1	1	63	38	2009
1	1	61	83	2006
1	2	0	0	0
1	2	89	81	2006
1	2	83	0	2006
1	1	98	36	0
1	1	0	36	2009
1	2	86	83	2005
2	1	109	0	2004
2	0	118	0	0
1	2	98	45	2006
1	2	85	42	2009
1	1	64	42	2008
2	2	60	47	2003
1	2	80	35	2008
1	0	0	42	2008
1	2	61	83	2006
3	2	0	0	0
1	2	98	83	2006
5	2	0	0	0
1	2	61	83	2007
1	1	109	83	2007
1	2	84	42	2009
2	2	98	0	2003
1	1	117	83	2005
1	2	100	44	2009
2	2	60	76	2004
1	1	116	33	2006
2	2	63	0	2005
1	2	79	42	2009
1	1	98	0	2005
1	0	85	0	2007
1	0	61	83	2006
2	1	64	49	2001
1	0	61	83	2006
2	1	0	0	2005
1	2	52	37	2008
1	2	0	59	2008
2	1	98	0	2005
1	1	61	45	2008
1	2	61	0	2005
1	0	98	0	2005
1	2	98	37	2007
2	2	99	0	2004
1	2	103	33	2009
5	2	64	0	2007
1	2	80	31	2008
2	2	86	0	2004
2	2	60	0	2005
1	0	0	0	0
5	2	99	0	0
1	1	0	81	2008
1	1	0	45	2008
1	2	100	33	2009
1	2	84	83	2006
1	2	0	83	2007
2	2	67	0	2005
1	2	122	33	2008
1	0	0	0	0
1	2	85	81	2007
1	2	99	35	2009
1	1	51	83	2006
2	2	60	0	2005
1	1	123	81	2007
2	2	124	0	2004
1	2	84	83	2007
1	2	63	42	2009
1	1	0	36	2008
1	1	98	83	2007
1	2	63	42	2009
1	0	0	0	0
1	1	98	34	2008
3	2	61	0	0
1	2	61	83	2007
2	1	85	0	2005
1	0	0	0	2006
1	2	0	45	2006
1	2	103	44	2009
1	1	0	47	2009
2	1	98	0	2003
1	2	98	83	2006
5	1	0	0	2008
1	1	0	35	2009
1	1	52	42	2008
2	1	98	0	2005
1	1	86	0	2007
2	2	98	37	2004
1	2	98	83	2006
2	1	86	0	2004
2	2	60	42	2001
2	1	83	0	2004
1	2	0	63	2008
1	1	85	0	2006
1	1	64	83	2006
1	2	98	40	2007
2	2	86	0	2002
1	1	61	43	2008
1	2	70	44	2009
1	1	64	0	2006
1	2	83	83	2006
5	2	97	83	2005
2	2	70	0	2004
1	1	85	35	2008
1	2	60	83	2007
1	1	98	34	2006
5	2	60	0	2005
2	2	61	42	2004
2	1	85	0	2005
1	2	61	76	2005
1	0	95	34	2006
2	2	98	0	2004
1	2	0	47	2008
1	1	52	0	0
1	1	52	0	2006
1	1	0	44	2009
1	2	85	33	2008
1	1	0	33	2008
1	2	0	47	2009
1	1	80	0	2008
1	1	85	41	2009
1	2	52	81	2008
1	2	56	81	2007
4	1	64	83	2005
1	1	0	42	2009
1	2	52	47	2008
2	0	0	0	0
1	2	52	44	2009
1	1	123	81	2008
2	1	52	0	2005
2	2	99	43	2004
1	2	0	36	2008
1	0	0	0	0
1	1	52	33	2005
1	1	123	0	2006
1	1	64	72	2007
1	2	95	83	2006
1	2	85	82	2008
1	1	0	40	2008
1	1	64	40	2008
1	1	98	83	2006
1	1	86	0	2006
1	1	43	0	2009
1	2	61	40	2008
1	1	109	83	2007
1	2	52	0	2007
2	1	99	0	2004
1	2	85	78	2006
2	2	61	83	2005
1	2	86	33	2007
1	1	97	40	2008
1	2	85	44	2009
1	2	55	42	2008
1	2	0	44	2009
1	1	0	40	2008
1	2	70	83	2006
2	1	85	83	2005
1	2	85	83	2007
2	1	86	0	2005
2	0	81	83	2005
1	2	0	31	2008
1	1	98	40	2008
1	2	94	81	2009
1	2	61	79	2007
1	1	60	83	2006
2	1	48	71	2002
2	0	61	0	2005
1	2	80	0	2005
2	1	109	0	2005
5	1	62	0	2006
5	2	62	0	0
1	2	84	82	2007
1	1	86	0	2006
2	1	47	0	2005
2	2	126	0	2004
5	2	99	0	0
1	1	50	51	0
2	2	61	0	0
1	0	109	0	2006
1	2	85	42	2008
1	2	64	82	2008
1	0	46	34	2006
1	1	0	43	2008
1	2	100	82	2009
1	1	99	0	2007
2	2	98	0	2004
1	0	0	42	2007
2	1	98	43	2005
1	2	52	0	2004
2	1	98	0	2005
1	1	0	35	2009
2	2	61	0	2004
1	0	98	83	2006
1	1	109	34	2005
1	1	98	42	2009
1	1	63	81	2006
1	1	109	83	2005
2	1	118	0	2004
2	1	103	0	2005
1	1	64	0	2006
1	1	0	82	0
1	2	60	39	2006
1	2	98	82	2007
1	2	0	35	2008
2	2	98	0	2004
5	1	99	0	2004
2	2	123	0	2005
1	0	52	50	2006
4	0	0	0	0
1	1	59	36	2009
1	1	79	83	2006
2	1	95	0	2005
2	1	48	0	2004
1	1	52	0	2006
1	1	86	83	2007
1	2	99	80	2006
1	2	103	0	2007
1	2	85	83	2007
1	1	0	44	2009
1	1	0	36	2009
1	1	85	81	2007
1	0	0	0	0
1	0	85	0	2007
1	2	64	83	2007
2	2	61	0	2005
1	2	103	43	2008
1	2	80	31	2009
1	1	64	0	2007
1	2	61	83	2007
1	2	61	39	2009
1	1	99	43	2007
1	1	53	83	2007
2	2	64	0	2003
1	2	98	82	0
1	2	0	81	2009
1	2	85	39	2008
1	2	60	83	2007
1	2	99	83	2006
5	1	60	0	0
1	2	92	46	2007
1	2	85	38	2009
1	2	0	46	2008
1	1	98	83	2007
2	0	98	0	2005
1	1	0	47	2008
1	0	0	0	0
1	1	98	35	2009
2	1	0	0	2004
1	1	103	40	2008
1	0	0	0	0
2	0	0	0	0
1	2	98	42	2008
2	1	52	34	2005
1	2	70	56	2007
2	2	61	0	2005
1	1	63	0	2006
1	1	70	52	2008
2	2	52	0	2005
2	1	70	0	0
1	0	0	0	0
1	1	86	81	2007
1	1	123	83	2007
2	2	61	83	2005
1	1	98	83	2007
1	2	63	47	2008
1	2	103	0	2005
2	2	64	0	2005
1	2	0	33	2008
1	2	98	83	2006
1	1	86	34	2007
1	1	79	0	2005
1	1	86	36	2009
1	1	97	0	2007
1	1	109	0	2007
1	1	98	83	2006
2	0	98	83	2005
2	0	47	0	2004
1	2	99	0	2006
1	1	64	0	2007
1	1	98	0	2007
1	1	98	0	2005
1	2	85	37	2006
1	2	0	36	2008
2	2	64	0	2004
2	2	92	0	2003
1	2	61	81	2008
5	2	85	83	0
1	2	0	31	2008
1	2	63	42	2009
1	2	98	43	2008
1	1	109	83	2007
1	0	0	0	0
1	1	51	34	2006
1	1	52	0	2005
1	2	122	33	2009
1	2	118	63	2008
1	2	63	47	2008
1	2	105	0	2005
1	1	95	83	2007
1	2	0	0	0
5	1	74	0	2007
1	2	0	83	0
2	0	0	0	0
1	2	102	45	2008
2	2	124	0	2004
1	1	86	83	2006
1	2	0	48	2008
1	2	86	0	2005
1	1	98	0	2006
1	1	98	33	2007
2	2	98	0	2005
1	1	52	0	2007
1	2	99	42	2008
1	2	64	83	2007
1	1	98	0	2006
1	2	86	47	2009
1	1	85	0	2007
1	2	0	38	2008
2	1	46	0	2004
1	2	0	46	2007
1	2	0	44	2009
2	2	85	83	2005
2	2	61	74	2004
2	1	97	35	2005
1	2	118	83	2006
1	1	98	0	2006
1	1	98	83	2006
1	2	98	83	2007
2	1	98	0	2005
1	2	75	42	2008
1	1	52	83	2006
1	2	86	42	2006
1	1	0	81	2008
1	2	61	35	2006
1	1	0	0	2008
4	0	0	0	0
2	1	94	73	2005
1	2	0	36	2009
1	1	0	47	2009
1	1	98	35	2009
1	1	109	34	2007
1	1	98	0	2008
2	1	125	37	2005
1	1	109	42	2009
1	1	85	47	2008
2	1	99	0	2004
1	2	0	42	2008
1	1	102	47	2008
1	1	52	83	2007
1	1	64	83	2006
2	2	103	0	2005
1	1	98	34	2006
2	2	92	42	2003
1	2	103	40	2008
1	0	0	0	0
1	1	0	47	2008
2	1	47	0	2005
1	2	61	82	0
1	2	61	83	2007
1	2	98	37	2006
1	2	61	83	2005
1	2	61	42	2008
2	2	84	78	2003
1	2	124	83	2006
2	2	118	37	2005
2	1	52	63	2004
1	2	81	36	2008
1	1	99	49	2006
2	1	103	34	2004
1	1	98	36	2009
2	1	61	83	2005
1	1	98	0	2006
1	2	0	38	0
1	1	88	83	2006
1	2	110	0	2006
1	1	63	82	2009
1	2	51	42	2008
1	2	61	42	2009
1	1	97	45	2008
2	2	60	0	2004
1	2	61	83	2007
1	2	85	75	2007
2	1	121	50	2005
1	1	52	41	2006
1	1	92	83	2006
1	2	103	0	2006
1	1	51	36	2009
1	1	53	0	2010
1	2	118	42	2008
1	2	124	37	2008
1	1	85	83	2007
1	2	123	0	2006
1	1	61	43	2008
1	1	48	83	2007
1	2	85	37	2006
1	2	61	38	2007
1	1	70	38	2008
1	1	52	0	2007
1	0	98	35	2008
1	2	61	42	0
1	2	0	38	2005
1	2	56	42	2007
1	2	61	44	2009
1	1	109	42	2008
1	1	46	38	2009
2	2	52	0	2004
1	2	47	42	2009
1	2	81	35	2008
2	1	85	83	2004
1	2	48	0	2006
1	2	0	0	2008
2	2	103	0	2005
1	0	0	0	2010
2	1	126	0	2005
1	2	0	0	2008
1	1	0	42	2008
1	2	52	0	2006
1	1	0	82	2009
1	2	83	0	2005
2	1	109	0	2005
1	2	0	36	2009
1	1	85	0	2008
2	1	98	83	2005
1	1	109	0	2006
1	2	118	35	2008
1	2	44	70	2006
1	0	0	38	2008
2	2	64	0	2005
1	0	0	0	0
1	2	61	36	2009
1	2	0	83	2007
1	2	123	46	2008
2	2	89	0	2004
1	1	52	0	2008
5	1	74	0	2005
1	2	85	37	2006
1	2	60	33	2007
2	2	0	0	0
1	2	84	82	2008
1	1	0	42	2008
1	1	98	34	2006
2	0	80	0	2004
1	1	70	81	2009
2	2	52	34	2001
1	1	0	82	2009
1	1	103	42	2008
2	2	64	34	2004
2	1	70	0	2005
1	2	123	47	2007
1	2	83	37	2006
2	1	64	0	2005
1	2	126	83	2006
5	2	60	69	0
1	0	0	0	0
1	0	0	0	0
1	2	61	81	2009
2	1	109	83	2005
1	2	46	0	0
2	1	94	0	0
1	2	98	47	2008
1	2	0	81	2009
1	1	81	46	2007
1	1	48	47	2007
1	0	0	0	0
2	1	98	0	2004
1	2	52	47	2009
2	1	98	72	2004
1	1	64	83	2007
2	2	94	0	2004
1	2	80	83	2007
2	1	125	43	2005
1	2	83	38	0
1	1	46	0	2006
1	0	0	0	2009
1	1	98	34	2006
1	1	52	83	2006
1	2	123	82	2009
1	1	86	37	2006
1	2	64	0	2007
1	1	0	45	2008
1	2	98	0	2006
2	1	98	0	2005
1	1	86	0	2008
1	1	98	36	2009
1	1	52	83	2006
2	2	68	0	2004
2	2	85	0	2004
1	1	85	40	2008
1	1	51	83	2007
1	0	0	0	0
1	1	85	34	0
1	1	98	37	2008
2	1	61	0	2005
1	1	123	34	2006
1	1	61	83	2006
2	2	60	0	2004
2	2	60	81	2005
1	1	98	0	2006
1	1	0	0	2008
2	2	85	83	2005
2	1	118	0	2005
2	2	74	33	2004
1	2	0	82	2009
1	1	64	37	2006
1	2	64	0	0
1	2	98	0	2008
2	1	86	83	2005
1	1	92	71	2006
2	1	86	0	2004
1	2	102	81	2008
1	0	0	0	0
1	1	0	33	2008
1	1	56	39	2008
2	2	52	0	2002
1	2	83	75	2008
5	2	0	84	2008
1	2	52	0	0
1	2	52	0	0
1	2	0	42	2009
1	1	97	35	2006
2	1	94	0	2005
1	1	102	83	2006
1	2	52	36	2007
1	2	99	0	2007
1	1	98	42	2009
1	1	61	63	2007
2	1	118	0	2005
2	1	85	0	2005
1	1	61	0	2005
1	2	123	83	2007
2	1	52	0	2004
1	2	0	44	2008
1	2	61	36	2009
1	2	61	0	2007
1	2	85	81	2008
1	2	98	0	2007
5	2	100	83	0
1	0	0	0	0
1	1	98	31	2008
1	2	60	31	2009
1	1	52	81	2006
1	0	92	83	2006
1	2	61	83	2006
2	2	122	0	2004
1	1	85	83	2006
2	2	85	70	2004
5	1	97	42	2005
1	2	51	40	2008
1	2	0	38	2007
2	1	52	73	2003
1	1	61	42	2009
1	2	85	36	2005
1	2	62	0	0
5	2	97	0	2006
1	2	98	34	2006
1	1	85	0	2007
1	2	98	55	2007
1	2	98	83	2007
1	0	0	0	0
1	1	86	47	2008
1	1	98	54	2007
2	2	60	0	2003
2	1	98	0	2005
1	2	102	82	2009
1	1	98	34	2006
1	1	0	32	2008
2	2	99	0	2004
1	2	52	48	2008
1	2	61	83	0
1	2	99	42	2009
1	1	64	38	2007
1	2	52	0	2006
1	0	0	0	0
2	2	118	0	2004
1	1	85	34	2005
1	1	109	43	2006
1	2	0	0	2009
1	1	0	82	2009
2	2	86	37	2005
1	2	98	39	2009
1	1	0	81	2009
1	2	0	47	2008
1	1	109	0	2006
1	2	61	83	2006
1	1	98	36	2008
1	2	0	81	2009
2	2	0	0	2004
1	2	103	35	2006
1	2	123	44	2009
1	1	98	42	2008
1	0	0	0	0
1	1	0	81	2009
1	0	0	0	0
2	1	61	34	2002
5	2	0	83	2008
1	2	70	36	2006
1	2	0	42	2009
1	2	117	31	2006
2	2	68	33	2003
2	2	103	34	2004
1	1	86	31	2009
1	1	0	0	0
1	2	0	35	2008
1	2	61	34	2007
2	0	0	0	0
2	0	0	0	0
1	1	97	47	2007
1	1	63	81	2008
1	1	109	83	2007
1	1	80	0	2008
1	1	52	83	2006
1	0	64	0	2007
1	1	51	31	2008
1	2	107	47	2009
1	1	98	31	2008
1	1	79	0	2005
1	1	102	0	2006
2	1	70	0	2005
1	1	52	47	2009
1	1	86	83	2007
1	1	64	83	2006
2	2	123	0	2005
2	1	0	0	2003
2	2	64	0	2005
1	0	98	82	2008
1	1	0	36	2009
1	2	108	0	0
5	2	108	83	0
2	1	86	83	2005
1	1	69	42	2007
1	2	74	42	2008
1	2	70	43	2006
2	2	56	0	2004
1	1	98	0	0
1	2	103	83	2006
1	1	52	42	2008
1	2	98	46	2007
1	2	99	45	2008
1	2	52	0	2007
1	2	98	83	2006
2	2	98	0	2003
2	1	86	0	2005
1	2	107	83	2007
5	2	62	0	0
1	0	0	0	0
1	2	86	0	2005
1	1	0	36	2007
2	0	118	0	2003
1	2	118	35	2005
2	2	66	0	2004
1	1	0	47	2008
1	1	52	40	2008
1	1	52	36	0
2	2	85	0	2005
1	0	64	83	2007
1	2	64	0	2007
1	2	86	0	2005
1	1	64	0	2007
4	2	0	0	0
1	1	0	0	2009
1	0	98	0	2007
1	2	61	36	2009
1	1	86	33	2007
2	1	59	0	2003
1	0	0	0	0
2	1	105	0	2003
1	1	52	83	2006
2	2	74	0	2004
1	2	86	75	2008
1	1	115	42	2009
1	2	123	42	2006
2	1	86	0	2004
1	2	70	75	2006
1	1	64	0	2007
1	0	0	0	0
1	2	61	0	2005
2	1	61	0	2005
1	1	100	41	2008
1	1	121	81	2007
1	2	0	0	2007
1	2	63	42	2009
5	2	83	0	0
1	1	0	0	2004
2	2	89	0	2004
1	2	61	38	2007
1	1	61	0	2006
1	2	61	83	2006
1	0	125	81	2006
1	2	0	82	2009
1	2	61	70	2008
1	1	61	33	2008
1	0	0	0	0
1	0	103	0	2007
1	1	0	31	2008
2	1	79	0	2005
1	0	0	0	0
5	2	103	83	0
1	1	83	0	2006
1	1	100	36	0
1	2	98	81	2008
1	2	79	82	2007
2	2	70	0	2005
2	2	98	0	2005
2	1	105	0	2005
5	2	102	0	2008
1	0	92	81	2007
1	1	103	59	2007
1	2	98	38	2009
1	1	64	60	0
1	1	0	73	0
1	1	0	35	2009
1	2	0	42	2009
1	2	99	42	2008
1	1	52	81	2009
1	1	92	83	2007
1	1	102	0	2005
1	2	0	33	2009
1	2	99	81	2008
2	1	0	0	2005
1	1	48	83	0
1	1	121	83	2007
2	0	85	0	2004
1	2	86	82	2009
2	2	98	0	2004
1	1	52	0	2006
1	2	42	0	2008
2	2	61	0	2004
1	1	86	0	2005
2	1	105	0	2004
1	2	0	36	2009
1	2	0	38	2008
5	2	74	0	0
1	2	94	77	2007
1	0	0	0	0
1	2	0	47	2009
1	1	92	83	2007
2	2	118	0	2004
1	1	109	0	2007
2	1	123	0	2003
2	1	86	0	2004
1	2	51	47	2008
1	2	61	44	2009
1	2	0	40	2008
1	2	70	46	2007
1	1	48	38	2010
2	1	98	0	2005
2	2	71	0	2004
2	2	98	0	2005
1	1	48	0	2008
1	1	0	36	2009
1	2	48	0	2006
1	1	0	44	2009
1	2	63	32	2008
1	2	64	42	2008
1	2	0	70	2007
1	1	64	0	2008
4	1	0	0	0
1	2	70	37	2005
1	1	56	36	0
1	1	98	41	2008
2	1	64	0	2005
1	2	103	83	2006
1	2	52	33	2007
2	2	98	0	2005
1	1	92	44	2008
1	1	123	73	2007
1	2	0	35	2009
5	1	0	0	2004
1	2	98	33	2008
1	0	0	40	0
1	1	85	83	2006
1	2	102	34	2005
1	2	63	44	2009
1	2	92	83	2006
1	0	85	83	2007
2	1	98	0	2005
1	2	0	81	2009
1	0	125	42	2008
5	1	0	83	2004
2	2	86	0	2005
1	2	99	82	2009
1	2	110	37	2005
1	2	0	44	2008
1	1	102	81	2008
1	1	64	34	2006
2	1	109	0	2005
1	1	0	83	2007
1	2	59	34	2005
2	1	98	0	2003
1	2	118	42	2008
1	1	94	83	2006
1	2	52	83	2006
1	0	0	76	2007
1	1	98	83	2005
1	1	52	42	2009
2	1	105	83	2005
2	2	105	0	2004
2	1	70	83	2005
1	1	64	34	2007
1	1	0	39	2008
1	2	70	83	2007
2	2	61	0	2005
2	0	64	0	2005
5	2	0	0	0
1	1	105	33	2006
1	1	102	36	2009
1	2	63	82	2008
1	2	0	33	2008
1	2	98	0	2006
1	2	0	31	2005
1	2	0	0	2006
1	1	97	0	2009
1	2	98	40	2008
1	2	103	34	2007
1	2	52	42	0
1	2	52	83	2007
1	1	47	0	2010
1	2	64	42	2008
1	2	98	0	2006
1	2	98	83	2007
1	1	0	47	2009
1	0	0	0	0
1	2	61	0	2007
1	2	0	36	2009
1	2	85	38	2009
2	0	86	0	0
2	1	80	34	2004
2	2	123	0	2007
1	1	52	38	2005
1	1	110	60	2008
1	1	52	47	2007
1	2	124	0	2007
2	1	85	83	2005
1	1	51	42	2008
1	1	86	82	2008
1	1	98	42	2009
1	2	63	36	0
1	2	85	40	2008
2	1	123	0	2002
1	1	109	0	2007
2	1	109	37	2004
1	2	123	83	2006
1	1	102	37	2008
1	1	98	81	2009
1	1	0	38	2009
1	1	61	56	2008
1	1	98	36	2009
1	1	52	36	2009
1	2	70	0	2004
1	1	123	34	2007
1	1	0	43	2008
1	2	64	74	2007
1	1	46	0	2006
1	1	52	37	2005
1	1	46	83	2006
1	0	0	0	0
2	1	109	34	0
1	2	51	31	2007
2	0	0	0	0
1	0	0	0	0
1	1	98	45	2006
1	1	0	81	2008
1	1	102	81	2006
1	2	98	45	2008
1	1	48	83	2007
2	2	61	0	2004
1	2	98	40	2007
1	2	0	82	2009
1	1	86	35	2008
1	0	0	0	0
1	1	52	83	2007
2	2	71	70	0
1	1	0	0	2007
1	1	58	83	2006
1	2	61	35	2006
1	1	102	83	2007
1	1	98	31	2008
1	2	0	33	2008
2	1	0	0	2005
1	2	85	81	2005
1	2	56	34	2007
1	2	84	40	2008
1	1	86	0	2007
1	1	52	0	2007
1	1	98	38	2008
5	1	70	83	0
1	0	79	0	2007
5	1	0	0	2009
2	2	79	43	2003
1	2	98	37	2006
1	2	52	83	2007
1	0	62	0	2010
1	1	102	83	2006
1	1	98	0	0
4	2	0	0	0
2	1	98	0	2004
1	1	86	0	2006
1	2	121	83	2006
1	1	98	36	2009
1	1	0	38	2008
5	2	60	0	2005
2	2	113	0	2004
1	0	0	0	0
1	1	61	83	2006
1	1	64	35	2009
1	2	118	83	2007
2	1	109	83	2005
1	0	52	43	2008
1	1	61	42	2007
1	2	79	83	2007
1	1	52	36	2009
1	2	102	42	2007
1	1	61	0	2005
1	1	0	36	2009
2	2	64	0	2005
1	2	85	46	2007
2	1	97	0	2003
1	1	109	83	2006
1	1	98	83	2007
1	1	64	82	2009
1	1	0	81	2008
1	0	0	0	0
1	0	0	0	0
1	1	102	0	2006
1	1	125	0	2006
1	1	48	37	2006
1	0	98	60	2008
1	0	103	83	2006
1	1	0	0	0
1	1	73	81	2009
1	2	98	63	2007
1	2	79	47	2006
1	2	0	36	2008
1	2	127	83	0
1	2	52	36	2009
1	1	109	71	2007
1	2	0	44	2009
1	1	98	40	2008
1	2	83	0	2005
1	1	63	42	2009
1	2	55	82	2008
1	1	61	34	2006
1	1	52	83	2006
1	1	0	36	2009
2	1	94	83	2005
2	1	98	0	2005
1	1	0	32	2008
1	1	125	83	2007
2	2	61	0	2005
2	2	105	0	2004
2	1	64	0	2005
1	1	0	47	2009
2	1	60	0	2004
2	1	109	34	2004
1	1	64	60	2008
1	1	83	39	2007
1	1	51	42	2006
1	1	98	0	2006
1	1	0	82	2009
1	1	0	44	2009
1	2	0	66	2006
1	1	112	83	2006
1	1	105	32	2008
1	2	103	83	2006
1	1	98	41	2006
2	2	98	83	2005
1	2	61	33	2008
2	1	52	83	2004
1	1	92	83	2006
1	1	85	0	2007
1	1	86	44	2008
1	2	61	37	2008
1	1	52	83	2006
1	2	86	83	2007
1	1	0	33	2009
1	2	98	47	2009
1	1	52	35	2009
1	1	102	83	2007
1	1	48	0	2005
1	2	86	36	2009
1	2	98	83	2008
1	1	121	72	2007
1	1	0	40	2008
1	1	86	34	2007
1	2	71	47	2008
1	1	70	36	2009
2	1	98	0	2005
1	1	98	36	2009
1	2	0	38	2009
2	1	63	83	2004
1	2	86	81	2007
1	2	99	47	2006
1	2	84	40	2008
1	1	0	82	2009
2	2	64	83	2005
1	2	0	44	2009
1	2	85	36	2008
1	1	98	35	2007
1	1	67	43	2008
1	1	46	0	2007
1	1	85	83	2007
1	2	0	36	2008
1	1	85	83	2005
1	1	109	83	2006
2	2	108	83	2004
1	1	47	43	2006
2	0	63	0	2005
1	1	95	40	2008
1	1	98	82	2009
1	2	79	35	2007
2	1	86	0	2003
2	2	61	0	2004
1	2	0	31	2009
1	0	99	37	2006
1	0	48	81	2008
1	0	0	0	0
1	1	52	35	2009
1	1	48	0	0
1	1	110	42	2007
1	1	86	42	2008
1	2	0	81	0
1	2	0	79	2007
2	2	98	0	2005
1	2	118	83	2007
1	1	80	0	2005
1	2	52	33	2009
1	2	121	43	2008
1	2	61	83	2007
1	2	98	68	2006
1	2	61	47	2008
1	2	98	61	2006
1	1	85	83	2006
2	2	52	0	2004
1	1	94	72	2008
1	1	64	35	2009
2	1	118	0	2005
2	2	118	37	2005
1	2	63	52	2008
2	1	105	0	2001
1	1	60	42	2008
2	2	99	74	2005
1	1	0	38	2009
1	0	98	0	2005
1	1	80	33	2008
1	1	94	0	2006
1	1	86	37	2007
1	0	0	0	2007
1	2	97	57	2006
2	1	52	0	2004
2	2	98	0	2005
2	1	86	83	2005
1	0	0	0	0
1	2	68	44	2008
1	2	63	0	0
1	1	0	0	2006
1	2	0	38	2009
2	2	103	0	2004
1	1	86	83	2006
1	1	0	44	2008
1	2	95	0	2006
1	1	85	82	2009
1	1	100	44	2007
1	2	98	40	2008
5	2	98	0	2006
1	1	0	0	2007
2	2	61	83	2005
1	1	0	0	2007
3	2	122	0	0
1	1	61	0	2006
1	1	0	36	2008
1	2	98	61	2008
2	1	52	0	2005
1	2	85	45	2006
2	2	0	0	2004
2	2	98	37	2005
1	1	0	42	2009
2	1	99	0	2004
1	2	0	82	2009
2	1	85	0	2005
1	2	60	31	2008
1	1	47	42	2008
1	0	0	0	0
1	1	98	41	2008
1	2	85	83	2005
1	2	103	42	2008
1	2	86	31	2009
1	1	98	0	2006
1	2	0	33	2008
1	2	95	82	2009
1	1	85	50	2006
1	1	109	0	2007
2	1	47	0	2005
1	2	98	0	2005
2	2	61	0	2004
1	2	100	47	2008
2	2	95	0	2005
1	2	85	42	2008
1	1	97	57	2007
1	2	86	83	2006
3	2	106	75	0
2	2	60	0	2005
1	2	0	0	0
1	1	105	0	2005
1	1	94	35	2009
1	1	121	0	2007
1	2	61	83	2006
2	2	0	0	0
1	1	52	37	2006
1	1	85	45	2008
1	2	52	38	2006
1	0	52	0	2006
1	1	85	34	2008
1	1	92	83	2006
1	2	52	38	2008
1	2	122	31	2008
1	1	109	43	2006
2	2	70	34	2005
1	1	100	36	0
1	1	52	42	2007
1	1	98	33	2008
2	0	98	35	2005
1	1	98	0	2006
1	1	69	0	2006
1	1	0	47	2009
2	2	61	0	2004
2	2	109	78	2001
1	0	61	0	2006
2	2	123	0	2004
1	1	47	82	2007
1	2	86	77	2006
2	1	60	0	2004
2	2	70	0	2004
1	1	0	81	2008
1	1	0	42	0
1	2	52	36	2009
1	1	64	42	2009
1	1	98	33	2007
2	1	86	0	2005
1	2	123	83	2007
1	1	98	0	2007
1	1	98	83	2007
1	2	85	79	2007
2	0	0	0	0
2	1	105	0	2004
1	2	98	33	2008
1	2	98	34	2008
2	1	46	0	2005
2	1	61	0	2003
1	2	98	39	2006
1	2	85	36	2009
1	1	98	41	2008
1	2	67	37	2008
2	2	83	0	2004
1	1	109	82	2009
1	2	103	45	2005
1	1	85	40	2008
1	1	98	83	2007
1	1	52	0	2006
1	1	94	0	2007
2	1	0	0	2003
2	1	86	83	2005
1	1	121	0	2007
2	1	85	0	2005
1	1	86	37	2007
1	2	79	75	2005
2	2	80	83	2005
1	2	123	42	2008
1	2	98	36	2009
1	1	99	37	0
2	2	103	0	2005
1	2	0	70	2008
1	1	98	59	2008
2	1	86	83	2005
1	1	86	83	2007
1	1	86	0	2006
2	1	85	49	2001
1	1	98	83	2007
2	2	60	83	2005
1	1	64	42	2009
1	1	102	38	2009
1	1	98	36	2009
1	2	85	83	2006
2	2	85	0	2004
1	1	109	0	2007
1	1	65	68	0
1	2	84	45	2008
2	2	86	0	2001
1	1	0	45	2008
1	2	0	0	2008
2	2	102	0	2005
1	1	63	33	2008
2	1	86	73	2004
1	1	98	35	2005
2	1	86	83	2005
1	0	0	0	0
1	2	70	33	2009
5	1	86	83	0
1	1	86	83	2006
1	1	52	47	2009
1	0	0	0	0
1	2	64	40	2008
2	1	52	0	2004
1	2	51	36	2009
1	2	64	83	2007
1	1	102	36	2009
5	2	100	0	0
1	2	0	47	2009
1	0	0	0	0
1	2	123	83	2007
2	1	0	0	2003
1	1	0	0	2008
1	1	86	0	2007
1	1	85	83	2007
1	1	52	83	2007
1	2	0	42	2008
1	2	61	42	2007
1	2	52	40	2008
1	1	98	47	2007
1	2	105	0	2005
2	0	0	0	0
1	1	52	83	2007
1	2	98	83	2007
1	1	92	44	2009
1	1	64	35	2008
1	2	93	0	2008
5	1	112	0	2006
2	1	0	0	2005
1	2	86	83	2007
3	0	0	0	0
1	0	0	81	2008
1	2	123	31	2008
1	1	109	0	2006
2	1	52	83	2005
2	1	109	0	2004
1	2	64	0	2007
1	0	0	0	0
1	2	124	83	2005
1	1	0	41	2009
1	2	126	83	2006
1	1	109	42	2008
1	1	125	0	2007
1	1	0	39	2008
1	1	0	81	2009
1	1	0	33	2008
1	2	123	83	2007
1	1	125	0	0
1	2	70	0	2007
5	2	109	83	0
5	2	51	83	0
1	2	94	83	2006
1	1	79	42	2009
1	1	98	0	2007
2	2	124	0	2005
1	2	61	0	2006
2	1	98	0	2005
1	1	123	34	2008
1	2	61	83	2007
1	1	52	82	2009
1	2	107	32	2006
1	2	63	31	2009
1	2	0	36	2009
2	1	52	0	2004
1	2	0	31	2008
1	0	0	0	2008
1	1	0	0	2009
1	1	0	38	2009
1	1	0	33	2009
2	1	62	0	2005
2	0	0	0	0
2	2	118	74	2005
1	1	52	0	2006
1	1	109	81	2008
1	2	55	82	2007
1	2	0	0	0
1	2	121	83	2007
1	2	94	43	2008
2	2	98	0	2004
1	2	63	36	2008
1	1	46	81	2007
2	1	85	0	2005
1	1	102	83	2006
5	2	0	0	0
2	1	64	0	2005
1	0	0	0	0
1	2	122	35	2008
2	2	118	34	2005
1	1	109	83	2007
2	1	52	0	2004
1	2	52	83	2007
2	2	51	79	2005
1	2	52	42	2007
2	1	59	0	2005
2	1	74	0	2003
1	2	86	0	2009
2	1	80	34	2004
1	0	0	0	0
1	1	0	42	2009
1	2	61	83	2007
1	1	98	83	2006
1	1	121	32	2008
1	2	61	31	2009
1	0	0	73	2008
1	1	97	83	2006
1	1	125	83	2005
1	1	70	36	2009
1	0	0	0	0
1	2	108	83	2006
1	1	61	83	2007
2	1	86	83	2005
1	2	0	38	2009
1	1	74	83	2006
1	2	0	36	2009
2	2	61	34	2005
1	2	56	31	2007
1	2	61	34	2007
1	1	0	40	2008
2	1	85	0	2004
2	1	46	0	2003
2	1	0	0	0
1	1	52	34	2007
1	1	59	83	2007
5	2	124	83	2005
1	2	98	42	0
1	1	47	56	2006
1	1	86	73	2007
1	2	103	0	2006
1	2	98	82	2007
1	1	79	36	2009
1	1	84	83	2007
2	2	62	0	2003
2	1	61	0	2005
1	1	52	35	2009
2	1	0	72	2004
2	2	70	0	0
1	0	0	0	0
1	1	86	81	2008
2	2	52	83	2002
1	2	99	0	2006
2	1	109	0	2004
2	2	119	0	2005
5	2	0	0	0
1	2	98	31	2009
1	1	64	83	2006
1	2	118	82	2007
1	2	0	47	2009
1	2	98	83	2007
1	2	85	76	2006
1	2	98	47	2007
1	2	52	83	2006
1	1	52	82	2009
1	2	85	83	2006
2	2	102	0	2004
1	0	0	0	0
1	1	63	45	2008
1	1	52	83	2006
1	1	101	71	2007
1	2	56	0	2005
1	2	0	31	2008
1	1	109	38	2006
1	1	86	83	2007
1	2	58	0	2005
2	1	109	0	2005
1	1	98	37	2008
2	1	125	0	2005
1	1	46	0	2006
1	2	70	83	2007
1	2	86	38	2009
1	1	64	34	2008
1	1	63	38	2009
1	1	99	43	2006
1	1	0	37	2008
1	2	102	44	2009
2	1	64	0	2005
1	2	99	45	2007
1	1	64	55	2006
1	1	85	81	2007
1	2	56	40	2008
1	1	86	0	2006
1	2	85	36	2009
2	2	118	42	2004
1	2	52	36	0
1	1	61	0	2006
5	1	102	0	2005
2	0	0	0	0
1	0	99	38	2008
1	1	0	44	2009
2	1	98	0	2004
2	2	98	0	2004
1	2	86	47	2009
2	1	109	0	2004
2	2	123	0	2003
2	2	98	0	2005
1	2	52	0	2005
1	1	0	36	2009
5	1	82	0	0
1	2	103	83	2006
1	2	86	83	2006
2	2	124	38	2003
3	1	80	0	0
1	2	52	0	2006
1	1	123	0	2006
1	1	0	41	2008
1	1	52	36	0
5	2	45	83	2007
1	2	0	0	0
1	1	64	83	2007
1	2	86	0	2006
1	1	110	82	2009
2	2	102	83	2001
1	2	86	83	2007
2	2	80	83	2003
1	1	85	83	2006
2	1	61	0	2005
1	1	125	83	2008
1	1	98	71	2007
1	2	52	36	2009
1	2	85	83	2007
2	0	0	0	0
1	1	98	83	2006
1	1	0	38	2009
1	1	98	0	2008
1	2	64	83	2006
1	1	85	35	2006
1	1	52	44	2009
1	0	0	0	0
1	1	98	83	2007
1	2	0	31	2009
1	1	110	33	2008
1	2	51	79	2006
5	0	63	0	2005
2	1	98	0	2005
2	2	52	0	2004
1	2	55	0	2006
1	0	98	83	2006
1	1	61	38	2006
1	2	99	80	2006
1	2	64	0	2007
1	1	0	38	2008
1	1	109	48	2007
4	2	0	0	0
2	2	85	0	2004
1	2	70	37	2008
1	1	0	0	2009
1	1	64	31	2007
1	2	61	0	2006
1	1	0	81	2009
1	1	46	0	2007
1	1	0	42	2008
1	1	105	0	2006
2	2	74	0	2003
1	1	79	81	2009
5	1	0	0	0
1	2	70	82	2008
2	0	0	0	0
1	2	103	34	2008
1	2	0	47	2008
2	1	97	0	2005
1	1	123	47	2009
1	1	52	40	2008
1	2	47	83	2006
2	1	48	0	2004
1	1	117	83	2006
1	1	85	0	2006
1	2	64	44	2007
2	2	85	0	2004
1	1	86	83	2007
1	1	52	82	2009
2	2	94	83	1981
2	0	0	0	0
1	2	103	0	2005
1	1	0	42	2009
1	2	103	38	2007
2	1	64	0	2004
2	1	105	43	2005
1	2	58	47	2009
2	2	52	66	2004
1	0	0	0	0
5	2	123	0	2005
1	1	98	83	2006
1	2	98	0	2007
1	2	86	83	2005
1	0	98	0	2007
1	2	70	81	2009
1	2	118	83	2006
1	1	105	83	2006
1	1	0	42	2008
5	2	0	0	2008
1	2	98	0	2006
1	2	0	33	2009
2	1	105	0	2005
1	2	118	45	2008
1	2	51	42	2008
1	0	0	0	0
2	1	121	81	2005
2	1	109	0	0
1	2	118	63	2006
2	2	98	45	2004
1	0	0	79	2008
1	0	0	0	0
2	2	98	0	2004
1	1	0	37	2008
2	0	83	0	2005
1	2	60	83	2007
1	0	0	0	0
1	1	0	34	2006
1	2	75	40	0
1	1	123	41	2006
1	1	0	82	0
2	2	98	51	2004
2	2	102	0	2004
1	0	0	0	0
1	1	118	0	2006
1	2	103	83	2005
5	2	103	0	2005
1	2	70	34	2006
1	1	0	33	2008
1	1	98	44	2009
1	1	64	0	2006
1	2	61	36	2009
1	2	86	82	2007
1	1	121	0	2007
1	1	98	0	2008
1	2	99	44	2009
1	2	85	35	2009
1	1	98	0	2005
1	2	103	70	2006
1	1	117	39	2009
1	1	56	82	2009
2	1	58	0	2004
1	2	88	44	2007
1	2	98	36	2009
1	2	103	34	2007
1	1	61	61	2006
1	2	98	82	2009
1	2	49	0	2008
1	2	61	47	2008
3	2	0	0	0
1	1	61	37	2006
2	1	86	0	2002
2	1	116	0	2004
2	2	99	0	2004
1	2	103	40	2008
1	2	118	83	2006
1	1	52	83	2007
2	1	98	47	2005
1	2	0	32	2008
1	1	0	81	2008
1	1	85	38	2009
1	2	81	45	2008
1	1	98	83	2006
1	1	98	43	2007
5	2	99	0	2005
1	0	0	0	0
1	2	98	36	2009
1	2	46	83	2006
1	1	52	31	2007
1	2	63	36	2009
2	2	61	0	2005
2	1	61	0	2004
1	1	98	44	2008
1	0	0	0	0
2	0	0	0	0
1	1	52	36	2008
1	2	85	75	2007
2	2	0	0	2002
1	2	98	37	2005
1	1	123	51	2006
1	2	99	83	2007
1	2	0	31	0
1	1	97	82	0
2	1	61	34	2005
1	0	61	37	2006
1	0	0	0	2006
1	2	52	42	2008
1	2	98	52	2008
1	2	61	70	2007
1	1	125	61	2006
1	1	98	67	2007
1	1	109	35	2007
2	1	98	83	2005
1	2	98	81	2008
2	1	61	34	2004
5	1	0	0	2008
2	1	109	0	2005
1	0	0	0	0
2	2	99	83	2005
1	1	86	0	2006
1	1	86	83	2007
2	1	61	0	2004
1	1	98	40	2008
1	2	0	36	2009
1	1	79	83	2006
2	2	60	0	2005
1	1	102	36	2007
1	1	86	47	2008
1	1	97	31	2008
2	2	85	0	2004
2	1	64	0	2003
1	1	0	81	2009
1	1	123	37	2008
1	2	0	83	2007
1	1	98	34	2006
1	0	0	0	2006
1	0	94	0	0
1	2	122	42	2007
1	2	83	0	2007
1	2	55	42	2009
1	1	52	31	2006
1	1	79	47	2009
1	1	109	83	2007
1	0	106	0	0
1	2	61	0	0
2	2	61	74	2003
1	2	51	81	2009
5	2	124	83	2005
2	2	99	74	2002
5	2	103	83	2005
1	2	107	38	2007
1	0	0	0	0
1	1	0	42	2007
1	1	98	63	2008
1	1	98	83	2007
1	2	61	0	2008
1	2	98	83	2007
2	1	86	81	2005
1	1	0	36	2009
4	2	0	0	0
1	1	0	45	2008
5	2	99	0	2004
1	2	52	0	2006
1	1	0	46	2008
1	1	85	0	2005
1	1	0	0	0
1	1	99	83	2006
1	1	52	72	2007
1	1	98	42	2009
1	0	58	0	2010
1	2	98	83	2007
1	2	98	0	2005
2	1	98	0	2005
2	2	48	0	2004
1	2	70	0	2006
2	0	0	0	0
1	2	82	44	2009
1	2	52	0	2005
1	0	0	0	0
1	0	0	38	2008
3	1	94	0	0
2	1	105	0	2004
1	2	98	36	2009
2	1	118	0	2004
1	1	85	83	2007
1	1	86	34	2008
1	2	0	31	2009
1	2	63	81	2008
1	1	97	0	2006
2	1	118	0	2005
2	1	102	0	2000
1	1	69	42	2006
2	2	103	0	2004
2	1	46	0	2005
1	1	61	43	2007
1	1	61	0	2007
1	1	52	83	2007
1	2	122	42	2008
1	2	103	83	2007
1	1	92	0	2006
2	1	0	0	2005
4	2	0	0	0
1	2	92	31	2009
2	1	43	0	2004
1	2	116	81	2007
1	1	98	0	2006
2	1	123	0	2005
1	1	98	40	2008
2	1	0	0	0
2	1	61	43	2005
2	1	64	0	2005
2	1	86	83	2005
1	1	65	42	2009
1	1	98	33	2008
2	2	79	68	2005
2	2	121	0	2003
2	1	58	0	2004
1	1	52	42	2009
2	1	86	34	2004
2	1	98	0	2005
1	1	117	34	2007
1	1	63	31	2009
1	2	123	83	2006
4	2	0	0	0
1	2	85	83	2006
2	1	98	0	2005
1	2	47	83	2006
1	2	123	39	2005
1	2	86	70	2006
1	0	0	0	2005
1	0	0	0	0
1	2	52	39	2006
2	2	61	0	2004
5	2	100	0	2005
2	2	83	0	2005
2	1	62	0	2005
1	2	86	83	2006
1	1	98	42	2009
1	2	103	43	2006
1	1	0	36	2008
2	2	64	83	2004
5	2	82	83	2006
1	1	98	43	2006
2	1	98	0	2005
2	2	98	37	2004
2	2	85	0	2004
5	2	104	0	2006
1	2	103	83	2007
2	1	61	37	2004
1	2	70	47	2008
2	1	92	0	2004
1	1	63	42	2009
1	0	98	44	2008
1	2	127	83	2007
1	1	109	35	2008
1	2	0	36	2009
1	2	109	44	2009
2	2	103	0	2004
1	2	116	82	0
1	2	85	42	2008
1	2	86	0	2006
2	1	61	37	2004
1	2	100	0	2006
1	2	97	82	2009
2	2	85	83	2005
2	1	109	0	2004
1	2	117	62	0
1	1	100	31	2007
1	1	0	32	2008
1	2	0	38	2009
1	1	86	0	2006
1	1	61	83	2006
2	1	62	0	2003
2	2	61	0	2005
2	1	86	0	2004
1	2	98	33	2008
1	1	105	83	2006
5	0	52	0	2005
1	2	0	38	2004
1	2	118	74	2006
1	1	0	38	2009
2	2	94	0	0
1	1	97	31	2008
1	1	97	0	2007
1	1	109	81	2008
2	2	60	0	2004
1	1	98	0	2007
1	1	0	31	2008
1	2	70	40	2008
2	1	105	0	2004
1	1	85	83	2007
1	1	70	46	2006
1	1	55	81	2009
1	0	0	0	0
1	0	0	0	0
1	1	97	36	0
1	1	0	40	2008
1	0	60	0	2007
2	1	85	73	2004
1	1	0	36	2008
1	1	86	0	2007
2	2	85	0	2004
1	1	0	35	2008
1	1	98	81	2008
2	0	109	0	2004
1	2	63	42	2009
1	2	86	83	2007
1	1	98	83	2007
1	1	0	35	2008
2	0	109	0	2005
2	1	85	0	2005
1	1	86	37	2006
1	1	61	0	2006
1	0	0	0	0
1	1	98	34	2007
2	1	98	60	2005
2	1	98	83	2005
1	1	70	83	2006
1	1	109	45	2008
2	2	53	79	2004
1	1	0	33	2009
2	1	97	75	2005
1	1	100	81	2007
1	2	102	34	2007
2	1	98	83	2005
1	1	52	40	2007
5	1	0	0	0
1	1	98	0	2008
2	1	0	0	0
1	1	0	82	2009
1	0	64	0	2006
1	0	0	0	0
1	1	86	83	2007
1	2	49	83	2006
1	2	0	39	2009
1	2	0	42	2009
1	2	98	39	2009
1	1	98	0	2006
1	1	80	33	0
1	1	0	36	2008
1	2	79	83	2007
1	2	74	45	2008
1	2	103	0	2005
2	1	52	0	2004
1	2	63	0	2008
1	2	85	83	2007
1	1	51	38	2008
1	1	85	42	2008
2	0	0	0	0
1	1	109	42	2008
2	2	61	0	2004
1	1	64	83	2006
1	1	52	0	2006
2	2	60	0	2002
1	2	70	0	2006
1	1	61	81	2005
1	2	0	38	2009
1	1	63	42	2008
2	2	53	81	2005
1	1	61	43	2007
1	1	52	83	2007
1	1	85	37	2007
2	1	64	83	2005
1	1	0	40	2008
1	2	51	44	2008
1	1	86	72	2007
1	2	85	38	2008
5	1	0	0	2008
1	2	63	38	2009
1	1	63	82	2009
1	1	98	81	2007
1	1	61	0	2007
1	1	63	47	2009
1	1	86	0	2009
1	1	109	83	2007
2	1	118	0	2005
2	2	95	0	2003
1	2	98	40	2008
1	2	0	81	2009
1	0	121	0	0
2	2	52	0	2004
1	1	64	0	2007
1	1	92	83	2006
1	1	98	46	2007
2	2	95	0	2005
1	1	52	35	2008
2	1	58	0	2005
1	1	125	83	2006
1	1	123	83	2006
1	1	92	73	2007
2	1	0	0	2004
1	2	0	36	2009
1	0	105	83	0
2	1	65	83	2005
1	2	86	0	2005
1	1	98	83	2006
2	2	70	0	2004
1	1	125	82	2007
1	2	94	0	0
1	2	61	83	2007
1	2	52	83	2007
1	2	85	83	2006
1	2	70	38	2009
2	2	85	83	2004
1	2	56	42	2008
1	2	118	0	2005
1	2	98	77	2007
1	2	0	82	2009
1	1	52	47	2008
2	1	98	0	2005
1	1	52	81	2008
1	2	64	75	0
1	2	0	42	2009
1	2	123	35	2009
1	2	46	42	2009
5	2	100	0	2005
1	1	61	34	2006
1	1	121	0	2007
2	1	86	47	2004
1	1	98	0	2006
3	0	0	0	0
1	2	63	47	2009
2	1	0	73	2004
2	2	123	0	2001
1	1	120	33	2007
1	1	98	0	2007
2	1	61	0	2005
1	1	61	83	2007
1	1	64	81	2007
1	2	0	38	2008
1	1	67	0	2008
1	1	86	33	2006
2	1	86	0	2005
2	1	98	0	2005
1	2	66	42	0
1	1	55	0	2007
1	1	102	83	2006
1	1	0	0	2007
2	2	61	0	2004
2	1	98	0	2005
2	0	0	0	0
2	1	102	0	2004
1	2	118	83	2007
2	1	98	0	2004
1	1	86	82	2009
1	1	109	38	2009
1	2	51	0	2005
1	0	0	0	0
1	2	103	39	2008
2	1	64	0	2005
2	2	70	0	2005
1	1	86	0	2006
1	2	86	31	2007
1	2	124	42	0
1	2	61	42	2008
1	1	58	0	2006
2	2	66	83	2002
1	2	0	36	2009
1	1	98	0	2007
5	2	60	83	2006
3	0	0	0	0
1	2	83	45	2007
1	2	0	38	2009
1	0	0	0	0
2	1	98	73	2004
1	2	61	37	2006
2	1	115	83	2005
1	2	0	44	2009
2	2	94	0	2004
1	2	109	0	2005
1	1	0	36	2009
1	1	86	83	2007
2	2	0	0	0
1	1	0	0	0
1	1	0	47	2008
1	1	98	0	2005
1	1	99	34	2007
2	2	85	0	2004
1	1	109	31	2009
1	1	0	40	2007
1	1	109	0	2005
1	2	52	0	2005
1	1	56	34	2006
1	1	52	34	2007
1	1	48	0	0
1	2	0	36	2009
1	1	121	40	2007
1	2	108	38	2007
1	1	109	35	2008
1	1	52	68	2006
1	2	86	44	2009
2	1	70	0	2005
1	2	59	32	2008
1	2	0	35	2008
2	1	61	0	0
2	1	52	0	2005
1	2	52	36	2009
1	2	80	83	2006
1	1	86	83	2007
4	1	101	0	0
1	1	0	38	2008
2	2	61	0	2002
1	1	109	83	2006
2	0	0	0	0
1	2	0	42	2009
1	1	125	45	2008
1	0	0	0	0
1	0	0	0	0
1	1	52	81	2009
1	2	86	83	2007
1	0	0	0	0
1	2	61	68	2006
2	1	64	83	2005
2	2	61	0	2005
1	2	118	39	2008
1	1	85	36	2008
2	1	0	0	0
1	2	103	45	2007
1	0	0	0	0
1	0	0	0	0
1	1	98	36	2004
1	1	52	37	2006
1	1	51	35	2009
1	0	0	0	0
1	2	0	40	2008
1	2	61	46	2007
2	0	0	0	2004
1	1	47	83	2006
2	2	61	0	2005
1	1	61	34	2005
1	2	0	82	2009
2	1	0	0	0
1	1	110	83	2006
1	2	64	75	2005
1	2	84	44	2009
1	1	117	41	2006
1	2	61	42	0
1	2	63	36	2009
1	2	109	34	2007
1	1	86	83	2004
1	1	84	0	2008
1	2	70	81	2007
1	1	70	0	2005
2	1	86	0	2004
2	2	86	0	2004
1	2	61	83	2006
1	1	86	0	2008
1	2	102	34	2005
1	1	105	82	2009
1	1	61	49	2005
1	2	85	40	2008
1	2	83	81	2006
1	2	64	83	2007
1	0	0	0	0
1	1	52	0	2006
2	1	85	0	2004
1	0	64	0	2005
1	1	0	81	2008
1	1	121	47	2008
1	0	64	0	2005
1	2	0	45	2008
1	1	86	40	2008
1	1	102	44	2009
1	1	64	0	2006
1	2	103	36	2009
2	1	124	0	2005
1	2	85	0	2006
2	1	52	0	2005
1	1	46	82	2009
1	1	0	40	2008
1	2	52	81	2008
5	1	122	41	0
1	0	85	0	2006
1	2	123	47	2009
1	1	86	0	2007
1	1	0	42	2008
1	0	0	0	0
1	2	84	42	2008
1	2	61	75	2005
1	1	0	37	2008
2	0	0	0	2004
1	1	64	38	2009
1	0	0	0	2006
1	2	0	37	2008
1	2	86	55	2007
1	0	0	0	2007
1	1	121	0	2005
1	2	61	75	2005
2	1	109	0	2004
1	1	0	36	2009
2	1	61	0	2004
2	2	61	0	2004
1	1	0	38	2009
2	1	103	0	2005
1	1	97	0	2006
1	1	0	83	2006
1	1	0	36	2009
1	2	0	38	2009
1	2	56	44	2008
2	2	61	0	2004
1	2	99	83	2006
2	2	61	0	2005
1	2	63	82	2009
1	1	74	0	0
2	1	98	73	2005
1	2	0	36	2009
1	2	64	83	2006
2	2	83	0	2005
1	0	52	0	2006
1	0	65	83	2006
1	1	98	81	2007
1	2	58	40	2008
2	2	116	0	0
1	2	0	42	2006
1	2	56	33	2009
1	1	0	0	0
1	2	64	82	2009
1	1	98	83	2007
1	2	48	38	2010
5	0	0	0	0
1	2	118	83	2007
1	2	103	35	2006
1	1	0	36	2009
1	2	100	0	2009
1	1	52	35	2006
1	2	123	0	2007
1	2	0	33	2009
1	1	52	38	2009
2	2	61	37	2005
1	2	63	31	2009
1	2	61	75	2008
2	2	98	0	2005
1	1	0	47	2009
2	2	60	0	2000
1	1	98	37	2008
1	1	98	83	2007
1	2	118	83	2007
1	1	52	81	2007
1	2	64	83	2006
4	0	0	0	0
1	1	98	83	2007
1	1	70	0	2006
2	2	98	0	2004
1	0	64	83	2006
1	1	0	33	2009
1	2	100	0	2007
1	2	0	38	2007
1	2	107	67	0
1	2	103	83	2007
2	2	99	0	2004
1	1	105	0	2007
1	2	80	83	2007
2	1	105	0	2004
2	1	70	34	2004
1	0	61	63	0
1	1	98	38	2007
1	1	103	83	2007
2	2	70	0	2005
2	0	0	0	0
1	1	92	83	2008
1	1	52	47	2009
2	2	103	0	2005
5	1	0	84	2008
1	2	105	38	2006
1	2	61	83	2007
2	2	61	0	2005
1	2	0	81	2009
1	1	0	47	2008
2	1	109	0	2005
1	2	61	81	2008
1	2	86	47	2006
2	2	102	0	2004
1	2	61	0	2007
1	1	85	0	2007
1	2	81	45	2008
1	1	118	83	2007
1	1	109	32	2007
2	0	52	0	2004
2	2	86	0	2005
1	1	109	71	2006
1	1	46	0	2008
1	1	86	83	2007
2	1	74	0	0
1	1	98	40	2008
1	1	52	34	2007
1	1	0	82	2009
1	0	0	0	0
1	2	100	44	2008
1	2	98	39	2008
1	0	0	0	0
1	1	52	36	2009
1	2	80	81	2007
1	2	52	47	2009
5	1	97	83	2007
2	1	64	0	2005
1	2	63	47	2009
1	1	86	0	0
2	2	83	0	2004
1	1	0	36	2009
2	2	124	0	2004
1	2	52	82	2008
1	1	0	36	0
2	2	0	83	0
2	2	46	83	2004
1	2	70	46	2006
2	2	83	37	2005
1	1	109	31	2008
2	1	91	0	2002
2	2	61	0	2005
1	2	0	0	2006
1	2	51	81	2008
1	1	98	39	2009
1	1	98	40	2008
1	1	60	59	2006
1	1	85	0	2006
1	1	52	47	2009
1	1	86	81	2007
1	1	69	34	2006
1	1	0	0	2009
5	2	60	0	2004
1	2	0	42	2008
1	1	109	42	2007
1	1	86	83	2006
1	2	52	0	2006
1	0	0	0	0
1	1	98	68	2006
1	1	85	83	2006
1	1	0	44	2009
5	1	0	83	2005
1	0	0	0	0
5	2	80	61	0
1	2	64	47	2007
1	2	99	81	2008
2	1	109	0	2004
1	1	89	42	2008
1	1	124	0	2006
2	1	118	0	2004
2	1	103	0	2005
1	1	70	45	2007
2	1	123	83	2005
2	1	52	0	2005
1	1	73	72	2008
1	2	56	42	2009
1	2	103	35	2007
1	2	102	83	2009
1	2	0	33	2009
1	1	98	31	2009
1	2	0	74	2007
2	1	98	0	2005
1	2	0	44	2009
1	2	124	40	2008
2	0	0	0	0
1	1	52	82	2009
1	2	85	47	2009
1	1	0	42	2008
1	1	0	36	2009
1	1	98	83	2006
1	1	105	72	2006
2	2	102	0	2004
5	0	0	0	0
1	2	70	83	2006
1	1	0	83	2007
1	2	123	33	2008
1	1	86	44	2009
2	1	44	31	0
1	2	61	0	2007
1	1	61	83	2006
2	2	105	0	2005
1	2	85	38	2007
1	2	61	40	2007
1	2	0	45	2008
1	2	0	81	2009
2	2	56	0	2004
1	1	84	83	2007
1	2	85	38	2009
1	2	86	0	2008
1	1	123	42	2009
1	1	52	83	2006
1	2	116	39	2008
4	1	70	0	1977
1	2	102	83	2007
1	1	86	38	2009
2	2	98	74	2005
1	2	0	44	2009
2	1	64	0	2005
1	2	61	42	2008
1	1	62	41	2008
1	1	109	54	0
1	0	61	0	0
1	2	51	43	2008
1	1	64	83	2007
1	1	92	81	2005
1	1	98	83	2006
2	2	56	0	2004
1	1	52	33	2009
1	1	52	42	2009
1	2	63	42	2009
1	1	121	0	2007
1	1	52	33	2008
1	1	94	83	2006
1	1	0	36	2009
1	2	61	0	2006
1	1	98	33	2008
1	2	61	35	2008
1	1	123	39	2008
2	1	85	73	2005
2	2	64	0	2004
1	2	85	46	0
2	1	86	0	2004
2	1	109	0	2004
1	1	85	54	2006
1	1	70	39	0
1	2	0	36	2008
1	2	61	0	0
1	1	98	82	2009
1	1	52	83	0
2	1	98	0	2004
1	2	106	83	2007
1	1	85	40	2007
1	2	83	42	2008
2	2	86	0	2005
2	1	98	0	2004
2	2	99	0	2004
2	1	92	0	2005
1	0	98	83	2006
1	1	98	33	2008
1	2	85	36	2008
1	1	61	36	2009
1	1	0	47	2009
1	0	0	0	0
2	1	70	0	2004
1	0	0	0	0
1	1	0	31	2009
2	2	83	83	2005
1	2	52	0	2006
1	2	85	31	2009
1	2	103	42	0
1	1	98	82	2009
2	2	52	0	2004
1	1	0	0	2008
2	0	85	0	2005
2	1	52	62	2003
2	2	124	74	2005
1	1	98	36	2009
1	1	0	33	2009
1	1	52	82	2007
1	1	122	46	2006
2	1	109	0	2004
1	2	64	0	2007
1	1	98	82	2007
1	1	0	36	2008
1	0	0	0	0
1	2	103	38	2008
2	2	52	0	2005
1	1	0	44	2008
2	1	97	83	2005
1	1	0	35	2009
2	2	85	63	2005
4	2	0	0	0
1	1	79	34	2007
2	1	63	0	2004
2	1	117	83	2005
5	2	62	83	2009
1	1	64	83	2006
1	1	61	83	2006
2	1	98	0	2003
2	1	46	83	2005
1	1	94	73	2006
1	1	61	0	2006
1	1	86	35	2009
1	2	126	83	2006
1	1	86	31	2008
1	0	0	0	0
2	1	109	0	2003
1	1	98	81	2007
1	2	103	36	0
1	1	86	83	2007
1	2	52	37	2008
5	2	0	0	2008
1	2	61	34	2006
1	2	61	34	2005
1	2	46	37	2007
1	1	123	82	2009
5	1	102	0	2004
2	2	100	0	2005
1	1	123	81	2007
2	2	99	0	2004
3	2	85	0	2006
1	1	64	83	2006
1	1	97	0	0
1	2	103	83	2007
1	0	0	0	0
1	1	97	0	2007
1	2	0	38	2009
2	0	0	0	0
1	2	98	0	2005
4	0	0	0	0
1	0	0	0	2006
2	2	98	37	2004
1	1	109	0	2007
1	1	109	38	2006
1	2	99	43	2007
1	1	86	38	2009
1	1	52	38	2009
2	1	117	0	2005
1	1	98	83	2006
1	0	0	0	0
1	2	60	82	2008
1	1	109	40	2008
1	2	64	83	2006
1	2	103	42	2007
1	1	98	36	2009
1	2	101	41	2010
1	1	64	44	2009
1	0	0	0	0
2	2	99	0	2004
1	1	85	83	2006
1	2	83	36	2009
1	1	70	0	2007
1	1	0	0	0
1	1	110	0	2007
5	1	109	83	2006
1	1	109	83	2006
1	0	0	0	0
1	2	70	83	2006
1	0	0	0	0
1	0	0	0	0
1	2	123	45	2008
1	2	98	36	2009
1	2	98	31	2009
2	2	103	0	0
1	0	0	0	0
1	1	0	0	2007
5	1	86	83	2005
1	1	58	73	2008
1	0	0	38	2008
1	1	0	44	2009
1	0	0	0	0
1	2	84	81	2008
2	2	70	0	2004
5	1	109	83	2006
1	2	51	83	2007
1	2	69	83	2006
1	1	52	36	2009
1	1	98	0	2007
1	1	0	36	0
2	2	59	0	2003
1	2	83	82	2007
2	2	85	0	2004
1	1	86	0	2006
1	1	109	83	2007
5	1	109	83	2007
2	1	47	0	2004
1	1	98	83	2006
1	1	98	0	2005
2	1	0	37	2004
1	2	83	45	2008
2	2	85	0	2004
1	1	61	0	2007
2	1	86	73	2004
1	1	86	35	2007
2	2	44	70	2004
2	2	103	0	2005
1	1	86	73	2007
1	2	0	42	2009
2	0	52	0	0
1	1	61	47	2009
2	2	95	46	2003
1	2	64	75	2007
5	1	83	83	2005
1	2	121	68	2007
1	1	48	81	2008
2	1	109	0	2003
1	1	0	47	2008
5	2	61	0	2005
1	1	0	35	2009
1	1	0	40	2008
1	2	98	42	2007
1	1	0	0	2007
1	2	80	37	2006
5	1	0	0	2004
1	1	109	0	2007
2	0	86	0	2005
1	2	98	0	2007
1	2	61	42	2007
1	2	98	31	0
1	1	70	83	2006
1	2	0	42	2008
1	1	109	54	2007
2	2	0	0	2002
1	2	103	83	2006
1	2	103	0	2006
5	1	82	0	0
1	2	52	36	2009
1	2	124	83	2007
1	2	109	83	2007
2	1	105	0	2005
2	1	109	0	2005
1	1	0	40	2007
2	2	60	0	2005
1	1	97	83	2006
1	1	61	39	2006
1	2	51	37	2008
2	2	61	83	2005
1	2	98	34	2007
1	2	0	82	2007
1	2	52	82	2009
1	2	70	44	2009
1	2	80	0	2005
1	1	63	82	2008
1	1	98	83	2007
1	1	61	42	2008
1	2	89	0	2010
1	2	103	38	2009
2	2	61	77	2005
1	2	61	81	2007
1	1	98	83	2005
1	1	98	0	2005
2	1	98	0	2005
1	1	86	0	2007
1	2	61	0	2006
1	2	100	38	2008
1	2	118	60	2006
2	2	63	80	2004
2	2	52	36	2001
1	1	64	0	2006
1	1	79	81	2007
1	2	83	40	2008
2	2	86	0	2005
2	2	0	0	2004
5	1	0	0	2003
1	1	70	42	2008
1	1	86	83	2007
2	1	85	0	2005
1	1	109	83	2006
1	1	56	40	2008
1	2	55	0	2006
1	1	64	0	2005
1	2	63	83	2006
2	1	98	0	2004
5	2	61	83	0
1	2	60	42	2007
1	1	52	34	2007
1	0	0	0	0
1	0	99	47	2008
1	1	0	36	2009
1	0	0	0	0
2	2	103	83	2005
1	2	0	47	2008
2	1	109	0	2004
2	1	52	0	2005
2	1	64	0	2005
1	1	0	32	2008
1	2	86	0	2006
1	1	0	32	2007
2	1	79	0	2005
1	1	83	81	2008
1	1	52	54	2006
2	1	98	0	2005
1	1	98	0	2006
1	2	0	35	2008
2	1	98	0	2004
1	1	46	43	2008
1	1	0	41	2009
1	1	125	0	2006
2	1	109	0	2004
1	1	98	43	2008
2	1	98	0	2005
1	1	118	40	2007
1	1	86	83	2006
1	1	86	83	2006
1	1	64	39	2008
1	1	100	36	2008
1	2	0	38	2009
2	0	0	0	0
1	1	63	42	2009
1	1	64	83	2006
1	1	0	83	2006
1	2	86	42	2007
2	2	0	0	0
1	1	0	41	2009
5	2	0	0	2007
2	2	99	0	2004
1	1	86	83	2006
1	2	63	44	2009
1	2	71	40	2008
1	2	0	0	0
1	1	0	0	2008
1	2	123	83	2006
1	2	61	0	2006
1	1	46	81	2008
1	2	108	38	2009
4	1	0	0	0
1	0	0	0	0
2	0	98	0	2003
2	2	118	32	2005
1	0	121	0	0
1	1	118	81	2007
1	2	61	44	2009
1	2	52	0	2006
1	2	98	35	2009
2	1	61	0	2004
1	1	98	40	2008
2	0	0	0	0
1	2	0	83	2006
2	2	118	0	2004
1	1	52	39	2007
1	2	70	79	2007
1	2	103	46	0
2	0	70	0	2003
1	2	0	82	2009
1	1	97	40	2008
1	2	60	38	2007
1	2	85	83	2006
1	1	86	38	2008
1	2	103	0	2006
1	2	99	0	2006
1	1	85	83	2006
2	1	103	0	2005
1	2	0	65	2007
1	2	98	0	2006
2	2	86	0	2005
5	2	97	0	0
1	1	52	39	2009
1	2	60	44	2009
1	1	109	83	2007
1	0	0	0	0
1	0	0	0	0
1	2	0	34	2007
1	0	86	83	2006
2	1	83	71	2005
1	1	0	47	2008
2	2	123	0	2005
1	2	52	37	2008
1	2	0	44	2009
1	0	0	0	0
1	2	64	0	2007
1	2	0	31	2009
2	1	117	0	2005
1	0	44	51	0
1	1	98	83	2006
1	2	98	83	2006
6	1	85	0	2006
1	2	79	83	2008
1	2	102	44	2009
1	0	0	0	0
1	2	86	83	2005
2	2	74	0	2000
1	1	59	33	2008
2	1	61	0	0
1	1	85	42	2008
4	2	94	83	2005
1	1	0	0	0
1	1	0	40	2008
1	1	52	36	2009
1	1	109	34	2008
1	2	123	57	2007
1	2	100	47	2009
2	0	98	0	2005
1	1	88	0	2007
1	2	98	31	2009
1	2	98	38	2008
1	1	51	38	2006
1	2	0	82	2009
1	1	0	36	2009
1	2	85	37	2006
1	2	100	65	2008
1	1	0	36	2009
3	2	53	0	0
1	2	0	34	2008
2	2	52	83	2005
2	1	86	64	2005
1	1	46	36	2009
1	1	98	33	2009
1	1	64	42	2009
2	1	85	0	2004
1	2	63	81	2009
1	1	98	33	2008
1	2	0	46	2007
1	2	98	37	2008
1	1	125	42	2005
1	0	0	0	0
1	1	0	31	2008
1	1	98	35	2008
2	1	109	0	2005
1	1	86	0	2007
1	2	0	47	2008
1	0	102	0	2006
1	2	0	42	2007
2	2	98	37	2005
1	1	98	83	2007
1	1	109	37	2008
1	2	61	83	2006
1	2	61	77	2008
1	1	61	36	2008
2	1	102	83	2005
1	2	98	83	0
1	1	0	47	2009
1	1	98	44	2009
1	1	126	40	2008
1	1	98	0	2008
1	1	98	36	2009
2	0	0	0	0
2	2	95	83	2004
2	0	0	0	0
1	2	98	47	2008
1	2	60	47	2009
1	1	109	46	2008
2	1	52	0	2005
1	1	0	36	2009
2	2	61	83	2003
1	1	0	42	2009
2	1	0	0	2004
1	2	60	0	2006
1	2	0	31	2008
1	2	0	33	2009
1	1	86	33	2009
1	1	86	60	2006
2	2	52	37	2004
1	2	61	83	2006
1	1	0	72	2008
1	2	61	36	2009
1	0	0	0	0
1	0	0	0	0
2	1	86	37	2005
1	2	61	0	2007
1	0	127	0	0
1	2	61	83	2007
1	1	0	44	2009
1	2	56	34	2008
2	2	98	0	2004
1	1	64	0	2005
1	0	85	34	2005
1	1	64	60	0
1	2	52	37	2007
1	2	61	75	2005
2	1	92	0	0
1	2	102	81	2008
1	2	0	81	2008
1	1	79	58	2007
1	2	103	0	2007
1	2	52	33	2008
1	2	0	47	2008
1	1	98	83	2007
1	2	102	38	2007
2	2	0	0	0
2	2	118	83	2005
2	2	0	0	2004
5	2	86	83	2007
1	2	0	42	2008
1	1	0	40	2008
1	2	64	45	2008
1	0	0	0	0
1	2	118	83	2007
1	1	86	0	0
2	2	45	0	2003
2	1	86	0	2005
5	2	102	0	0
1	2	128	81	2008
1	2	118	40	2008
1	1	0	38	2008
1	2	98	0	2007
1	2	98	83	2006
1	1	86	0	2005
1	1	52	44	2009
1	2	103	83	2006
2	1	46	34	2004
2	1	67	0	1984
1	2	99	34	2008
1	1	118	46	2006
1	2	0	83	2007
2	2	52	0	2004
1	0	0	0	0
2	1	61	0	0
2	1	98	0	2004
2	2	123	78	2002
1	2	70	0	2006
2	1	86	0	2004
2	2	86	0	2004
1	0	0	0	0
1	1	86	83	2006
2	1	121	0	2004
2	1	86	0	2005
1	1	0	35	2009
2	1	86	0	2004
1	2	86	37	2007
1	2	48	39	2010
1	1	52	83	2006
1	1	98	36	2009
1	2	61	34	2007
1	1	52	36	2009
1	1	98	0	2007
2	2	86	0	2004
2	2	74	0	2004
1	1	98	39	2009
1	2	67	83	2008
5	1	95	83	2006
1	1	0	42	2008
2	1	98	37	2005
1	1	102	0	2006
1	0	0	0	0
1	1	0	41	2009
1	1	52	40	0
2	1	98	83	2004
1	2	52	83	2006
2	0	98	0	2005
1	2	61	46	2008
1	2	100	83	2007
5	2	123	83	0
1	1	86	0	2007
1	2	79	82	2009
1	1	52	83	2006
1	2	103	42	2006
1	1	109	60	2007
1	1	97	42	2009
2	2	64	0	2005
1	1	51	0	2007
1	1	63	36	2009
1	2	98	50	2006
1	1	0	35	2005
1	1	64	34	2005
1	2	0	31	2008
1	2	0	45	2008
2	1	98	83	2005
2	2	63	0	2004
1	1	98	36	2008
1	2	56	81	2007
1	2	61	37	2005
1	2	85	0	2006
1	0	0	81	2007
1	2	98	82	2009
1	2	123	40	2008
1	1	52	40	2008
1	1	64	38	0
1	1	98	34	2008
1	1	51	36	2007
2	2	103	0	2005
1	2	85	40	2008
1	2	60	82	2009
1	2	70	0	2006
2	1	85	0	2004
1	2	52	0	2007
1	1	79	36	2009
1	1	97	0	2005
1	2	0	81	2009
1	1	0	36	2009
1	1	105	54	2006
1	2	0	36	2008
1	1	61	47	2008
1	1	109	82	2009
1	1	118	0	2006
1	2	79	45	2007
1	1	86	34	2007
1	1	52	44	2008
2	2	64	46	0
1	1	86	83	2006
1	2	99	83	2006
1	2	103	44	2009
1	1	0	47	2008
1	1	58	0	2006
3	0	83	0	0
1	1	0	81	2007
1	2	52	47	2008
2	1	121	0	2005
5	2	98	0	0
1	1	52	38	2009
1	1	86	83	2006
1	1	70	40	2008
5	2	123	0	2005
1	1	98	0	2007
2	2	102	83	2005
2	1	123	0	2005
1	2	61	0	2006
2	2	60	83	2005
1	2	52	81	2008
1	1	98	83	2007
2	1	98	0	2004
1	1	97	44	2009
2	2	92	0	2004
2	1	52	37	2005
1	1	112	83	2006
1	1	64	83	2006
1	2	52	83	2006
1	0	64	0	2007
1	2	98	58	2007
1	1	52	81	2006
1	1	98	42	2009
1	2	52	38	2008
1	1	102	83	2006
1	1	98	82	0
1	2	98	81	2008
1	1	86	81	2006
1	2	63	36	2009
1	2	98	83	2006
1	1	52	47	2009
2	1	60	57	2001
1	2	63	44	2008
2	1	52	0	2005
2	1	98	0	2004
1	1	117	83	2007
1	2	61	82	2009
1	1	82	33	2007
1	1	0	71	2006
1	1	109	37	2006
1	1	0	42	2009
1	1	61	83	2006
1	1	86	33	2007
2	2	124	0	2004
2	1	86	0	2002
1	2	0	47	2008
2	1	60	0	2004
1	0	61	0	2007
1	1	121	38	2008
1	2	103	75	2006
2	2	55	0	2003
1	1	98	0	2007
1	2	55	33	2008
1	2	0	76	2005
1	2	0	47	2008
2	1	64	0	2004
2	1	98	0	2005
1	2	103	81	2009
2	1	98	0	2004
1	2	0	39	2009
1	2	56	42	2009
1	1	109	62	2007
1	1	0	37	2008
2	1	64	0	2005
1	1	48	0	2006
1	1	86	62	2007
1	1	99	39	2007
1	1	64	83	2007
1	1	89	83	2007
1	1	98	34	2006
1	2	61	83	2006
1	1	92	38	2007
1	2	0	42	2009
1	2	98	36	2006
2	1	92	83	2005
1	1	64	83	2007
2	2	103	0	2005
1	1	63	0	2007
1	1	0	36	2009
1	1	98	39	2008
1	1	121	81	2008
1	1	52	41	2005
1	2	63	38	2009
1	2	98	47	2008
1	2	102	83	2006
1	2	118	33	2008
1	1	85	38	2009
1	1	86	83	0
1	1	0	32	2008
2	1	86	0	2005
1	1	79	83	2007
1	1	58	83	2006
1	2	85	34	2007
2	1	86	0	2005
1	1	86	83	2007
1	1	98	83	2007
1	2	67	58	2007
1	1	123	33	2008
1	2	61	43	2007
1	0	0	45	0
1	2	99	83	0
1	2	103	83	2007
2	1	98	0	2005
2	0	0	0	2005
2	1	0	0	2005
1	1	61	0	0
5	1	86	0	2005
1	1	52	37	2006
1	0	98	0	0
2	2	61	0	2004
1	1	0	42	2009
1	1	98	0	2006
5	2	60	0	0
2	1	107	0	0
1	2	0	36	2009
1	2	71	57	2006
1	1	48	82	2008
1	2	52	83	2007
1	2	103	83	2007
1	2	0	47	2009
1	1	80	83	0
1	2	0	45	2008
1	2	44	83	2006
1	1	117	33	2008
1	2	0	81	0
1	2	63	42	2009
1	1	98	83	2006
2	0	103	0	2005
1	2	86	38	2009
1	0	0	0	0
1	2	103	42	2008
1	1	51	40	2008
2	1	64	0	2005
1	2	60	42	2007
1	1	52	0	2009
1	1	98	35	2007
2	2	98	0	2004
1	1	46	83	2005
2	2	105	0	2004
1	1	97	40	2007
1	1	121	83	2006
2	2	61	0	2005
2	1	98	34	2005
2	1	61	38	2005
1	1	103	54	2008
1	2	0	36	2009
1	1	64	0	2006
1	1	0	42	2009
1	2	102	40	2007
2	1	85	43	2005
1	1	85	0	2006
1	1	64	83	2006
2	0	0	0	2002
1	2	61	38	2009
1	1	0	81	2009
1	2	64	36	2008
2	1	118	0	2005
1	1	52	37	2006
1	1	0	36	2009
1	1	58	0	2006
1	2	52	82	2007
1	1	52	34	2006
2	2	121	0	2005
1	2	61	35	2007
1	2	0	81	2008
1	2	103	70	2006
1	1	85	0	2008
1	2	86	0	2007
1	2	103	83	2007
1	1	125	0	2007
2	0	0	0	0
1	1	0	42	2009
1	1	98	36	2008
1	2	50	67	2008
1	1	64	0	2006
1	1	85	0	2006
1	1	64	0	0
1	2	118	31	2007
1	1	52	81	2008
1	1	61	40	2008
1	1	0	31	2009
1	1	86	37	2006
1	1	109	0	2006
1	2	52	40	2007
1	1	0	82	2009
5	2	62	0	0
2	2	85	83	2005
5	2	0	0	0
1	1	86	82	2007
1	2	79	36	2009
1	2	83	0	0
1	1	47	83	2006
2	1	79	83	2005
1	0	0	0	0
1	0	0	0	0
1	2	64	0	2007
2	1	0	0	2003
1	2	122	0	0
2	1	86	0	2004
1	0	0	0	0
2	1	98	37	2005
1	2	0	83	2007
2	2	120	0	0
1	1	52	0	2006
1	2	109	83	2007
1	2	60	59	2006
1	0	0	0	2009
1	1	83	0	2007
1	0	0	0	0
1	2	61	0	2006
1	2	0	31	2008
1	2	103	83	2006
1	2	70	0	2007
2	0	64	0	2005
2	1	99	0	2003
1	2	52	31	2009
1	1	46	34	2006
1	1	0	47	2009
1	2	0	38	2009
1	1	103	0	2006
2	2	103	0	2005
1	1	125	0	2006
1	2	84	83	2007
2	1	70	83	0
2	1	52	0	2000
1	1	0	45	2008
1	1	86	73	2007
2	2	84	0	2005
1	2	0	38	2008
1	1	0	81	2009
2	1	83	0	0
2	2	98	0	2005
1	0	86	83	2006
1	1	0	81	2008
1	1	52	83	2006
1	2	0	36	2009
1	1	98	0	2006
1	1	98	0	2006
1	1	98	82	2009
1	1	63	36	2009
1	2	102	47	2009
1	1	52	47	2007
1	2	0	31	2009
1	1	0	81	2009
1	2	0	81	2008
1	2	85	42	2008
1	1	0	40	2008
1	0	0	0	0
5	1	46	0	2005
1	2	61	83	2006
1	1	54	61	2008
1	2	79	83	2007
1	2	84	82	2009
1	1	0	47	2009
1	2	98	31	2007
1	1	0	42	2009
1	2	124	83	2006
1	1	64	46	2008
1	1	0	35	0
2	1	86	0	2004
1	2	0	47	2008
1	1	98	42	2007
1	1	117	38	2009
1	2	98	60	2007
1	2	123	42	2009
2	0	0	0	0
1	1	98	36	2009
5	2	99	83	2004
1	2	0	38	2007
1	0	98	40	2008
1	1	52	83	2006
1	1	0	81	2009
1	1	95	83	2006
1	2	94	81	2009
2	2	79	0	0
1	2	63	47	2008
2	1	98	0	2005
1	1	0	42	2009
2	2	61	0	2004
1	1	52	36	2009
1	2	63	83	2007
2	0	52	0	2004
1	1	46	83	2006
1	1	94	83	2006
1	2	0	31	2009
1	2	60	36	2005
1	2	98	42	2006
1	1	94	83	2006
1	1	98	44	2008
1	2	52	36	2007
1	2	61	31	2009
1	2	61	33	2009
1	2	0	34	2008
2	1	109	0	2005
1	1	126	83	2006
2	2	0	0	0
1	2	52	82	2009
1	2	82	83	2007
1	1	109	81	2008
1	2	63	42	2009
2	1	98	0	2004
2	1	60	0	2003
2	0	0	0	0
2	2	70	0	2004
1	1	58	83	2006
1	1	105	0	2005
1	1	80	31	0
1	1	0	31	2008
1	2	70	38	2008
1	0	83	0	0
1	1	0	32	2008
1	1	86	83	2006
2	0	0	0	2003
2	2	102	0	2004
2	1	48	0	2004
1	1	86	83	2006
2	1	52	83	2005
1	2	0	81	2008
1	1	98	83	2008
2	2	78	0	2005
1	0	86	0	2006
2	1	56	83	2004
1	1	98	0	2007
1	2	0	38	2005
1	1	98	55	2007
1	0	86	83	2006
1	1	0	73	2008
1	2	86	70	2006
2	1	105	0	0
2	1	117	0	2005
1	2	102	83	2005
2	1	0	0	0
1	2	86	38	2007
1	2	79	42	2009
2	1	85	0	2004
1	0	0	0	2006
2	1	98	0	2005
1	0	0	0	0
1	2	85	39	2008
1	1	52	0	2006
1	0	94	0	0
2	1	86	0	2005
1	2	62	82	2007
1	2	83	83	2007
1	1	85	83	2007
1	2	61	35	2009
1	1	56	83	2006
1	2	64	75	2007
1	1	121	81	2009
1	2	86	83	2007
1	1	109	45	2008
1	2	0	46	2007
1	2	52	81	2007
2	2	85	0	2004
1	1	0	42	2009
1	2	52	43	2008
1	1	0	35	2009
1	2	99	38	2006
1	2	94	36	2008
1	1	98	0	2006
2	2	103	0	2005
2	2	75	34	2005
1	2	86	83	2006
1	0	98	0	2007
1	1	97	83	2006
2	1	85	67	2005
1	2	98	38	2008
1	2	98	44	2009
1	2	98	42	2009
1	2	0	42	0
1	2	61	75	2005
5	2	99	0	2004
2	1	64	0	2005
5	2	99	48	2005
5	0	52	0	2008
1	1	85	83	2006
1	2	98	83	2007
1	1	48	83	2006
1	1	98	36	2009
1	2	80	35	2007
2	1	52	38	2005
1	0	0	0	0
1	2	98	31	2009
5	1	45	0	2006
2	1	65	83	2005
1	1	106	39	2008
1	2	0	36	2009
1	2	64	0	2007
2	1	64	0	2004
1	1	121	0	2006
2	1	52	83	2005
1	2	118	81	2008
2	1	43	0	2004
1	1	0	83	2007
1	0	0	42	2009
1	2	0	39	2009
1	1	64	83	2006
1	2	0	0	2008
1	2	85	34	2006
2	2	124	0	2004
2	1	0	63	2004
1	2	70	83	2006
1	2	123	0	2006
1	2	67	48	2008
1	2	79	82	2009
5	2	60	0	2004
1	2	0	35	2009
2	2	64	69	2000
2	2	85	0	2005
1	2	85	48	2007
1	1	86	83	2007
2	2	63	74	2005
1	2	60	0	0
1	0	0	0	0
1	1	52	40	2007
1	1	52	83	2006
1	1	0	62	2007
1	1	86	0	2007
2	2	61	83	2003
1	2	81	83	2006
1	1	48	0	2006
1	1	47	81	2007
1	2	98	47	2008
1	1	98	83	2006
2	1	48	0	2004
1	0	0	0	0
2	0	0	0	0
1	1	86	42	2008
2	1	0	0	2005
1	0	0	0	0
1	1	109	36	2007
1	1	0	40	2008
2	1	47	37	2005
1	2	98	36	2009
1	2	85	34	2007
2	0	52	73	2004
1	2	70	0	2006
1	2	0	83	2007
2	0	85	0	2005
1	1	109	0	2006
1	2	64	83	2007
1	2	86	83	2007
1	1	102	54	2007
2	2	86	0	2005
4	1	52	38	2009
1	2	0	42	2009
1	1	98	0	2007
1	1	86	83	2007
5	1	98	0	2005
1	2	0	0	2006
1	2	124	34	2007
2	2	61	0	2004
1	1	52	81	2007
1	1	46	83	2006
1	1	52	83	2007
1	1	64	0	2006
1	1	122	66	0
2	2	118	0	2004
1	1	51	82	2009
1	0	0	0	0
2	1	85	0	2004
1	2	0	31	2009
1	1	52	82	2009
2	1	52	0	2004
1	2	103	42	2008
1	2	123	83	2006
1	2	0	82	2009
1	1	116	0	2006
1	2	105	36	2009
1	2	86	53	2007
1	2	123	0	2007
1	1	0	33	2009
2	1	98	83	2004
1	1	109	83	2007
1	1	109	83	2007
1	1	52	83	2006
1	1	84	35	2009
1	0	63	42	2009
1	2	52	83	2006
5	1	0	0	0
1	2	0	42	2009
2	1	61	0	2004
1	0	91	0	0
1	2	52	82	2009
1	2	70	83	2007
1	1	86	35	2006
1	1	105	83	2007
4	1	0	0	0
1	1	109	83	2006
1	1	97	0	2006
1	2	98	34	2007
1	1	98	83	2007
1	2	103	83	2007
2	2	64	83	2005
1	2	103	83	2007
1	1	98	0	2006
1	0	61	0	2007
1	2	0	42	2009
2	1	0	0	2004
1	1	0	47	2008
3	2	56	0	0
2	2	85	83	2003
2	1	61	0	2005
1	1	64	37	2006
1	2	103	44	2009
1	2	85	44	2008
1	0	45	0	0
5	0	0	0	0
1	0	64	83	0
2	1	98	83	2005
1	1	0	32	2008
2	2	70	83	0
2	2	86	0	2005
2	2	98	0	2005
1	2	63	36	0
1	1	0	81	2009
2	2	64	0	2004
1	1	109	83	2007
5	2	46	0	0
1	1	98	0	2007
1	1	98	81	2009
2	1	109	35	2004
1	2	98	82	2009
1	2	0	37	2008
1	1	125	42	2008
1	1	98	40	2008
2	1	102	0	2005
1	0	52	42	2008
5	2	61	0	0
5	2	99	83	2006
2	2	52	0	2004
1	2	63	42	2009
2	1	86	0	2004
1	1	65	82	2009
1	2	103	0	2007
1	2	63	54	0
1	2	70	81	2009
1	2	47	0	2005
1	2	99	83	2007
1	1	0	38	2008
2	2	64	0	2002
1	1	102	44	2006
5	1	58	0	0
1	1	0	40	2008
2	2	103	83	2005
1	2	85	0	2007
1	1	63	33	2008
1	1	124	0	2007
1	1	52	83	2007
1	1	0	42	2009
1	2	79	33	2009
1	2	99	38	2008
1	1	86	83	2006
1	1	70	83	2006
2	2	92	0	2004
2	1	52	83	2003
1	2	0	31	2009
1	1	98	40	2008
1	2	86	0	2006
1	0	0	46	2007
1	2	61	0	2005
2	0	61	0	2004
1	2	51	44	2006
1	2	98	31	2006
1	2	123	44	2009
1	1	94	0	0
1	1	52	35	2009
1	2	124	40	2008
1	2	102	0	2005
2	2	99	0	2004
1	0	0	0	0
1	1	52	81	2007
2	1	115	0	2004
1	1	0	36	2009
1	2	52	42	2008
2	2	61	0	1977
2	0	86	0	0
1	1	109	83	2005
1	2	0	37	2007
1	2	83	83	2007
1	1	61	34	2005
2	1	86	0	2005
1	2	98	83	2007
2	0	0	0	0
1	2	0	0	2008
1	1	52	35	2008
1	1	85	33	2008
1	2	63	36	2009
1	1	52	81	2006
1	0	0	0	0
1	0	98	0	0
1	0	64	0	2006
1	2	63	82	2009
1	1	70	35	2009
2	0	0	0	0
1	0	0	0	0
1	2	102	31	2006
1	1	0	44	2009
1	1	52	0	2006
1	0	0	0	0
1	1	0	40	2008
2	1	86	0	2004
1	1	98	83	2006
1	2	118	39	2008
2	1	110	0	2005
1	1	0	81	2008
1	1	0	38	0
2	1	109	0	2005
1	2	65	0	2005
1	1	86	48	2008
1	1	64	36	2007
1	1	92	35	2009
1	1	52	47	2008
1	0	109	0	2006
2	1	97	0	2003
1	2	98	0	2007
1	1	56	35	2009
1	1	98	57	2006
1	2	115	54	2005
2	2	61	0	2004
1	2	70	42	2007
1	2	85	78	2007
1	2	70	83	2007
1	2	0	0	2006
2	2	85	0	2004
1	1	118	48	2008
1	2	0	42	2009
2	1	64	0	2005
1	1	85	0	2006
1	2	85	81	2006
1	1	64	44	2009
1	1	98	63	2006
1	1	69	83	2006
1	1	61	83	2006
2	1	109	0	2005
1	0	83	83	2006
1	0	0	0	0
1	1	0	35	2008
1	2	0	36	2009
1	1	99	0	2006
1	2	98	83	2006
1	1	86	42	2007
2	2	85	0	2004
1	1	0	42	2008
1	2	123	42	2006
1	1	98	35	2009
1	1	118	83	2006
1	1	0	40	2008
1	2	47	81	2007
1	2	61	36	0
1	1	109	0	2006
1	1	85	36	2009
1	2	98	83	2006
1	1	86	36	2009
1	1	0	44	2009
1	1	79	34	2006
2	1	64	0	2005
1	1	121	0	2006
2	1	61	0	2005
1	2	63	36	2008
1	1	103	42	2008
1	2	60	54	2010
1	2	98	47	2007
1	2	56	82	2009
2	2	117	83	0
1	2	0	82	2009
2	1	118	0	2003
1	2	0	36	2007
1	0	0	0	0
2	2	60	0	2004
2	2	124	0	2004
1	0	0	0	0
1	0	109	73	2008
1	2	94	33	2009
2	1	86	0	2004
2	2	121	0	0
2	2	70	0	0
1	2	60	31	2008
2	1	97	0	2004
1	2	0	38	0
1	2	98	0	2006
1	1	45	71	2008
1	2	47	83	2007
1	2	85	0	2006
1	1	117	42	2007
5	2	99	83	2005
1	1	0	47	2009
1	2	98	35	2008
2	1	52	0	2003
1	1	98	37	2006
1	2	107	0	2007
1	1	103	33	2008
1	0	0	0	0
1	1	98	46	2006
1	1	0	44	2009
1	2	0	0	2007
2	1	98	0	2005
1	2	124	82	2009
1	2	70	34	2007
1	1	98	33	2008
1	2	118	34	2007
1	1	52	83	2006
2	0	0	0	0
1	1	97	83	2007
2	2	98	0	2004
1	2	103	36	2009
1	2	61	74	2007
1	2	85	83	2006
1	1	98	83	2007
1	1	85	39	2008
1	1	0	36	2009
1	2	47	38	2009
1	1	98	43	2007
1	1	98	36	2009
1	1	0	40	2008
1	2	70	83	2007
1	1	0	56	2008
2	1	98	0	2005
1	2	60	0	2005
2	2	56	0	2004
1	1	100	36	2008
1	0	0	0	0
1	0	0	0	0
1	1	0	46	0
2	2	85	0	2005
1	2	97	83	2006
1	1	0	81	2008
1	2	65	47	2009
1	2	79	38	2007
1	2	52	83	2007
1	1	109	57	2007
1	1	98	39	2008
1	1	86	83	2006
1	2	86	79	2008
2	1	109	0	2005
1	2	98	34	2006
1	2	98	83	2006
1	2	85	43	2008
1	2	94	82	2009
1	1	52	42	2009
1	0	0	0	0
1	2	0	81	2009
1	0	63	81	2008
2	1	0	0	2003
1	1	99	38	2006
1	1	56	44	2009
1	1	52	31	2008
2	1	95	83	2005
1	1	61	83	2006
1	2	85	70	2006
1	2	86	81	2006
1	2	0	31	0
1	1	0	42	2008
2	1	0	0	2005
1	0	85	42	2008
1	1	103	0	2005
2	2	47	0	2005
2	2	85	34	2005
2	2	85	0	2004
1	2	98	36	2009
5	1	0	0	2008
1	2	60	31	2008
2	1	102	37	2005
1	2	70	83	2006
1	1	85	35	2009
1	1	86	83	2006
1	2	63	43	2006
1	2	99	37	2008
1	2	98	38	2007
1	1	86	37	2006
1	1	0	81	2008
1	1	61	0	2007
1	1	51	47	2008
1	1	52	82	2009
2	1	97	0	2005
1	2	109	83	2007
1	2	102	47	2008
2	2	52	0	2004
1	1	102	83	2006
2	1	85	83	2005
2	1	63	0	2005
1	2	118	47	2006
1	2	98	47	0
1	1	0	41	2009
1	2	85	42	2006
2	2	70	0	2005
1	1	118	63	2006
2	1	85	37	2005
1	1	0	40	2008
4	2	62	0	0
1	2	0	31	2008
2	1	79	0	2004
1	2	99	34	2008
1	1	109	40	2008
1	1	125	83	2007
1	2	0	44	2009
1	1	86	36	2009
1	2	52	36	2005
1	1	61	82	2007
1	1	98	33	2007
1	1	109	40	2007
1	2	64	54	2007
1	2	52	42	2008
1	2	61	63	2007
1	2	0	42	2008
1	2	83	37	2008
2	0	103	83	2005
5	2	99	0	0
1	2	123	81	2008
2	1	86	0	2005
2	2	86	80	2003
2	2	52	0	2005
2	2	60	0	2005
1	1	125	83	2007
2	1	70	35	2005
1	2	0	0	2008
1	2	0	31	2009
2	1	51	39	2005
1	2	85	83	2007
1	0	0	0	0
1	2	99	43	2006
2	1	61	0	2004
1	2	0	47	2008
2	1	118	0	2005
1	1	61	81	2007
1	1	83	83	2007
1	1	0	0	2006
1	1	103	83	2006
2	1	85	83	2005
1	1	0	0	2007
1	1	94	32	2007
2	1	109	0	2003
1	1	98	44	2008
1	2	0	40	2008
1	2	98	64	2008
1	2	65	0	2007
2	0	0	0	0
1	2	123	46	2006
1	1	109	35	2008
2	1	46	62	2005
2	2	123	0	2004
1	2	85	0	2008
2	2	98	83	2004
1	1	52	83	2007
1	0	98	0	2007
1	2	0	47	2009
2	1	98	0	0
1	1	52	35	2008
1	2	61	33	2008
1	2	61	0	2005
2	1	62	83	2005
2	0	123	0	2005
1	1	98	34	2006
1	2	60	83	2006
1	1	123	0	2006
2	2	103	0	2004
1	2	61	40	2008
1	2	85	37	2007
2	2	85	0	2003
1	1	85	0	2007
1	2	52	83	2007
2	2	61	34	2004
1	0	0	0	0
2	1	109	0	2005
1	1	123	81	2007
1	2	117	38	2009
1	2	118	0	2007
1	1	61	36	2008
1	2	46	83	2006
2	2	63	0	2005
1	1	98	34	2007
5	2	84	83	0
2	0	0	0	0
1	2	98	42	2006
1	1	98	43	2006
2	2	61	83	2005
1	1	85	43	2007
1	1	86	0	2006
1	1	95	82	0
1	2	84	42	2009
5	2	99	0	0
1	2	83	83	2006
1	2	0	35	2009
1	2	52	83	2007
2	1	52	34	2004
1	2	81	45	2007
2	2	123	79	2004
2	2	118	0	0
1	2	86	35	2009
2	2	98	0	2005
1	1	123	0	2006
1	1	56	0	2006
2	1	105	0	2004
5	2	0	83	2005
1	1	98	31	2009
1	2	85	83	2006
2	1	95	0	2004
1	2	83	38	2008
1	1	92	34	2005
1	2	70	37	2006
1	1	109	83	2006
1	1	0	36	2009
2	2	85	0	2004
2	2	61	0	2003
1	2	0	76	2007
2	2	0	0	2005
1	1	107	40	2008
1	1	0	42	2008
1	0	0	0	0
1	1	85	83	2007
1	1	69	0	2006
1	1	48	72	2007
1	0	0	0	0
1	2	121	34	2007
1	2	52	0	2007
1	2	98	47	0
5	2	60	83	2005
1	2	103	83	2006
1	2	0	83	2006
1	0	0	0	0
1	1	123	83	2006
1	1	0	40	0
1	1	61	0	2006
2	1	98	34	2004
2	2	51	0	2004
1	1	86	83	2006
1	2	85	81	2008
1	1	97	83	2006
1	1	61	81	2007
1	1	64	83	2007
1	2	0	31	2009
1	1	97	35	2009
1	1	61	40	0
1	2	61	0	2007
1	2	85	81	2006
2	1	52	0	2005
1	2	61	83	2006
1	1	0	38	2009
1	1	51	0	2007
2	1	70	68	2005
1	1	98	0	2006
1	1	109	83	2006
1	1	0	42	2009
1	2	86	83	2007
1	2	83	47	2008
1	2	52	37	2007
1	2	0	33	2008
1	1	0	36	2009
2	2	64	78	1999
1	2	61	34	2006
1	1	47	72	2006
1	1	98	33	2007
1	2	0	82	2009
2	2	103	0	2005
1	1	79	0	2006
1	1	105	0	2006
1	2	0	0	2006
2	0	0	0	2004
2	1	61	83	2005
2	1	86	37	2004
1	2	0	42	2009
1	2	0	31	2009
1	1	85	83	2006
1	2	118	37	2005
2	2	61	70	2004
1	1	69	36	2008
1	2	70	36	2009
1	2	49	75	2008
1	1	98	0	2009
1	1	121	83	2007
1	2	85	77	2007
1	2	98	0	2006
1	1	61	0	2007
1	1	86	83	2006
1	2	107	47	2008
1	1	0	0	0
1	1	103	47	2008
1	2	70	34	2007
1	1	64	38	2006
1	1	48	81	2006
1	2	51	42	2005
1	1	108	0	2006
1	1	98	83	2006
1	1	52	0	2006
1	2	70	0	2005
1	1	0	0	0
1	2	98	47	2008
1	1	51	34	2007
2	1	98	0	2005
2	1	109	0	2004
1	2	106	81	2009
1	1	70	0	2007
2	2	103	0	2005
1	1	47	83	2007
1	2	70	81	2008
1	2	122	83	2007
1	2	99	78	2007
2	2	61	0	2005
2	1	109	43	2005
1	1	103	83	2006
1	1	52	42	2007
1	1	98	34	2008
1	1	98	46	2007
1	1	0	47	2009
1	2	60	82	2009
1	2	63	83	0
1	2	64	82	2009
1	2	65	83	2007
1	2	118	0	2007
1	0	0	0	0
2	2	99	0	2004
1	1	61	83	2007
1	1	124	83	2006
1	2	64	47	2008
1	0	0	0	0
1	1	102	42	2008
3	2	79	0	0
1	2	52	0	2007
2	1	98	0	2005
1	2	85	39	2009
1	1	109	38	2008
1	2	0	35	2008
1	2	123	83	2007
1	1	98	42	2008
2	1	86	0	2004
1	2	0	42	2009
2	2	92	0	2004
1	1	52	0	2006
1	1	0	82	2009
1	1	61	83	2007
1	1	98	42	2008
1	1	52	34	2006
1	0	0	0	0
1	2	0	47	2009
1	1	86	34	2006
2	1	85	0	2004
1	1	63	42	2009
1	2	52	40	2008
1	2	85	70	2006
1	1	109	0	2007
1	0	82	0	0
1	1	79	40	2008
2	2	85	0	2005
1	0	103	83	2007
2	1	0	0	0
2	1	98	83	0
2	1	85	0	2004
2	1	109	0	2005
5	2	84	0	2005
1	2	55	46	2008
1	1	0	37	2008
2	1	98	0	2004
1	2	118	40	2008
2	2	52	84	2005
2	2	70	0	2005
1	1	83	36	2009
1	1	61	34	2007
1	2	0	38	2009
1	1	103	38	2007
2	1	86	0	2005
1	1	97	45	2008
1	0	0	0	2008
1	1	63	83	2006
2	1	64	42	2005
1	2	0	36	2008
1	2	0	40	2008
1	2	79	34	0
1	2	61	40	2007
1	1	98	40	2007
2	1	64	0	2005
2	2	47	0	2004
2	1	0	0	2004
2	2	60	42	2005
2	1	86	0	2004
1	2	52	83	2006
1	2	86	37	2008
1	2	48	0	2004
1	1	0	33	2008
1	1	0	35	2008
1	2	98	43	2007
2	2	61	0	0
1	1	70	44	2009
1	2	0	34	2006
1	2	79	40	2007
1	2	0	45	2008
2	1	86	37	2005
2	1	121	0	2004
1	2	71	37	2008
2	1	98	0	2003
5	1	52	0	0
1	2	0	82	2009
1	1	125	42	2009
1	1	0	36	2009
1	2	64	0	2005
2	1	86	0	2004
2	1	86	83	2005
1	2	0	0	2007
1	1	103	40	2008
1	2	85	0	2007
5	1	70	83	0
1	1	109	83	2007
1	1	64	83	2006
1	2	86	83	2006
1	1	61	81	2009
1	1	56	0	2007
1	1	86	83	2007
2	1	86	0	2005
1	0	0	0	0
1	1	80	82	2009
1	1	126	0	2006
1	1	102	81	2008
1	1	0	81	2009
1	1	52	83	2007
1	2	61	31	2008
1	1	124	42	2007
1	2	85	36	2008
2	2	60	37	2005
1	2	70	46	2008
1	2	0	81	2008
1	2	103	42	2009
1	1	98	0	2006
2	1	59	55	2004
2	2	98	0	2001
1	2	83	83	2005
2	0	70	83	2005
1	1	0	40	2008
1	2	99	83	2006
1	1	86	0	2006
1	0	0	0	0
1	0	85	0	2007
1	1	51	83	2006
3	2	109	0	0
1	2	61	36	2009
3	2	61	34	2007
1	1	103	83	2006
1	0	0	40	0
1	2	98	83	2007
2	1	103	0	2004
1	2	52	36	2009
1	0	0	0	0
1	1	61	83	2006
1	0	0	0	2006
1	1	123	82	2009
1	2	70	0	2005
1	1	98	31	2008
1	1	0	35	2008
1	0	0	0	0
1	1	0	36	2009
1	1	61	46	2008
1	2	61	79	2008
1	1	109	0	2006
1	1	98	83	2006
1	1	0	40	2008
2	1	109	0	2004
2	2	80	83	2005
1	0	93	54	0
2	2	98	0	2005
1	1	86	36	2008
1	1	64	36	2009
2	1	86	47	2004
1	1	0	0	0
1	1	0	36	2009
2	2	86	37	2004
1	1	98	36	2009
1	2	46	0	2006
1	2	46	0	2007
2	2	70	0	2004
1	2	98	45	2007
1	2	70	66	2006
1	1	63	71	2006
1	2	0	35	0
1	1	84	68	0
2	2	69	0	2004
1	2	123	42	2009
1	1	85	72	2008
1	2	86	0	2006
1	1	110	81	2008
1	1	98	33	2008
1	1	89	37	2006
1	1	94	83	2006
1	0	101	79	2007
1	2	0	37	2007
1	2	98	33	2009
1	1	0	42	2008
1	2	86	36	2008
1	1	0	44	2009
1	1	109	73	2006
1	1	0	40	2008
1	1	0	40	2008
1	1	95	83	2006
2	2	52	0	2004
1	1	0	0	0
3	2	122	40	2008
1	2	64	65	2006
1	2	124	34	2006
2	0	0	0	0
1	2	85	83	2007
1	2	103	83	2006
1	1	97	83	2005
1	1	48	55	2008
1	0	0	0	0
1	1	0	42	2008
1	2	0	82	0
2	2	70	0	2005
1	2	61	83	2007
2	2	0	53	2005
2	1	86	0	2005
1	2	0	0	2007
1	1	85	47	2008
1	1	109	34	2006
2	0	98	0	0
1	2	61	83	2006
2	1	95	34	2004
1	1	0	44	2009
1	1	79	0	2006
1	2	0	38	2009
2	2	86	0	2004
2	1	86	0	2002
1	1	86	81	2009
1	0	61	0	2006
1	2	0	33	0
1	1	52	0	2005
1	2	89	46	0
1	1	123	83	2006
1	2	0	0	0
1	1	61	83	2007
1	1	60	71	2006
1	1	0	0	2007
1	2	51	40	2008
1	2	72	31	2009
1	2	61	83	2007
1	2	98	37	2008
1	0	0	0	0
1	2	85	47	2009
1	1	125	83	2007
1	1	0	36	2008
1	2	80	83	2006
1	2	0	33	2008
2	1	56	0	2003
1	2	56	81	2008
1	1	98	0	2008
1	1	48	0	2008
1	1	0	83	2008
2	0	0	0	0
2	2	52	0	2003
1	1	86	82	2008
1	1	100	83	2006
1	2	60	74	2006
2	1	86	83	2005
1	2	61	40	2007
1	1	0	36	2008
1	0	98	83	2007
2	1	92	35	2005
1	2	0	46	2008
1	1	52	42	2009
2	0	0	0	0
2	2	79	83	2005
1	1	98	63	2006
1	1	0	36	2008
1	1	98	42	2007
1	0	52	0	0
1	0	0	0	0
1	1	98	0	2005
2	2	103	0	0
1	1	0	40	2008
2	1	52	0	2004
1	2	52	0	2006
1	2	61	75	2008
1	2	0	44	2009
2	2	64	0	2003
1	2	86	0	2006
2	1	0	0	2004
1	2	98	0	2007
1	2	61	46	2008
1	1	125	83	2007
1	2	0	42	0
1	2	58	36	2008
1	1	52	0	2005
1	2	85	0	0
1	1	98	52	2008
1	1	0	0	2005
5	0	120	67	0
1	2	61	0	2006
2	1	118	37	2005
1	1	117	83	2007
1	1	47	45	2008
1	2	0	31	2009
1	1	85	83	2006
1	1	0	43	0
1	1	98	81	2007
1	2	0	47	2009
2	1	109	37	2004
1	0	98	82	2008
2	1	105	0	2005
1	2	0	31	2009
1	1	46	0	2006
2	1	110	0	2004
2	1	0	0	2005
1	1	118	37	2007
1	1	74	33	2008
1	2	124	40	2008
1	1	97	37	2007
1	2	118	38	2008
1	1	70	83	2006
1	1	98	83	2006
2	1	94	0	2004
2	2	60	0	2004
1	2	98	83	2007
2	2	105	83	2005
1	1	85	0	2007
2	2	85	37	0
1	1	85	83	2006
1	2	99	83	2007
1	1	86	45	2008
1	1	105	73	2007
1	1	52	39	2009
2	2	105	43	2005
1	2	103	42	2008
1	1	52	47	2008
1	2	98	40	2008
1	2	102	82	2009
2	1	109	0	2005
1	2	109	0	2006
1	2	64	0	2006
1	2	46	38	2007
1	2	118	83	2007
2	1	98	0	0
2	2	98	0	2004
1	1	98	40	2008
1	1	86	40	2007
1	1	98	0	2006
1	2	86	0	2007
1	1	64	81	2006
1	2	118	83	2005
1	2	0	81	2009
1	0	0	82	2009
1	2	98	83	2006
2	1	86	0	2004
1	2	52	0	2009
1	1	0	41	2008
1	1	67	0	2006
1	1	48	83	2007
1	0	85	0	0
1	2	63	44	2009
1	1	85	0	0
1	2	0	35	2008
1	2	83	37	2006
2	2	118	83	2005
1	1	109	0	2006
1	2	98	83	2007
1	2	98	0	2005
1	2	103	40	2008
1	1	80	36	2007
2	2	52	0	2004
1	1	63	47	2007
2	1	61	0	2004
1	2	56	40	2008
2	1	85	0	2005
1	1	102	47	2008
1	2	61	83	2007
0	2	61	0	2005
1	1	86	83	2007
1	1	86	83	2007
2	2	95	0	2005
2	0	0	0	0
1	1	0	47	2009
1	1	85	0	2006
2	1	86	0	2005
1	2	61	83	2006
1	2	64	37	2006
1	1	98	0	2006
1	1	86	83	2007
1	1	0	34	2008
2	1	64	0	2005
1	1	86	31	2008
1	2	0	44	2009
1	1	103	0	2007
2	2	0	0	2004
1	2	98	83	2007
1	1	0	43	2008
1	1	98	34	2006
1	1	98	35	2008
1	1	124	0	2008
1	1	98	35	2009
2	1	52	0	2004
1	1	64	83	2006
1	2	0	36	2009
1	2	97	38	2008
1	0	0	0	0
2	1	103	0	2004
1	1	58	42	2006
1	1	64	42	2006
1	2	124	83	2006
1	1	99	46	2007
1	2	63	48	2006
1	1	92	83	2006
1	2	98	44	2009
1	2	52	38	2008
1	1	105	83	2007
1	2	63	0	2006
1	2	103	83	2006
1	1	64	83	0
2	2	52	0	2005
1	1	0	36	2009
2	2	63	0	2004
2	1	80	0	2004
1	2	64	38	2007
2	1	99	0	2004
2	2	52	0	2005
1	2	52	44	2008
1	2	85	46	2006
2	1	52	0	2004
1	0	0	0	0
1	2	64	0	2007
1	1	51	83	2007
1	1	86	34	2008
1	2	47	39	2006
1	0	0	0	0
1	2	98	45	2008
2	1	98	0	2004
2	2	98	35	2004
2	1	64	0	2004
5	2	103	0	0
1	1	51	40	2008
1	2	61	0	2007
1	2	61	36	2009
1	0	0	0	0
1	2	118	34	2008
1	1	86	47	2008
1	2	80	42	2007
1	1	117	0	2007
2	2	86	77	2004
1	1	92	83	2007
2	1	98	0	2004
1	0	0	0	0
1	2	0	33	2008
1	2	64	45	2007
2	1	109	0	2005
2	0	0	0	0
2	1	63	0	2004
2	2	52	0	2005
1	2	63	43	2009
1	1	85	33	2008
1	1	125	47	2009
2	1	109	0	2004
1	1	79	40	2006
1	2	63	40	2008
1	2	61	83	2006
1	1	0	38	2009
1	1	70	31	2008
1	1	0	42	2008
1	2	51	0	2005
1	1	52	0	2009
1	1	88	0	2008
2	2	86	0	2004
1	1	52	36	2009
1	2	0	33	2009
1	1	61	83	2006
1	2	111	38	2007
1	1	52	37	2008
1	2	98	44	2008
2	1	94	71	2004
1	2	0	40	2008
1	2	45	42	2009
2	1	98	34	2004
2	1	109	0	2005
1	2	0	47	2008
1	1	98	0	2006
2	2	64	0	2004
1	1	92	0	2008
1	1	97	83	2006
2	1	0	83	2005
2	2	52	37	2005
1	1	48	0	2006
1	1	0	44	2009
2	2	112	83	2005
1	2	98	43	2008
1	0	58	33	2008
1	2	98	48	2006
5	2	99	0	2004
1	1	85	0	2006
1	2	0	81	2008
1	1	86	41	2008
2	1	70	0	2005
1	1	109	0	2007
1	1	0	40	2008
1	2	123	61	2006
1	2	52	83	2007
1	1	52	0	0
1	1	92	46	2007
2	2	0	0	0
1	1	109	83	2007
1	2	99	34	2006
1	2	69	83	2007
1	2	64	34	2007
1	2	102	45	2008
1	1	98	0	2006
1	2	85	0	2007
2	1	61	0	2005
1	0	61	45	2008
2	1	61	0	0
1	1	109	37	2005
1	1	70	42	2009
1	2	61	33	2008
2	1	98	0	2005
1	1	52	0	2006
1	1	85	83	2006
1	0	52	43	0
1	1	86	83	2006
2	1	64	38	2005
1	2	98	83	2007
1	1	46	83	2006
1	2	98	37	2008
1	1	98	81	2005
1	1	64	83	2006
1	1	98	37	2007
1	1	98	0	2007
2	1	109	0	2005
1	0	0	0	0
1	1	103	83	2007
2	1	109	0	2004
1	2	0	0	2009
1	0	85	0	0
1	2	98	82	2007
5	2	65	83	2006
1	2	98	47	2006
2	1	86	0	2005
1	1	86	83	2006
1	2	100	45	0
2	2	103	83	2003
1	1	0	0	2009
1	2	64	83	2007
1	2	85	45	2009
1	1	0	40	2008
1	1	0	32	2008
1	1	64	82	2008
1	2	98	82	2009
1	1	0	36	2009
1	1	0	44	2009
1	2	61	40	2008
2	2	107	70	2003
2	1	97	35	2005
1	1	70	83	2007
2	2	102	0	2002
2	2	60	0	2000
1	2	51	40	2008
2	2	110	0	2004
1	2	83	45	2008
1	1	109	43	2008
2	1	89	0	2004
2	1	85	0	2004
2	1	109	49	2004
5	2	86	43	2004
1	2	0	33	2009
1	1	85	0	2006
1	1	0	44	2009
1	2	67	81	2004
1	2	61	38	2008
1	2	60	47	2009
1	1	61	81	2007
1	2	61	47	2007
1	1	63	40	2007
1	1	0	42	2009
1	1	86	42	2007
1	1	0	67	0
1	1	83	48	2007
2	2	125	0	2005
1	1	98	81	2008
1	2	0	81	2009
3	0	0	0	0
1	2	58	0	2006
2	1	98	37	2003
1	1	61	83	2006
2	2	105	0	2004
1	1	61	83	2006
1	2	98	0	2005
1	1	52	0	2006
1	2	48	0	2007
1	2	0	33	2008
1	1	86	33	2008
1	2	0	35	2009
1	1	98	36	2009
1	2	0	0	2007
1	1	85	82	2008
1	1	98	71	2006
1	1	98	0	2006
1	2	0	47	2009
1	1	48	83	2006
1	2	53	31	2008
1	1	86	36	2008
1	2	0	44	2009
1	1	0	33	2005
1	1	85	45	2008
1	1	85	0	2007
2	2	52	0	2004
1	2	100	33	2009
1	2	46	34	2006
2	1	99	0	2004
1	1	98	34	2008
1	1	109	0	2006
1	1	98	45	2007
1	2	56	40	2008
1	1	105	83	2006
1	1	52	71	2006
2	1	85	0	2004
1	1	98	42	2009
2	1	64	0	2005
1	0	0	0	0
1	1	98	0	2009
2	2	86	54	2005
1	1	52	35	2009
1	2	63	35	2008
5	2	0	0	0
2	2	86	0	2004
2	2	125	0	2004
1	1	85	42	2009
1	2	85	42	2007
1	2	61	0	2006
1	1	61	83	2006
1	1	98	83	2007
2	2	123	69	1999
1	2	51	81	2008
2	2	85	83	2004
1	1	97	0	2006
1	2	85	83	2007
1	1	0	44	2009
1	2	0	34	2007
1	1	85	42	2007
1	2	0	37	2008
2	1	118	0	2005
1	1	103	0	2006
2	2	64	0	2004
2	1	85	83	2005
2	1	92	44	2002
2	2	56	0	2004
2	2	103	51	2005
1	2	56	42	2009
1	2	123	36	2009
2	2	61	83	2005
1	1	86	37	2006
1	1	52	83	2006
1	1	97	0	2007
1	2	47	35	2008
1	1	86	42	2008
1	2	64	38	2009
2	1	107	34	2004
1	1	0	82	2009
1	2	61	63	2007
1	2	61	38	2006
1	1	118	0	2006
2	1	86	0	2005
1	2	123	83	2006
1	2	56	35	2009
2	1	61	0	2004
4	1	0	0	0
1	1	0	42	2009
2	1	61	0	2005
1	2	63	83	0
5	2	86	0	0
1	1	125	34	2008
2	1	111	0	2004
1	2	126	83	2006
2	1	109	0	2002
1	1	0	38	2008
2	1	64	0	0
2	1	64	0	0
2	2	122	79	2004
1	2	63	36	2009
1	2	61	70	2008
2	2	105	83	2005
1	1	98	83	2007
1	2	100	82	2009
1	2	99	74	2006
1	2	99	83	2007
1	2	85	40	2008
1	2	0	38	2008
5	1	97	83	2005
1	1	65	0	2007
1	1	0	0	0
2	2	118	0	2004
1	2	98	38	2007
1	1	0	0	2006
1	2	103	83	2006
1	0	0	0	0
1	1	0	82	2009
2	1	86	0	2004
1	1	109	82	2007
1	1	64	83	2006
1	1	123	83	0
1	2	86	34	2008
2	1	121	0	2004
1	1	64	82	2009
5	2	103	0	2006
1	2	98	0	2006
1	2	60	31	2009
1	2	61	38	2009
1	2	63	0	2008
1	1	98	35	2005
1	1	100	39	2009
2	1	62	0	2002
2	2	61	0	2005
2	1	52	42	2005
1	1	86	0	2005
1	1	85	0	2005
1	2	60	42	2008
1	1	48	83	2007
1	1	79	38	2009
1	1	86	83	2007
1	0	0	0	0
5	1	62	0	2005
1	1	98	0	2006
1	1	64	0	2006
1	1	114	0	2007
1	1	98	81	2009
1	1	61	35	2007
2	2	52	0	2004
1	1	0	47	2007
1	1	123	83	2007
1	0	0	0	0
1	0	125	0	2006
1	0	0	0	0
2	0	79	0	2005
1	2	83	48	2008
1	1	98	65	2007
1	2	117	44	2009
1	2	98	36	2009
2	1	64	0	2005
1	2	51	36	2009
1	1	85	83	2006
1	0	0	0	0
2	2	0	0	2004
2	2	76	74	2004
2	2	51	0	2003
1	2	99	83	2006
1	1	64	45	2007
1	1	86	83	2007
1	2	44	64	2008
2	1	52	0	2004
1	0	109	0	2006
2	1	125	0	2005
1	1	92	83	2006
1	2	0	31	2007
1	1	86	47	2008
1	1	86	47	0
2	1	98	0	2004
1	0	0	0	0
1	1	98	83	2006
1	1	0	40	2008
2	2	124	0	2004
1	1	98	0	2005
1	2	99	38	2009
1	1	103	0	2006
1	2	0	0	0
1	1	0	36	2009
1	2	64	32	2008
5	2	45	0	2006
2	0	0	0	2005
1	2	70	81	2008
2	1	64	0	2004
1	1	53	42	2008
2	1	92	0	2005
2	1	98	0	2004
1	2	118	38	2007
1	1	61	0	2008
1	0	85	0	2006
1	2	61	40	2007
2	2	61	0	2005
1	0	0	0	0
1	1	86	83	2006
1	2	61	82	2007
1	2	70	31	2009
2	1	0	0	2004
1	2	0	0	0
2	2	103	0	2004
1	2	0	42	2008
1	1	0	42	2009
1	1	52	40	2008
2	1	109	0	2004
1	1	64	83	2006
1	2	118	83	2007
1	1	97	43	2008
1	1	61	43	2008
1	2	61	82	2005
1	1	86	83	2007
5	1	62	0	0
1	1	0	41	2009
1	1	125	0	2007
2	1	0	0	2004
2	1	64	0	2005
2	1	86	0	2004
1	0	64	73	2006
1	1	63	42	2008
1	1	51	83	2007
1	1	92	83	2006
1	2	46	82	2009
1	2	103	32	2008
1	2	85	37	2007
1	2	103	40	2007
1	2	0	42	2009
1	2	85	0	2005
1	2	85	83	2006
1	1	61	82	2009
2	0	0	0	0
1	2	60	83	2006
2	1	70	83	2005
1	2	61	0	2005
1	1	52	47	2007
1	1	52	44	2009
1	0	0	0	0
1	1	103	42	2007
1	1	98	39	0
1	2	52	82	2009
1	2	64	36	2008
1	2	98	43	2008
1	2	64	83	2006
2	2	98	46	0
5	1	62	83	2006
1	1	0	47	2008
1	2	85	75	2008
1	2	61	0	2006
1	2	85	0	2005
1	2	70	33	2009
1	1	86	0	2006
5	2	103	0	2004
1	2	64	0	2007
1	1	52	83	2007
5	0	0	0	2007
1	2	46	37	2007
2	2	98	0	2005
2	2	99	0	2004
1	1	51	83	2007
1	1	98	42	2007
1	1	51	42	2008
1	2	79	38	2008
2	1	85	0	2005
1	2	98	36	2009
1	1	110	82	2008
1	1	65	40	2007
2	1	52	0	2005
1	1	85	45	2007
1	2	61	38	2007
1	2	102	83	2005
2	2	64	0	2005
1	2	85	47	2009
1	1	105	47	2007
1	2	79	83	2007
1	2	61	82	2006
1	1	85	0	2006
1	2	0	83	2007
1	2	102	81	2006
1	1	52	83	2006
1	1	86	81	2007
2	2	85	83	2005
1	2	61	0	2006
1	2	63	47	2009
2	2	52	34	2005
1	2	61	82	2009
1	1	61	34	2006
1	2	52	34	2006
1	2	61	83	2006
1	2	0	38	2008
2	1	100	0	2004
1	1	52	44	2009
1	1	52	83	2007
2	2	85	0	2005
2	1	105	0	2004
1	2	0	0	2008
1	1	0	46	2008
1	1	86	40	2008
1	1	98	0	2006
1	1	64	34	2005
1	1	0	47	2009
1	2	70	40	2007
1	2	63	42	2009
1	0	0	0	2006
2	2	0	0	2003
1	1	64	39	2008
1	2	60	42	2008
1	2	52	39	2008
1	1	0	35	2009
1	1	111	83	2006
1	1	85	40	2008
1	2	0	38	2007
1	2	0	36	2009
1	2	99	34	2007
4	0	0	0	0
1	0	0	0	0
1	1	0	0	2006
1	1	0	42	2009
1	2	79	36	2009
1	1	52	38	2008
1	2	102	33	2009
1	1	98	0	2007
2	1	85	0	2005
1	1	64	0	0
2	2	0	0	2002
1	1	85	45	2008
1	2	64	79	2008
1	2	86	36	2009
1	2	0	42	2008
1	1	63	81	2006
1	0	98	0	0
2	1	47	0	2004
1	2	102	42	2009
1	2	0	82	2007
2	1	61	0	2005
2	0	98	0	2005
1	1	86	40	2008
1	2	102	83	2007
2	1	99	0	2004
1	1	86	38	2009
1	1	86	83	2007
1	2	61	82	2009
1	1	46	0	2007
1	1	95	83	2006
2	2	123	0	2003
1	2	83	83	2007
1	2	60	47	2008
2	2	60	0	2000
2	1	109	68	2004
1	2	98	36	2009
1	2	92	37	2008
1	0	0	46	0
1	2	52	36	2008
2	1	52	83	2005
1	1	97	0	2006
1	2	0	81	2008
2	1	61	0	0
1	2	98	0	2006
1	0	0	0	0
1	2	0	38	2008
2	0	70	0	2005
1	2	46	33	2008
2	2	61	0	0
1	1	0	0	2007
1	2	0	36	2009
1	2	98	43	2008
1	2	99	0	2006
1	2	83	35	2008
1	2	60	81	2007
1	0	86	83	2006
1	2	63	44	2008
2	1	98	42	2001
1	2	85	83	2007
1	2	61	0	2006
1	2	0	42	2008
1	2	0	83	2006
1	1	0	42	2009
1	2	52	38	2006
1	1	52	0	2007
1	0	0	0	0
1	0	86	83	2006
1	0	0	0	0
1	1	99	42	2007
1	1	0	42	2009
5	1	85	0	2004
1	1	52	44	2009
1	1	0	0	2007
1	2	0	44	2009
1	1	86	0	2005
1	1	118	37	2008
1	0	0	0	0
1	1	0	42	2009
1	1	110	43	2008
1	1	0	41	2009
1	1	0	41	2008
3	0	0	0	0
1	2	106	83	2010
1	2	52	40	2008
1	2	52	44	2008
2	2	86	34	2005
1	1	121	42	2008
1	1	0	44	0
1	1	0	81	0
1	2	52	82	2007
1	2	98	38	2007
1	2	98	46	2007
2	1	86	0	2004
1	2	63	47	2009
5	2	56	0	0
1	1	63	42	2009
1	1	0	42	2009
1	2	109	54	2006
5	2	99	0	2004
1	2	118	58	2008
1	1	45	47	2009
1	2	52	0	2006
1	1	86	83	2007
1	1	52	0	2006
1	1	109	81	2006
2	1	83	0	0
1	1	100	47	2009
1	2	0	82	2008
2	1	92	0	2004
1	0	86	83	2006
1	1	64	50	2006
1	1	46	83	2007
1	0	0	82	2006
2	1	85	83	2005
1	2	0	36	2009
2	1	77	0	2001
1	1	109	54	2006
1	1	98	32	2007
1	2	123	31	2008
1	2	60	83	2007
1	1	0	82	2009
2	0	0	0	0
5	2	62	83	2007
1	2	61	36	2009
2	2	0	0	2005
1	2	0	77	2007
1	2	85	75	2006
1	2	118	83	2007
1	1	121	0	2006
1	1	79	42	2007
1	2	60	42	2007
1	2	0	42	2009
1	1	0	37	2008
1	1	65	39	2006
2	1	103	0	2005
1	1	125	32	2008
1	1	0	47	2008
1	1	86	0	2007
1	1	56	0	2006
1	1	98	83	2006
1	2	0	39	2008
1	1	61	45	2007
2	2	99	42	2005
1	2	0	44	2008
1	2	98	81	2008
1	1	52	47	2007
1	1	65	33	2008
2	1	46	0	2005
1	1	110	83	2006
1	1	0	37	2006
2	1	89	83	2005
1	2	0	42	2009
1	1	85	46	2008
2	1	0	0	2005
1	2	114	47	2008
1	1	100	47	2008
1	1	0	0	2008
1	2	103	36	2007
1	2	92	40	2007
1	2	61	43	2007
1	0	0	0	0
5	0	0	0	0
1	1	0	0	2008
1	1	61	34	2007
5	1	52	0	2008
2	2	0	0	2004
2	1	98	0	2003
1	2	84	47	2009
1	2	61	83	2006
2	1	64	0	2004
1	1	0	46	2008
1	2	83	83	2007
1	1	0	42	2009
1	2	102	83	2007
1	2	105	66	2006
1	0	0	0	0
1	0	0	0	0
1	1	0	0	0
1	1	86	0	2008
1	1	0	33	2007
1	0	64	0	2005
1	2	123	0	2007
2	1	86	0	2004
1	1	109	42	2008
1	2	92	83	2007
2	1	60	35	2004
1	2	85	42	2009
2	1	109	0	2004
1	1	86	0	2006
1	2	61	81	2006
1	1	0	0	2009
1	1	66	37	2006
2	2	86	0	2004
2	2	98	0	2004
1	1	0	33	2009
1	1	0	42	2009
2	1	64	0	2005
1	2	0	81	2009
2	2	0	0	2010
1	2	47	83	2007
1	1	109	0	0
1	1	109	0	2006
1	1	117	36	2008
1	2	85	81	2008
1	1	47	38	2009
1	2	63	31	2009
1	2	103	39	2009
1	2	0	42	2009
1	2	61	42	2009
1	1	61	0	2005
1	1	47	0	2006
1	1	48	81	2008
2	1	51	0	2005
1	2	0	38	2008
2	1	52	0	2004
1	1	102	42	2006
2	2	98	0	2005
2	1	85	0	2005
1	1	82	38	2005
2	1	52	0	2005
1	1	64	43	2006
1	1	86	83	2007
5	2	119	0	2009
1	1	98	47	2009
1	1	99	83	2007
1	1	70	81	2009
1	1	0	36	2009
1	2	98	40	2008
2	2	98	0	2005
1	2	102	40	2008
1	1	118	0	2006
2	1	109	0	2004
1	1	102	36	2007
1	1	0	47	2007
1	1	0	0	2008
1	1	0	44	2009
1	1	105	0	2007
1	1	61	36	2009
1	1	103	42	2009
1	1	109	83	2006
1	2	51	37	2006
2	1	98	0	2004
1	2	0	0	2005
1	1	99	83	2005
1	1	117	42	2009
1	1	0	36	2009
2	1	85	0	2004
1	2	0	83	2006
1	1	0	47	2009
1	1	86	0	2007
1	2	85	34	2006
1	1	0	82	2009
1	1	0	41	2008
2	1	85	0	2004
1	0	0	0	0
2	1	98	0	2004
1	1	109	42	2007
1	2	85	37	2006
1	1	103	33	2009
1	2	85	0	2005
1	1	0	58	2006
1	1	98	47	2009
1	1	47	31	2008
2	2	64	0	2004
1	2	86	83	2007
1	2	61	0	2006
1	2	49	75	2008
1	1	63	42	2008
5	1	102	0	2005
2	1	103	0	2004
1	2	63	35	2008
1	0	95	83	2007
2	1	60	0	2004
1	2	0	47	2008
1	2	103	83	2007
1	2	121	36	2009
1	1	52	81	2009
1	1	109	83	2006
1	1	98	82	2009
1	1	98	40	2008
2	2	99	51	2004
1	1	80	83	2005
1	2	63	47	2008
1	1	58	37	2006
2	0	0	0	0
1	1	70	42	2006
2	2	60	0	2004
1	1	52	83	2006
2	2	84	0	2005
1	2	85	83	2007
1	2	64	31	2008
1	2	56	82	2009
1	2	0	0	0
1	2	98	74	2005
1	2	0	33	2008
1	2	61	0	2006
2	2	103	0	2004
1	2	98	34	0
1	1	48	42	0
1	1	64	42	2008
1	1	100	36	2009
1	1	79	44	2009
1	1	86	83	2006
1	2	0	31	2009
5	1	0	0	2007
1	2	80	31	2009
1	1	98	0	2006
1	0	0	0	2007
1	2	61	0	2006
1	1	56	36	2009
1	1	103	83	2007
1	1	102	83	2006
1	2	60	83	2006
2	2	0	0	2004
1	2	0	38	2009
2	2	60	38	2002
2	1	64	0	2004
1	1	98	43	2006
1	2	60	34	2006
1	1	86	83	2006
1	2	88	46	2008
1	2	63	47	2009
1	2	64	40	2008
1	2	98	0	2008
2	2	98	0	2004
1	2	52	37	2007
2	1	46	45	2005
2	2	70	0	2005
1	2	0	81	2008
1	0	0	0	0
2	1	0	0	2004
2	1	52	0	2004
1	1	0	0	2007
1	2	85	38	2008
1	1	86	44	2009
1	1	125	0	2007
2	2	100	0	2003
2	2	61	0	2005
1	2	52	82	2009
1	0	126	33	2008
1	1	0	33	2004
4	0	0	0	0
2	2	0	0	2003
2	2	98	63	2004
1	2	98	83	2007
5	1	86	0	0
1	1	100	42	2007
1	2	118	83	2006
1	1	106	0	2007
5	1	109	0	2004
1	1	68	0	2006
1	2	98	83	2008
1	1	0	73	2007
2	1	79	0	2004
1	2	70	81	2008
1	1	98	83	2006
1	1	64	0	2006
1	1	86	83	2006
1	1	0	42	2008
2	1	47	0	2005
1	0	0	0	0
1	1	109	0	2005
1	1	0	36	2009
1	1	52	0	2008
1	2	46	77	2006
1	1	98	0	2006
1	1	52	42	2007
1	2	0	38	2008
2	2	61	0	2004
1	1	0	35	2009
1	1	94	0	2007
1	1	121	83	2006
1	1	98	35	2009
2	1	92	83	2005
5	2	103	83	2006
1	0	0	0	0
1	2	67	34	2007
1	1	0	33	2009
1	1	86	83	2007
1	1	64	83	2006
1	1	109	31	2008
1	1	98	0	2006
2	2	85	83	2005
1	1	86	0	2006
1	2	103	0	2005
1	1	86	83	2007
1	1	0	36	2009
1	1	103	44	2009
1	2	85	83	2006
2	1	102	0	2004
1	1	100	81	2008
1	1	0	44	2009
1	1	0	0	2008
1	2	60	79	2006
2	2	103	0	2005
1	1	52	36	2009
1	1	123	0	2006
1	1	121	0	2006
1	2	60	0	2006
1	1	92	81	2006
1	2	48	45	2007
1	2	64	0	2005
1	2	0	0	2005
1	1	98	41	0
1	0	98	83	2007
2	1	98	0	2002
2	0	0	0	2005
1	2	103	35	2008
1	2	0	46	2008
1	1	86	83	2006
1	1	98	50	2006
1	1	0	35	2008
2	2	60	0	2004
2	2	0	0	0
1	2	52	36	2009
2	1	98	0	2003
1	2	86	44	2009
1	2	0	42	2009
1	2	70	0	2007
1	1	123	83	2006
2	1	64	0	2004
1	0	48	34	2007
2	2	98	34	2004
1	2	123	32	2008
1	1	70	40	2007
2	2	86	0	2005
2	2	61	0	2005
2	1	121	72	2004
1	2	0	44	2008
1	2	103	0	0
2	2	61	0	2005
2	2	60	0	1999
2	1	0	0	2004
1	1	63	82	2009
2	2	86	70	2004
1	2	103	47	2007
1	1	46	41	2005
1	1	88	0	0
1	1	98	0	2005
1	1	80	42	2009
1	2	105	43	2006
2	1	60	37	2003
1	2	98	83	2006
2	2	98	79	2004
2	0	0	0	0
1	1	0	0	2007
1	1	0	47	2009
1	1	56	83	2006
1	1	98	0	2007
2	2	56	0	2005
2	1	51	0	2005
1	1	52	47	2009
1	1	86	0	2007
1	2	79	47	2009
2	1	64	0	2004
1	2	98	37	2006
1	2	112	0	2006
1	1	52	37	2008
2	1	61	0	2004
1	1	83	0	2008
1	2	124	34	2007
1	2	52	36	2009
1	0	0	0	0
1	2	80	0	2006
2	2	56	0	2003
2	2	63	0	2003
1	1	0	37	2008
2	2	98	0	2004
1	1	98	34	2007
1	1	125	33	2009
1	2	63	31	2008
1	1	98	63	2007
2	1	47	0	2004
2	2	99	0	2004
1	2	79	44	2009
1	2	86	0	2007
1	1	86	36	2009
1	0	111	39	2007
1	1	103	83	2007
1	1	0	42	2008
2	1	48	60	2004
1	1	74	82	2007
1	1	46	40	2008
1	1	52	0	2006
2	1	47	0	2004
1	2	0	36	2008
1	2	59	83	2007
2	2	46	0	2004
1	2	103	52	2008
1	2	103	38	2008
1	1	109	83	2006
2	2	61	0	2005
1	1	52	43	2008
1	2	86	36	2009
2	1	0	0	2003
1	2	61	83	2006
1	1	61	43	2008
2	2	70	0	2005
