status	gender	major	dorm	year
1	2	266	92	2009
1	1	236	0	2006
2	0	236	0	2005
1	1	243	108	2007
1	1	244	108	2007
1	2	241	153	2008
1	1	243	99	2008
1	1	251	117	2008
1	0	260	0	2007
2	1	282	103	2005
1	1	264	108	2005
2	1	266	0	2005
5	2	235	0	0
1	1	0	107	0
2	1	264	0	2005
1	1	0	87	2009
2	2	260	0	2005
1	2	287	0	0
1	1	264	0	2007
1	1	240	106	2008
2	0	260	0	2004
1	0	0	117	2008
1	1	281	104	2006
1	1	241	104	2007
1	1	290	0	2007
1	2	251	139	2006
2	1	254	0	2005
0	0	0	0	0
1	1	264	108	2007
1	1	285	108	2006
1	2	266	112	2006
1	2	260	96	2009
1	1	251	86	2009
1	2	243	92	2009
1	0	254	154	2007
1	1	282	104	2007
2	2	243	100	2005
2	1	288	122	2004
1	2	0	145	2008
2	1	266	0	2005
1	1	263	109	2006
1	2	243	0	2008
1	1	243	107	2009
1	1	266	0	2007
1	2	243	134	2007
1	1	0	107	2007
2	1	254	110	2005
1	2	251	0	2006
1	2	243	0	2006
1	2	244	112	2007
2	1	290	0	2005
2	2	236	0	2005
1	1	290	151	2007
1	2	243	0	2006
1	2	263	113	2007
2	2	243	115	2005
1	1	254	92	2009
1	1	287	0	2008
2	1	0	0	2004
1	1	264	86	2009
1	2	0	96	2009
1	1	244	151	2008
1	2	266	92	2009
1	1	243	110	2007
1	2	251	140	2006
2	1	266	135	2005
1	2	285	139	2006
1	1	266	0	2007
2	2	281	0	2005
1	2	290	140	2007
1	2	243	89	2009
1	2	279	140	2007
1	0	254	119	2006
2	1	260	112	2005
1	1	283	104	2007
1	1	290	0	2007
2	2	281	0	2005
1	0	0	0	0
1	2	248	0	2006
1	2	264	110	2007
2	0	241	0	2003
1	1	281	0	2008
2	0	0	0	0
2	1	239	0	2004
2	1	0	0	0
1	2	243	149	2008
2	2	244	0	2005
2	1	253	112	2005
1	1	291	0	2008
1	1	0	86	2009
1	2	264	93	2008
1	1	266	91	2009
2	1	248	0	2005
1	2	240	109	2006
1	1	260	0	2007
2	1	241	0	2005
1	2	243	139	2008
1	1	241	0	2008
1	2	264	86	2006
1	1	0	94	2009
1	1	244	103	2008
1	2	241	92	0
1	1	285	96	2009
1	2	264	87	2009
1	2	243	0	2007
2	2	285	0	2005
1	1	281	0	2006
1	1	272	86	2009
1	0	260	109	2006
1	2	0	0	2009
1	1	0	108	2008
1	1	281	88	2009
4	2	248	0	0
1	1	281	111	2006
1	0	281	105	2007
2	1	285	0	2005
1	2	266	110	2007
1	0	246	135	2006
1	0	0	0	0
2	2	243	0	2005
1	2	280	146	2006
1	1	267	108	2007
1	2	236	110	2007
1	2	243	140	2007
1	2	284	110	2007
2	2	244	0	2005
1	0	0	0	0
1	2	260	0	2006
2	2	281	0	2005
1	2	251	107	2008
1	2	243	0	2007
1	0	0	0	0
1	1	241	0	2005
1	2	243	96	2007
1	1	254	97	0
1	0	0	0	0
2	1	0	0	2005
2	2	287	0	2005
1	1	282	108	2008
1	1	241	86	2009
1	1	241	104	2007
1	1	253	0	2007
1	2	243	104	2007
1	2	0	92	2009
2	2	243	0	2005
1	2	236	96	2009
1	1	241	102	2008
1	2	251	0	2007
1	2	243	86	2009
1	1	241	88	2009
1	1	266	0	2008
1	1	241	100	2007
1	2	279	96	2009
1	2	281	92	2009
1	1	0	129	2007
1	1	275	136	2007
1	2	244	96	2009
1	2	278	110	2006
2	2	264	144	2005
2	1	0	0	2005
1	1	243	92	2009
2	1	254	0	2005
5	2	274	0	0
1	0	0	0	0
1	2	243	0	2006
1	0	0	0	0
2	2	266	0	2005
2	1	260	0	2004
1	1	289	96	2009
1	2	0	140	0
1	2	254	0	2008
1	2	241	92	2009
2	2	260	0	2005
1	2	270	0	2007
1	1	264	0	2007
1	1	241	0	0
2	1	241	0	2005
2	2	260	0	2005
1	1	281	110	2006
1	1	290	105	2008
1	1	285	95	2009
1	2	264	110	2007
1	1	243	112	2006
1	1	243	0	2006
1	1	254	0	2007
1	0	266	0	2007
1	0	264	0	2007
5	1	272	0	2008
1	1	281	110	2005
5	0	0	0	0
1	1	264	0	2007
1	1	254	108	2008
1	1	270	104	2008
1	1	278	94	2008
1	1	290	116	2006
1	1	270	136	0
1	1	244	90	2009
1	1	264	96	0
1	1	264	90	2008
1	0	0	0	0
1	2	282	110	2007
1	2	266	87	2008
1	0	258	92	0
1	1	283	108	2007
1	2	0	86	2009
2	1	264	0	2005
1	1	244	109	2006
1	2	243	96	2009
5	2	272	0	2005
2	2	254	0	2005
1	2	277	103	2008
1	2	0	118	2008
1	1	254	117	2008
1	1	270	114	2007
1	2	264	0	2006
1	2	267	107	2009
1	2	254	116	2005
1	2	264	0	2006
1	0	0	0	0
1	1	241	0	2007
2	2	264	0	2003
1	1	263	0	2006
1	2	254	0	2006
1	1	290	113	2008
2	1	241	0	2005
1	1	246	92	2009
1	2	279	0	0
1	1	281	108	2008
2	1	281	0	2005
1	1	254	108	2007
1	1	243	0	2006
1	1	270	0	2006
1	2	243	143	2006
1	1	253	86	2008
1	0	241	0	2006
1	1	241	96	2009
1	2	241	111	2005
1	2	0	92	2009
1	2	264	107	2007
1	2	241	107	2009
1	2	248	99	2007
2	0	0	0	0
1	1	0	0	0
1	1	243	111	2006
2	2	283	0	0
1	2	266	93	2008
1	2	260	110	2006
2	1	251	0	2005
1	1	281	110	2006
1	0	0	0	0
1	1	264	96	2009
1	2	0	153	2008
1	1	266	91	2008
1	1	243	102	2008
1	2	241	140	0
1	2	270	0	2005
2	1	244	0	2005
3	2	236	0	0
1	1	260	96	2008
1	1	281	0	0
1	1	0	96	2009
1	2	288	110	0
1	1	267	118	2008
1	2	0	151	2008
1	2	270	89	2009
1	1	281	0	2006
1	2	247	96	0
2	1	260	0	2004
2	2	254	145	2004
1	1	254	142	2006
1	1	241	0	2009
1	1	239	90	2009
1	1	285	107	2006
1	0	254	0	2007
1	2	264	140	2008
1	2	266	118	2007
1	0	260	0	2006
1	1	243	0	2006
1	1	260	108	2008
1	1	266	0	2007
1	2	265	91	2009
1	0	254	101	0
1	2	283	155	2008
1	2	266	88	2007
1	2	270	90	2008
1	2	244	0	2007
1	1	243	105	2008
1	2	264	107	2007
1	2	251	114	2006
1	2	0	87	2008
1	1	0	86	2009
1	1	251	90	2009
2	1	0	0	0
2	1	236	0	2005
1	1	253	108	2008
1	1	0	108	2007
2	2	243	0	2003
2	1	243	0	2005
1	2	251	0	2007
2	1	236	0	2005
1	1	281	106	2007
1	1	243	129	2007
1	1	264	97	2007
2	1	0	0	0
1	2	0	0	2009
5	1	244	0	2004
1	1	243	110	2005
1	2	261	0	0
1	1	280	110	2007
1	1	264	0	2008
1	2	281	106	2008
1	1	0	135	2008
1	1	254	110	2006
2	2	275	0	2004
5	2	272	0	0
1	2	243	112	2006
5	2	267	0	2004
2	1	260	0	2004
1	1	277	0	2007
2	2	248	0	2005
2	1	281	0	2004
1	1	243	106	2008
2	2	248	0	2005
1	2	243	0	2008
1	2	243	102	2006
1	2	243	0	2008
1	2	267	110	2007
1	2	262	141	2008
1	0	0	0	0
1	2	266	155	2008
1	0	0	0	0
1	1	254	0	2006
2	2	264	0	2005
1	1	243	122	2007
1	2	243	86	2009
1	1	281	108	2007
1	0	0	0	0
5	2	272	0	2006
1	2	282	148	2005
1	2	251	110	2006
1	2	280	153	2008
2	1	243	0	2005
1	1	243	0	2006
1	2	254	93	2008
1	2	264	111	2006
1	2	272	110	2007
2	2	285	0	2004
1	2	280	0	2007
1	2	244	0	0
1	2	266	87	2009
1	1	0	91	0
1	1	266	0	2007
5	1	253	0	2006
1	2	0	0	0
1	1	0	135	2008
1	2	279	0	2008
2	1	266	0	2005
1	1	281	103	2006
2	1	246	0	2004
1	2	266	94	2008
1	0	0	0	0
1	2	265	143	2005
1	1	260	90	2009
1	0	0	0	0
2	1	281	136	2004
1	1	241	107	2008
1	1	235	0	2007
1	2	0	110	2008
1	1	264	106	2008
5	1	272	0	2006
2	1	270	0	2004
1	1	254	0	2007
1	0	0	0	0
1	1	281	0	2008
1	2	273	118	2008
1	1	244	86	2009
1	1	264	107	2008
1	2	264	0	2007
1	1	260	0	2006
1	2	264	0	2007
1	0	0	0	0
1	0	0	0	0
2	1	279	0	2005
2	2	278	0	2004
1	1	281	97	2007
1	1	241	112	2006
1	1	290	100	2007
1	2	264	110	2007
1	1	254	107	2008
2	2	281	115	2005
2	1	260	0	2005
2	2	264	0	2005
1	1	255	0	2008
1	2	282	0	2006
2	1	240	0	2004
1	2	260	100	2007
1	2	263	150	2007
2	1	266	0	2005
1	1	243	0	2008
1	1	251	0	2007
1	2	290	110	2007
1	1	239	111	2007
1	1	281	0	0
2	1	273	0	2005
1	1	0	109	2008
3	2	264	0	0
1	2	251	0	2006
1	1	0	92	2009
1	1	270	0	2006
1	0	253	0	2006
2	2	282	0	2005
1	1	239	112	2006
2	2	281	0	2005
1	1	244	92	2009
1	2	275	0	2008
1	1	254	97	2007
1	1	241	130	2007
2	2	262	0	2004
1	2	280	92	2008
1	1	287	0	2007
1	0	0	0	0
1	2	0	92	2009
1	1	0	92	2009
1	1	264	0	2006
1	1	240	0	2005
1	0	270	115	2006
1	2	242	100	2007
1	1	243	0	2009
1	1	241	103	2007
2	0	0	0	2005
1	2	243	0	2005
1	1	264	0	2006
1	2	280	109	2008
1	1	260	0	2008
1	0	0	0	0
1	1	266	108	2008
1	2	0	131	2008
1	1	266	117	2008
1	0	0	0	0
1	1	264	0	2006
1	2	244	101	2008
1	1	0	152	2008
1	2	243	146	2007
1	1	264	108	2007
1	2	0	86	2009
1	1	243	97	2008
1	2	260	91	2009
5	0	0	0	0
1	2	282	92	2009
1	1	281	92	2008
1	1	241	100	2008
1	0	241	86	2009
1	0	285	103	2007
1	1	278	93	2008
1	2	243	150	2008
2	2	243	0	2004
1	1	265	0	2010
1	1	291	96	2009
2	0	281	0	1984
1	1	260	90	2008
1	2	282	112	2006
2	1	240	0	0
1	1	270	0	2008
1	2	0	96	2009
1	2	243	0	2008
2	0	243	0	2004
5	1	252	0	2006
1	1	281	90	2009
1	2	264	147	2005
1	2	275	111	2007
2	2	239	0	2005
1	2	270	92	2009
3	2	281	0	0
1	2	251	0	2005
1	1	281	115	2007
1	0	0	0	0
1	2	264	0	2007
1	2	260	0	2005
1	2	266	139	2008
1	2	272	0	2006
1	0	0	0	0
2	1	240	0	2004
1	1	243	152	2008
4	0	0	0	0
1	1	267	118	2006
1	2	243	0	2006
5	2	244	0	2006
1	2	264	110	2006
1	1	254	90	2009
1	1	254	107	2008
1	1	0	106	2008
1	1	241	118	2007
1	1	266	99	2008
1	2	270	86	2009
1	2	248	106	2007
1	1	266	0	2006
1	1	241	0	2007
1	1	0	90	2009
1	2	290	0	2007
1	2	260	107	2009
1	1	0	94	2009
1	1	239	108	2008
1	1	254	93	2008
1	2	241	112	2005
5	1	272	135	0
1	1	243	115	2006
2	1	0	0	2005
1	1	281	110	2006
1	2	266	89	2009
5	1	272	122	2004
1	1	282	117	2007
2	1	241	0	2005
1	2	243	117	0
1	2	266	110	2006
1	2	251	111	2007
1	1	241	97	2008
1	2	290	89	2009
1	1	278	107	2009
2	2	260	0	2005
1	1	0	96	2009
2	1	290	0	2004
1	2	260	0	2006
1	2	260	137	2008
2	1	290	0	2005
2	1	253	0	2003
1	2	243	0	2005
1	1	0	87	2009
2	1	281	0	2005
1	2	243	93	2008
1	0	0	0	0
1	1	243	0	2005
1	1	290	151	2007
1	1	236	105	2008
1	2	241	110	2008
1	2	275	153	2006
5	2	282	91	2007
1	0	260	0	2007
2	1	264	110	2005
1	1	260	90	2009
1	1	281	0	0
1	2	260	118	2006
1	2	241	0	2006
1	1	274	107	2009
1	0	264	111	2006
1	1	260	0	2006
1	2	260	104	0
1	2	270	0	2007
1	2	248	134	2007
1	1	283	109	2006
1	2	250	0	0
1	2	0	0	2008
1	1	281	105	2008
1	2	282	96	2009
2	2	0	0	2005
1	0	0	0	0
1	1	266	91	2009
1	2	241	0	2007
1	1	243	104	2006
1	1	0	96	2009
1	1	254	136	2007
1	2	267	114	2005
1	1	241	0	2007
5	1	275	0	2007
1	2	0	96	2009
1	1	282	138	2006
1	1	0	117	2008
5	1	243	0	2005
1	1	243	0	2007
1	1	290	94	0
1	1	243	0	2008
2	2	243	0	2005
2	1	264	0	2005
2	0	0	0	2005
5	0	253	0	2006
1	2	0	104	0
1	2	246	105	2007
1	1	0	92	2009
2	1	270	0	2004
2	1	254	0	2005
2	2	281	112	2005
2	2	251	104	2005
2	1	254	0	2005
1	2	0	0	2008
2	1	281	0	2005
1	2	0	0	2008
1	1	254	114	2005
2	2	243	137	2004
2	2	241	0	2004
5	2	243	143	0
1	1	241	105	2008
1	2	0	92	2008
5	1	249	0	2006
1	1	251	0	2007
1	1	285	112	2006
2	1	284	133	2004
1	1	243	106	2007
1	2	264	86	2009
1	1	270	0	2008
1	1	254	97	2008
1	2	266	89	2009
1	1	264	0	2007
1	2	275	0	2008
1	2	260	0	2007
1	2	238	112	2010
1	1	243	0	2006
1	1	0	97	2008
1	1	0	106	2008
1	1	290	97	2008
2	1	244	0	2005
1	2	266	94	2009
2	2	266	134	2005
1	2	241	93	2008
1	1	246	100	2007
1	1	260	86	2009
1	1	264	88	2009
1	1	244	90	2009
2	2	251	139	0
1	1	251	104	2007
5	1	272	0	2005
1	0	0	0	0
1	2	236	134	2008
1	2	282	110	2006
1	1	290	104	2007
1	2	0	96	2009
2	1	260	0	2005
1	1	264	107	2009
1	2	264	153	2008
1	2	241	0	2005
1	2	241	94	2009
1	2	266	94	2009
1	2	0	104	2007
1	1	243	0	2006
1	1	260	104	2008
1	2	0	0	2008
1	1	266	106	2007
2	2	0	0	2005
1	2	0	86	2009
2	2	0	0	0
1	2	253	89	2009
1	2	278	91	2009
1	2	282	87	2009
1	1	254	104	2008
1	1	235	96	2009
1	1	263	0	2007
1	2	243	0	2006
1	2	279	0	2006
2	0	283	0	2005
2	2	264	0	2005
2	1	254	135	2004
2	1	240	0	2004
1	2	290	152	2008
2	1	244	0	2005
2	1	290	0	2005
1	2	267	92	2005
1	1	253	103	0
1	1	281	104	2007
1	2	254	111	2006
1	1	282	105	2008
1	0	241	112	2005
2	1	251	0	2005
1	2	241	0	2006
1	1	0	114	2008
1	2	251	110	2006
1	2	242	110	2008
1	2	0	0	0
2	1	270	115	2004
2	1	252	0	2005
1	1	251	0	2006
1	0	264	0	0
1	2	244	88	2009
1	2	241	155	2008
1	2	243	92	2009
1	1	282	97	2008
1	1	243	0	2007
4	0	0	0	0
1	2	243	96	2009
1	1	266	99	2008
1	1	0	107	2009
1	2	0	0	2007
2	2	243	0	2003
4	2	0	0	0
1	2	241	106	2008
1	2	244	91	2009
1	1	254	86	2009
1	2	248	91	2008
2	2	241	0	2005
1	2	256	103	2006
2	2	243	0	2004
1	2	282	149	2007
3	2	270	89	2010
1	1	243	100	2007
2	1	260	122	2005
1	2	243	110	2007
1	2	241	96	2009
2	1	281	0	2005
2	1	256	0	2005
1	2	285	116	2006
1	1	254	96	2009
1	1	281	115	2007
1	1	285	0	2006
2	2	281	102	2005
1	1	264	0	2006
2	2	278	0	0
1	2	236	0	2008
1	1	287	107	2009
1	2	243	93	2008
2	1	251	0	2005
1	0	0	0	0
1	1	285	0	2007
1	2	270	96	2009
2	2	264	0	2005
1	0	0	0	0
1	1	0	93	2008
1	1	283	87	2009
1	2	248	0	2007
1	1	243	0	2006
1	2	264	0	2009
1	2	275	110	2006
1	1	264	95	2009
1	1	0	94	2009
1	2	0	91	2009
2	1	281	0	2004
1	1	254	107	2007
1	1	264	110	2006
2	0	0	0	0
1	1	281	96	2009
1	1	254	96	2008
1	2	260	107	2009
1	1	241	87	2009
1	2	0	86	2009
1	1	251	0	2006
2	1	0	0	2005
1	0	0	0	0
5	2	243	121	2006
1	0	0	0	0
2	1	266	111	2005
1	1	236	0	2007
1	1	243	129	2007
1	1	0	92	2009
1	1	264	96	2009
1	1	0	0	2008
2	1	265	0	2005
2	1	251	0	2005
1	1	241	86	2009
1	0	0	0	0
1	1	0	86	2009
1	1	281	105	2008
2	2	248	110	2005
1	1	281	86	2009
5	2	274	0	2008
1	0	0	0	0
1	1	254	94	2009
1	1	260	106	2007
1	1	280	108	2007
1	2	241	95	2009
1	2	244	92	2009
1	1	241	0	2007
1	2	264	86	2009
2	1	281	0	0
2	1	260	0	2005
1	2	290	96	2009
1	0	241	102	2005
2	1	260	0	2005
1	2	264	109	2007
1	1	240	0	2007
2	2	243	0	2004
1	2	241	106	2007
1	1	260	108	2007
1	2	243	93	2008
1	2	259	123	2007
1	2	281	107	2008
1	1	244	141	2006
1	1	243	129	2007
1	1	260	0	2008
1	1	239	111	2007
1	2	260	96	2009
2	1	253	0	2002
1	1	0	0	2009
1	2	0	100	2008
1	1	243	108	2008
1	2	260	102	2007
1	2	260	110	2007
1	2	260	96	2009
1	1	241	0	2006
1	1	241	0	2008
1	1	265	104	2007
2	1	240	0	2005
2	2	243	0	0
2	2	256	0	2004
1	2	243	146	2007
1	1	260	0	0
1	1	272	90	2009
1	0	290	155	2008
1	2	290	107	2008
1	2	243	0	2006
1	1	279	0	2007
1	1	270	155	0
2	1	243	136	2003
2	1	241	0	2005
5	1	272	0	0
1	2	243	0	2006
1	1	243	124	2008
1	1	270	127	2006
1	2	243	0	2006
1	2	241	117	2008
1	0	0	0	0
2	0	0	0	0
1	2	0	0	2007
1	2	260	110	2006
1	2	0	102	2008
1	1	243	0	2006
1	1	260	108	2008
1	1	243	142	2006
1	2	0	96	2008
1	1	238	105	2008
1	1	254	106	0
1	0	0	0	0
1	1	0	97	2008
1	0	0	0	0
1	2	258	105	2008
1	1	241	92	2009
1	1	259	0	2006
2	1	253	143	2005
1	1	266	99	2008
1	1	0	0	2009
1	2	241	0	2006
1	2	260	149	0
2	1	266	0	2005
1	1	253	108	2008
1	2	270	0	2008
1	0	287	0	2006
1	2	279	0	2006
1	2	247	107	2009
1	1	244	92	2007
1	1	264	101	2007
2	1	0	0	2004
1	1	281	0	2007
1	0	0	0	0
1	1	264	108	2008
1	1	0	88	2009
1	2	0	96	2009
1	1	239	136	2005
1	1	264	110	2006
1	2	266	140	0
2	1	243	0	2004
1	2	260	110	2008
1	1	266	94	2009
1	1	278	90	2009
2	1	260	0	2005
1	1	266	108	2008
1	1	265	110	2008
1	2	264	96	2008
1	1	254	141	2008
1	2	0	92	2009
5	0	0	0	0
1	1	0	86	2009
1	2	254	89	2009
1	2	251	88	2009
1	1	264	117	2007
1	2	264	137	2007
5	2	272	0	2006
1	2	243	0	2007
1	2	266	96	2008
1	0	0	0	0
1	1	243	96	2009
1	1	285	91	2005
1	1	260	0	2007
1	2	243	115	2006
1	1	241	95	2009
1	1	254	119	2005
1	1	235	99	2007
1	1	281	0	2008
1	1	281	110	2007
2	1	281	0	2005
1	2	244	0	2006
1	1	281	142	2007
1	1	260	111	2006
1	2	0	106	2008
1	1	241	118	2008
1	2	264	111	2007
2	0	0	0	0
2	1	243	0	2005
1	1	244	92	2009
1	0	0	0	0
2	1	243	0	2005
1	1	243	155	2008
1	2	243	89	2009
1	1	253	0	2006
1	0	0	0	0
1	0	0	0	0
1	2	284	117	2008
1	2	243	88	2009
1	2	243	88	2008
1	1	275	95	2009
1	2	260	0	2006
1	1	264	108	2007
1	1	285	0	2007
1	1	241	110	2007
2	1	236	0	2005
1	1	236	108	2008
1	2	0	0	2007
1	2	243	0	2007
1	1	272	110	2008
1	2	254	118	2006
2	2	287	0	2005
1	2	251	134	2006
2	1	241	0	2004
1	1	255	103	2008
1	2	279	0	2006
1	1	281	99	2008
1	2	281	110	2007
2	1	254	0	2005
2	2	283	0	2005
1	1	244	110	2006
1	1	266	108	2006
1	0	248	0	2007
1	1	260	110	2008
1	2	272	155	2008
1	2	244	0	2005
2	0	254	0	2005
1	2	280	147	2008
1	2	260	111	2006
1	2	281	94	2009
2	2	264	92	2005
1	2	254	140	2007
1	1	241	102	2007
2	0	273	0	2003
1	2	241	95	2009
1	1	251	0	0
1	2	250	143	2006
1	1	281	0	2007
1	2	254	104	2006
1	1	243	103	2008
2	1	243	108	2005
1	2	285	0	2006
1	1	251	92	2009
1	1	254	92	2009
1	2	264	110	2006
1	2	264	0	2007
1	2	244	140	2006
1	0	0	0	0
1	1	254	96	2009
1	1	281	107	2006
1	2	243	151	2008
2	2	280	0	2004
1	1	288	0	2007
1	1	264	106	2007
1	1	243	0	2006
1	1	0	0	2006
2	2	251	0	2005
1	1	0	0	2008
2	1	270	0	2005
2	0	260	0	0
2	2	251	0	2005
1	1	0	100	2008
1	2	243	0	2008
1	1	281	86	2009
1	1	241	107	2009
1	1	266	151	2007
1	1	235	96	2009
1	2	264	0	2006
2	1	267	0	2005
1	2	248	110	2008
1	2	0	88	2009
1	2	282	0	2008
1	1	244	0	2005
5	0	0	0	0
1	2	243	0	2007
1	1	272	0	2007
2	2	251	0	2004
1	2	251	110	2006
1	1	254	118	2007
1	1	244	0	2008
1	0	264	114	2006
1	1	254	99	2006
1	1	270	105	2008
1	1	267	88	2009
1	1	0	0	2007
1	1	285	99	2006
1	2	250	140	0
2	2	266	0	2004
2	1	243	135	2004
1	2	266	118	2007
1	0	0	0	0
5	1	235	0	0
1	2	241	113	2008
1	2	254	92	2009
1	1	290	0	2007
1	1	290	129	2006
1	2	260	96	2009
1	1	282	91	2009
1	2	266	0	2007
1	2	243	0	2008
2	1	241	0	2005
1	2	243	89	2009
5	1	272	0	2008
2	0	241	0	0
1	1	260	0	2008
1	1	243	110	2007
1	1	260	106	2008
1	1	290	108	2007
1	0	0	0	0
1	2	279	88	2009
2	2	275	0	2005
1	1	264	88	2009
1	2	0	0	2008
2	1	253	127	2005
2	2	243	0	2004
5	2	272	0	2007
1	1	264	0	2007
1	1	241	105	2008
1	1	254	101	2007
1	2	0	0	2008
1	1	281	0	2007
2	1	260	0	2004
2	2	282	146	2004
1	0	240	142	2007
1	0	0	0	0
1	1	260	95	0
1	2	264	86	2009
1	0	0	0	0
2	1	239	0	2004
2	1	260	0	2005
1	2	260	93	2008
2	2	254	0	2005
2	1	264	0	2005
2	1	241	0	2005
3	2	0	0	0
1	0	0	0	0
1	1	235	88	2009
1	1	0	86	2009
1	1	254	0	2008
1	2	243	102	2006
1	1	285	91	2009
1	1	256	0	2007
1	0	0	0	0
1	0	275	0	2006
1	1	290	0	2007
1	1	243	0	2006
1	1	243	0	2005
1	1	266	108	2007
2	1	0	0	2003
1	1	243	108	2008
2	2	241	0	2005
1	0	270	0	2007
1	0	264	0	2007
5	2	235	0	0
1	2	0	89	2009
1	1	0	108	2007
2	1	281	0	2005
1	1	244	94	2009
1	1	287	89	2008
1	0	0	0	0
1	1	251	104	2006
1	2	285	155	2008
1	1	235	86	2007
1	0	0	0	0
2	2	264	143	2004
2	2	241	0	2005
1	2	264	0	2006
1	1	251	110	2006
5	1	254	0	2005
1	2	266	107	2009
2	1	240	133	0
1	2	241	107	2006
2	2	275	0	2004
1	2	271	105	2008
2	1	255	0	2005
1	1	254	110	0
1	1	236	96	2009
1	1	281	0	2005
2	2	279	0	2005
1	1	260	129	2005
2	2	275	0	0
2	1	254	0	2005
1	2	266	96	2009
1	1	290	130	2006
2	2	243	0	2005
1	2	275	105	2006
1	2	251	0	2008
1	2	0	0	2004
5	2	248	0	0
1	1	244	90	2009
1	1	266	109	2006
1	1	290	0	2008
2	0	288	0	0
1	2	243	110	2007
1	1	0	0	2009
1	1	0	107	2009
1	1	254	152	2007
1	2	243	0	0
2	1	281	0	2005
1	2	241	137	2007
2	0	0	0	0
5	2	272	0	2005
1	2	243	110	0
1	2	241	0	2006
1	1	254	151	2008
1	2	248	0	2006
2	2	260	0	2005
1	1	236	88	2009
1	2	250	92	2009
1	1	288	86	2008
1	1	290	113	2007
1	2	280	110	2007
2	1	236	0	2005
1	1	241	0	2007
1	1	260	110	2005
1	2	264	150	2007
1	1	254	114	2005
2	2	243	109	0
1	2	243	89	2009
1	1	287	110	2006
2	0	0	0	0
5	1	272	0	2008
2	1	260	0	2004
1	2	255	104	2007
1	2	236	105	2008
2	1	257	0	2004
1	1	244	111	2007
1	2	243	103	2006
1	1	267	96	2009
1	1	266	113	2007
1	2	266	155	2008
2	2	281	137	2005
1	1	241	0	2007
1	1	271	0	2006
5	1	272	0	2007
1	2	0	92	2009
1	1	285	0	2006
1	2	0	0	2010
1	2	0	87	2009
1	1	281	0	2007
1	1	241	88	2008
1	1	241	104	2007
1	1	251	110	2007
2	2	279	0	0
1	2	267	88	2008
1	2	251	110	2006
1	2	264	0	2008
5	1	272	0	2006
1	2	260	0	2007
2	2	260	0	0
1	2	251	88	2009
1	1	260	99	2008
1	1	236	0	2006
1	1	254	98	2006
5	2	272	148	0
2	2	251	93	2004
1	2	264	0	2006
1	2	243	96	2008
1	1	243	0	2008
1	1	271	90	2009
1	2	266	0	2007
1	1	266	104	2007
1	2	279	0	2007
2	2	287	0	2005
1	1	266	117	2006
1	1	291	92	2009
1	1	279	91	2009
1	1	0	130	2007
1	2	243	0	2006
1	1	255	108	2007
1	2	263	0	2007
2	2	285	0	2005
1	2	254	0	2004
1	1	266	117	2008
1	2	266	147	2007
1	1	290	97	2006
1	2	280	89	2009
1	1	246	151	2008
5	2	272	121	2006
1	1	269	0	2007
1	1	281	98	2006
1	1	243	113	2006
1	2	241	0	2007
2	1	0	0	2005
1	2	269	107	2009
1	1	241	86	2009
2	1	0	0	2005
2	2	243	0	2005
1	2	0	88	2009
2	2	270	0	2005
1	1	244	110	2007
2	1	260	0	2003
1	2	287	118	2008
1	1	260	133	2006
2	1	281	0	2005
1	1	260	100	2008
2	1	254	0	2005
2	1	241	108	2005
2	1	281	0	2005
1	2	281	154	2007
1	2	243	0	2005
1	0	281	0	2006
2	1	254	0	2005
1	2	0	100	2008
5	0	0	0	0
2	1	260	0	2005
1	1	266	101	2007
1	2	260	150	2007
1	2	253	128	2006
1	2	0	117	2008
1	2	243	95	2009
1	1	275	122	2006
1	1	244	96	2009
2	1	271	0	2005
2	1	290	111	2005
2	2	248	0	2004
2	2	243	125	2005
1	1	243	0	2005
1	1	251	91	2009
1	1	282	96	2009
1	1	0	94	2009
1	2	270	0	2007
1	2	243	134	2007
1	2	241	94	2008
1	1	243	0	2006
1	1	0	93	2008
1	1	0	94	2009
1	0	254	0	2006
2	1	241	0	2005
1	1	264	88	2009
1	1	270	109	2008
1	0	243	129	2006
1	1	285	0	2007
1	2	278	110	2006
1	0	0	0	0
1	1	266	0	2007
1	1	240	103	2006
5	1	0	0	0
1	2	282	128	2006
1	1	283	97	2007
1	1	266	101	2006
1	1	0	0	2009
1	2	244	111	2006
1	2	243	150	2007
2	0	266	0	2005
2	1	290	0	2004
2	1	290	0	2004
2	2	243	0	2005
1	2	236	92	2009
1	2	253	94	2008
1	1	283	0	2009
1	2	243	87	2009
2	2	248	116	2005
1	1	260	96	2008
1	1	0	95	2009
1	1	260	0	2005
1	1	282	108	2007
1	1	241	0	2006
1	2	264	90	2008
1	2	273	0	2005
1	1	0	90	2009
1	1	266	96	2008
1	2	264	96	2009
2	1	244	0	2005
1	1	270	0	2006
2	1	265	109	2005
2	0	281	129	2005
1	2	254	96	2009
1	1	260	0	2008
1	1	281	107	2007
1	2	241	139	2008
1	1	0	154	0
1	2	260	86	2009
1	1	270	0	2007
1	1	0	90	2009
2	2	243	0	2005
1	2	243	110	2007
2	2	0	0	2004
1	1	241	90	2009
2	2	243	146	2003
1	2	264	92	2009
1	2	266	0	2006
5	2	272	0	2007
2	2	281	126	2004
1	2	280	150	2008
1	2	248	92	2009
1	1	241	0	2007
1	1	279	119	0
1	1	246	104	2008
1	2	260	94	2007
5	2	243	0	2006
1	2	0	86	2009
1	1	266	96	2009
1	1	264	108	2007
1	1	241	0	2007
1	2	260	93	2008
1	1	241	87	2009
4	1	281	0	0
1	1	243	118	2007
2	2	266	0	2005
1	1	251	0	2006
1	0	0	0	0
1	2	264	105	2008
1	1	243	92	2009
1	2	251	0	2006
1	2	281	103	2006
2	1	290	0	2005
1	2	263	92	2009
1	1	241	138	2008
1	1	0	0	2009
1	1	273	0	2006
1	2	260	137	2008
1	2	0	105	2008
1	1	0	96	2008
1	1	270	0	2007
1	2	288	0	2010
2	1	250	138	2003
2	1	254	133	2004
1	2	270	0	2006
2	1	241	0	2005
2	1	254	0	2005
1	1	281	155	2008
1	1	236	119	2008
1	1	281	110	2006
1	2	260	154	2007
1	1	266	96	2009
2	2	278	0	2005
1	2	264	149	2007
5	2	264	0	0
1	1	260	96	2009
1	2	281	94	2009
2	2	251	0	2004
1	1	254	129	2006
1	1	241	110	2007
1	1	244	92	2009
1	2	0	90	2008
1	1	281	0	2007
1	2	0	0	2009
1	1	281	107	2007
1	0	236	108	2006
1	0	260	0	2009
2	1	264	0	2005
1	2	280	0	2006
1	2	264	106	2006
1	2	260	117	2008
1	2	275	112	2006
1	1	251	88	2008
1	1	0	96	2009
1	0	0	94	0
1	1	285	0	2006
1	1	243	0	2006
1	2	264	110	2007
1	1	241	0	2007
2	1	285	0	2004
1	1	244	107	2009
1	1	260	0	2006
1	2	254	104	2007
1	0	0	0	0
1	0	254	103	2007
1	1	277	94	2009
2	1	241	110	2005
2	2	279	0	2005
1	1	0	95	2009
1	1	258	105	2008
2	2	0	0	2005
2	1	251	0	2005
1	1	290	133	2006
1	2	278	106	2008
2	2	244	0	2004
1	2	260	119	2007
1	2	288	89	2008
1	1	256	103	2007
2	1	254	0	2005
2	1	281	0	2005
1	2	0	96	2009
1	1	282	87	2009
1	1	253	109	2006
1	2	243	107	2007
1	1	243	86	2009
2	0	240	0	2004
1	2	260	94	2009
1	2	280	111	2006
1	1	260	0	2007
1	2	241	0	2007
1	0	0	105	2008
1	0	275	117	2008
1	0	0	97	2008
1	1	241	0	2006
1	2	259	113	2006
2	1	288	0	2005
1	1	241	111	2006
1	2	280	0	2007
1	2	243	96	2008
1	2	243	0	2006
1	1	270	108	2007
1	2	267	0	2007
1	1	264	141	2007
1	1	241	0	2006
1	1	243	90	2009
1	1	236	112	2006
1	2	241	100	2007
1	1	285	108	2007
1	2	251	96	2009
2	1	265	0	2005
1	1	253	103	2008
1	1	290	91	2008
4	2	0	0	0
2	2	264	0	2003
2	0	281	0	2005
1	1	267	92	2009
2	1	0	0	2004
5	2	272	0	2005
1	1	260	86	2009
1	1	270	92	2009
1	1	253	97	2008
1	2	280	86	0
1	1	244	97	2008
1	1	282	92	2009
1	2	0	99	0
1	2	258	113	2007
1	2	266	89	2009
2	2	243	0	2005
1	1	240	114	2005
1	2	260	107	2009
2	1	243	0	2004
1	2	270	146	2007
2	2	264	0	2005
1	1	281	0	2006
1	2	290	134	2008
1	1	260	135	2007
1	1	282	0	2006
2	1	252	0	2005
1	1	0	107	2009
1	1	264	135	2007
1	1	266	90	2008
1	2	254	0	0
1	2	0	92	2009
1	1	244	0	2006
2	0	254	0	0
1	1	0	0	0
5	1	272	0	2008
1	1	0	92	2009
1	2	251	0	2006
1	2	281	104	2007
1	0	0	0	0
1	1	254	110	2006
2	2	243	0	2005
1	1	281	100	2007
1	0	257	0	0
1	1	241	110	2006
5	2	253	0	0
1	2	0	88	2009
1	2	266	0	2008
2	2	260	0	2005
1	2	264	107	2009
1	1	243	0	2006
1	2	275	0	2006
1	1	241	0	2006
5	1	253	0	0
1	1	260	117	2008
1	0	0	0	0
5	1	282	0	2006
1	2	264	105	2006
2	0	264	0	2005
1	2	267	96	2009
1	1	266	0	2008
1	1	0	92	2008
1	1	266	108	2007
1	1	266	0	2007
1	1	260	0	2006
2	1	285	0	2005
1	2	266	0	2008
1	2	243	137	2008
1	2	244	143	2008
1	2	241	0	2007
1	1	243	103	2005
1	1	0	107	2009
1	2	0	0	2007
1	2	264	152	2008
1	2	0	96	2009
1	1	0	86	2009
1	2	290	99	2007
1	1	281	0	2007
1	2	251	0	2008
1	2	267	86	2009
1	1	281	0	0
1	1	243	110	2008
1	2	283	119	2008
1	1	264	127	2006
1	2	243	0	2006
1	1	239	108	2008
1	2	243	0	0
2	1	0	0	2004
1	1	263	0	2007
1	2	0	105	2007
1	2	0	107	2009
2	2	281	0	0
2	1	264	0	0
2	2	248	0	2005
2	1	254	0	2005
1	1	241	91	2009
1	2	260	143	2007
5	2	272	121	0
2	2	260	0	2004
1	0	0	0	0
1	1	241	0	2006
1	2	247	0	0
1	2	260	115	2006
2	2	244	0	2005
2	2	243	0	2004
2	1	273	90	2004
1	1	266	141	2008
1	1	0	96	2009
1	1	290	109	2006
1	1	283	0	2007
1	1	0	0	0
1	1	243	96	2005
1	1	266	87	2009
1	2	241	95	2009
1	1	243	0	2007
1	1	266	91	2009
1	2	0	89	2009
1	1	260	0	2006
2	1	235	0	2005
1	1	270	0	2007
1	1	254	142	2007
5	0	0	0	0
1	2	0	88	2009
1	1	285	102	2007
1	1	244	0	2007
1	2	266	112	2006
1	2	0	0	0
1	1	244	98	2006
1	2	243	86	2009
2	1	273	0	2005
2	1	264	0	2005
1	1	264	103	2006
1	2	251	91	2009
1	0	0	0	0
1	1	281	97	2007
2	0	257	0	2005
1	1	241	0	2007
1	0	0	86	0
1	2	254	93	2008
1	1	0	0	2008
1	1	270	0	2007
1	2	254	88	2009
2	2	260	0	2005
1	1	254	130	2007
1	2	251	89	2009
1	1	253	105	2008
1	2	244	94	2009
2	1	239	0	2003
1	2	264	88	2009
1	2	260	111	2008
1	1	0	96	2008
1	1	275	96	2008
2	2	254	0	2004
1	1	290	103	2005
1	1	263	103	2008
4	2	0	0	0
2	2	0	0	2004
2	1	244	0	2005
2	1	264	94	2004
1	1	280	103	2006
1	2	260	143	2007
1	2	266	92	2008
1	1	290	103	2008
1	0	0	0	0
1	1	239	96	2008
1	2	260	96	2009
1	0	243	0	0
1	0	281	0	2005
2	1	254	127	2005
2	1	274	0	0
2	2	280	0	2004
1	1	290	106	2007
1	1	281	92	0
1	1	0	0	2007
2	1	281	0	2005
2	2	278	0	2004
1	2	260	143	2006
1	1	281	0	2005
1	2	0	0	0
1	0	0	0	0
5	1	272	0	0
1	1	240	0	2006
1	2	266	147	2008
1	0	0	97	0
1	1	264	0	2007
1	2	279	151	2008
2	1	254	0	2003
1	1	241	110	2008
1	1	241	0	2006
1	2	264	107	2007
1	2	260	98	2006
1	1	254	86	2009
1	1	260	113	2007
1	1	254	88	2008
1	1	254	108	2008
2	2	241	0	2005
2	1	267	0	2004
2	2	254	112	2002
1	1	0	95	2009
1	1	254	93	2008
1	1	282	0	2006
1	1	244	110	2006
1	1	287	107	2009
1	1	278	113	2008
1	1	0	118	2008
1	1	291	0	2006
2	1	0	0	2004
1	2	0	92	2009
1	1	0	92	2009
5	2	272	0	2008
1	1	243	122	2006
2	0	0	0	0
1	1	0	0	2008
2	1	266	0	2005
2	1	285	0	2005
1	2	0	0	2007
1	2	243	92	2007
5	2	272	0	2008
1	2	251	146	2007
1	1	0	97	0
1	2	264	89	2009
1	1	236	103	2008
1	2	0	86	2009
1	2	260	137	2006
1	2	255	106	2007
1	1	266	0	2006
1	1	254	104	2007
2	2	243	0	2004
1	0	0	0	0
1	2	0	92	2009
1	2	290	107	2007
1	2	248	0	0
1	2	266	88	2009
1	1	254	89	2006
1	1	241	99	2005
2	1	244	0	2005
1	1	241	99	2006
1	1	257	113	2007
1	1	0	92	2009
1	1	236	93	2008
1	2	241	110	2006
1	2	266	105	2008
1	2	248	152	2008
5	2	272	0	2008
1	1	0	88	2009
2	0	254	0	0
1	2	243	0	2008
1	1	285	0	2007
1	1	241	0	2007
1	2	260	96	2009
1	1	263	0	2007
1	1	241	0	2006
1	2	243	149	2007
1	1	264	108	2007
1	2	267	111	2007
1	1	241	92	2009
1	2	279	104	2007
5	2	272	0	2006
1	2	275	0	2007
1	2	271	113	2007
1	1	263	113	2006
1	1	287	0	2007
1	1	266	0	2006
1	1	243	151	2008
1	2	264	0	2006
1	2	248	114	2006
1	1	266	87	2009
1	2	243	110	2006
2	1	237	110	2004
1	2	0	0	0
1	1	283	103	2008
1	2	260	0	2004
1	2	280	96	2009
1	1	260	107	2008
2	1	251	0	0
1	1	241	86	2009
1	2	248	94	2008
1	2	243	147	2008
1	2	243	0	2005
1	2	260	89	2008
1	2	251	0	2006
1	1	254	107	2008
1	1	253	105	2008
1	1	274	86	2009
1	1	260	0	2007
1	1	290	91	2009
1	2	0	0	2007
1	2	282	115	2006
1	1	267	0	2005
1	1	255	155	2008
1	0	0	0	2006
1	2	0	0	2007
1	1	0	94	2005
1	2	281	152	2008
1	1	241	90	2009
1	1	253	103	2007
1	1	260	0	2006
1	1	264	91	2008
1	2	254	150	2008
2	0	244	0	2005
1	1	243	129	2005
1	2	243	121	2005
2	1	266	114	2005
1	1	243	0	2007
1	2	243	92	2008
1	1	263	106	2007
2	2	283	0	2005
2	1	278	108	2005
1	1	0	86	2009
1	1	266	0	2009
1	1	266	108	2008
1	2	251	104	2007
1	1	0	88	2009
1	2	241	0	2006
1	1	0	0	2007
1	2	241	147	2006
5	2	272	0	2007
1	1	243	104	2007
1	1	0	0	2008
1	1	0	92	0
1	1	241	141	2007
1	1	257	0	2007
1	0	0	0	0
1	2	244	0	2006
2	2	241	0	2005
1	2	260	110	2008
1	1	264	103	2008
1	1	241	86	2009
1	2	290	0	0
2	0	235	0	2004
1	1	251	0	2006
1	1	243	86	2009
2	0	0	0	0
1	2	266	0	2006
2	2	281	0	2004
1	1	278	108	2007
1	2	243	143	2006
1	1	264	93	2008
1	2	279	0	2006
1	1	244	108	2007
1	2	241	0	2008
1	1	241	0	2006
1	2	288	0	2007
1	0	0	0	0
1	1	267	95	2009
1	2	263	91	2009
2	2	283	110	2005
4	2	0	0	0
1	1	241	86	2009
2	0	0	0	0
1	1	264	104	2007
1	1	254	90	2009
5	1	248	0	2004
1	1	254	0	2006
1	1	0	0	0
1	2	0	86	2009
1	2	246	110	0
1	2	291	111	2006
1	1	254	92	2008
1	2	241	99	2006
1	1	0	86	2009
1	2	241	96	2009
1	2	241	111	2005
1	1	281	0	2007
1	0	0	0	0
1	2	241	110	2006
1	1	266	0	2006
1	0	0	0	0
1	2	264	110	2007
2	2	243	0	2006
1	0	0	0	0
1	2	272	0	2007
1	1	0	108	2008
1	2	0	89	2009
1	1	254	151	2007
1	1	239	114	2008
1	1	266	0	2006
1	1	0	111	2006
2	1	281	0	2005
1	2	275	111	2007
1	1	243	107	2007
1	1	0	94	2009
2	0	0	0	0
1	1	270	110	2006
1	2	266	88	2009
2	1	260	0	2005
1	0	0	0	0
1	2	251	148	2008
1	2	254	107	2009
1	2	279	91	2007
4	1	0	0	0
1	1	241	0	2008
1	1	254	0	2006
1	1	282	106	2008
1	1	285	0	2007
3	2	244	0	0
1	2	243	102	2007
1	1	275	91	2009
4	0	0	0	0
1	2	243	131	2007
1	1	243	0	0
1	1	266	138	2008
1	1	266	0	2007
1	1	266	99	2008
2	2	260	0	1966
1	1	254	108	2008
1	1	266	111	2006
1	1	0	86	2009
1	1	0	108	2008
2	2	248	0	2005
1	1	241	88	2009
1	2	260	143	2006
5	1	274	0	0
1	1	241	107	2009
1	1	270	99	2007
2	1	254	0	2005
1	2	275	0	2006
1	2	241	147	2006
1	1	243	0	2008
1	0	0	106	2008
2	0	0	0	0
1	2	0	92	2009
2	1	281	0	2005
2	2	258	0	2005
1	2	264	105	2008
1	2	0	89	2009
1	1	0	92	2009
1	1	275	142	2008
2	1	281	130	2005
1	2	0	94	2009
3	2	287	0	0
2	1	241	0	2005
1	2	240	107	2008
1	1	243	0	2006
1	2	275	153	2008
1	1	267	0	2006
2	2	290	0	2005
1	1	283	97	2008
1	2	267	0	2008
1	2	244	112	2006
1	2	0	92	2009
1	1	260	0	2007
1	2	260	102	2007
1	1	0	92	2009
1	1	290	0	2006
1	0	0	0	0
2	2	281	0	2005
1	2	243	0	2006
2	2	260	0	2005
2	1	243	0	2005
1	1	264	155	2008
1	2	0	0	2008
1	1	242	103	2006
1	2	251	0	2006
1	1	241	102	2006
1	2	280	134	2008
1	2	275	0	2005
1	1	243	105	2008
1	1	290	0	0
2	2	281	0	2005
1	2	270	0	2008
1	2	0	92	2005
1	2	283	118	2008
1	1	253	0	2008
1	2	0	105	2008
1	0	0	0	0
1	1	244	108	2008
1	2	254	0	0
1	2	264	92	2009
1	1	282	0	2005
2	1	254	0	2005
2	2	264	0	2005
1	1	0	95	2009
1	0	0	0	0
2	1	256	0	2005
1	1	280	141	2007
1	0	0	154	2007
1	1	279	119	2008
2	0	251	0	2004
1	1	260	136	2006
1	2	284	107	2007
1	1	239	130	2007
1	2	281	114	2005
1	2	260	87	2009
2	1	243	0	2004
2	2	243	0	2005
2	1	287	0	2005
2	1	270	0	2005
1	2	263	110	2007
1	1	264	103	2008
1	1	279	108	2007
2	2	283	110	2005
1	1	270	96	2009
1	1	288	119	2008
1	1	273	91	2009
1	1	254	103	2008
1	2	0	0	2006
2	2	260	0	2005
1	2	279	0	2007
1	2	248	112	2005
1	2	254	137	0
1	2	266	99	2007
5	2	272	0	2005
1	1	0	86	2008
1	1	236	0	2006
1	2	244	153	2008
5	2	282	0	2005
1	0	0	0	0
1	1	264	0	2007
1	1	0	90	2009
2	2	243	128	2005
1	1	266	130	2007
1	1	281	96	2009
1	2	278	110	2006
1	1	241	96	2009
2	2	251	0	2004
1	0	290	0	2008
1	2	251	104	2007
1	0	260	110	2006
1	1	0	94	2009
1	2	243	139	2006
1	2	251	117	2007
1	1	264	106	2007
2	2	281	0	2004
1	1	281	152	2008
1	2	260	93	2008
1	1	290	0	2006
1	2	275	147	2008
1	2	0	152	2008
1	2	243	134	2006
1	2	0	0	2007
1	2	260	0	2008
1	1	264	91	2009
1	0	243	0	2005
1	1	266	96	2009
1	2	241	155	2008
1	2	282	0	2008
2	1	282	0	2004
1	1	260	0	2006
1	1	241	113	2007
1	2	251	0	2006
1	1	290	103	2006
1	1	267	86	2008
1	2	267	91	2009
2	1	281	0	2005
2	1	266	0	2005
1	1	241	108	2008
2	1	0	0	2004
1	2	243	147	2006
1	2	264	110	2008
1	2	264	0	0
1	1	280	111	2005
1	1	240	142	2007
1	2	280	110	2006
1	0	244	0	2008
1	2	264	149	2007
1	1	251	99	2006
1	1	257	97	2007
1	2	281	0	0
1	0	0	96	2009
2	1	281	0	2003
5	2	243	96	0
1	1	267	0	2007
1	2	264	95	2009
1	2	284	118	2007
2	1	260	0	2005
1	2	0	88	2009
1	1	281	0	2007
1	1	241	98	2007
2	1	283	0	2005
2	1	254	122	2004
1	2	281	86	2009
1	1	0	0	2008
1	1	266	0	2007
1	2	254	116	2006
1	1	290	127	2006
1	0	0	0	0
2	1	285	0	2004
2	1	270	0	2004
1	1	0	155	2008
1	1	254	130	2007
1	1	0	106	2008
1	1	266	0	2007
1	1	244	0	2007
2	2	243	0	0
1	1	270	0	0
1	2	282	0	2008
1	2	255	96	2009
1	1	253	108	0
1	2	0	95	2009
1	0	0	0	0
1	2	251	89	2009
4	1	0	0	0
1	0	0	0	0
1	2	281	110	2006
1	1	0	0	2008
1	1	260	91	2009
5	2	280	0	0
1	0	266	0	2006
1	1	264	91	2009
2	1	260	0	2005
1	1	0	91	2009
1	1	254	92	2009
1	2	254	110	2006
2	2	0	0	2004
1	1	0	92	2009
5	1	272	0	2007
1	1	290	0	0
1	1	273	93	2008
2	1	287	0	0
1	2	281	0	0
1	2	251	86	2007
1	1	241	111	2007
1	2	281	0	0
1	2	243	101	2008
1	1	266	108	2008
1	1	241	0	2007
1	1	260	112	2005
2	1	239	0	2003
1	1	281	108	2008
1	2	251	86	2009
2	2	281	0	2004
1	1	241	93	2008
1	2	254	0	0
1	1	0	103	2008
2	2	281	0	2005
1	1	0	86	2009
1	1	240	110	2006
1	1	285	0	2007
1	2	248	0	2008
2	1	281	0	0
1	1	275	0	2008
1	1	290	103	2008
1	1	239	130	2007
1	2	281	0	2005
2	2	243	110	2004
1	2	0	140	0
1	2	264	147	2006
1	2	0	102	2006
1	1	0	90	2005
1	1	254	99	2007
1	2	260	110	2008
2	2	243	0	2005
1	1	241	100	2008
1	1	283	0	2006
1	0	279	108	2008
1	0	0	0	0
1	1	241	0	2006
1	1	0	90	2009
1	2	260	96	2009
1	1	243	110	2008
1	1	260	96	2009
1	2	243	94	2008
1	2	243	106	2008
1	1	275	108	2007
2	1	266	0	2005
1	1	241	0	2007
1	1	270	0	2007
1	1	285	113	2007
1	1	281	0	2006
1	2	266	0	2008
1	1	0	90	2009
1	1	285	108	2007
1	1	0	127	2007
1	1	241	92	2009
1	1	0	94	2009
1	2	255	148	2006
5	2	243	0	2007
2	1	270	90	2004
1	1	264	110	2006
1	1	281	0	2006
1	2	260	107	2009
1	1	270	0	2006
1	2	243	147	2007
1	1	264	93	2008
1	1	254	110	2006
1	0	0	0	0
1	1	251	110	2006
1	1	264	109	2006
1	1	0	86	2009
1	1	264	0	2006
1	1	281	100	2006
1	2	260	91	2008
1	2	0	94	2009
1	2	260	110	2006
1	2	283	104	2007
1	2	264	115	2006
1	0	0	0	0
1	1	274	0	0
1	1	278	119	2008
1	1	263	110	2006
1	1	254	106	2008
2	1	281	0	2002
1	2	243	0	2004
1	1	281	97	2008
1	1	0	97	2008
2	1	254	0	2004
1	2	243	92	2009
5	1	253	121	2006
1	1	281	92	2009
5	2	272	0	2008
1	2	254	103	2006
1	1	278	152	2008
2	2	266	137	2005
1	2	287	0	2005
1	1	264	119	2007
1	1	0	0	2006
1	1	253	141	2007
1	1	243	87	2009
1	1	0	96	2009
1	2	241	137	2007
1	2	264	107	2007
1	2	250	0	2006
1	1	241	103	2007
2	1	0	0	2004
1	2	241	90	2008
1	1	265	113	2005
1	1	264	0	2007
1	1	243	0	2007
1	2	241	99	2008
1	1	289	88	2009
1	1	285	111	2006
5	2	272	121	2005
1	2	287	117	2008
1	2	244	119	2008
1	1	0	97	2008
1	1	264	106	2007
1	1	283	99	2008
1	1	254	152	2008
1	1	290	112	2008
1	1	260	104	2007
2	1	263	0	2005
1	0	0	0	0
2	2	290	0	2004
1	2	266	149	2007
1	2	254	0	2005
1	1	263	0	2006
1	2	241	102	2008
1	2	243	89	2009
1	1	241	104	2008
1	1	0	96	2008
1	2	244	139	2006
1	1	266	113	2006
1	2	266	0	2007
1	1	283	106	2007
1	2	287	0	2006
1	1	0	86	2009
1	0	0	0	0
2	1	265	127	2005
1	1	243	0	2007
1	1	271	86	2009
2	1	241	0	2005
1	1	246	88	2009
1	2	251	92	2009
1	2	0	0	2009
1	1	0	96	2009
1	1	241	0	2006
1	1	0	0	0
2	1	243	122	2004
2	2	260	0	2005
1	2	254	0	2007
1	2	251	86	2008
1	2	251	139	2010
5	2	235	0	2007
1	1	241	0	2006
1	2	0	95	2009
2	2	266	0	2005
1	1	0	127	0
4	2	0	0	0
1	2	243	140	2008
1	2	243	86	2009
1	0	260	0	2006
1	1	272	96	2009
1	1	241	88	2009
1	2	260	0	2006
1	2	241	92	2009
1	2	239	104	2005
1	2	264	96	2009
2	1	241	110	2005
1	2	281	152	2008
1	2	243	87	2009
2	0	270	0	2005
1	2	243	110	2007
1	1	254	106	2008
1	1	254	0	0
1	1	242	124	2006
1	0	0	0	0
2	1	266	0	2005
1	2	0	94	2009
1	2	0	96	2009
2	0	0	0	0
5	2	272	0	2007
2	2	248	109	2005
1	2	0	87	2009
1	1	254	105	2006
1	0	0	0	0
1	1	287	108	2006
1	2	243	137	2006
1	2	281	0	2006
1	2	264	99	2006
1	1	241	88	2009
1	1	260	94	2009
1	2	0	96	2009
1	2	251	153	2008
1	2	275	0	2009
2	1	248	0	2005
1	2	260	147	2007
1	2	0	86	2009
1	2	0	94	2009
1	2	260	86	2009
1	1	265	110	2006
1	2	266	105	2008
1	2	241	89	2009
1	1	281	108	2007
1	1	270	0	2006
2	1	260	86	2004
1	2	258	99	2007
1	1	241	94	2009
1	2	264	119	2008
1	2	264	89	2009
1	1	0	96	2009
1	1	270	0	2006
1	2	264	139	0
1	1	241	0	2005
1	1	241	95	2009
1	1	241	108	2006
1	1	0	0	2010
2	0	0	0	0
2	2	264	0	2005
1	1	0	106	2008
1	1	254	107	2008
1	1	260	108	2006
1	2	0	0	2008
1	1	255	87	2009
1	1	254	0	2007
1	2	266	0	2010
1	0	0	0	0
1	2	260	0	2006
1	1	265	0	2005
2	1	248	0	2004
1	1	258	103	2006
2	2	260	0	2005
1	2	244	107	2008
1	1	264	99	2008
1	1	254	0	2008
1	2	0	96	2009
1	2	280	92	2009
5	1	253	0	2007
1	1	245	118	2008
1	2	278	0	2007
2	2	248	0	2003
1	2	0	86	0
1	2	243	0	0
5	1	272	0	2008
1	1	290	104	2007
2	1	235	104	2005
1	1	266	0	2005
1	1	251	108	2007
2	1	287	0	2005
1	2	244	119	2008
1	1	260	97	2008
2	1	266	0	2005
1	1	264	102	2008
1	1	264	136	2006
1	1	257	113	2008
1	1	251	106	2008
1	2	0	0	2008
2	1	266	0	2005
1	2	251	0	2007
1	2	266	139	2008
1	1	283	111	2006
1	1	290	155	2008
2	1	260	0	2004
5	2	264	0	0
1	0	266	0	2006
1	1	0	106	2008
1	1	260	86	2009
1	2	260	99	2006
2	1	281	0	2005
1	2	260	110	2006
5	1	272	121	2008
5	1	251	0	2005
1	2	243	0	2006
1	0	0	0	0
5	0	0	0	0
2	1	283	0	2005
1	2	245	0	2004
1	1	266	100	2008
1	2	243	0	2007
5	1	272	121	0
1	1	254	142	2006
1	1	281	0	2006
5	2	248	0	2006
1	1	264	92	2008
1	2	279	0	2007
1	1	248	90	0
1	1	240	108	2008
1	1	241	91	2009
1	2	244	152	2008
1	1	264	99	2007
1	2	243	0	2006
5	1	282	0	2007
1	2	275	92	2006
1	1	257	99	2006
1	1	263	94	2009
1	2	264	104	2005
4	0	0	0	0
1	2	241	0	2006
5	1	272	0	0
2	2	278	0	0
1	1	257	88	2009
1	1	273	0	2006
1	2	260	0	2005
2	1	260	0	2005
2	2	260	0	2005
1	1	266	90	2009
2	1	282	0	2005
1	1	0	86	2009
1	1	0	94	2009
1	1	241	0	2006
2	1	259	110	2005
4	0	0	0	0
1	2	266	104	2006
1	1	266	113	2008
1	1	282	0	2006
2	1	243	0	2005
1	1	264	0	2007
2	1	285	0	2005
1	1	281	86	2009
1	1	260	90	2009
1	2	270	86	0
1	1	239	0	2007
1	2	264	119	2006
1	2	251	110	2006
1	2	260	0	2007
2	2	243	0	1999
1	1	281	91	2008
1	1	275	97	2008
1	1	244	94	2008
2	1	0	0	0
1	2	272	0	0
1	2	241	150	2007
1	2	241	140	2008
2	0	243	0	2005
1	1	264	110	2007
1	1	266	90	2007
1	2	251	96	2009
1	1	243	135	2005
1	2	251	92	2009
2	2	241	0	2005
1	2	264	101	2007
1	1	281	108	2006
1	1	0	94	2008
1	1	0	97	2007
1	1	290	0	2007
1	2	251	0	2005
1	1	254	92	2009
2	2	0	0	0
1	0	0	0	0
2	0	0	0	0
1	1	281	103	2008
1	0	0	0	0
2	1	254	0	2005
1	2	243	0	2009
2	1	243	0	2005
1	0	0	0	0
1	1	290	110	2008
1	2	251	0	0
1	1	291	0	2006
1	2	264	92	2009
1	1	281	0	2008
1	1	244	0	2007
1	2	0	96	2009
1	2	266	140	2006
1	0	0	0	0
1	2	260	93	2008
5	2	282	0	2005
2	1	266	0	0
1	1	264	99	2006
1	2	260	105	2007
1	1	264	129	2008
1	1	241	0	2008
5	1	272	121	2008
2	2	251	0	2004
1	2	251	0	2005
1	2	264	0	2007
2	1	243	0	2005
1	1	254	95	2009
1	1	282	91	2009
1	2	254	0	2009
1	2	243	92	2009
1	2	0	94	2009
1	2	275	94	2009
2	2	275	0	2005
1	2	0	92	2009
1	2	0	91	2009
2	0	0	0	0
1	2	288	101	2007
1	1	254	0	2009
1	2	0	96	2009
2	2	241	0	2005
1	2	260	0	0
1	2	0	92	2009
1	2	260	151	2008
1	2	243	0	2009
1	1	281	0	2007
2	2	251	0	0
1	1	278	104	2007
1	1	264	100	2008
1	2	251	96	2009
1	2	267	96	2009
2	2	270	0	2005
2	1	281	0	2005
2	2	243	0	2005
1	1	254	93	2008
1	1	281	92	2009
2	1	267	0	2005
1	2	251	109	2008
1	2	290	92	2006
1	1	236	135	2006
2	2	260	0	2005
1	1	283	108	2008
1	1	254	96	2009
1	1	0	86	2008
1	1	290	99	2008
1	2	0	0	0
1	1	242	110	2006
1	1	0	94	2008
1	2	243	99	2006
1	2	0	89	2009
1	2	0	94	0
1	2	241	89	2008
1	1	260	113	2008
1	2	0	110	2006
1	2	260	150	2007
1	1	270	0	2008
1	1	290	0	2006
1	1	260	86	2009
2	1	246	0	0
1	1	243	0	2006
1	2	270	92	2008
2	1	254	0	2005
1	0	0	0	2007
1	0	266	0	2007
1	2	260	110	2007
1	1	281	88	2009
2	2	260	102	2005
1	1	287	96	0
4	1	0	0	0
1	0	0	0	0
1	2	270	0	0
1	2	241	0	2008
1	2	0	89	2009
5	1	272	0	2008
1	1	240	0	2007
1	2	248	111	2005
2	2	270	0	2003
1	2	241	91	2009
1	2	288	149	2008
1	2	264	100	2006
2	1	275	0	2004
1	1	266	151	2008
2	2	0	0	0
2	1	260	86	2003
1	0	0	0	0
1	2	0	102	0
1	1	257	117	2007
1	1	281	108	2006
1	2	0	91	2009
1	1	281	104	2008
1	2	243	149	2008
1	1	254	94	2009
1	1	0	90	2009
1	1	254	105	2008
1	2	241	111	2006
2	1	243	0	2004
1	1	254	92	2009
1	1	254	124	2008
1	1	241	86	2009
1	2	254	150	2007
1	2	266	96	2009
1	2	243	125	2007
1	1	266	97	2008
1	0	0	0	2007
2	2	275	115	2005
1	1	290	108	2006
2	2	0	0	1990
1	1	281	0	2007
1	1	244	0	2007
5	1	265	0	2005
1	1	278	94	2009
1	1	283	0	2008
1	2	0	113	2008
1	2	248	115	2006
1	0	270	99	0
1	2	244	92	2009
2	2	260	145	2003
1	2	245	117	2005
1	0	244	117	2006
1	2	267	96	2009
1	1	260	108	2007
1	2	270	94	2009
2	2	260	0	2005
2	2	246	0	1900
2	1	244	103	2005
1	1	243	0	2006
1	2	260	110	2007
1	1	260	108	2007
1	2	290	92	2008
2	1	243	0	2005
1	2	260	92	2009
1	1	0	96	2009
1	1	241	91	2009
2	1	241	86	2005
1	1	248	110	2006
1	2	282	111	2007
1	2	0	96	2009
1	1	281	0	2007
1	1	0	92	2009
1	2	244	137	2007
1	2	243	140	2008
5	2	282	121	2006
2	2	281	0	2005
1	1	0	135	2007
1	1	241	92	2009
1	2	260	137	2008
1	2	243	92	2009
1	2	264	92	2009
2	1	254	0	2005
1	2	266	0	2009
1	1	0	108	2008
1	2	264	0	2006
1	1	291	117	2008
1	1	255	90	2009
1	1	241	0	2007
1	2	241	115	2005
1	2	278	148	2007
2	2	279	0	2005
1	0	240	136	2006
2	1	263	0	2005
1	2	290	92	2009
1	1	290	94	2009
2	1	265	0	2005
5	0	241	0	0
1	2	260	100	2007
1	2	281	110	2007
1	2	243	0	2008
1	2	280	112	2007
1	1	241	106	2007
1	0	0	0	0
1	1	241	88	2009
5	1	243	0	2006
1	2	241	99	2007
1	2	0	92	2009
2	2	260	0	2005
1	1	241	104	2008
1	1	0	96	2009
1	1	266	91	2009
2	2	281	0	2005
1	1	254	111	2006
1	1	243	117	2006
1	2	287	0	2007
1	1	241	0	2006
5	2	272	0	2008
1	2	258	113	2008
1	0	273	0	2007
1	1	281	93	2008
1	1	290	0	2007
1	2	243	96	2009
1	2	279	104	2008
1	0	0	0	0
1	2	275	137	2008
1	2	272	92	2009
1	1	281	0	0
2	2	264	0	2004
1	1	243	0	2007
1	1	264	117	2008
1	2	235	110	2005
1	1	0	108	2008
2	1	275	0	2004
1	1	254	108	2007
1	2	266	99	2006
2	1	254	124	2005
5	2	280	0	2009
2	1	236	0	2005
1	0	240	109	2007
2	1	239	0	2005
2	1	260	0	2005
1	2	266	96	2008
1	1	244	112	2006
1	1	0	88	2009
1	1	0	92	2009
1	2	243	92	2008
2	1	290	0	2005
2	2	260	0	2005
1	2	251	0	2007
1	1	243	155	2008
1	2	264	110	2007
1	2	280	95	2009
1	2	243	0	0
1	2	282	96	2008
2	1	241	0	2003
1	1	253	88	2009
5	1	272	0	2007
1	2	251	0	2007
1	2	0	107	2008
1	0	254	0	2006
1	1	251	108	2008
1	2	244	0	2006
1	2	264	111	2008
1	2	257	94	2009
1	2	243	86	2009
2	2	254	0	2005
1	1	281	0	2007
1	2	260	96	2009
1	1	266	92	2009
1	1	254	99	2008
1	1	292	90	2009
2	2	285	0	2004
1	2	0	111	2008
2	2	260	114	2005
1	2	0	100	2008
1	2	0	143	2008
1	1	258	108	2008
1	2	265	101	2008
1	1	288	118	2008
1	0	290	102	2006
1	0	0	0	0
1	1	266	97	2008
1	1	241	106	2008
2	0	283	0	2005
1	2	248	110	2008
2	1	287	0	2004
1	1	0	107	2009
1	1	291	107	2006
1	1	235	0	2007
1	1	264	90	2005
1	1	290	142	0
1	2	243	86	2009
2	0	0	0	0
1	1	241	108	2006
1	1	290	108	2007
1	0	236	106	2008
1	0	260	134	2007
1	2	0	107	2009
1	2	260	0	2007
1	2	260	118	2008
1	0	0	86	2009
1	2	255	92	2008
2	2	245	0	2005
1	1	0	103	2008
2	1	285	0	0
1	1	241	129	2006
2	1	235	0	2005
1	1	0	90	0
5	1	272	121	2008
1	1	260	96	2009
1	2	270	0	2005
1	0	241	0	2007
1	1	270	0	2007
1	2	0	92	2009
1	2	260	89	2009
1	1	253	108	0
1	2	281	150	2008
1	1	241	113	2008
1	0	0	0	2008
1	1	275	0	2007
2	2	239	0	2005
1	2	254	105	2008
1	1	0	0	0
1	2	243	119	2008
1	1	244	0	2006
1	1	291	104	2006
1	1	267	96	2009
1	1	243	0	2007
1	1	266	88	2009
1	1	241	0	2007
1	1	243	0	2007
1	1	254	103	2007
1	1	241	92	2009
2	1	267	0	2003
3	1	0	0	0
1	1	266	92	2009
2	2	254	0	2005
1	2	0	92	2008
1	2	244	96	2009
1	1	243	105	2008
1	1	251	127	2007
1	2	0	86	2009
1	1	254	0	2008
1	1	241	92	2009
1	1	253	0	2006
1	2	285	96	2009
1	1	257	0	2007
1	1	254	0	2007
1	2	241	96	2008
1	1	241	108	2007
1	1	0	107	2008
1	1	241	110	2006
2	1	270	0	2005
1	0	0	0	2007
1	2	243	0	2006
2	1	287	0	2005
1	1	239	98	2006
4	1	0	0	0
1	1	281	106	2008
1	1	263	107	2008
1	2	243	0	2006
1	2	266	89	2009
4	1	0	0	0
1	2	0	96	2009
3	2	253	0	0
1	2	285	0	2007
1	1	0	101	2008
5	2	0	0	0
1	2	285	0	2005
1	2	280	86	2009
2	0	0	0	0
1	2	280	140	2008
1	1	0	92	2009
1	1	281	102	2008
1	2	260	137	2006
1	1	254	97	2008
1	0	0	0	0
1	1	281	107	2009
1	1	243	122	2007
1	1	281	105	2007
1	2	251	102	2005
2	2	282	96	2004
1	2	251	96	2009
2	1	281	0	2003
1	1	285	0	2006
1	1	241	86	2009
2	1	266	0	2005
2	1	260	0	2004
1	1	290	108	2007
1	2	243	102	2007
1	2	243	88	2009
1	2	0	89	2008
2	2	264	149	2005
1	2	251	149	2008
1	1	240	0	2006
2	0	281	0	2005
1	2	266	106	2008
1	1	254	97	2008
2	1	275	0	2005
2	0	0	0	0
1	1	0	94	2009
1	1	266	86	2009
1	2	264	0	2008
5	2	272	0	0
1	1	239	0	2006
1	2	264	0	2008
1	2	282	0	0
1	2	243	104	2007
1	2	260	0	2006
1	1	254	133	2006
1	0	285	0	2007
1	1	266	97	2008
1	2	290	0	2007
1	2	275	137	2006
1	1	243	0	2007
2	2	287	0	2005
1	2	0	119	2008
1	1	257	0	2007
1	1	241	104	2008
1	1	267	118	2008
1	1	240	0	2007
1	1	240	105	2008
1	1	241	92	2009
1	1	0	92	2009
1	2	243	91	2008
1	1	235	99	2007
1	2	280	0	2007
2	2	281	145	2004
1	1	243	141	2006
2	0	290	0	0
1	0	244	102	2007
1	2	270	0	2005
2	1	290	0	2005
1	1	236	92	2009
1	1	240	90	2009
1	0	0	0	0
1	1	269	118	2008
1	0	0	147	2006
1	1	254	0	2007
1	1	267	93	2006
1	1	260	108	2006
1	1	0	92	2008
5	1	272	0	2008
1	2	260	149	2006
2	1	241	0	2005
1	2	254	107	2008
2	1	282	0	2004
1	1	260	86	2009
2	2	251	143	2004
1	0	244	108	2007
1	2	0	139	2008
1	1	0	86	2009
2	1	0	0	0
1	1	0	92	2009
1	2	0	88	2009
1	0	0	0	0
2	1	241	0	2005
1	2	264	105	2006
1	1	241	151	2007
1	1	241	91	2008
1	1	248	97	2007
1	2	0	147	2007
1	2	264	111	2006
2	2	243	0	2004
2	1	285	0	2005
1	1	260	110	2006
1	2	280	93	2008
1	1	0	103	2008
1	1	264	108	2007
2	1	239	0	2005
2	1	243	0	2005
1	1	266	96	2009
1	1	264	0	2007
1	2	0	86	2009
1	1	0	88	2009
2	2	253	131	2003
1	1	281	93	2005
1	1	254	101	2007
1	0	0	0	0
1	0	0	0	0
2	1	0	0	0
1	1	0	110	2008
1	1	0	94	2009
1	2	281	0	2006
1	2	251	100	2008
1	1	285	0	2007
1	1	287	104	2007
1	2	0	107	2009
1	0	254	0	2008
1	2	251	139	2007
1	1	270	92	2008
1	2	254	96	2007
1	1	266	90	0
2	1	241	0	2005
1	2	251	90	2008
5	2	272	0	2007
1	2	281	106	2008
1	2	243	0	2008
1	1	243	108	2006
1	2	270	0	2007
5	2	272	148	2007
1	2	248	104	2007
4	2	258	0	2001
1	1	281	88	2008
1	1	281	0	2007
1	2	260	0	2007
1	2	241	0	0
1	1	251	138	2006
1	1	258	0	2006
1	1	281	104	2006
1	1	0	86	2009
2	1	266	0	2005
1	2	243	0	2008
1	0	0	0	0
1	2	260	0	2009
2	2	275	0	2005
1	0	243	110	2006
1	2	254	0	2008
1	1	254	104	2008
1	1	241	138	2007
1	1	266	92	2009
4	2	241	0	1979
2	1	285	0	2005
1	1	254	99	2007
1	2	280	92	2009
2	2	241	0	1999
2	2	260	0	2004
1	1	0	96	2009
1	0	264	0	2006
1	1	264	88	2008
1	1	285	0	0
1	2	243	111	2006
1	1	254	108	2008
1	1	281	152	2007
1	1	243	0	2006
1	2	281	140	2007
1	1	283	110	2006
1	1	281	110	2007
1	2	257	151	2008
1	2	244	96	2009
1	1	264	113	2006
1	1	239	0	2007
1	2	0	143	2008
1	0	0	0	0
1	1	241	108	2007
1	2	243	91	2009
1	0	270	0	2008
1	1	0	135	2008
1	1	241	95	2009
1	2	244	99	2007
1	2	0	90	2008
1	1	251	110	2006
1	2	267	105	2006
1	2	290	0	2005
1	1	281	0	2007
1	1	244	93	2008
1	2	290	110	2006
1	1	244	96	2009
1	1	243	0	2007
1	0	0	0	0
1	1	0	92	2009
1	2	264	0	2006
1	1	254	0	2006
1	1	253	97	2008
1	2	270	0	2007
1	1	260	114	2005
1	1	241	96	2009
1	1	266	90	2009
1	1	285	0	2008
1	1	0	93	2008
1	1	281	133	2007
1	2	279	149	2007
1	1	241	110	2008
1	1	243	0	2008
1	2	0	92	2009
1	1	290	114	2006
1	1	281	122	2007
1	1	281	0	2007
1	1	243	96	2009
1	1	254	0	2006
2	1	264	0	2005
1	2	0	0	2009
1	2	251	115	0
2	2	254	0	2005
1	1	251	0	2006
2	1	287	0	0
1	2	251	0	0
1	1	281	0	2007
2	1	241	96	2003
1	1	0	86	2008
1	2	241	88	2009
1	2	0	92	2009
1	0	0	0	0
1	1	281	92	2009
5	0	243	0	2006
1	2	241	0	2006
1	2	283	111	2006
2	2	281	0	2005
1	2	0	91	2008
1	1	251	0	2006
1	1	266	108	2007
1	1	264	91	2009
1	2	280	0	2007
1	1	290	118	2007
1	0	0	94	2009
1	2	0	96	2009
1	1	290	151	2008
2	1	254	0	2005
1	1	270	0	2007
2	1	281	0	2005
1	1	0	108	2008
1	1	258	103	2007
2	1	290	129	2005
1	1	266	96	2009
5	1	248	0	2007
1	2	243	110	2006
2	1	285	0	2005
1	2	281	99	2006
1	1	281	87	2009
1	2	253	93	2007
1	2	272	92	2009
1	2	0	0	0
1	1	236	104	2007
1	1	267	0	2005
1	2	272	0	2005
5	0	272	0	2007
1	1	244	0	0
1	1	246	97	2008
2	1	243	0	2004
2	1	254	0	2003
1	1	270	0	2007
2	1	251	0	2005
5	2	248	0	0
2	1	282	127	2004
2	2	266	0	2005
1	1	266	88	2009
1	1	0	91	2008
1	1	266	122	2006
1	1	256	108	2007
1	0	241	107	2008
1	2	241	110	2007
1	1	236	110	2006
1	0	0	0	0
2	2	266	147	2005
2	1	281	0	2005
1	2	290	111	2006
1	1	256	102	2006
2	1	259	0	2004
1	1	280	0	2005
5	2	264	121	2005
1	2	260	117	2008
1	2	243	0	2008
1	2	0	91	2009
1	1	254	103	2007
1	1	243	0	2009
1	2	241	137	2008
2	1	285	0	2005
1	1	254	107	2009
1	1	241	86	2009
1	2	280	117	2008
1	2	260	140	2007
1	2	254	149	2008
3	2	279	113	0
1	1	236	86	2009
1	1	266	99	2007
1	2	0	110	2007
1	1	270	107	2009
1	1	241	0	2006
1	1	0	94	2009
1	2	260	113	2006
2	1	288	0	2005
1	1	0	107	2009
1	1	285	95	2009
1	1	281	0	2007
1	2	0	143	2008
5	1	281	0	2005
1	2	266	96	2009
1	2	0	86	2009
2	1	254	110	2005
1	1	236	0	2006
1	2	254	86	2009
1	1	241	119	2008
1	2	251	117	2007
1	1	265	104	2007
1	1	263	0	2006
1	1	281	103	2008
1	2	241	154	2008
1	2	266	0	2008
1	1	266	108	2008
1	1	0	92	2009
2	2	0	0	2004
1	1	264	0	2008
1	2	264	110	2007
2	2	270	0	2005
1	2	278	107	2007
1	1	272	0	0
1	1	290	0	2006
1	1	267	118	2007
1	0	285	108	2008
1	2	260	0	0
1	2	243	114	2006
4	1	0	0	0
1	1	266	113	2005
1	2	263	115	2006
1	1	0	92	2009
1	0	281	110	0
1	2	235	0	2006
1	1	266	105	2008
1	2	243	147	0
1	1	278	105	2008
1	0	0	0	0
1	2	264	107	2007
1	2	243	0	2005
1	1	243	86	2009
2	1	283	0	2005
1	2	280	110	0
1	1	266	86	2009
2	2	243	0	2004
2	0	0	0	0
1	2	243	147	2008
1	2	241	153	2007
1	0	260	0	2005
1	2	243	110	2008
1	1	254	86	2009
1	1	254	0	2007
1	1	284	0	2006
1	1	241	0	2006
1	1	265	102	2008
2	2	248	0	2003
1	1	287	111	2008
1	1	244	110	2008
1	2	243	86	2008
1	1	0	105	2008
1	2	281	96	2008
1	2	260	87	2009
3	2	275	110	2007
2	2	258	112	2004
1	2	0	0	2007
1	2	270	0	2008
1	2	256	148	2006
1	2	281	99	2007
1	0	0	0	0
1	2	264	0	2006
1	2	243	0	2007
1	1	235	0	2004
1	1	271	0	2005
1	2	243	110	2006
1	1	0	91	2009
1	1	0	86	2008
1	1	270	94	2009
1	1	236	88	2007
1	1	0	96	2009
1	1	0	108	2008
1	2	243	0	2007
2	1	282	121	2005
2	1	281	0	2005
1	1	281	96	2009
1	1	253	0	2006
1	2	0	140	2008
2	2	243	0	2005
1	1	243	0	2006
1	2	251	92	2009
1	2	243	139	2006
2	1	285	0	2005
1	1	243	90	2009
1	1	241	88	2009
1	1	0	94	2009
1	1	0	0	2008
1	1	243	91	2009
1	1	254	110	2006
2	1	272	0	2005
1	0	0	0	0
1	2	260	140	2006
1	1	0	96	2008
2	2	241	0	2004
1	2	251	0	2006
1	1	243	0	2007
1	1	290	103	2008
2	1	243	0	2005
1	1	251	91	2009
1	1	270	107	2008
1	2	243	92	2009
1	1	243	0	2008
2	2	264	148	2004
1	2	243	112	2006
2	2	264	111	2005
2	2	264	0	2005
1	2	243	102	2007
1	2	251	140	2007
1	1	266	97	2008
1	1	264	107	2009
1	2	239	96	2009
1	1	241	92	2009
1	1	278	104	2007
2	2	260	0	2005
2	2	235	0	2005
1	1	280	133	2006
1	1	0	138	2008
5	1	272	0	2006
1	2	270	0	0
1	2	0	92	2008
1	1	0	91	2009
1	2	251	140	2006
1	1	266	107	2009
2	1	260	0	0
1	2	241	0	2007
1	1	270	117	2007
1	1	253	107	2008
1	2	248	111	2006
1	1	241	113	2008
5	1	274	0	2007
1	1	241	96	2009
1	1	285	113	2008
1	1	0	0	2008
2	1	279	0	2004
1	1	281	0	2006
1	1	281	107	2007
1	2	279	102	2008
1	1	254	119	2007
1	1	281	106	2006
1	1	241	92	2009
1	2	272	95	2009
1	1	270	0	2006
2	1	243	0	2004
1	1	281	107	2009
1	2	254	107	2009
1	2	236	149	2008
1	1	263	108	2008
1	2	264	89	2009
1	2	260	126	2008
1	1	260	0	2007
2	1	287	0	2005
1	0	0	0	0
1	2	248	0	2007
1	2	0	107	2008
2	0	264	0	2004
1	1	264	117	2008
1	2	248	140	2008
1	1	285	110	2006
1	1	244	100	2008
1	2	241	150	2008
1	2	0	92	2009
1	2	0	0	2008
1	2	0	94	2009
1	1	290	0	2006
1	1	0	0	0
1	1	257	92	2009
1	2	251	96	2009
2	1	244	0	2005
1	2	281	104	2007
1	2	0	89	2010
1	2	0	0	2007
1	1	241	101	2007
1	1	273	92	2009
1	1	0	152	2008
1	1	0	107	2008
1	1	270	0	2007
1	2	285	0	2007
1	2	280	119	2008
2	1	241	0	2005
1	2	281	86	2009
1	1	253	112	2006
2	2	241	109	2005
1	2	254	113	2008
2	2	266	0	2005
1	1	277	113	2008
1	2	241	0	2007
1	1	254	0	2006
1	2	273	0	0
1	2	243	0	2008
4	1	0	0	0
1	2	254	100	2008
1	1	0	97	2007
1	1	284	99	2006
1	1	251	110	2006
2	1	264	138	2005
1	2	283	0	0
1	1	266	99	2006
1	1	254	0	2006
2	1	254	119	2005
1	1	264	108	2007
5	2	272	121	2008
1	1	279	88	2009
1	2	243	89	2006
1	1	290	108	2007
1	1	287	118	2008
1	1	273	105	2008
2	0	241	0	2004
1	2	251	0	2007
1	1	275	0	2006
1	1	287	104	2008
1	0	0	147	2006
1	2	280	111	2006
1	2	247	109	2008
1	1	0	92	2009
2	2	251	149	2003
2	2	260	0	2005
1	1	254	92	2009
1	1	251	110	2006
1	1	267	108	2007
2	1	246	0	2003
1	2	251	0	0
2	1	241	0	2005
2	2	282	0	2005
1	1	260	91	2008
1	1	264	97	2008
1	1	241	87	2008
2	1	285	0	2005
1	2	260	110	2006
1	2	281	100	2007
1	2	241	111	2006
1	1	243	119	2008
1	1	241	0	2005
2	2	241	134	2005
1	2	243	99	0
2	0	281	0	2005
5	2	248	121	2010
1	1	266	141	2008
1	2	279	105	2008
2	1	236	0	2005
2	2	248	0	2005
1	1	0	0	2006
1	2	280	94	2009
1	2	266	118	2006
1	2	279	151	2008
1	2	254	89	2009
2	1	281	0	2005
1	2	290	143	2008
1	1	243	0	2008
1	2	267	92	2009
1	1	281	110	2006
1	1	281	94	2009
1	1	244	90	2009
1	0	241	0	0
1	1	275	0	2008
1	1	273	92	2008
1	1	241	90	2009
1	2	243	96	2008
1	2	287	104	2007
1	0	0	108	0
1	1	253	0	2007
1	1	0	97	2008
1	2	0	0	2008
1	1	260	108	2007
1	0	0	0	0
1	2	245	96	2009
1	2	290	91	2009
1	1	281	0	2006
1	1	254	103	2008
1	2	266	89	2009
1	2	260	102	2007
1	1	260	0	2008
1	2	260	107	2007
2	1	266	0	2005
1	1	284	0	2006
2	1	243	110	2005
1	2	0	92	2009
2	1	244	111	2005
1	1	290	117	2006
1	2	264	152	2008
1	1	281	124	2008
1	1	281	111	0
5	1	285	0	2005
1	1	267	114	2006
1	1	0	86	2009
2	2	260	0	2005
1	1	0	104	2007
1	1	0	105	0
1	2	0	0	2008
1	1	290	142	2008
1	2	243	92	2004
1	1	260	130	2007
1	1	0	91	2009
1	2	266	110	2006
5	0	0	0	0
1	1	241	99	2007
1	1	0	87	2009
1	1	0	94	2009
1	1	266	110	2006
1	2	0	96	2009
1	1	260	94	2009
1	2	243	150	2007
1	2	275	95	2009
1	2	254	105	2007
1	2	264	102	2007
1	1	0	0	2008
1	2	241	153	2008
1	1	260	0	2006
1	2	266	118	2008
2	1	240	0	2004
1	2	260	153	2008
1	1	0	115	2005
2	1	243	0	2005
1	2	291	111	2007
1	1	243	152	2008
2	2	251	0	2004
2	0	241	0	2005
1	2	278	107	2005
1	1	0	155	2008
2	2	272	146	2005
1	1	260	111	2008
1	1	254	86	2009
1	0	243	110	2007
2	1	254	0	2005
1	2	260	0	2007
1	1	241	0	2006
1	2	280	107	2007
1	2	270	0	2008
1	2	254	86	2009
1	1	257	109	2006
1	1	278	0	0
1	2	251	139	2006
1	1	241	0	2006
1	1	243	110	2005
1	1	0	0	2008
1	2	243	94	2009
2	1	270	0	2005
1	1	254	110	2006
1	2	235	152	2007
2	1	281	0	2005
1	1	266	107	2008
1	0	260	99	2006
5	1	253	0	0
1	2	255	112	2007
1	2	243	110	2007
1	0	254	0	2006
1	2	241	0	2009
1	1	275	106	2008
2	1	255	0	2000
1	2	260	139	2006
2	1	267	0	2005
1	1	280	97	2008
1	2	260	140	2006
2	1	267	0	0
1	1	254	0	2006
1	2	241	101	2008
1	1	241	95	2009
2	2	248	0	2004
1	2	0	0	2005
1	1	0	90	2009
4	0	0	0	0
1	2	241	143	2007
1	1	290	96	2009
1	1	287	0	2007
1	2	266	140	2007
1	1	254	0	2008
1	0	282	0	2006
5	2	260	89	2005
1	2	0	91	0
1	1	281	138	2006
1	2	280	153	2008
1	2	256	0	2008
2	1	281	133	2005
2	1	243	0	2005
5	2	243	121	2007
1	2	281	144	2007
1	2	260	107	2007
1	1	241	93	2008
1	1	290	0	2006
1	2	251	110	2007
1	2	264	101	2007
1	1	0	86	2009
2	1	281	0	2005
1	1	281	0	2005
1	1	266	117	2008
1	1	254	105	2008
2	2	270	0	2004
1	1	281	103	2008
1	2	260	0	2007
1	2	266	0	0
2	1	243	0	2005
1	2	0	0	2007
1	1	287	0	2007
1	2	243	0	2006
1	1	0	92	2008
1	1	0	96	2009
5	1	253	0	2006
2	1	263	138	2005
1	0	290	122	2007
1	1	281	155	2008
1	2	264	102	2008
1	1	241	86	2009
2	1	287	0	2004
1	1	241	91	2009
1	2	266	0	2007
1	1	241	91	2008
2	2	267	0	2005
1	1	285	105	2008
2	1	236	0	0
1	2	262	134	0
1	2	244	86	2009
1	1	0	95	2009
2	1	264	122	2004
1	2	254	92	2007
1	1	254	122	2007
2	2	243	0	2005
2	2	260	0	2004
1	2	278	104	2007
1	2	260	0	2006
1	2	260	110	2008
1	2	0	0	2006
1	1	0	86	2009
2	2	243	100	2005
1	2	0	107	2009
1	1	251	0	2007
1	1	290	108	0
2	1	285	0	2005
1	2	243	0	2006
1	1	275	0	2007
1	1	264	86	2009
1	2	0	96	2009
4	0	0	0	0
1	1	239	0	2006
2	1	290	0	2005
1	2	0	140	2008
1	2	243	0	2007
5	2	272	0	0
1	1	267	110	2006
1	1	281	114	2007
3	0	0	0	0
1	1	254	99	2006
1	2	244	0	2006
1	1	264	99	2006
1	1	243	0	2006
1	2	254	110	2006
1	0	273	110	2007
5	1	272	0	2004
1	2	259	153	2007
1	1	260	0	2007
1	1	236	0	2007
1	2	241	93	2008
1	1	253	0	2005
1	2	254	105	2007
1	1	239	118	2006
1	1	281	107	2009
1	1	281	0	2008
1	1	244	112	2007
2	2	241	99	2005
1	2	260	143	2006
1	1	0	113	2008
2	2	281	0	2004
2	1	260	113	2005
1	1	253	108	2008
1	1	244	90	2009
1	1	236	119	2008
1	1	241	88	2009
2	1	290	0	2005
1	1	239	0	2005
1	1	265	110	2006
1	1	270	113	2007
1	1	243	127	2007
1	1	241	97	2008
5	0	0	0	0
1	2	241	143	2007
1	1	243	103	2007
1	0	0	0	0
1	2	243	0	2006
1	1	0	96	2009
2	1	281	0	2005
1	2	264	110	2007
1	1	243	0	0
1	2	248	0	2005
1	2	251	0	2005
1	1	283	104	2005
3	2	0	0	0
2	1	253	138	2005
1	1	264	0	2006
1	1	254	0	2007
1	2	0	89	2009
2	1	264	0	2004
1	2	241	139	2007
1	1	258	141	2007
5	1	0	0	0
1	1	251	142	2006
1	1	281	103	2008
1	1	241	92	2006
1	1	0	105	2008
1	1	260	151	2008
1	2	251	147	2007
1	1	285	0	2005
1	1	256	92	2009
1	1	251	103	2006
1	2	275	109	2008
1	1	271	93	2008
1	1	243	0	2007
1	2	243	89	2009
1	1	281	97	2007
5	1	272	0	2008
1	1	243	0	2008
1	2	260	107	2009
2	1	248	0	2005
1	0	0	0	0
1	2	260	99	2006
2	2	266	0	2005
1	1	260	97	2008
2	1	242	106	2005
1	2	243	155	2008
1	1	254	86	2008
1	2	243	147	2007
1	2	0	110	2008
2	1	0	0	2003
1	2	246	93	2008
1	2	290	118	2008
1	2	248	94	2009
1	1	290	0	2007
2	2	272	0	2005
1	2	243	92	2009
2	1	258	111	2000
1	1	253	110	2007
1	1	260	90	2009
2	1	256	0	2004
1	1	243	0	2008
1	2	251	106	2007
2	2	243	0	2005
1	2	0	0	2005
1	2	251	92	2009
1	1	240	115	2006
2	1	260	0	2004
2	1	256	0	2005
1	2	241	92	2009
2	2	272	0	2005
1	1	264	0	2007
2	2	243	0	2005
1	0	285	0	2005
2	1	263	0	2005
1	2	241	139	2007
2	2	248	0	2004
1	1	241	0	2007
2	1	285	0	2005
1	1	281	0	2006
1	1	270	90	2009
2	1	240	0	2005
1	1	290	110	2006
1	1	244	0	2006
2	2	241	145	0
1	2	243	89	2009
3	0	0	0	0
1	2	279	110	2006
1	2	246	152	2008
1	1	239	92	2009
1	0	270	0	2006
1	2	243	147	2007
1	1	266	0	2007
1	2	243	143	2007
1	1	272	0	2008
1	1	246	107	2006
1	1	265	110	2006
5	1	253	105	2008
1	1	290	108	2007
1	2	251	143	2006
1	1	287	0	2007
1	2	0	0	2008
1	2	266	113	2006
1	1	255	119	2008
1	1	0	92	2009
2	2	260	0	2004
2	1	267	0	2005
1	1	266	0	2008
1	0	264	113	2006
1	1	0	108	2008
1	0	241	0	2008
2	1	236	119	2005
1	2	290	87	2007
1	2	241	104	2008
2	1	0	97	2005
1	0	0	0	0
1	2	266	94	2009
2	1	281	0	2005
1	1	254	99	2008
1	1	285	103	2007
1	1	251	90	0
2	2	251	0	2003
5	0	272	138	0
2	0	0	0	2002
1	1	241	99	2007
1	2	243	146	2008
2	0	0	126	0
1	1	251	97	2007
1	1	264	92	2009
1	2	0	89	2009
1	2	0	96	2009
1	1	243	92	2009
1	1	241	86	2009
1	0	0	0	0
2	1	253	0	2005
2	2	241	110	2005
2	1	260	0	2005
1	2	243	149	2006
1	1	275	108	2007
1	1	264	0	2008
4	0	0	0	0
1	1	243	0	2005
1	1	266	0	2006
1	1	266	117	2008
1	1	254	90	2009
1	2	264	96	2009
1	2	285	134	2008
1	1	264	94	2009
2	1	281	0	2005
1	1	266	106	2004
2	1	241	0	2003
1	1	254	142	2006
1	2	241	100	2008
1	2	241	149	2007
1	1	236	0	2006
1	2	279	111	2007
1	1	255	130	2007
1	2	270	92	2008
1	1	290	113	2008
1	2	243	147	2007
1	1	285	0	2005
3	2	253	0	0
1	1	260	0	2008
2	1	243	122	2004
1	1	285	118	2007
2	1	290	0	2005
1	1	0	96	2009
1	2	266	113	2006
1	2	243	0	2007
1	1	264	104	2007
1	0	0	0	0
1	1	0	108	0
1	1	283	0	2007
1	2	278	0	2006
1	1	243	96	2009
1	2	272	104	2008
1	1	0	108	0
1	2	281	0	2007
1	1	273	110	2006
1	0	0	0	0
1	1	266	96	2009
1	2	0	0	0
1	1	239	0	2007
2	1	283	0	2005
1	1	243	0	2007
4	2	0	0	0
1	2	0	96	2009
1	1	239	96	2009
1	2	242	109	2007
1	2	241	152	2008
2	2	241	0	2005
1	0	0	0	0
1	1	254	0	2006
1	1	243	86	2009
5	1	272	0	2006
2	2	236	105	2005
1	2	275	0	2006
1	1	244	97	2008
1	2	266	96	2009
1	1	0	86	2009
1	1	236	96	2009
1	1	260	110	2006
1	2	0	0	2007
1	2	278	0	2008
5	2	272	0	2005
2	1	290	133	2004
1	1	241	155	2008
1	2	243	0	2007
1	1	0	94	2009
1	1	0	94	2009
1	1	0	94	2009
1	2	256	110	2007
2	2	281	0	2005
1	1	254	106	2005
1	2	0	96	2009
1	2	243	149	2008
5	1	272	121	2007
1	2	256	96	2009
1	1	285	0	2007
1	2	0	94	2009
1	1	270	94	2009
1	2	251	0	2006
1	1	266	129	2008
1	1	254	107	2008
2	2	266	0	2005
1	1	0	92	2009
2	1	241	0	2005
1	2	290	0	2006
5	1	272	0	2007
1	1	266	95	2009
1	1	241	93	2008
1	2	266	94	2009
1	1	254	122	0
1	1	290	94	2007
1	1	266	107	2009
2	1	236	112	2005
1	2	279	137	2006
1	1	285	0	2006
2	2	287	134	2004
1	1	241	102	2006
2	0	243	0	2005
1	2	290	0	2009
1	2	269	95	2008
1	1	267	91	2009
1	1	258	108	2007
1	1	267	117	2008
1	2	254	111	2006
1	2	290	147	2008
1	2	243	0	2005
1	1	274	90	2009
1	1	287	0	2006
1	1	243	90	0
2	2	251	0	2005
1	2	260	92	2009
1	2	243	118	2008
1	1	0	96	2009
2	1	259	110	2005
2	2	260	148	2003
1	1	280	112	2006
1	1	254	0	2006
1	2	0	89	2009
2	1	241	0	2003
1	2	270	0	2006
1	2	0	86	2009
1	2	243	105	2008
5	1	272	0	2007
1	2	243	92	2009
1	0	236	103	0
2	0	260	0	0
2	1	241	0	2005
1	1	264	86	2009
1	2	266	93	2008
1	2	264	117	2010
1	1	241	113	2007
2	1	290	0	2004
1	1	263	0	2005
1	2	264	94	2009
1	1	244	110	2005
1	1	241	108	2007
1	1	271	91	2009
1	1	0	92	2009
1	1	266	114	2008
1	2	287	100	2008
1	1	254	94	2007
1	2	243	107	2008
2	2	251	0	2005
2	2	248	0	2005
2	1	241	0	2004
1	2	260	0	2007
1	2	0	96	2008
1	0	264	0	0
1	1	267	110	2007
1	1	0	87	2008
1	2	244	92	2009
1	2	264	111	2006
1	0	250	139	0
1	0	241	148	2005
1	1	241	92	2009
1	2	243	149	2008
1	2	0	107	2008
1	1	290	0	2006
1	1	253	0	2006
1	1	290	107	2008
2	2	266	0	2005
1	0	254	129	2006
1	2	244	100	2008
2	1	254	0	2005
1	2	242	94	2009
1	2	280	100	2007
2	2	248	0	2005
1	1	260	87	2009
1	1	243	90	2007
1	2	244	0	2007
2	1	254	0	2005
1	1	244	118	2008
1	2	280	96	2009
2	1	270	0	2005
1	2	244	110	0
1	1	241	107	2008
2	1	271	0	2004
1	2	266	0	2008
1	1	260	0	2006
5	2	241	102	2005
1	2	270	110	2007
1	1	266	0	2006
2	2	244	0	2003
1	2	254	94	2009
1	1	253	86	2009
2	1	241	0	2004
1	2	266	96	2009
1	2	237	96	2009
1	2	0	0	0
1	1	281	86	2007
1	2	270	0	2007
1	1	0	96	2009
1	1	284	0	2007
2	0	236	0	2005
2	1	243	0	2005
1	1	243	0	2007
1	1	275	94	2009
1	2	0	87	2009
1	1	281	0	2006
2	1	258	0	2005
2	1	260	0	2005
1	2	243	150	2007
2	2	243	147	0
1	2	279	0	2006
1	2	260	139	2006
1	1	241	104	0
1	1	0	91	2009
1	0	258	108	2007
1	1	254	86	2009
1	1	264	107	2008
2	1	236	0	2005
1	2	264	0	2006
3	2	239	0	0
2	1	288	0	2005
1	2	243	96	2009
2	1	243	0	2004
1	2	284	110	2007
1	1	281	111	0
1	2	243	105	2008
1	2	266	117	2007
1	1	264	93	2008
1	1	254	0	2007
1	2	275	109	2006
1	2	243	86	2006
1	1	264	100	2008
1	1	243	0	2006
2	0	0	0	0
1	1	243	0	2006
1	0	0	111	2006
2	1	260	0	0
2	1	243	0	2005
1	1	243	106	2008
1	2	0	86	2009
1	2	241	105	2006
1	1	236	108	2008
1	1	266	113	2008
1	2	254	137	2006
2	2	270	0	2003
1	2	260	0	2006
1	1	288	110	2007
1	2	248	94	2009
1	1	0	86	2009
2	2	279	0	2005
1	2	243	112	0
2	1	243	127	2005
1	1	275	0	2006
1	2	241	101	2008
1	2	251	115	2006
1	1	0	92	2009
1	1	251	0	2007
1	2	251	140	2008
1	2	0	96	2009
5	1	281	0	2006
2	1	288	0	2004
5	0	0	0	0
1	2	241	106	2008
1	1	241	102	2006
1	1	243	0	2008
1	1	285	108	0
2	2	241	0	0
1	2	289	96	2008
1	2	290	88	2009
1	1	0	96	2009
1	2	244	103	2008
1	0	0	0	0
1	2	269	0	2006
1	1	290	94	2008
1	2	266	118	2008
1	1	0	92	2009
1	1	243	124	2007
1	1	290	112	2008
1	1	254	86	2007
1	2	260	131	2008
1	2	0	110	2007
1	2	241	0	2007
1	2	264	110	2008
1	1	285	117	2006
1	1	243	86	2009
1	1	0	89	2008
1	2	0	95	2008
2	1	278	0	2005
1	1	264	97	2008
2	1	240	0	2004
2	1	243	0	2005
1	2	264	154	2007
1	0	0	0	0
1	0	0	0	0
3	2	275	0	0
1	2	260	96	2009
1	1	0	88	2009
1	0	253	0	2007
1	2	290	87	2009
1	2	243	102	2006
1	0	0	86	0
1	1	281	90	2009
1	1	0	0	2008
1	2	274	153	2008
1	2	248	96	2009
1	2	254	145	2007
1	1	243	108	2008
1	1	241	92	2009
1	2	260	92	2009
1	1	243	142	0
1	2	264	113	2006
2	2	254	0	2005
1	1	257	138	2008
1	1	240	0	2008
1	1	243	0	2006
1	1	235	97	2007
2	1	266	115	2005
1	2	243	118	2007
2	0	0	0	0
1	2	290	86	2009
1	0	0	0	2008
2	2	254	0	2005
1	2	0	143	2008
1	0	0	0	0
1	0	280	99	2007
1	2	244	100	2007
1	1	266	104	2008
1	2	290	117	0
1	0	278	0	2008
1	0	0	0	0
1	1	241	110	2008
1	1	270	0	2007
1	1	290	108	2007
1	1	281	0	2006
1	1	254	92	2009
1	1	241	97	2008
1	1	254	107	2009
2	2	243	0	2005
1	1	281	92	2009
1	2	241	0	2008
1	1	260	86	2009
1	2	243	139	2006
1	1	285	103	2007
1	2	260	105	2008
1	1	290	110	2006
1	1	285	0	2006
1	2	267	91	2009
1	2	275	0	2006
1	1	264	96	2009
1	2	264	0	2007
1	1	243	0	2005
1	1	264	119	2008
1	1	281	0	2007
1	2	244	110	2006
1	1	241	108	2008
1	1	279	110	2007
1	0	266	0	0
2	1	266	0	2005
2	2	260	151	2005
2	1	267	0	2005
4	2	244	0	2005
2	2	260	139	2004
1	1	0	86	2009
2	0	270	0	2005
1	1	0	86	2009
2	0	260	0	2004
1	1	281	107	2009
1	1	254	110	2006
2	1	236	0	0
1	1	251	152	2008
1	0	281	0	2006
1	2	243	92	2009
1	1	241	0	2005
1	1	241	92	2009
1	2	275	139	2008
2	1	254	0	2005
1	1	254	141	2007
2	0	0	0	0
1	1	254	0	2007
1	2	291	104	2008
1	0	243	0	2008
2	1	266	0	2005
2	2	266	146	2005
2	1	260	0	2005
1	1	0	91	2009
1	1	287	0	2006
1	2	240	137	2008
1	1	266	86	2009
1	2	254	98	2008
2	1	290	0	2005
2	1	290	0	2005
2	2	0	0	2005
1	2	254	110	2006
4	0	288	0	0
5	2	252	0	0
1	1	241	107	2008
1	2	264	0	2007
1	2	243	0	2006
2	0	0	0	0
1	1	0	0	2009
1	1	275	133	2006
1	2	0	0	2005
1	2	0	0	2008
1	1	260	94	2009
1	0	0	0	0
1	0	0	0	2006
1	1	290	91	2009
1	1	0	107	2008
1	2	241	92	2009
2	2	273	0	2004
1	1	0	0	2007
1	2	243	111	2006
1	1	254	86	2009
1	1	264	0	2006
1	2	0	92	2009
1	2	243	86	2009
2	2	245	110	2005
1	1	281	92	2009
1	2	0	92	2009
1	2	280	143	2008
1	2	264	92	2009
1	1	255	94	2008
1	2	290	0	2008
1	2	243	109	2008
1	1	254	0	2007
1	1	281	97	2007
1	0	290	107	2007
1	1	243	0	2007
2	2	241	0	2005
1	2	291	104	2006
2	1	260	0	2005
2	0	260	0	2005
2	2	260	0	2004
1	1	264	142	2008
2	1	260	0	2005
1	2	239	104	2006
1	1	239	109	2006
2	2	260	126	2003
1	2	243	107	2008
1	1	281	0	2008
1	1	283	110	2007
2	1	260	0	2005
1	2	244	89	2009
1	1	243	0	2007
1	1	266	0	2005
1	1	241	101	2007
1	1	243	90	2009
1	2	0	153	2008
1	1	290	0	2006
2	1	251	0	0
1	1	275	88	2009
2	1	254	0	2005
1	1	254	0	2006
2	1	254	0	0
1	1	0	95	2009
1	1	264	99	2007
2	0	0	0	2004
5	2	252	0	2005
1	1	260	91	2009
1	2	260	99	2006
1	1	0	90	2009
2	1	241	0	2004
1	1	258	107	2009
1	1	264	0	2007
1	1	272	92	2009
1	1	290	110	2006
1	2	258	104	2007
1	1	281	107	2007
1	1	270	96	2009
1	1	260	106	2008
1	0	0	0	0
2	2	254	0	2005
1	1	243	99	2006
1	1	240	100	2008
2	1	253	0	2005
1	2	264	93	2007
1	2	260	154	2008
1	0	285	0	0
1	0	266	0	2006
1	0	0	0	0
3	2	253	0	0
1	2	271	111	2006
1	1	279	100	2006
2	2	0	0	2005
1	1	246	119	2009
1	1	0	94	2009
1	1	281	0	2007
1	1	285	119	2006
1	1	254	108	2008
1	1	254	106	0
1	0	0	0	0
1	2	243	0	2006
1	2	248	0	2008
1	0	0	0	0
1	1	0	97	0
1	1	281	111	2006
1	1	254	0	2006
1	1	243	90	2009
1	2	243	89	2008
1	1	275	90	2009
1	1	0	107	2009
1	2	244	110	0
1	0	0	0	0
2	2	243	0	2004
1	1	254	0	2009
1	1	264	96	2007
1	0	241	99	2006
1	1	258	0	2007
1	1	253	94	2007
2	1	257	0	2004
1	1	236	94	2009
1	2	281	107	2007
1	2	0	153	2008
2	1	244	0	2005
1	0	0	0	0
1	2	241	0	2008
1	2	290	0	2007
1	2	0	89	2009
1	1	253	107	2009
2	1	281	0	2005
1	2	266	147	2007
1	2	243	96	2009
1	2	241	104	2007
1	2	243	112	2006
1	2	266	131	2004
2	0	0	0	0
1	2	241	143	2007
1	1	244	99	2006
1	2	256	107	2008
5	1	274	0	0
1	2	243	151	2008
1	2	260	119	2008
1	1	260	0	2007
2	1	257	0	2004
1	2	241	140	2007
1	2	280	118	2008
1	1	264	113	2006
2	0	243	135	2005
3	2	279	0	2002
1	2	0	95	2009
2	1	281	0	2005
1	1	241	99	2006
1	2	254	111	2006
1	1	264	108	2007
1	1	244	102	2006
1	2	0	94	2009
1	2	251	0	2006
2	1	260	0	2004
1	2	243	92	2009
2	2	290	0	2005
1	1	0	97	2007
1	1	251	102	2006
1	1	280	90	2009
1	1	0	96	2009
2	2	254	0	2004
1	1	0	0	2007
1	1	260	0	2007
1	1	285	109	2006
1	2	245	112	2006
2	1	264	0	0
1	1	243	108	0
1	2	0	89	0
1	0	283	101	0
1	1	254	0	2009
1	2	243	119	2008
1	1	267	0	2006
1	2	279	99	2007
1	2	260	91	2009
1	2	264	88	2008
1	1	270	87	2009
1	0	260	119	2006
2	1	270	0	2004
1	2	243	96	2008
1	1	263	0	2007
1	2	0	96	2009
2	2	244	0	2005
1	1	254	86	2008
2	2	280	0	2005
1	2	0	155	2008
1	2	264	96	2009
2	2	0	0	2004
1	2	243	110	2008
1	2	243	107	2007
1	0	251	0	2006
1	2	243	0	2007
1	2	243	134	2008
1	1	241	103	2007
1	1	260	154	2008
1	1	0	94	2009
1	0	281	0	2008
1	1	241	113	2007
1	2	243	115	2004
1	1	281	96	2009
1	2	241	0	2006
2	0	0	0	0
2	1	243	102	2005
1	2	260	0	2006
1	1	255	96	2008
5	2	272	0	2008
1	1	290	0	2007
1	1	243	0	2006
1	1	259	107	2008
1	2	0	0	2008
1	1	244	101	2007
1	2	243	96	2008
1	1	266	109	2006
1	2	0	93	2008
1	2	264	139	2007
1	2	264	134	2008
1	2	266	88	2009
1	0	270	134	2006
1	1	266	92	2005
1	1	0	111	2008
1	1	253	0	2007
1	1	260	102	0
1	2	264	140	2007
1	2	290	107	2009
1	1	239	142	2006
2	2	266	146	2004
1	0	0	0	0
1	2	241	96	2009
1	2	0	99	2008
1	1	243	92	2009
1	2	243	147	2008
1	0	0	0	2007
2	2	264	0	2004
1	1	251	113	2008
1	1	264	101	2008
2	1	254	0	2004
2	1	260	0	2005
1	1	281	0	2006
1	1	281	130	2005
1	1	290	0	2006
1	1	241	107	2009
1	2	0	94	2009
1	2	278	0	2006
1	2	267	86	2009
1	1	267	0	2007
1	1	266	87	2009
1	2	253	92	2009
1	1	0	92	2009
1	2	260	91	2008
1	0	0	0	0
1	2	251	109	2008
2	2	281	0	2004
1	1	264	88	2007
2	1	264	0	2005
1	1	279	0	2006
1	2	243	114	2005
1	1	281	0	2006
1	2	260	150	2007
1	1	290	0	2008
1	1	254	92	2009
1	2	243	109	2008
2	1	242	0	1960
1	2	266	0	2005
1	1	244	90	2009
1	1	281	0	2006
1	1	0	86	2009
1	1	241	92	2009
1	2	0	89	2009
1	2	266	96	2009
1	1	239	95	2009
1	0	260	94	2009
1	2	241	92	2009
1	1	241	107	2009
2	2	264	102	2005
1	1	254	90	2009
1	0	260	107	2007
1	1	266	112	2006
5	2	282	0	0
2	1	241	0	2005
1	1	266	108	2006
2	1	260	0	2005
2	2	0	0	0
1	1	254	100	2007
1	1	243	0	2006
1	2	243	147	2006
1	1	0	96	2009
1	1	255	92	2009
1	2	0	86	2009
1	2	290	0	2007
2	2	264	0	2003
1	1	270	106	2007
1	1	266	0	2008
1	1	0	92	2009
1	1	292	105	2007
2	1	241	0	2005
1	2	0	95	2009
1	1	251	111	2007
1	2	264	0	2007
1	1	253	107	2008
5	1	253	121	2006
1	2	264	110	2006
1	1	288	142	2005
1	0	260	103	2007
2	0	0	0	0
1	0	283	0	0
2	2	258	0	2005
1	1	264	0	2007
2	1	290	0	2005
1	1	243	0	2005
1	1	266	0	2006
1	1	285	0	2005
1	2	260	118	2008
1	1	257	94	2009
1	1	275	96	2009
1	2	273	104	2009
1	1	240	0	2007
1	1	270	108	2007
1	1	260	117	2005
1	1	266	119	2007
1	2	285	92	2009
1	1	254	0	2007
2	1	254	114	2005
1	1	0	86	2009
1	1	264	96	2009
1	1	0	86	2009
1	2	243	139	2006
1	2	243	102	2007
1	1	266	96	2008
1	1	266	108	2007
1	2	0	0	0
1	0	243	0	2007
1	2	254	145	2007
1	2	244	153	2008
1	1	0	94	2009
1	1	266	107	2008
1	1	281	0	2007
1	1	260	95	2009
1	2	243	0	2006
2	1	243	0	2003
1	0	0	0	0
1	1	285	111	2006
1	2	248	101	2008
1	1	0	105	2008
1	1	270	90	2009
1	2	282	91	2009
1	1	290	110	2006
2	2	282	149	2004
1	1	264	100	2007
1	1	266	117	2008
2	2	263	0	2005
1	2	260	99	2006
2	1	243	0	2005
1	2	275	110	2007
1	2	255	150	2006
1	1	0	107	2008
2	2	243	0	2005
1	1	289	94	2009
2	1	243	0	2005
1	2	270	0	2008
1	1	264	107	2008
1	2	243	88	2009
1	1	0	0	2008
1	2	260	0	2006
1	2	266	0	2007
2	0	0	0	0
1	1	243	92	2009
1	0	281	135	2006
1	1	240	102	2007
1	2	243	103	2008
1	2	254	149	2007
1	2	251	110	2006
1	1	239	107	2008
1	1	281	0	2006
1	2	266	110	2007
1	2	251	90	2008
1	1	281	0	2008
1	2	243	0	2006
1	2	264	107	2008
1	2	285	140	2008
2	1	281	0	2005
1	1	0	0	2009
1	2	0	92	2009
1	1	241	90	2009
1	1	260	0	2007
2	2	0	146	0
5	1	272	0	0
1	2	254	0	2009
2	2	287	0	2005
1	2	0	86	2009
1	1	264	0	2008
1	2	244	0	2009
2	1	254	0	2005
1	0	0	0	0
1	1	257	108	2007
2	2	254	0	2005
1	2	247	0	2008
2	1	253	0	0
1	2	290	94	2009
1	1	285	99	2006
1	2	243	86	2009
1	2	264	147	2007
1	1	241	96	2009
1	2	260	150	2007
1	1	266	105	2008
1	1	285	101	2008
1	2	0	87	2009
1	1	266	0	2007
1	1	287	118	0
1	1	275	86	2008
1	0	0	90	2009
1	1	0	108	2008
1	2	264	88	2008
1	0	255	0	2007
1	2	0	0	2006
1	2	241	88	2009
2	1	266	104	2005
1	2	251	92	2009
1	2	244	104	2007
2	2	254	0	2005
1	2	241	92	2009
1	2	281	100	2008
2	0	260	0	2005
1	1	290	0	2006
1	2	265	118	2007
1	1	260	108	2008
1	2	0	0	0
1	1	288	0	2007
1	2	264	111	2006
1	1	253	0	2008
1	2	254	101	2007
1	1	243	0	2008
2	2	251	113	2005
1	1	265	0	2008
1	2	258	102	2006
1	2	251	87	2008
5	1	253	0	2005
1	1	0	92	2008
1	1	290	0	2008
3	0	0	0	0
1	2	254	96	2009
5	2	285	121	2005
1	1	241	103	2008
1	2	251	111	2007
1	2	264	92	2009
1	2	243	100	2006
1	1	241	87	2009
1	1	283	103	2007
1	1	260	107	2009
1	1	243	110	2007
1	2	0	0	0
1	2	260	0	2006
1	2	0	86	2009
1	0	0	0	0
1	1	241	0	2008
1	1	281	110	2006
1	1	243	0	2008
1	2	251	103	2007
1	2	281	106	2007
1	1	255	106	2008
1	2	260	96	2009
1	2	244	0	2007
2	2	279	0	0
1	2	266	154	2008
1	1	280	90	2009
1	2	0	96	2009
1	2	243	86	2009
1	1	0	0	2008
1	1	251	108	2006
1	1	264	0	2007
1	1	254	0	2006
1	2	285	0	2008
2	2	280	109	2005
2	1	254	0	2004
1	2	241	96	2009
1	1	287	107	2009
1	2	254	0	2007
1	2	280	107	2008
1	1	290	155	2008
1	1	266	110	2007
2	2	260	137	2005
1	1	270	138	2005
2	2	287	0	2005
1	2	243	94	2009
1	1	283	110	2007
1	0	243	0	0
1	1	251	0	2006
1	1	275	106	2008
1	2	250	107	2009
1	0	0	0	0
1	1	243	0	2006
1	1	244	107	2009
1	1	266	107	2009
2	1	285	122	2004
1	2	0	96	2009
1	2	243	100	2008
1	2	282	0	2006
1	1	254	112	2007
1	2	287	107	2007
2	1	248	0	2005
1	1	243	0	2006
1	1	241	92	2009
1	1	241	87	2008
1	1	0	105	2008
1	1	281	96	2009
2	1	267	0	2004
5	1	272	121	2008
1	1	244	104	2007
1	1	243	108	2007
1	1	241	92	2009
1	2	254	96	2009
1	2	260	123	2008
5	0	244	0	0
1	1	241	122	2007
1	1	241	107	2009
5	0	235	0	0
1	1	0	96	2009
1	1	241	96	2009
1	1	0	86	2008
1	1	266	127	2007
1	2	270	107	2006
1	0	0	0	0
1	1	0	94	2009
1	1	0	97	2008
1	1	254	97	2007
5	1	254	0	2004
1	1	239	110	2006
5	1	235	0	2005
1	1	253	133	2007
2	2	279	0	2005
1	2	260	112	0
1	0	0	110	2008
1	2	266	118	2008
1	1	260	0	2006
1	1	264	108	2006
2	1	257	0	2005
2	2	270	0	2005
1	2	241	140	2008
2	2	241	0	2005
1	2	260	0	2006
1	1	287	110	2008
1	1	281	0	2006
4	1	0	117	0
1	2	241	104	2006
1	1	266	87	2009
1	1	241	96	2009
1	2	260	91	2009
1	2	243	0	2006
1	1	282	87	2006
1	2	260	105	2007
1	1	244	108	2007
1	1	236	119	2008
1	1	270	101	2007
5	1	272	0	2007
1	2	243	137	2007
1	1	290	106	2008
2	2	282	107	2005
1	1	243	0	2008
1	1	266	97	2007
1	1	0	0	2008
1	2	255	0	2008
2	2	0	0	0
2	2	255	0	2005
1	2	251	102	2007
2	1	275	0	2005
1	0	0	0	0
2	1	243	0	2005
1	2	251	110	2006
2	1	244	0	2005
1	2	254	0	0
2	2	288	0	2005
2	1	257	0	2004
1	2	243	0	0
1	1	266	93	2008
1	2	0	88	2009
1	1	282	142	2007
1	1	270	109	2006
1	2	264	0	2006
1	2	281	91	2009
1	1	270	0	2006
1	2	251	104	2008
1	0	0	93	2008
1	2	251	152	2008
1	1	0	95	2009
1	2	0	0	2006
1	1	243	0	0
1	2	254	150	2007
1	2	0	0	2008
1	1	241	0	2006
1	1	0	107	2008
1	1	260	100	2006
1	1	241	142	2007
1	2	281	99	2006
2	1	260	0	2005
1	2	260	94	2008
1	1	254	106	2006
1	1	266	86	0
1	1	275	105	2007
1	1	0	0	2009
1	2	264	102	2007
1	2	0	105	2008
1	2	272	89	2009
1	1	266	0	2006
1	0	243	118	0
1	1	281	99	2007
2	1	254	0	2005
1	2	264	0	2006
2	2	0	0	2005
1	1	241	89	2008
1	0	243	0	0
1	0	0	0	0
1	1	270	0	2006
1	2	251	110	2007
2	0	0	0	0
5	1	272	0	0
1	0	254	0	2006
1	1	254	0	2007
1	0	0	146	2007
4	1	0	0	0
2	1	281	0	2004
1	1	253	122	2005
1	2	241	110	2006
1	2	0	92	2009
2	2	264	0	2004
1	1	0	152	2008
1	2	263	110	2006
2	0	254	110	2005
1	0	281	109	2006
1	2	243	87	2009
1	2	0	96	2009
1	2	260	119	2008
1	2	243	0	2009
5	1	253	0	2006
2	0	243	0	2005
1	2	0	94	2009
1	2	251	0	2005
1	1	243	0	2007
5	1	272	0	2007
1	2	0	92	2009
1	2	244	0	2007
1	2	241	92	2009
1	2	260	102	2006
1	2	260	94	2009
1	2	254	118	2008
2	1	241	0	2004
1	1	0	0	2007
1	2	243	0	2006
1	2	243	88	2009
1	1	258	97	2006
1	2	241	87	2009
1	2	244	104	2008
1	1	243	132	2007
2	1	0	0	2005
1	1	263	86	2009
1	2	0	96	2008
1	1	0	86	2009
1	1	281	0	2006
1	1	290	107	2008
1	1	244	94	2009
1	0	275	0	2006
1	1	270	0	2007
1	1	281	142	2008
1	1	235	0	2006
1	1	266	103	2007
1	2	266	87	2009
1	1	266	0	2009
2	1	0	138	2004
1	1	275	96	2008
2	1	241	0	2004
1	2	241	113	2008
2	2	260	0	2004
1	2	241	101	2007
1	2	266	134	0
1	2	272	0	2007
1	2	282	134	2006
1	1	236	100	2006
2	2	254	0	2005
1	2	243	107	2007
1	1	243	127	2006
1	2	260	0	2006
1	0	0	0	0
1	2	260	153	2008
1	1	243	0	2007
5	1	272	0	2005
1	2	260	122	2006
1	1	244	104	2007
1	2	0	0	2007
1	1	263	113	2006
1	1	281	0	2007
1	2	241	89	2009
1	1	241	111	2006
2	1	241	0	2004
1	2	0	89	0
1	2	242	106	2008
1	2	241	0	2008
1	1	260	0	0
1	2	251	110	2006
1	2	0	0	2008
1	1	290	96	2009
1	2	283	0	2005
1	2	241	91	2008
2	2	260	0	2004
1	1	251	104	2008
2	1	270	0	2005
1	1	0	107	2009
3	2	250	121	2006
1	1	254	136	2006
1	1	244	111	2006
2	2	241	0	2005
1	2	0	96	2009
1	1	266	111	2005
2	1	281	0	2005
1	1	236	0	2008
1	0	0	0	0
1	2	273	112	2006
1	1	260	114	2007
1	1	290	103	2008
1	1	287	0	2005
1	2	241	92	2009
1	1	281	0	2006
1	1	254	94	2008
1	0	254	0	2010
2	2	260	0	2005
1	1	270	0	2006
1	2	243	93	2008
1	1	241	93	2008
1	2	0	0	0
1	1	241	86	2009
2	1	253	0	2004
1	1	281	0	2007
2	1	254	0	2005
1	2	251	134	2006
2	2	243	0	2005
5	2	248	0	2005
2	2	264	104	2005
2	2	243	0	2004
1	1	257	108	2007
1	1	243	97	2008
1	1	243	0	2007
1	1	281	0	2005
1	2	260	111	2007
1	2	241	139	2006
2	1	260	0	2005
1	1	240	113	2007
2	1	243	0	2003
1	1	251	108	2006
1	1	290	0	2006
1	1	273	0	2007
1	2	289	94	2009
1	1	254	0	2006
1	2	243	90	2008
1	2	0	96	2009
1	0	0	0	0
1	2	244	137	2007
1	2	0	0	2009
1	2	241	99	2007
1	1	0	0	0
1	2	266	102	2008
1	2	272	0	0
3	2	258	0	2006
2	1	281	0	2004
1	1	263	104	2007
1	0	266	0	2006
1	1	281	0	2006
1	1	244	0	2005
1	2	259	113	2006
1	1	260	99	2005
1	1	243	0	2006
1	1	243	127	2006
1	1	260	99	2008
2	1	290	0	2005
1	2	287	107	2006
1	2	281	96	0
1	1	264	110	2006
1	1	281	0	2007
1	1	0	0	2008
1	2	243	102	2008
1	2	290	100	2008
1	0	0	0	0
1	2	244	96	2008
1	2	287	0	2007
1	1	281	90	2009
1	2	281	104	2008
1	2	267	92	2009
1	2	251	151	2008
1	2	264	86	2009
1	1	260	111	2006
1	1	253	108	2006
1	1	281	110	2007
2	1	281	114	2005
2	2	266	0	2005
1	1	287	0	2009
1	1	235	108	2007
1	1	290	110	2006
1	2	254	0	2007
1	2	0	96	0
1	2	243	0	2007
1	1	0	96	2009
1	0	263	110	2006
2	1	260	112	2005
1	1	281	0	2006
2	1	281	0	2005
1	0	241	0	2007
1	2	251	89	2009
1	2	270	0	2008
1	1	290	97	2008
1	1	281	0	2007
2	1	241	0	2005
2	2	275	0	2005
2	1	0	0	2004
1	1	243	88	2009
1	1	266	96	2009
1	2	259	99	2007
1	2	281	92	2009
1	1	281	0	2008
2	2	243	0	2003
2	1	254	0	2005
3	2	278	0	0
1	2	290	152	2008
1	1	254	0	2006
1	1	0	91	2009
4	0	0	0	0
2	1	278	0	2005
1	1	270	0	2006
2	2	260	137	2005
1	1	0	111	2008
5	0	0	0	0
1	2	282	94	2008
1	2	272	86	2009
2	1	264	0	2004
1	1	236	122	2006
1	1	0	94	2009
1	2	264	107	2009
5	2	253	0	0
1	2	283	117	0
1	2	244	87	2009
1	2	254	94	2009
1	1	270	0	2007
1	0	0	0	2007
1	1	254	0	2006
1	1	287	108	2008
1	1	281	108	2007
5	1	253	0	2004
1	2	260	0	2006
1	1	281	0	2007
1	1	270	0	2008
1	0	266	88	0
1	1	281	96	2009
1	2	243	96	2009
2	2	243	0	2005
1	1	267	91	2009
1	1	0	86	2009
5	1	253	0	2006
1	2	0	96	2009
1	2	288	101	2008
1	2	243	147	2006
1	2	283	110	2008
1	1	0	90	2009
5	0	272	0	2007
1	2	236	154	2008
2	0	0	0	0
1	2	251	86	2006
1	1	270	0	2005
1	1	241	0	2008
1	2	285	86	2009
1	1	264	109	2006
1	1	244	110	2007
1	2	243	89	2008
1	1	254	96	2009
1	1	0	107	2009
1	1	285	0	2006
1	1	282	0	2006
1	2	260	147	2007
1	2	290	92	2008
1	1	275	92	2009
2	1	244	0	2005
1	2	254	117	2008
1	2	243	0	2007
1	1	281	0	2008
1	2	251	0	2007
1	1	0	92	2009
1	2	241	103	2008
1	2	250	115	2006
2	2	280	148	2005
1	2	254	0	2006
1	1	270	87	2009
1	1	260	104	2007
1	1	266	129	2007
1	1	0	0	2007
1	2	279	152	2008
1	1	254	91	2009
2	2	280	0	2004
1	2	251	147	2006
1	2	0	94	2009
1	2	279	150	2008
1	2	243	102	2006
1	1	264	0	2006
1	2	244	0	2006
1	1	243	0	2007
2	1	253	0	2004
1	2	254	110	2007
1	1	290	111	2006
2	1	260	0	2004
1	2	239	118	2008
1	1	281	0	2007
1	1	243	0	2007
1	1	236	117	2008
1	2	260	110	2007
1	1	0	92	2009
1	1	254	0	2007
1	2	0	0	2007
2	2	260	131	2005
2	2	251	134	2004
1	1	0	91	2009
1	1	236	90	2009
2	2	266	149	2005
1	1	290	92	2009
1	0	0	0	0
1	1	275	0	2007
1	1	270	108	2007
1	0	0	0	0
1	1	0	105	2008
1	2	266	140	2006
1	2	282	153	2008
1	2	0	0	2007
1	2	243	137	2008
1	1	241	103	2008
5	2	272	0	0
1	2	260	110	2007
2	1	254	0	2005
2	2	279	0	2004
2	1	243	0	2005
1	1	0	91	2009
2	1	236	0	2005
1	2	241	0	2006
1	2	279	87	2008
2	1	281	0	2005
2	2	290	134	2005
1	2	280	92	2009
1	2	254	152	2008
2	2	282	137	0
1	0	243	0	0
1	2	266	110	2007
1	2	248	110	2007
1	2	0	139	2008
1	1	264	0	2006
1	2	0	96	2008
1	2	0	140	2008
1	1	287	95	2009
1	2	0	92	2009
1	2	254	114	2006
1	1	282	0	2007
1	0	282	140	2006
2	2	254	0	2004
2	2	260	0	2005
1	1	243	97	2007
1	1	278	108	2008
1	2	281	92	2009
1	1	0	0	2009
1	0	239	0	2006
1	2	243	143	2008
1	1	266	103	2007
1	2	264	110	2006
1	2	290	96	2009
1	1	270	0	2006
1	2	281	103	2007
1	2	243	0	2006
2	1	254	0	2004
1	1	264	0	0
1	2	280	104	2008
3	2	242	141	1947
1	1	260	108	2006
1	1	243	92	2009
1	2	239	126	2008
5	2	248	0	2006
1	2	243	140	2008
1	2	260	104	2007
5	1	275	0	2006
2	0	0	0	0
1	0	243	147	2007
1	1	260	127	2006
1	2	255	92	2009
1	2	280	153	2008
1	0	281	0	2007
1	1	281	0	2006
2	1	235	0	2005
1	1	0	88	2009
1	2	0	92	2009
1	1	260	0	2008
2	2	251	0	2005
1	1	254	97	2008
2	1	287	0	2005
1	1	264	110	2006
1	2	243	86	2009
1	1	266	108	2008
1	1	255	0	2008
1	2	243	88	2009
1	1	255	152	2008
1	2	241	104	2007
1	1	0	0	2008
1	2	272	88	2009
1	1	236	117	2007
1	2	291	92	2009
1	1	266	152	2008
1	2	243	0	2007
1	1	243	0	2008
1	2	248	0	0
2	1	269	0	2004
1	2	251	89	2008
1	1	254	96	2009
1	2	241	96	2009
1	2	241	112	2006
5	1	272	0	2007
1	0	0	0	0
1	1	243	0	2008
1	2	278	95	2009
1	1	287	0	2007
1	2	246	149	2008
1	0	0	0	0
5	1	272	0	2007
1	2	272	89	2009
2	1	243	0	2005
1	2	243	92	2009
1	1	243	0	0
2	1	270	138	2005
1	1	241	90	2009
1	1	0	86	2009
1	1	281	108	2008
1	2	243	0	2008
1	2	248	139	2006
1	2	243	91	2008
1	2	256	0	2007
1	2	244	0	2006
1	1	281	138	2006
1	2	264	94	2009
5	1	281	0	2006
2	2	0	0	2004
2	2	254	0	2002
1	2	260	96	2009
1	1	243	0	2008
1	1	254	0	2007
1	1	264	90	2009
5	1	272	0	2007
1	1	291	104	2007
1	1	285	115	2006
5	2	281	0	0
2	0	263	0	2004
2	1	284	0	2004
1	2	280	110	2007
1	2	243	88	2009
2	1	263	0	2005
1	1	266	105	2008
1	0	0	0	2007
1	1	253	105	2008
1	0	0	104	2007
1	2	287	93	2008
1	2	0	100	2008
1	1	0	92	2009
1	1	275	99	2006
1	2	242	0	2006
1	1	260	0	2008
1	2	290	92	2009
5	1	272	0	2007
1	2	264	107	2009
1	2	243	0	2007
1	2	243	118	2008
1	1	281	107	2008
2	2	260	0	2005
1	2	260	104	2006
1	2	277	96	2009
1	2	281	0	0
1	1	239	110	2006
1	2	248	152	2007
2	1	281	0	2005
1	2	253	0	2008
1	1	243	110	2005
1	2	260	96	2009
2	1	251	0	2004
1	0	0	0	0
1	1	266	103	2006
5	0	0	0	0
1	1	235	110	2005
1	0	0	0	0
1	1	243	0	2007
1	1	281	142	0
5	2	272	0	2008
4	0	0	0	0
1	1	254	86	2009
2	1	260	127	2004
1	2	251	0	2006
1	2	264	0	2007
1	1	281	102	2007
1	1	287	113	2007
1	2	243	89	2009
1	1	240	110	2006
2	1	287	0	2003
1	1	266	95	2009
1	2	260	110	2007
1	2	257	111	2007
1	1	243	96	2009
2	2	248	0	2003
1	2	254	149	2005
1	2	260	152	2007
1	2	244	110	2007
1	1	241	94	2009
1	2	264	140	0
1	2	239	149	0
1	2	243	91	2009
1	0	0	0	0
2	1	236	0	2005
1	1	282	129	2006
1	2	243	111	2006
1	0	0	0	0
1	2	0	88	2009
1	2	241	113	2008
2	2	243	0	2005
1	2	241	86	2009
1	1	275	0	2007
1	1	0	88	2009
2	1	282	0	2005
2	1	275	0	2005
1	1	254	0	2007
2	2	243	0	2004
1	2	0	110	0
1	2	241	106	2008
1	1	264	0	2006
1	2	260	104	2007
1	2	254	0	2008
1	2	244	119	2006
1	2	0	95	2009
5	2	243	0	2004
1	2	275	0	2006
1	2	243	146	0
1	2	266	119	2008
1	2	248	99	2007
1	2	248	0	2006
1	1	260	135	2006
1	1	251	117	2007
1	2	260	0	2007
1	1	243	0	2006
1	1	264	133	2006
1	2	0	107	2009
1	1	254	95	2009
1	0	0	0	0
1	1	285	0	2005
2	1	241	0	0
2	2	260	0	2005
1	2	272	0	2009
1	1	281	110	2006
1	1	239	0	0
1	1	264	108	2008
1	2	259	106	2008
1	2	243	131	2008
1	2	264	93	2006
1	2	260	154	2007
2	2	280	0	2005
1	2	266	0	2007
1	1	290	0	2006
1	1	241	91	2009
1	1	280	94	2009
1	1	251	0	2007
1	1	243	0	2006
1	2	290	94	2009
1	2	241	0	0
1	1	240	130	2007
2	1	251	0	2004
1	1	251	96	2009
2	1	241	115	2005
1	1	266	86	2008
2	1	254	0	2005
1	1	281	110	2006
1	1	278	104	2008
2	2	0	0	0
1	2	260	110	2006
1	2	260	92	2009
1	2	248	107	2009
1	1	278	90	2009
1	0	266	0	2007
1	1	251	112	2006
1	2	251	94	2009
1	2	264	96	2009
1	2	254	152	2008
1	1	284	0	2007
2	1	241	104	2005
1	1	248	86	2009
1	1	264	100	2008
1	2	251	146	2005
1	1	266	86	2009
1	2	243	101	2008
2	1	260	0	2005
1	1	254	0	2006
2	1	290	127	2004
1	1	260	110	2006
1	1	291	117	2008
1	2	272	146	2008
2	1	281	0	2005
1	1	244	86	2009
2	1	267	0	2005
1	2	248	86	2009
2	1	260	133	2004
1	1	266	138	2007
1	1	254	0	2005
1	1	266	97	2008
1	0	258	113	2007
1	1	0	0	2007
2	1	241	108	0
1	2	241	0	2007
1	1	251	97	2006
1	1	260	92	2008
1	1	283	100	2008
2	2	264	123	0
1	2	270	0	0
1	2	264	0	2006
1	1	254	104	2007
1	1	254	109	2006
1	1	270	92	2009
1	2	0	89	2009
1	1	281	98	0
1	2	290	92	2009
1	0	0	101	2007
1	1	260	0	2005
1	1	263	113	2005
1	1	248	92	2009
1	2	241	0	2008
1	1	0	103	2008
2	2	248	0	2003
1	2	260	92	2009
1	1	251	113	2007
1	1	270	92	2009
1	1	291	0	2007
1	2	260	149	2007
1	2	239	89	2009
2	1	253	0	2003
1	1	281	113	2008
1	2	251	111	2006
1	2	281	89	2009
4	0	0	0	0
1	1	254	136	2007
1	0	264	0	2006
1	1	291	107	2009
1	1	281	86	2007
1	1	281	0	2007
1	2	0	0	2008
5	1	274	0	0
5	1	243	0	2007
1	2	0	92	2009
1	1	264	95	2007
1	1	0	96	2009
1	2	0	89	2009
1	2	264	0	0
1	2	251	111	2006
1	1	282	0	2007
1	2	243	96	2009
1	1	281	127	2007
1	1	281	0	2006
1	2	260	153	2007
2	0	243	0	2005
1	2	279	91	2009
1	2	0	0	2008
2	1	281	0	2004
2	1	283	0	2005
1	2	289	92	2009
1	1	0	86	2008
1	2	281	91	2009
2	1	279	0	2005
1	1	235	106	2007
1	1	0	0	0
1	2	266	110	2006
1	1	244	0	2007
1	1	266	109	2006
2	1	270	0	2004
2	1	263	0	2005
1	2	280	100	2008
1	2	275	92	2009
1	1	290	0	2006
1	1	254	101	2008
1	0	264	141	2007
1	1	0	86	2009
1	1	0	86	2009
2	2	254	0	2005
1	1	243	0	2007
1	1	0	97	2008
1	0	265	0	2010
1	1	281	0	2006
5	1	264	121	0
1	1	254	0	2008
1	1	0	96	2009
1	2	266	0	2006
1	1	281	110	2006
1	2	266	143	2007
1	2	276	89	2009
1	1	0	97	2004
1	2	260	94	2009
1	1	290	0	2007
1	1	0	113	2008
2	0	0	0	0
1	1	0	86	2009
2	2	272	121	2005
1	2	243	137	2008
1	2	243	102	2006
1	0	0	0	0
1	0	0	0	0
1	1	281	92	2009
2	1	251	0	0
1	2	264	117	2008
1	2	243	137	2007
1	2	280	105	2007
1	0	0	0	0
1	1	281	0	2006
1	2	0	95	2005
4	1	0	0	0
1	2	244	94	2009
1	1	260	94	2009
1	1	253	117	2008
1	2	260	146	2007
5	1	252	0	2006
1	2	260	94	2009
1	1	0	104	2008
1	2	266	94	2009
1	2	243	0	2007
1	2	260	100	2006
1	1	236	102	2007
1	1	243	92	2009
2	0	0	0	0
2	2	281	0	1984
1	2	275	100	2008
1	2	260	0	2007
1	1	264	130	2007
1	2	0	0	2008
1	2	245	109	2008
1	2	244	92	2009
1	1	0	91	0
1	2	241	0	2008
1	1	266	0	2007
1	2	243	149	2008
1	1	241	86	2008
1	1	244	108	2007
1	2	0	87	2008
1	1	280	0	2008
1	1	285	108	2007
2	0	0	0	0
1	1	0	90	2009
2	2	243	0	2005
1	2	260	104	2008
1	2	260	0	0
1	1	263	111	2006
5	1	272	0	2007
2	2	290	0	2005
1	1	243	122	2006
2	1	266	100	2005
1	1	0	92	2009
1	0	284	0	0
2	0	0	0	0
1	1	240	0	2006
1	1	0	96	2009
1	2	260	0	0
1	2	251	0	2007
1	1	281	0	2006
1	0	243	0	2006
1	2	0	96	2009
2	1	264	0	2004
1	2	0	94	2009
5	1	272	0	2007
1	2	254	0	2007
1	1	278	96	2009
1	1	241	97	2008
1	1	266	94	2009
5	2	272	0	2006
1	1	254	0	2005
1	1	256	88	2009
1	0	290	111	2006
1	0	0	97	0
1	2	0	139	2008
1	1	239	107	2007
1	0	243	108	2008
2	2	270	0	2005
1	1	241	104	2007
1	1	243	152	2008
1	2	0	0	0
1	1	281	108	2008
1	2	260	110	0
1	1	263	108	2007
1	0	243	151	2007
1	2	243	102	2007
1	2	241	104	2008
1	1	0	105	2008
4	1	0	0	0
1	2	260	86	2009
1	0	251	0	2005
1	1	278	110	2006
1	1	281	86	2009
2	2	266	0	2005
1	0	236	0	2006
2	1	281	0	2004
1	2	243	119	2008
1	1	254	0	2007
1	1	273	0	2006
1	1	283	113	2008
2	1	251	0	2005
1	2	251	147	2006
1	1	270	0	2006
1	2	275	88	2008
1	1	254	0	2006
1	1	243	94	2009
1	1	241	96	2009
1	1	264	111	2005
1	2	275	107	2007
1	2	248	0	2008
5	2	272	121	2007
1	1	254	0	2007
1	0	0	0	0
1	0	254	108	2007
1	1	243	96	2008
1	2	270	0	2007
1	1	254	109	0
1	1	260	99	2008
1	1	281	94	2009
1	2	254	0	2007
1	1	281	100	2008
1	1	290	96	2006
1	1	254	0	2006
1	1	270	91	2009
1	2	284	92	2009
1	2	236	0	2006
2	2	254	0	2005
1	1	251	0	2007
1	2	266	92	2009
2	1	253	0	2005
2	2	290	0	2005
2	0	260	0	2005
1	1	253	0	2008
1	1	254	0	2007
1	2	267	106	0
1	2	288	95	2007
1	1	0	96	2009
2	1	243	127	2003
1	2	251	89	2009
1	2	0	86	2009
1	1	241	141	2008
1	2	0	93	2008
1	2	251	0	2007
2	2	280	99	2005
1	1	282	0	2006
2	1	264	111	2005
2	1	241	104	2005
1	2	281	99	2007
1	1	0	0	0
2	1	254	0	2005
2	1	236	0	2005
1	1	263	108	2008
1	2	243	96	2009
1	1	270	0	2007
1	0	0	0	0
1	2	0	96	2009
1	1	264	110	2006
1	1	253	108	2007
1	2	251	111	2007
1	0	0	0	0
1	1	244	108	2007
2	1	288	0	2005
1	2	0	96	2009
2	1	241	0	2005
2	2	283	0	2004
1	1	241	104	2006
1	2	254	0	2006
5	2	282	0	2007
1	1	266	86	2009
4	1	0	0	0
1	1	272	0	2007
2	1	264	138	2005
2	1	281	0	2005
1	2	266	145	2005
1	0	0	0	0
2	2	243	0	2005
1	1	290	86	2005
1	2	251	0	2008
1	1	0	110	2007
1	2	254	96	2009
2	1	0	124	2005
2	2	256	92	0
2	0	0	0	2003
2	1	253	0	2005
1	2	241	91	2009
1	2	0	118	2008
1	1	0	107	2009
1	1	0	95	2008
1	2	0	88	2009
1	1	0	86	2008
1	2	0	91	2009
1	1	0	88	2009
1	2	258	112	2006
1	1	243	0	2007
1	1	281	96	2009
1	2	266	96	2009
1	1	270	96	2006
1	2	269	96	2008
1	2	264	104	2008
1	1	264	0	2005
1	1	239	136	2005
2	2	290	0	2005
2	2	244	0	2005
1	1	260	119	2007
1	1	254	119	0
1	2	243	143	2006
1	1	241	91	2009
1	2	244	0	2008
2	1	270	0	2005
1	2	0	100	2008
1	1	254	0	2007
2	1	236	0	2004
2	2	260	148	2005
1	1	260	0	2007
1	2	243	0	2007
1	0	256	153	2008
5	0	0	0	0
2	1	281	0	2004
1	2	241	89	2009
1	2	241	88	2009
2	1	266	0	2003
1	2	275	149	2006
2	2	264	0	2004
2	2	278	0	2002
1	1	243	0	2008
1	1	266	0	2006
2	2	243	0	2005
1	1	266	86	2008
2	1	281	0	2005
1	2	260	150	2007
1	2	260	137	2007
1	2	260	92	2009
1	1	0	141	2008
2	1	243	0	2005
1	1	291	88	2009
1	0	270	0	2006
1	2	251	102	2007
1	1	290	108	2008
2	0	0	0	0
1	2	251	109	2008
1	2	251	0	2008
1	1	0	108	2008
1	2	241	92	2006
1	2	290	94	2009
1	1	275	96	2009
1	1	243	0	2007
2	0	238	148	2005
1	2	266	101	2006
1	1	236	95	2009
2	2	260	137	0
1	1	280	108	2007
1	0	264	0	2007
1	1	264	0	2007
1	1	260	110	2007
1	2	239	107	2007
1	0	0	0	0
1	2	241	0	2007
1	2	250	0	2006
1	0	0	0	0
1	1	281	110	2006
2	1	279	109	2005
1	2	260	0	2007
5	2	282	0	2005
4	0	270	0	0
1	2	280	110	2006
1	1	235	104	2007
2	1	290	0	0
2	1	260	0	2005
1	1	0	0	2008
1	1	243	110	2006
2	2	260	140	2005
1	2	280	104	2008
1	2	291	0	2006
1	1	266	138	2008
1	1	263	0	2006
1	2	243	87	2009
2	1	281	0	2004
1	0	260	0	2007
1	2	282	151	2008
1	1	288	0	2006
1	1	241	92	2009
1	1	0	92	2009
1	1	0	107	2008
5	1	235	0	0
1	1	260	138	2007
1	1	260	0	2008
1	2	266	94	2009
1	1	254	97	2007
1	2	251	134	2006
5	1	243	0	2005
1	1	241	0	2007
1	2	0	89	2009
2	1	271	0	2005
1	2	250	88	2008
2	1	282	0	2005
1	1	254	129	2007
1	2	283	120	2006
1	1	0	103	2008
1	1	0	90	2009
1	1	281	111	2006
1	2	0	0	2008
2	1	240	0	2003
1	2	243	0	2008
1	1	264	108	2007
1	2	0	92	2009
1	2	284	93	2008
1	2	0	0	2008
2	2	247	124	0
1	1	254	105	2008
5	2	272	0	2007
1	1	254	0	2007
1	1	285	94	2008
1	1	254	104	2007
1	1	291	107	2008
1	1	254	108	2008
1	1	290	102	2006
2	1	243	0	2005
1	2	267	0	2007
1	2	264	92	2007
2	1	260	0	2005
2	1	278	0	2004
2	1	254	86	2004
2	2	264	0	2004
1	1	244	96	0
1	0	243	107	2007
1	2	0	96	2009
1	1	275	0	0
1	1	235	0	2007
1	2	267	117	2008
1	2	290	110	2007
1	1	266	0	2006
1	1	266	0	2007
1	1	281	152	2008
2	1	243	129	2005
1	2	260	96	2009
1	2	290	92	2009
1	2	244	151	2008
2	1	281	0	2005
1	2	0	0	2008
1	0	243	117	2007
1	1	0	86	2009
1	2	270	99	2006
1	2	254	110	2006
1	2	243	96	2009
1	2	260	0	2007
1	1	241	92	2009
4	0	0	0	0
1	0	278	0	2006
1	2	0	96	2009
2	2	258	0	2005
5	2	272	0	2008
1	0	240	106	2008
1	2	270	143	2008
1	1	281	0	2006
2	2	254	110	2005
1	1	287	0	2007
1	2	250	140	0
1	1	266	0	2006
1	2	256	93	2008
1	1	240	111	2007
1	2	0	107	2008
2	1	243	133	2004
1	1	0	119	2008
1	1	244	97	2008
1	1	246	0	2006
1	2	243	139	0
1	2	251	0	2007
2	1	254	0	2005
1	1	282	106	2007
1	1	243	0	2005
1	2	251	153	2008
1	2	260	0	2006
1	1	264	92	2009
1	2	287	0	2007
1	1	254	106	2008
1	2	244	96	2009
2	2	260	0	0
1	2	279	0	2006
1	2	264	93	2008
1	1	265	108	2007
1	1	270	108	2008
1	1	241	97	2008
1	1	285	106	2006
1	2	287	89	2009
2	1	254	138	2005
1	1	281	0	0
1	2	251	94	2008
2	1	283	0	2005
1	1	243	0	2006
1	1	266	90	2009
1	1	241	104	2004
1	1	290	0	2006
1	1	243	135	2008
1	2	241	99	2006
1	1	270	106	2007
1	1	271	110	2007
1	2	280	149	2006
2	0	0	0	0
1	2	290	101	2008
1	2	264	91	2009
1	2	266	94	2008
2	1	264	0	2004
1	1	290	97	2008
1	1	244	109	2006
2	1	265	0	2005
2	1	243	0	2005
1	2	290	0	2007
1	1	290	0	2006
1	2	239	92	2009
1	2	260	110	2008
1	2	290	154	2006
1	2	241	96	2009
2	1	260	0	2004
1	1	243	136	2006
1	2	243	143	2006
2	1	241	0	2005
2	1	266	113	2005
1	1	285	86	2010
1	2	267	0	2008
1	1	254	0	2007
1	1	0	94	0
1	0	0	86	2009
1	1	266	119	2006
2	1	281	133	2004
1	1	251	106	0
1	2	266	0	2006
1	1	254	93	2008
2	1	243	0	2005
1	1	287	141	2007
1	2	260	92	0
1	1	244	97	2008
1	0	0	106	2008
1	1	281	88	2009
1	1	285	0	2007
1	1	0	94	2009
2	2	0	0	2005
1	1	270	0	2007
1	1	260	110	2007
1	2	275	0	2006
1	1	254	0	2004
1	1	0	90	2009
1	0	257	0	2008
1	1	254	0	2007
1	1	0	91	2009
1	1	235	0	2005
1	1	241	0	2007
2	2	260	0	2004
1	2	0	0	2007
1	1	235	0	2005
1	2	260	117	2005
1	1	282	114	2006
1	2	0	96	2009
2	1	243	0	2004
1	1	281	0	2009
1	2	251	0	0
1	2	275	151	2008
2	1	0	0	2005
1	2	260	105	2007
1	1	266	88	2008
2	2	281	0	2005
1	1	264	108	2008
1	1	266	0	0
1	1	264	88	2009
1	2	243	151	2008
1	2	0	96	2009
1	2	254	96	2009
2	2	248	111	2005
1	1	264	0	2005
1	2	266	140	2008
1	1	280	0	2006
1	2	0	92	2009
1	2	0	86	2009
1	2	279	0	2007
1	2	260	96	2008
1	2	264	92	0
1	1	0	86	2009
1	1	0	0	2006
5	1	0	0	2005
1	2	255	88	2008
1	1	254	97	2007
1	2	253	93	2008
1	2	278	94	2009
5	2	272	0	2005
1	2	280	134	2008
1	1	241	96	2009
1	1	243	92	2009
1	2	272	152	2008
5	1	272	0	2008
2	0	0	0	0
1	1	270	106	2008
1	2	241	94	2009
1	2	281	149	2007
1	1	291	103	2006
1	0	235	0	2004
1	1	281	0	2006
1	2	264	0	0
1	2	254	88	2008
1	1	255	95	2009
1	2	260	0	2006
1	0	273	0	2006
4	1	0	0	0
4	2	0	0	0
1	1	241	100	2007
2	0	258	0	2005
1	2	241	104	2006
1	1	243	108	2008
1	1	241	117	2006
5	1	253	0	2007
1	1	254	0	2006
1	0	0	0	0
1	2	260	92	2009
1	2	243	0	2006
1	1	240	104	2007
1	1	0	143	0
2	2	251	0	2005
2	1	240	0	2005
1	2	238	118	2008
1	2	254	94	2008
1	1	260	90	2009
5	2	272	0	2008
1	0	0	0	0
1	1	241	96	2009
1	1	241	0	2007
5	2	253	0	0
1	0	241	0	2006
1	1	0	104	2008
1	1	266	87	2009
5	2	260	104	2005
1	2	281	92	2009
1	0	0	0	0
1	2	243	110	2006
2	1	263	113	2003
2	1	281	115	2005
1	2	258	0	2008
1	1	0	97	2008
2	1	243	0	0
1	2	254	107	2005
1	1	290	0	2008
1	1	266	89	2008
1	1	292	0	0
1	2	264	94	2009
1	2	244	96	2009
1	2	251	110	2007
1	2	0	96	2009
1	0	0	0	0
2	2	248	140	2003
1	2	243	119	2008
1	1	235	0	2008
2	1	235	0	2004
1	1	285	0	2007
1	1	243	111	2006
1	2	244	89	2009
1	2	243	0	2007
1	1	253	106	2008
1	2	248	0	2006
1	2	285	0	2004
2	2	270	0	2005
1	1	254	0	2008
1	1	287	92	2009
2	1	251	0	2004
2	1	254	0	2004
1	2	0	94	2009
2	2	251	0	0
2	1	263	0	2005
1	1	0	96	2009
1	2	272	115	2008
1	2	260	155	2008
1	0	0	0	0
1	1	264	104	2006
1	2	279	0	2006
1	2	0	92	2009
1	2	251	100	2008
1	1	253	97	2008
2	2	243	100	2004
1	0	282	0	0
1	2	290	153	2008
1	1	241	107	2008
1	1	0	91	2009
1	2	266	147	2008
1	1	241	104	2006
1	1	290	0	2008
2	2	266	0	2004
1	2	243	131	2007
1	1	264	0	2007
1	1	266	88	2009
1	0	266	0	2006
1	1	254	104	2006
2	1	290	86	2003
1	1	282	117	2006
1	1	241	0	2007
2	2	260	0	2005
5	1	272	130	2008
1	0	0	0	0
2	2	264	0	2005
1	1	0	86	2009
1	1	236	107	2008
1	2	243	0	2006
2	1	241	0	2005
1	2	291	110	2006
1	1	243	0	2008
1	1	260	138	2008
1	1	285	129	2006
1	2	0	0	0
2	2	259	0	2004
1	2	256	0	2007
2	2	264	0	2004
1	2	290	0	2006
2	1	0	0	2005
1	1	0	96	2009
1	0	0	0	0
1	2	0	113	2008
2	2	287	0	2004
1	1	264	101	2008
1	2	275	92	2009
2	1	281	111	2005
1	1	258	110	2006
2	1	0	0	2005
1	1	285	0	2006
1	2	241	96	2009
1	1	239	113	2007
1	2	255	110	2008
1	2	236	100	2008
1	1	285	87	2009
1	1	0	107	2009
1	2	275	107	2007
1	2	0	115	2008
1	1	0	96	2009
1	2	241	103	2008
1	2	260	101	2006
2	2	254	0	2005
1	2	241	0	2006
1	1	272	0	2006
1	1	236	104	2008
1	2	260	0	2007
1	1	270	0	2006
1	1	260	136	2006
1	1	243	96	2009
1	0	0	0	0
1	1	0	0	2009
1	1	244	119	2008
1	1	243	135	2007
1	1	0	0	2008
1	2	288	95	2008
1	2	0	89	2009
1	1	251	92	2009
1	2	251	0	2006
1	1	0	94	2009
1	1	244	151	2008
1	1	254	0	0
2	2	254	0	2005
1	2	244	105	2008
1	1	260	107	2007
1	1	289	86	2008
2	1	275	0	2005
1	2	281	0	2006
1	2	0	88	2009
1	2	237	121	2009
1	2	248	118	2008
1	1	244	135	2007
2	2	287	0	2005
1	1	291	111	2006
1	2	254	110	2005
1	1	0	96	2009
1	2	266	0	2007
1	0	0	0	0
1	1	270	0	2007
1	2	260	100	2008
2	2	244	0	2005
1	0	289	96	2009
1	1	290	122	2007
1	1	254	0	2008
1	2	241	104	2008
2	2	255	0	2005
1	0	241	110	2007
1	2	282	0	0
1	1	264	91	2007
1	1	285	0	2005
1	2	243	143	2006
1	1	236	113	2008
2	1	243	0	2004
1	2	248	0	2006
1	2	248	0	2007
2	1	241	102	2005
1	1	266	113	2008
2	2	251	0	2005
1	1	273	92	2009
1	2	264	92	2009
2	2	241	0	2005
2	1	260	0	2004
1	1	264	86	2009
1	1	0	108	2007
1	1	254	99	2006
1	1	255	136	2006
1	2	0	0	2008
1	2	0	96	2008
1	1	0	92	2009
1	2	264	0	2007
1	1	243	106	2008
2	1	251	0	2005
1	2	251	0	2006
2	1	285	0	2005
1	1	264	104	2006
2	1	281	0	2004
1	1	0	0	2006
5	2	260	0	2005
1	1	241	86	2009
1	1	0	94	2009
2	2	0	0	2002
1	2	0	92	2009
1	2	251	117	2008
2	1	272	0	2005
1	2	264	0	2007
1	2	260	137	2006
1	2	0	88	2009
1	2	243	88	2007
2	1	236	0	2005
1	1	254	108	2007
1	2	0	137	2008
1	1	254	91	2009
2	1	264	0	0
1	1	241	99	2006
1	2	0	91	2009
1	2	247	0	2007
1	1	254	0	2007
1	1	253	119	2008
1	1	241	0	2006
1	1	281	106	2008
1	2	243	92	2009
1	2	281	92	2009
1	1	266	107	2009
1	2	265	0	2008
1	2	260	92	0
1	1	0	90	2009
1	1	253	0	2007
1	1	278	107	2006
1	1	267	118	2007
1	0	0	0	0
1	1	240	0	2006
1	1	0	0	2008
1	2	243	139	2008
2	1	265	0	2004
1	1	243	88	2009
1	2	243	104	2007
1	1	243	114	2007
1	1	253	0	2008
1	2	264	0	0
1	2	280	103	2006
2	2	264	0	2005
1	2	243	0	2006
1	1	264	86	2008
1	1	251	110	2006
1	1	0	0	2008
1	2	0	92	2009
2	0	0	139	2004
1	2	241	110	2008
1	1	290	96	2009
1	1	291	105	2008
1	2	241	100	2006
1	1	273	94	2009
2	1	272	0	2005
1	1	270	0	2008
1	1	236	119	2008
1	2	243	103	2006
1	2	273	0	0
1	1	241	99	2007
1	1	241	92	2009
2	1	260	0	2005
1	2	290	93	2008
1	1	236	106	2008
1	2	251	110	2006
1	1	270	0	2008
1	1	260	111	2006
1	2	281	91	2008
1	1	266	113	2008
1	2	264	134	2008
1	1	260	103	2008
1	2	0	0	0
1	2	0	92	2009
2	1	254	0	2004
1	2	260	93	2008
1	2	264	88	2009
1	1	260	93	2006
2	1	260	129	2005
1	2	241	137	2005
1	2	254	101	2008
1	2	270	0	2006
1	1	275	0	0
1	1	290	0	2007
1	2	290	102	2006
1	1	243	0	2007
2	1	260	0	2005
1	1	273	92	2009
1	1	283	94	2009
1	1	281	133	2006
1	2	266	96	2008
1	2	285	104	2007
1	1	270	103	2007
1	2	0	91	2009
2	2	243	0	2005
1	2	0	0	0
1	2	290	101	2007
1	1	254	127	2007
1	2	244	111	2004
2	0	266	0	2005
1	1	281	0	2006
2	1	261	0	2005
1	1	254	88	2009
1	1	260	101	2008
1	1	241	108	2008
2	1	271	106	2005
1	2	254	137	2006
2	2	243	0	2005
1	1	254	106	2007
1	2	243	143	2007
1	1	266	90	2009
1	2	248	103	2008
2	2	243	0	2004
4	2	0	0	0
2	1	290	0	2005
4	1	0	0	0
2	1	251	110	2005
1	2	241	0	2008
1	2	264	107	2009
1	1	0	107	2009
1	0	0	0	0
2	1	270	135	2004
5	1	253	0	2007
1	2	0	96	2009
5	1	280	0	0
1	2	254	0	2006
1	1	0	100	2007
1	2	283	0	2006
2	1	260	0	2004
1	1	240	0	2007
5	1	281	124	2005
1	1	291	0	2005
2	1	270	0	2005
1	2	260	139	2008
1	2	243	0	2008
1	2	266	140	2008
2	1	241	0	2005
1	1	254	86	2009
1	2	243	96	2007
1	1	247	90	2008
1	1	236	110	2006
1	0	0	110	0
5	0	0	0	0
1	2	258	0	2006
1	2	283	88	2006
2	2	243	0	2004
1	1	270	110	2007
2	1	290	0	2005
1	2	282	104	2006
1	2	281	102	2007
2	2	251	134	2005
2	1	251	0	0
1	1	243	118	2006
1	2	279	88	2009
4	1	0	0	0
1	2	266	0	2006
1	1	266	94	2009
1	1	269	0	2007
1	2	279	102	2008
1	2	260	0	0
1	2	250	96	2009
1	1	291	0	2007
1	1	255	103	2007
1	1	281	142	2006
1	2	243	94	2009
1	2	264	86	2009
1	0	267	119	2007
1	1	243	0	2007
1	1	290	110	2006
1	0	0	0	0
1	2	0	110	2008
1	2	0	134	2007
1	2	248	0	2006
2	1	241	0	2005
1	2	251	119	2008
1	2	0	89	2009
1	2	244	113	2008
1	0	258	0	2007
1	1	254	117	2008
1	2	270	89	0
2	1	266	119	2005
1	1	243	0	2006
1	0	0	0	0
1	2	285	0	2006
1	2	244	89	2009
1	2	251	92	2009
1	1	281	110	2006
1	2	236	134	2008
1	2	254	0	2006
1	1	0	94	2009
1	1	275	99	2008
1	0	290	127	2006
1	2	264	113	2008
1	1	281	110	2006
1	2	0	89	2008
1	2	251	0	2006
2	2	260	0	2004
1	1	264	103	2008
1	0	0	0	0
1	1	254	97	2008
1	1	285	108	2007
1	0	290	0	2007
1	1	254	109	2006
1	1	241	105	2007
1	1	281	96	2008
2	1	243	0	2004
1	1	285	110	2007
1	2	243	114	2006
1	1	283	110	2007
2	1	273	0	2005
1	2	287	104	0
2	1	264	0	2004
1	1	264	100	2008
2	0	0	0	0
1	2	283	89	2009
1	1	241	108	2007
1	2	266	112	2006
2	2	243	0	2005
1	1	254	0	2007
1	1	281	92	2008
1	0	0	0	0
1	1	264	92	2009
1	2	241	99	2007
1	2	251	145	2008
2	0	0	0	0
1	2	251	104	2006
2	1	280	0	2005
2	2	243	0	2004
1	2	264	0	2007
1	2	283	107	2009
1	1	241	108	2006
1	1	255	113	2007
1	1	281	0	2005
1	1	0	92	2009
1	2	0	0	0
1	2	266	110	2007
1	1	243	138	2006
1	1	243	138	2006
5	1	272	0	2008
1	1	244	94	2009
1	1	290	92	2009
1	1	254	86	2009
1	1	0	96	2009
1	2	243	0	2007
2	1	240	0	2005
1	2	241	153	2007
1	1	254	151	2008
1	1	275	107	2008
1	2	0	155	2008
1	1	254	105	2006
5	0	0	0	0
1	2	241	107	2008
2	2	264	0	2005
1	2	251	103	2006
1	1	243	0	2006
1	2	264	119	2008
2	1	254	0	2004
1	2	246	104	2008
1	2	241	96	2004
1	1	239	0	2006
1	1	239	88	2009
1	2	243	91	2009
1	2	0	0	0
1	1	0	0	0
1	0	0	0	0
1	2	235	0	2007
2	0	0	0	0
1	2	243	0	2008
1	1	260	92	2009
2	2	0	0	0
1	1	281	96	2009
1	0	0	0	0
2	2	254	0	2005
1	1	243	0	2008
1	2	260	90	2008
1	2	243	94	2009
2	2	264	0	2005
1	2	243	0	2006
1	2	287	107	2008
1	2	283	93	2008
1	0	0	0	0
2	1	264	0	2005
1	1	270	0	2005
1	1	0	90	2009
1	1	266	114	2007
1	1	264	104	2008
1	2	254	88	2009
1	1	263	0	2006
1	2	270	0	0
1	1	254	0	2006
1	1	0	92	2009
1	2	279	148	2006
1	1	251	94	2007
1	1	243	0	2006
1	2	278	104	2007
1	2	269	89	2005
1	1	244	0	2007
2	1	265	0	2005
1	1	266	0	2007
1	2	287	92	2009
1	1	241	100	2008
1	1	254	86	2009
1	1	273	0	2007
2	2	248	0	2005
1	1	290	92	2009
2	0	260	92	2002
1	1	0	107	2009
1	2	254	0	2009
1	1	264	99	2007
1	2	281	0	2009
1	2	260	0	2007
1	1	270	109	2008
1	2	290	154	2008
1	1	281	0	2006
2	1	0	0	0
1	2	260	93	2008
1	1	273	92	2009
1	1	0	87	2009
1	2	264	0	2006
1	2	260	111	2006
1	1	263	108	2007
1	2	260	0	2006
1	2	290	0	2006
1	2	279	94	2009
1	1	266	111	2006
1	1	236	86	2009
2	2	275	0	2003
1	2	266	89	2008
2	2	254	0	2005
5	2	252	0	2005
1	2	241	107	2008
1	2	260	89	2009
2	1	241	0	2004
1	2	0	94	2009
1	1	280	0	0
1	1	0	100	2008
1	2	0	88	2008
1	2	272	89	2009
1	1	283	99	2007
1	2	251	107	2006
1	1	0	0	2008
1	1	263	111	2006
1	2	275	0	0
2	2	282	137	2003
1	1	275	96	2009
1	2	260	92	2009
1	2	260	134	2004
2	1	264	0	2005
1	2	254	149	2007
1	2	243	0	2006
1	2	260	99	2007
1	2	243	0	0
2	1	241	0	2005
1	2	254	86	2009
1	1	257	86	2009
1	1	241	0	2006
1	2	280	92	2009
1	2	0	88	2009
1	2	272	0	2007
1	1	290	0	0
1	1	273	0	2007
1	2	275	0	2008
2	1	241	0	2005
1	0	0	0	0
1	1	260	0	2006
1	2	0	106	2008
5	2	280	0	0
1	0	254	0	0
1	2	280	89	2009
1	1	266	138	2008
1	2	255	102	2007
1	1	281	108	2007
1	2	254	112	2006
5	2	235	0	0
1	1	241	109	2006
1	1	241	90	2009
2	1	236	0	2005
1	2	242	102	2007
5	1	272	0	2007
5	1	275	0	2007
2	2	0	0	0
2	1	281	0	2005
1	1	281	0	2006
1	1	281	0	2006
1	2	275	146	2008
1	1	243	122	2007
1	1	266	119	2005
1	2	243	96	2009
1	2	257	96	2005
2	2	254	0	2005
1	1	264	0	2008
1	2	275	107	2007
1	2	275	137	2008
1	1	243	0	2006
2	1	281	0	2005
1	2	256	86	2009
1	1	267	86	2009
5	2	272	139	2008
2	0	0	0	0
1	1	0	92	2009
1	1	253	90	2009
2	2	243	0	2004
1	2	266	87	2009
1	1	264	111	2007
1	2	264	0	2007
1	1	290	135	2007
1	0	0	0	0
1	1	241	92	2009
1	2	282	0	2006
1	0	0	0	0
2	2	241	140	2004
1	1	236	92	2008
1	2	264	0	2005
2	2	266	0	2004
1	1	260	0	2006
1	1	290	0	2006
1	2	283	113	2007
1	1	290	92	2009
5	1	253	0	2006
1	2	0	96	2009
2	1	260	0	2005
1	2	266	147	2008
1	1	241	110	2006
1	0	0	0	2007
1	2	243	0	2005
1	1	236	155	2008
1	2	0	86	2009
1	1	253	86	2008
2	0	254	0	2005
1	2	270	0	2008
1	2	291	96	2009
1	1	281	0	2007
1	2	275	105	2007
1	2	254	116	2006
2	1	281	94	2004
1	2	254	88	2009
2	2	260	0	2005
1	1	0	95	2009
1	0	250	0	0
1	2	266	96	2009
1	1	0	92	2009
1	1	0	96	2009
1	0	0	103	2008
1	2	256	0	2008
1	1	241	91	2009
1	1	266	0	2007
1	1	253	94	2009
