status	gender	major	dorm	year
2	2	33	0	2005
1	2	18	337	2006
1	1	9	344	2008
1	1	48	327	2008
1	0	0	0	0
1	1	37	350	2006
2	0	0	0	0
1	1	0	351	2008
1	1	9	353	2009
1	2	8	352	2009
1	2	9	352	2009
1	1	19	350	2007
1	1	9	0	2006
1	1	24	351	2007
1	2	0	0	2008
1	0	41	0	2007
1	2	18	330	2006
1	1	18	341	2008
1	2	18	351	2009
2	0	41	0	2004
1	2	41	343	2007
2	1	19	349	2005
1	0	0	0	0
1	2	0	355	2009
1	1	0	0	2008
1	1	0	341	2008
2	2	19	0	0
1	1	41	328	2008
1	2	18	354	2009
1	1	0	353	2009
1	2	0	352	2009
1	1	9	351	2009
1	2	18	351	2008
1	1	18	339	2005
1	1	37	353	2007
1	2	0	352	2009
1	1	42	0	2006
2	1	18	0	2005
1	1	34	0	2008
1	2	19	0	2007
1	1	0	353	2009
1	0	0	0	0
1	2	0	330	2007
1	1	0	357	2008
1	0	9	328	2008
1	1	24	354	2009
1	2	14	0	2006
1	2	10	330	2006
2	2	40	0	2005
1	2	18	352	2009
1	2	0	0	2009
1	1	18	350	2005
2	1	19	0	2005
1	1	0	351	2008
1	2	37	333	2007
2	1	5	345	2005
1	2	10	328	2007
1	1	0	351	2009
1	2	18	339	2007
1	2	0	353	2009
1	1	48	331	2006
1	0	0	0	0
2	1	5	330	2005
1	2	18	340	2007
1	2	10	332	2005
1	1	9	354	2008
1	1	40	349	2006
1	1	18	0	2007
2	2	42	0	2003
2	1	13	0	2005
1	1	33	0	2007
1	2	19	353	2009
2	2	42	0	2003
2	2	9	0	2004
1	1	11	352	2009
1	0	41	328	2008
2	2	0	0	2003
1	2	10	0	2009
2	2	0	0	2000
1	1	5	355	2009
2	0	41	0	2005
2	2	6	0	2005
1	1	22	0	2007
1	2	41	352	2009
2	1	9	0	2005
1	2	18	333	2007
1	1	40	0	2006
1	2	33	344	2007
1	1	4	338	2006
2	1	0	0	0
1	2	33	352	2008
1	2	19	352	2008
1	2	9	333	2006
1	0	0	0	0
2	2	7	0	0
2	1	5	337	2005
1	2	33	351	2007
2	2	18	350	2005
1	2	0	353	2009
1	1	41	334	2008
2	2	39	0	2004
1	2	0	334	2008
1	2	18	341	2008
1	0	0	340	2008
2	1	3	0	2005
1	2	0	352	2008
1	2	5	0	2006
1	2	10	353	2009
2	2	19	0	2005
1	2	0	352	2008
1	2	0	340	2007
2	1	19	0	2005
2	2	0	0	0
1	2	0	343	2008
2	2	40	351	2004
1	1	42	0	2006
1	1	0	0	2008
1	2	41	348	2008
1	1	0	341	2008
1	2	41	354	2008
2	2	3	0	2004
1	2	18	329	2008
1	2	40	353	2009
1	1	5	0	2006
2	2	10	0	2004
2	2	41	0	0
1	1	0	357	2009
2	1	24	0	2005
1	1	19	354	2009
2	1	6	0	2005
1	1	19	343	2006
2	1	42	353	2003
1	2	18	344	2008
1	2	9	354	2007
1	1	0	334	2008
1	1	9	355	2009
1	2	0	352	2009
1	2	0	341	2008
1	0	0	345	0
1	1	33	0	2005
1	2	36	331	2007
1	1	34	343	2007
2	1	9	346	2005
2	0	0	0	2005
1	2	24	353	2008
2	2	49	352	0
2	1	24	0	2005
1	1	0	353	2009
1	2	14	0	2007
1	1	41	342	2006
1	1	18	334	2008
1	1	10	336	2006
2	1	37	0	2005
3	2	34	0	0
2	1	42	0	2004
1	2	3	0	2007
2	2	37	0	2004
1	0	0	0	0
2	2	33	333	2003
2	1	18	0	2004
2	1	9	353	2003
1	1	19	331	2007
1	1	18	0	2007
1	2	10	341	2007
2	1	19	0	2005
1	0	0	0	0
2	0	5	0	2004
2	1	5	337	2005
1	2	18	0	2007
2	2	41	336	2004
1	1	4	337	2006
1	1	0	352	2008
1	0	0	338	2007
1	2	18	340	2008
2	2	24	334	1975
1	1	19	338	2008
2	1	44	0	2004
2	1	5	0	1999
2	0	0	0	0
1	1	42	353	2009
1	2	9	344	2007
1	1	41	353	2009
1	2	19	351	2008
1	1	9	343	2007
1	2	0	331	2007
1	2	40	341	2009
1	1	39	343	2008
2	1	19	0	2005
1	1	9	340	2006
1	2	18	0	0
1	1	42	331	2006
1	1	48	331	2007
2	1	9	0	2005
2	2	41	350	2002
1	1	9	353	2009
1	0	0	0	0
1	1	41	342	2006
1	1	3	340	2006
1	2	5	336	0
1	1	0	341	2008
2	1	18	352	2003
1	1	10	348	2008
1	1	6	341	2007
2	1	19	0	2005
1	2	0	351	2009
1	1	24	349	2006
1	0	0	0	0
1	1	5	359	2006
1	2	9	330	2006
1	1	10	351	2009
1	0	0	0	0
1	0	0	339	2008
1	2	41	354	2009
1	2	18	0	2006
1	1	24	0	2007
1	1	3	0	2007
1	0	0	0	0
1	1	42	355	2009
1	2	14	333	2007
1	1	24	357	2008
2	1	9	0	2004
1	2	0	0	2007
1	1	5	355	2008
1	2	19	333	2008
2	0	0	0	0
2	1	19	0	2004
1	2	18	340	0
1	1	31	344	2008
1	2	0	351	2009
1	2	18	347	2007
1	2	41	0	2006
1	1	19	353	2009
5	1	34	0	2004
1	1	9	336	2006
1	1	5	337	2006
1	1	0	348	2008
2	2	18	0	2005
1	1	33	343	2007
1	1	42	352	2009
2	2	33	349	2005
1	1	24	0	2006
1	1	19	340	2007
2	1	9	0	2004
1	1	0	333	2007
1	2	33	328	2008
2	2	42	0	2005
1	1	41	0	2006
1	1	10	349	2006
2	0	5	357	2004
1	1	5	352	2009
1	1	44	328	2007
1	1	41	342	2006
1	1	33	0	2006
1	1	19	335	2008
1	2	22	0	0
1	2	42	357	2008
1	1	9	338	2007
1	0	0	0	0
2	1	41	0	2003
1	2	0	352	2009
1	1	9	333	2006
1	1	0	355	2009
1	2	18	338	2007
2	2	18	0	2004
1	1	19	0	2007
1	1	0	0	2009
1	1	0	353	2008
1	2	0	334	2008
1	1	19	338	2008
1	2	18	352	2009
1	2	8	351	2008
2	2	0	0	2004
2	2	37	359	2005
1	0	0	347	2008
1	1	19	355	2008
1	2	13	0	2006
1	1	34	355	2009
2	1	41	0	2005
1	2	24	349	2008
1	2	37	0	0
1	2	24	353	2009
1	1	0	0	2008
1	1	0	357	2008
1	1	0	338	2007
1	2	9	354	2008
1	1	0	328	2008
1	1	3	0	2005
1	2	17	354	2008
1	1	0	335	2008
1	1	48	0	2008
2	1	9	349	2005
2	2	33	336	2005
1	0	0	0	0
2	1	41	0	2003
1	2	9	352	2009
1	2	37	343	2008
2	1	19	0	2004
1	1	19	343	2008
1	1	19	352	2009
1	1	0	334	2008
1	1	0	338	2006
1	2	14	344	2007
1	2	5	349	2008
1	2	9	344	2006
1	1	44	0	2007
1	2	7	0	2005
4	0	9	0	0
1	0	0	0	2007
2	2	42	0	2005
2	1	40	0	2005
2	1	42	358	2005
1	1	0	343	2007
1	2	39	0	2006
2	1	5	0	2004
2	0	0	0	0
2	1	5	0	2005
1	2	17	328	2007
2	1	19	0	2005
1	2	42	344	2007
1	2	18	0	2007
1	0	18	328	2007
1	1	0	0	0
2	0	18	0	2003
2	2	41	336	2003
1	2	48	353	2009
1	0	0	0	0
2	2	10	0	0
1	1	0	352	2009
1	2	18	343	2008
2	2	18	0	2005
1	2	0	352	2009
1	1	4	331	2006
1	2	10	0	2007
1	1	18	354	2007
1	1	41	0	2006
1	1	18	352	2009
2	1	42	0	2004
1	1	5	331	2007
1	1	42	345	2004
1	2	33	352	2009
1	2	24	338	2007
1	2	18	355	2009
1	1	3	334	2007
1	2	19	328	2007
1	2	24	355	2009
1	1	5	353	2008
1	1	0	353	2009
1	1	19	351	2009
1	2	18	348	2008
1	1	41	352	2009
1	1	0	352	2008
1	2	9	351	2006
1	2	19	355	2008
1	2	37	351	2008
1	1	13	353	2009
1	2	24	331	2007
1	1	42	353	2006
2	1	19	0	2005
1	2	9	345	2006
2	2	11	353	2002
1	2	33	330	2006
1	1	9	351	2009
1	2	5	330	2007
1	1	18	357	2009
1	1	0	348	2008
1	0	7	0	0
1	1	44	343	2007
1	1	42	328	2008
1	1	18	343	2008
1	1	8	354	2009
1	2	18	341	2008
1	1	0	352	2009
1	1	10	334	2008
2	2	18	0	2002
2	2	37	358	0
2	2	41	0	2004
2	2	9	349	2002
1	1	0	0	0
1	0	5	331	2007
1	1	0	0	0
1	2	9	343	2007
1	2	19	352	2009
2	1	9	0	2005
1	1	0	353	2009
2	0	5	0	2005
1	2	41	349	2006
1	1	0	355	2008
1	1	0	352	2009
2	2	41	357	2004
1	1	4	334	2008
1	2	40	338	2006
1	1	5	355	2009
2	0	0	0	0
1	2	18	331	2006
1	0	0	0	0
1	1	0	351	2008
1	2	40	353	2009
1	2	18	343	2007
2	1	18	345	2004
1	2	18	347	2008
1	1	42	351	2009
2	2	14	0	1998
1	2	10	344	2007
1	1	19	338	2007
1	1	0	328	2008
1	1	10	344	2006
1	2	10	330	2006
1	1	9	352	2007
2	2	0	0	2004
1	1	19	330	2007
1	2	41	335	2006
2	2	41	0	2005
1	0	0	0	0
2	2	5	0	2005
1	1	0	328	2007
1	2	0	352	2009
1	2	19	338	2007
1	1	22	0	2007
1	1	53	336	2006
1	1	41	329	2006
2	2	18	337	2004
2	2	24	349	2004
2	2	3	337	2005
2	1	34	337	2005
2	2	4	0	2003
1	1	39	338	0
1	2	14	343	2008
1	2	18	347	2008
1	1	41	344	2008
2	1	33	333	2005
1	2	18	334	2008
2	2	37	344	2005
1	1	0	328	2008
1	1	43	344	2007
1	0	0	0	0
1	1	0	357	2008
1	2	0	328	2008
2	2	41	346	2004
2	1	5	357	2004
2	1	10	346	2005
1	2	18	338	2005
1	2	24	335	2006
2	2	24	342	2004
1	1	0	340	2007
1	1	5	341	2008
1	2	39	355	2009
1	1	0	343	2008
1	1	10	0	2006
2	2	0	0	2005
1	0	5	0	2006
1	1	24	337	2006
1	2	0	353	2009
1	2	0	344	2007
1	1	0	355	2009
2	1	42	0	2003
1	1	19	341	2008
1	1	33	348	2008
1	2	0	353	2009
1	2	10	349	2006
1	1	11	352	2009
1	2	0	339	0
2	1	19	0	2003
1	1	18	355	2007
1	2	0	334	2008
1	2	42	347	2005
1	2	24	336	2007
2	2	39	0	2004
1	2	19	0	0
1	2	0	352	2008
1	2	0	344	2008
2	2	39	0	2003
2	1	19	0	2005
1	1	0	354	2009
1	1	42	346	2006
1	1	0	354	2009
1	1	42	344	2006
1	2	18	353	2009
1	2	0	351	2009
1	2	41	0	2006
1	1	19	334	2008
1	2	41	355	2009
2	0	0	0	0
1	0	0	0	0
1	1	40	327	2008
1	1	4	0	2006
1	2	18	328	2007
1	2	33	0	2006
2	1	0	0	2004
1	1	9	0	2006
2	2	18	0	2005
2	2	14	0	2002
1	2	18	347	2008
1	2	19	350	2006
1	2	34	353	2009
2	1	3	0	2004
1	2	0	351	2009
2	2	42	0	2005
2	2	4	0	2005
1	0	7	341	2008
1	1	33	357	2009
2	1	5	0	2005
2	1	5	0	2005
1	1	0	352	2008
2	1	44	0	2003
2	2	13	0	2004
1	1	5	330	2006
1	1	5	0	2006
1	2	0	331	2006
2	1	18	0	2003
1	1	19	352	2007
1	2	53	352	2008
2	1	19	0	2005
2	2	42	338	2003
2	2	19	0	2004
1	2	41	344	0
2	1	19	0	2005
1	2	9	352	2009
1	1	0	343	2007
2	2	5	0	2003
1	1	6	343	2008
1	1	0	328	2008
1	1	0	338	2006
1	1	0	348	2008
1	1	0	355	2009
1	2	40	353	2009
2	1	42	0	2005
2	2	41	0	2000
1	2	41	0	2006
1	1	42	331	2006
2	2	9	0	0
1	1	0	334	2008
1	2	40	352	2009
4	1	5	0	2005
2	2	4	0	2003
1	1	18	330	2006
1	2	41	335	2006
2	2	14	0	2002
2	1	10	0	2005
1	2	18	353	2009
2	1	5	0	2005
1	1	19	0	2006
3	2	49	0	2010
1	1	43	328	2008
1	2	0	353	2009
1	2	18	355	2009
1	1	34	352	2009
2	0	0	0	2002
1	2	24	341	2008
2	2	44	0	2005
3	2	43	0	2004
1	2	49	354	2008
2	2	18	0	2005
1	2	40	330	2006
2	2	37	0	2004
1	1	0	351	2009
1	2	0	351	2009
2	1	19	0	2004
1	1	19	357	2009
2	1	42	0	2004
1	2	18	353	2009
1	2	13	0	2006
1	2	41	352	2009
1	2	33	337	2005
1	1	0	328	2008
2	2	42	347	2005
1	2	23	0	2007
1	1	0	344	2008
2	1	18	0	2004
2	1	4	359	2004
1	1	24	0	2009
1	2	37	328	2007
1	2	39	351	2008
1	2	24	355	2009
1	2	18	357	2009
2	2	18	357	2005
2	2	24	0	2003
2	1	42	0	2003
1	1	24	330	2005
1	1	33	0	2007
1	2	18	341	2007
1	1	41	340	2007
1	2	37	351	2008
1	2	0	0	2007
2	2	24	342	2005
1	1	24	328	2008
2	2	41	0	2003
1	1	0	343	2008
1	1	0	354	2009
1	2	33	351	2009
1	2	0	351	2009
1	0	41	0	0
2	2	33	0	2004
1	1	0	352	2008
2	2	19	0	2005
2	2	24	0	2004
1	1	0	353	2008
1	1	19	331	2007
1	0	39	0	0
1	1	19	344	2008
1	1	0	351	2009
1	0	52	334	0
1	1	0	334	2008
1	1	41	344	2006
1	2	48	358	0
1	2	0	353	2009
1	1	24	0	2006
1	2	18	0	2005
1	1	51	0	2006
1	2	0	351	2009
1	0	17	0	0
1	1	37	340	2007
1	1	24	0	2006
1	1	0	355	2008
1	1	3	338	2007
1	1	24	330	2007
1	0	0	0	0
1	0	0	348	2007
1	2	40	334	2008
1	1	24	354	2007
2	1	42	0	2004
2	0	0	0	0
1	2	0	351	2009
1	2	3	340	2007
2	1	0	352	2002
1	1	42	331	2006
1	2	33	0	2007
1	1	19	343	2008
1	0	38	338	2006
1	2	0	353	2008
1	2	0	355	2009
2	2	10	0	2005
1	1	9	335	2008
2	1	41	332	2004
1	2	33	353	2007
2	0	9	0	2004
1	0	0	0	0
2	2	0	0	2004
1	2	37	340	2007
2	1	41	335	2005
2	1	14	0	2002
1	1	24	337	2006
1	2	0	348	0
1	1	18	351	2007
2	1	41	0	2005
1	1	0	343	2008
1	1	0	355	2009
2	0	0	0	0
2	1	24	0	2005
1	2	18	328	2008
1	2	22	0	2009
1	2	14	344	2007
1	1	44	353	2006
1	1	19	355	2006
1	2	0	351	2008
1	1	34	354	2009
1	2	24	352	2009
1	2	0	353	2009
1	2	5	339	2007
1	2	8	343	2007
2	2	18	0	2005
1	2	0	352	2009
1	1	3	336	2006
1	1	9	340	2007
1	2	46	349	2010
1	2	10	0	2006
2	1	19	351	2004
4	1	0	0	0
1	2	11	328	2008
2	1	49	336	2005
1	1	42	344	2006
1	1	42	340	2007
1	2	24	353	2009
2	2	14	0	2003
1	1	42	0	2007
1	1	3	328	2007
2	1	19	0	2004
2	1	42	0	2004
1	1	0	355	0
1	2	41	0	2006
1	1	0	354	2008
1	2	18	330	2006
1	1	31	344	2006
1	1	41	0	2006
1	2	39	348	2007
1	2	0	353	2009
1	2	14	353	2009
2	1	9	0	2005
1	1	0	352	2009
1	1	6	329	2006
1	2	0	0	2006
1	1	0	334	2007
2	2	41	0	2004
2	1	18	329	2005
2	1	42	345	2004
1	1	42	343	2008
1	2	0	344	2008
1	2	9	330	2006
2	1	9	0	2005
1	2	41	334	2007
1	1	20	352	2009
5	0	0	0	0
1	1	33	352	2008
2	1	42	0	2005
1	1	9	339	2008
1	1	0	0	2006
2	0	0	0	0
1	1	22	331	2007
1	2	24	343	2008
1	1	0	331	2007
1	2	0	353	2008
1	2	7	330	2006
2	0	0	0	0
1	2	42	355	2009
1	0	0	0	0
1	0	5	340	2007
2	2	14	0	2005
1	2	7	343	2008
1	1	9	0	2006
1	2	18	346	2007
2	1	18	0	2005
1	1	10	342	2006
1	2	4	331	2006
1	2	0	351	2009
1	2	33	340	2007
1	2	39	344	2006
2	1	9	337	2004
1	2	24	0	2007
1	2	18	342	2006
1	2	0	0	2007
1	1	0	353	2008
1	2	18	334	2008
1	2	33	331	2006
1	2	40	355	2009
1	1	19	352	2009
4	2	0	0	0
2	2	19	352	2005
1	1	0	352	2009
1	1	0	346	0
2	1	41	357	2005
1	0	0	0	0
1	2	0	334	2008
1	2	9	343	2008
1	1	19	352	2007
2	1	0	0	2005
1	1	24	338	2006
1	1	40	0	0
1	1	19	340	2007
2	1	43	358	2003
0	0	0	0	0
1	1	24	355	1986
1	2	18	341	2008
2	1	0	0	0
1	2	24	328	2008
2	1	10	0	2005
2	1	18	0	2003
1	1	9	352	2009
1	1	42	355	2009
1	1	37	334	2008
3	2	37	0	0
1	2	33	344	2006
1	1	4	328	2008
1	1	48	346	2006
2	0	0	0	0
1	1	33	0	2007
2	2	0	0	2004
1	1	24	353	2008
1	1	13	0	2006
1	2	41	0	2006
1	1	42	0	2007
1	0	42	338	2007
1	2	0	353	2009
2	1	41	335	2003
1	2	9	353	2005
2	1	0	0	2004
1	2	9	354	2009
1	1	9	344	2010
2	2	39	0	2005
2	2	0	0	2003
2	2	14	353	2003
1	1	41	0	2008
1	2	42	329	2008
2	1	18	0	0
1	2	19	346	2006
2	1	0	0	2002
2	1	33	327	2005
1	0	0	0	0
1	2	0	352	2009
1	2	8	343	2008
1	1	22	330	2007
1	2	24	357	2009
2	1	10	0	2005
2	2	49	0	2004
2	0	0	0	0
1	2	52	352	2008
1	1	7	341	2008
1	1	19	0	2006
1	2	42	0	2006
1	2	35	334	2007
1	2	0	353	2008
4	1	0	0	0
1	1	0	352	2009
1	2	9	340	2007
1	1	42	0	2006
1	2	5	331	2006
1	1	24	344	2006
1	0	49	343	0
2	2	42	352	2003
1	1	40	352	2009
1	1	10	353	2006
1	1	0	355	2009
1	1	19	0	2008
1	2	24	334	2006
2	1	33	0	2004
1	2	0	0	2008
1	2	18	0	2006
2	2	42	0	2004
1	1	18	328	2007
1	1	33	0	2007
2	1	0	0	2005
2	0	0	0	0
1	1	5	341	2008
2	1	19	342	2005
1	2	9	338	2006
1	2	42	0	2007
1	1	0	348	2007
1	2	37	354	2009
2	1	18	0	2005
1	1	11	0	2007
1	1	0	357	2009
1	2	42	0	2006
2	1	9	0	2004
1	2	0	328	2008
1	2	9	352	2009
1	0	9	353	2009
2	2	41	337	2005
1	1	0	352	2009
2	1	5	0	2004
1	2	33	328	2008
1	1	0	357	2009
1	1	18	331	2006
1	2	18	331	2007
2	2	40	0	0
1	1	0	351	2009
2	2	0	0	2004
2	0	0	0	0
1	2	33	344	2006
1	1	3	0	2005
1	2	33	335	2006
2	0	0	0	2005
1	0	0	0	0
1	2	18	328	0
1	1	5	0	2006
1	1	4	335	2006
1	1	5	343	2008
1	2	9	355	2006
2	1	19	0	2005
2	2	9	0	2005
1	1	42	341	2008
2	2	37	0	2005
1	2	0	0	0
1	0	33	0	2006
1	1	0	343	2008
1	1	9	0	2008
1	0	0	0	0
1	2	33	352	2008
1	1	24	355	2009
2	2	33	0	2005
1	2	39	340	2007
1	1	19	351	2008
2	2	17	0	2005
2	2	33	354	2004
1	0	0	354	2007
1	2	41	353	2009
1	1	42	342	2006
1	2	42	0	2006
2	2	22	0	2003
2	1	42	0	2005
1	1	5	337	0
1	1	9	329	2006
1	1	44	343	2008
1	1	0	338	2007
1	2	41	350	2006
2	1	0	0	2004
2	1	18	0	0
1	2	18	351	2009
1	2	10	346	2008
1	2	42	334	2007
1	2	33	347	2008
1	1	0	334	2008
1	0	19	332	0
1	2	0	341	2008
1	1	24	353	2009
1	2	49	338	2007
2	2	41	340	2005
2	2	9	359	2005
2	2	41	0	2002
1	1	10	336	2006
2	1	42	353	2004
1	1	5	353	2008
1	1	13	0	2006
2	2	37	0	2005
1	2	17	344	2010
1	2	0	328	2008
2	1	42	0	2005
1	2	0	334	2008
1	1	18	352	2009
1	1	18	353	2007
1	1	42	0	2006
2	2	19	353	2004
2	1	18	349	2005
2	1	42	0	0
1	2	7	352	2008
2	2	18	0	2005
2	2	24	0	2004
2	1	41	0	2005
1	2	24	338	2006
1	1	5	343	2008
1	2	33	330	2007
1	2	5	341	2007
2	2	0	0	2004
2	1	41	335	2003
1	1	9	334	2007
1	1	24	0	2007
1	1	0	334	2008
2	1	0	332	0
1	2	40	352	2007
4	0	0	0	0
2	0	18	0	2005
2	1	0	0	2004
2	0	0	0	2004
1	1	37	352	2006
1	2	0	347	2008
1	1	0	341	2008
1	1	0	0	2008
1	1	18	355	2009
1	2	33	338	2006
1	0	19	0	2006
1	2	41	0	2006
3	2	18	0	0
1	2	41	343	2007
1	1	18	0	2007
1	2	4	0	2006
2	2	0	0	2004
1	1	5	0	2006
1	0	0	0	0
1	2	18	352	2009
1	2	42	0	2005
1	1	9	353	2007
2	1	5	0	2005
1	1	14	336	2006
1	0	0	0	0
1	2	41	0	2006
1	1	9	351	2009
1	1	18	327	2006
1	1	19	335	2008
1	2	41	350	2006
1	2	18	351	2009
1	1	41	0	2007
2	2	18	345	2005
1	1	9	338	2007
1	2	24	353	2008
1	2	8	351	2008
1	1	5	330	2006
1	0	0	0	2007
1	1	41	0	2006
1	1	0	341	2008
1	1	24	334	2006
1	2	18	352	2006
1	1	42	0	2006
1	1	0	0	2009
1	1	19	340	2007
1	2	41	328	2008
1	2	33	330	2007
1	1	0	352	2009
1	2	39	352	2009
1	1	33	351	2008
1	2	29	0	0
1	2	18	352	2009
1	0	0	0	0
1	1	40	351	2009
1	1	0	328	2008
1	1	19	339	2008
1	1	42	338	2007
1	1	9	355	2009
1	2	37	340	2008
1	2	39	353	2009
2	2	5	355	2004
1	1	42	328	2008
1	1	33	0	2006
1	1	19	0	2006
1	1	24	338	2007
1	1	0	355	2009
2	0	24	0	2005
1	0	18	349	2006
1	2	18	334	2007
1	1	41	353	2009
2	1	5	0	2005
1	1	24	335	2006
2	2	42	0	2005
1	2	18	335	2005
1	1	19	357	2009
1	2	18	330	2008
1	2	18	348	2007
1	1	8	352	2009
1	1	19	352	2009
2	1	5	0	2004
1	2	5	0	2006
1	1	5	338	2007
5	2	5	0	2005
2	2	9	0	2005
1	1	0	352	2009
1	0	0	0	2008
1	1	0	343	0
1	1	20	343	2007
1	2	34	333	2008
1	2	18	0	2009
1	0	3	0	2006
2	2	0	0	2003
1	1	0	335	2008
1	2	10	340	2007
1	1	41	329	2005
2	1	22	0	2005
1	1	19	352	2008
1	2	0	353	2009
1	2	10	327	2007
1	2	18	0	2005
1	2	0	352	2007
1	0	33	343	2007
2	2	41	0	2003
1	2	0	351	2008
1	2	18	351	2008
1	2	10	329	2006
1	2	13	0	2006
2	0	0	0	0
2	0	0	0	0
1	1	19	332	2006
1	2	0	352	2009
1	2	9	354	2009
1	1	0	353	0
1	1	24	334	2008
1	2	41	350	2006
1	1	5	334	2008
1	1	5	344	2006
1	1	0	328	2008
1	1	42	352	2009
1	2	0	353	2008
1	1	0	351	2008
1	1	0	353	2009
2	1	11	0	2005
2	1	9	0	2004
2	2	24	337	2005
1	1	6	355	2008
1	1	0	341	2007
1	2	0	341	2008
1	0	15	0	0
1	2	9	355	2009
1	1	24	335	2006
1	2	42	353	2009
2	2	37	0	2004
2	2	18	350	2005
2	2	5	0	2005
1	2	9	336	2005
1	2	0	340	2007
1	2	9	352	2008
1	1	9	335	2007
1	1	0	341	2008
2	2	39	335	2005
1	1	42	353	2009
1	2	16	0	2006
1	2	37	343	2008
1	1	20	344	2007
2	2	18	0	2004
1	1	19	0	2007
2	2	5	337	2003
2	1	52	0	2003
1	1	8	353	2008
1	2	39	341	2008
1	0	9	0	0
1	1	13	0	2006
1	2	24	0	2006
1	2	24	328	2008
1	1	9	332	2006
1	1	42	330	2008
1	0	33	330	2006
1	2	24	0	2006
2	1	5	0	2005
1	2	18	338	2006
4	2	33	0	2007
1	0	41	0	2006
1	2	33	344	2007
1	1	5	345	2006
1	2	27	347	2007
1	2	24	335	2006
1	2	18	357	2009
1	2	43	335	2006
2	1	9	327	2005
1	1	33	353	2009
1	1	18	331	2007
1	1	0	354	2009
1	2	8	334	2007
2	1	5	342	2005
1	2	42	0	2006
1	2	0	353	2009
1	1	42	355	2007
1	2	18	0	0
1	1	41	334	2008
1	2	0	330	2007
1	1	0	355	2008
1	1	0	353	2009
2	1	3	330	2005
2	2	18	0	2005
1	1	0	354	2008
1	2	0	353	2009
1	1	9	340	2006
1	0	38	0	0
1	2	10	355	2009
1	0	0	0	0
1	1	0	351	2009
1	2	37	358	0
1	1	22	336	2006
1	1	18	343	2008
1	1	23	336	2007
1	2	41	352	2007
1	2	0	351	2009
1	2	0	355	2009
2	1	42	329	2005
1	2	14	353	2009
1	2	41	0	2006
1	0	0	0	0
1	2	37	338	2006
1	2	0	347	2008
1	2	18	0	2005
1	2	19	352	2009
2	1	33	332	2004
1	2	0	344	2008
1	1	42	0	2005
1	2	37	353	2007
1	1	42	344	2006
2	0	33	0	2005
1	1	9	351	2009
1	0	18	0	0
1	2	18	334	2007
1	2	41	343	2008
1	1	53	333	2007
1	1	0	353	2009
1	1	0	335	2008
2	2	24	0	2003
1	1	24	353	2006
1	2	19	348	2008
1	1	0	352	2009
1	1	42	0	2006
1	1	0	357	2008
1	2	0	355	2009
1	2	0	347	2008
1	0	19	0	2006
1	1	0	352	2008
2	2	18	337	2005
1	1	0	351	2009
2	0	19	0	2005
2	2	7	349	2005
2	2	24	0	2005
1	2	5	332	2006
1	1	0	354	0
1	2	24	0	2006
1	1	0	357	2009
2	1	49	0	2005
1	1	9	343	2008
1	2	42	0	2006
1	2	19	337	2005
1	0	0	0	0
1	1	9	0	2006
2	0	0	0	0
1	1	0	353	2008
2	1	41	349	2005
2	2	0	0	0
2	2	6	357	0
1	1	42	0	2006
1	2	0	0	0
2	1	33	0	2005
2	1	9	327	2005
1	2	19	327	2007
1	2	41	337	2006
1	2	37	338	2006
1	2	0	338	2006
1	1	42	345	2008
2	2	43	0	2004
1	1	0	352	2009
1	1	9	352	2006
2	2	5	352	2003
2	1	19	0	2002
1	2	0	341	2008
2	1	4	0	2005
1	1	42	0	2007
2	0	0	0	0
2	2	0	0	2005
1	0	19	342	2006
2	1	5	347	2005
1	1	18	338	2007
1	1	8	341	2008
2	2	38	0	0
2	2	40	343	2004
1	2	40	344	2008
1	1	18	339	2006
2	1	19	352	0
2	1	5	352	2004
1	2	19	0	2006
1	1	39	333	2008
1	1	11	344	2008
1	2	17	328	2008
1	1	42	352	2006
2	1	24	0	2004
1	1	8	352	2009
2	1	3	0	2004
2	1	5	0	2005
1	2	10	357	2009
2	2	40	0	2005
1	2	0	347	2008
1	1	9	354	2009
1	2	22	340	2006
2	2	0	0	0
1	2	39	341	2008
1	2	7	338	2006
1	2	18	353	2007
1	1	5	0	2006
1	1	0	345	2008
1	2	34	0	2008
1	1	42	353	2009
1	1	41	339	2006
1	1	19	0	0
1	0	0	0	0
1	1	5	0	2006
2	2	48	0	0
1	1	19	335	2008
1	1	5	334	2007
1	2	18	353	2009
1	1	0	352	2008
2	1	33	0	2005
1	1	0	352	2009
1	1	11	352	2006
1	2	33	355	2007
1	1	0	351	2009
1	0	0	0	0
4	0	0	0	0
1	1	0	334	2008
1	1	0	355	2009
1	2	18	345	2006
1	2	3	327	2008
1	2	18	341	2007
2	1	41	0	2003
2	1	42	0	2005
1	1	18	353	2006
2	0	0	0	0
1	1	0	352	2009
1	2	19	0	2006
1	0	9	359	2006
1	1	0	334	2008
1	1	0	353	2009
1	2	24	351	2009
1	1	19	338	2006
1	1	42	0	2006
2	1	19	342	2005
1	1	13	0	2006
1	2	9	352	2009
1	2	0	347	2008
1	1	41	0	2007
1	2	9	0	2005
6	2	36	336	2010
1	0	0	343	2007
1	1	4	352	2009
1	1	19	352	2009
2	1	24	334	2005
1	2	10	344	2007
2	1	5	333	2005
2	1	24	0	2005
1	1	43	350	2006
2	2	41	338	2002
1	0	38	0	0
2	1	42	0	2005
1	1	0	353	2009
1	0	39	338	2007
1	2	38	327	2008
1	1	0	341	2008
2	1	9	351	2004
4	0	0	0	0
1	2	0	353	2009
1	0	0	0	0
2	2	10	342	2005
1	2	0	0	2006
1	1	0	354	2009
1	2	2	348	2008
1	1	42	0	2006
2	1	49	0	2004
2	2	37	0	2004
1	1	5	333	2006
1	2	0	352	2009
1	2	48	340	2006
1	1	18	334	2007
1	1	14	344	2008
1	2	42	348	2008
2	2	24	0	2005
1	1	0	341	2007
1	1	27	355	2009
2	2	24	0	2005
1	2	18	345	2005
1	0	0	0	0
2	2	15	0	2004
1	2	33	333	2006
1	1	0	353	2009
1	0	0	0	0
1	2	18	353	2009
1	0	24	0	2006
2	2	10	0	2001
1	2	0	0	0
2	1	41	0	2005
1	2	39	353	2006
2	1	9	329	2005
1	2	39	351	2008
3	2	4	0	0
2	2	33	0	2005
1	1	6	355	2009
1	1	42	341	2008
1	2	0	343	0
1	1	19	348	2007
1	2	8	336	2006
1	2	10	0	2006
1	1	0	354	2009
1	1	0	355	2009
2	2	9	352	2004
2	1	18	0	2003
2	1	9	0	2005
1	1	13	0	2007
1	2	0	343	2008
1	1	0	353	2009
1	2	0	334	2007
2	1	42	0	2005
1	2	18	353	2009
1	1	0	341	2008
1	1	10	354	2009
2	1	3	0	2005
1	1	0	354	2009
1	1	0	355	2009
1	1	40	0	2007
2	2	10	0	2005
1	1	18	344	0
1	1	41	353	2008
1	1	5	343	2007
1	1	40	353	2009
1	1	0	352	2009
1	2	40	344	2008
2	1	19	327	2003
1	2	18	331	2007
1	2	41	0	2006
1	2	41	338	2006
1	2	17	330	0
1	1	0	355	2009
1	2	0	351	2009
1	1	9	352	2007
2	2	7	0	2005
1	2	48	331	2007
2	0	0	0	0
2	2	42	0	2004
2	1	33	0	0
1	2	33	330	2006
2	1	9	0	2004
2	0	0	0	2004
1	1	19	334	2006
1	1	0	357	2009
1	1	10	338	2008
2	1	43	350	2005
1	2	31	334	2008
2	1	0	0	2004
1	1	35	336	2006
1	1	19	354	2009
1	2	33	349	2006
2	2	18	0	2005
1	0	41	336	0
2	1	24	350	2004
1	1	41	0	2006
1	1	5	0	2007
1	1	0	353	2009
1	1	24	331	2007
1	1	48	353	2007
2	1	40	0	2004
1	1	0	357	2009
2	2	42	0	2004
1	1	8	355	2009
1	2	3	0	2006
1	0	18	328	2008
2	2	33	347	2005
1	1	0	0	2007
1	1	0	340	0
2	2	42	0	2003
2	0	0	0	0
1	2	10	0	2006
1	2	33	330	2007
2	2	18	0	2005
1	1	19	0	2007
2	1	14	0	2003
1	1	11	0	2006
1	0	18	0	0
1	2	18	330	2007
1	2	18	347	2007
2	2	14	0	2004
2	1	37	0	2005
2	1	5	0	2004
1	0	24	0	0
1	0	17	357	2010
1	2	9	341	2008
1	1	5	333	2007
2	1	28	347	2005
1	1	34	353	2009
2	0	0	0	0
1	1	9	351	2009
1	2	45	341	2007
1	1	0	353	2008
1	2	0	0	0
2	1	34	0	2004
1	1	33	344	2006
1	1	41	330	2007
1	2	18	331	2006
1	2	0	351	2009
1	1	0	352	2009
1	2	0	352	2008
1	1	41	333	2008
1	0	0	0	0
1	0	0	0	0
1	2	41	334	2008
1	2	0	328	2008
2	1	37	0	2004
1	1	5	340	2007
1	1	0	355	2009
4	0	0	0	0
1	2	18	340	2008
5	2	24	350	0
1	2	39	352	2008
2	2	7	0	2004
1	2	33	343	2008
1	1	17	350	2006
1	2	18	339	2007
1	1	0	348	2008
1	2	14	332	2006
1	1	42	340	2008
1	1	24	344	2008
1	1	5	0	2006
1	1	44	355	2008
2	2	18	358	2005
1	2	19	351	2009
1	1	0	353	2009
2	2	19	332	2005
1	2	19	329	2007
1	2	9	330	0
1	1	0	352	2009
1	2	24	0	2006
1	1	19	340	2006
2	2	42	0	2005
1	2	24	340	2007
1	2	0	355	2009
1	2	24	334	2008
1	0	0	0	0
1	2	33	330	2005
1	2	18	353	2009
1	0	0	0	0
2	1	42	349	2005
1	1	41	0	2007
1	2	18	339	2007
1	1	5	344	2006
2	1	0	0	2004
1	2	9	343	2008
1	2	18	344	2008
1	1	0	351	2009
2	1	5	0	2003
1	1	0	352	2009
1	1	9	345	2007
1	2	0	340	2008
1	1	18	0	2007
1	1	10	334	2007
2	2	40	0	2005
1	2	18	352	2009
2	1	33	0	2005
1	2	24	343	2008
1	2	24	0	2006
2	1	24	0	2005
1	2	18	352	2009
1	1	19	351	2007
2	1	23	0	2003
2	2	0	0	0
1	2	10	345	2008
5	1	11	0	0
1	1	4	349	2006
1	1	8	351	2009
1	1	5	331	2006
2	1	19	345	2005
2	1	41	0	2005
1	1	10	342	2006
1	2	0	353	2008
2	1	4	0	2005
1	2	42	349	2006
1	2	18	327	2008
1	2	39	344	2006
1	2	13	352	2009
1	0	0	0	0
1	2	18	338	2007
1	0	0	0	0
1	2	9	353	2007
2	1	24	0	2004
1	1	18	335	2008
1	1	18	0	2006
1	2	19	355	2007
1	1	9	353	2007
4	2	0	0	0
2	2	33	0	2005
1	2	24	331	2007
1	1	0	355	2008
1	1	9	334	2008
1	2	10	352	2009
2	1	42	0	2005
2	2	41	338	2005
1	1	18	335	2006
1	1	0	341	2008
1	1	40	0	2007
1	1	9	331	2006
1	2	18	348	2008
1	1	9	340	2008
1	1	0	348	2008
2	1	19	0	2004
1	2	0	328	2008
1	1	0	347	2008
1	0	0	0	0
1	1	33	0	2006
1	2	37	354	2009
1	2	28	339	2008
2	1	5	357	2004
2	1	19	0	2004
2	1	5	346	2005
1	2	0	353	2009
1	1	0	340	2007
1	2	41	335	2006
1	1	0	337	2006
1	1	9	338	2007
1	2	41	347	2007
1	2	0	352	2009
1	2	18	346	2006
1	2	0	352	2009
1	2	41	343	2008
1	1	0	344	2008
1	1	0	0	0
2	1	0	0	0
1	2	18	352	2009
1	2	10	341	2007
1	0	0	353	0
2	2	42	0	0
1	2	41	351	2009
1	1	10	333	2008
1	0	19	343	2008
1	1	4	334	2007
2	2	0	0	0
1	1	43	344	0
2	2	4	0	2004
1	1	0	351	2009
1	2	0	334	2008
1	2	41	345	2006
2	1	33	0	2004
1	2	24	352	2009
1	1	0	0	2009
1	1	13	0	2007
1	2	37	334	2008
1	1	19	0	2007
1	1	19	0	2006
2	1	42	0	2004
2	1	19	352	2002
1	1	13	355	2009
1	1	18	331	2007
1	1	1	0	2007
1	2	0	351	2008
1	1	41	357	2009
2	1	9	0	2005
1	1	0	354	2009
1	2	18	348	2007
1	1	19	338	2007
1	2	0	338	2007
1	2	4	352	2009
1	0	24	0	2007
2	2	0	0	2004
2	1	42	349	2004
1	2	41	335	2005
1	1	10	0	2006
2	2	42	0	2001
1	1	5	343	2008
2	1	3	346	2005
1	2	49	343	2008
1	1	0	0	2006
1	2	42	343	2008
2	2	33	337	2004
2	1	5	346	2005
1	1	5	353	2007
1	1	42	329	2006
1	2	18	352	2009
2	1	20	0	2003
2	1	18	0	2004
2	1	10	0	2005
2	1	9	0	2004
1	1	34	352	2009
1	1	5	340	2006
1	1	0	352	2009
1	1	19	339	2006
1	1	33	330	0
2	0	0	0	0
5	1	42	0	0
2	0	0	0	0
1	2	0	334	2008
1	2	18	330	2007
2	1	5	0	2005
1	2	18	334	2007
1	0	9	343	2007
2	1	43	349	2005
1	1	0	328	2008
1	1	0	357	2009
1	1	24	335	2006
1	1	42	0	2006
1	1	0	334	2008
1	2	48	0	2006
1	1	5	339	2007
2	2	18	0	2005
2	1	41	0	2005
1	2	0	0	2007
2	1	0	353	2002
1	1	42	0	2007
1	2	0	351	2009
1	2	19	331	2007
2	2	5	0	0
1	2	9	342	2006
1	1	0	354	2009
2	2	5	0	2004
1	2	18	346	2006
1	2	9	345	2006
1	1	19	334	2008
1	2	41	328	2007
1	2	0	341	2007
1	2	4	344	2007
1	1	18	331	2006
1	1	0	339	2008
1	2	18	344	2007
1	1	3	0	2007
1	1	24	344	2007
2	1	0	0	2004
2	1	42	0	2005
1	2	41	0	2006
2	1	42	0	0
1	2	0	334	2007
1	1	5	335	2006
1	1	42	349	2006
1	1	0	352	2009
1	2	24	354	2009
1	0	0	0	0
1	1	0	353	2009
1	2	41	340	2008
2	1	19	357	2004
1	1	42	338	2006
1	2	41	351	2009
1	2	18	344	2007
1	1	15	0	2006
1	1	0	352	2009
1	2	0	328	2008
1	2	0	351	2009
1	2	14	348	2007
1	0	0	0	0
2	1	19	0	2004
1	2	18	338	2006
1	2	9	327	2006
1	2	8	352	2009
2	2	9	0	2005
1	2	41	353	2009
1	2	39	343	2008
1	1	24	351	2009
1	1	0	354	2009
1	1	18	338	2007
2	2	18	349	2003
1	2	19	0	2005
2	2	9	0	1997
1	1	33	0	2006
1	1	18	343	2007
1	1	4	345	2005
2	1	0	0	2004
2	1	22	0	2004
1	1	19	353	2009
2	0	33	0	2005
1	2	0	353	2009
1	2	19	334	2007
1	1	0	338	2007
1	1	0	334	2008
1	1	0	351	2008
1	2	24	334	2007
1	0	0	0	0
2	2	5	345	2005
1	1	11	341	2007
2	0	0	0	0
1	1	11	353	2008
1	1	4	327	2006
2	1	42	0	2005
1	1	41	337	0
2	2	42	0	2005
1	1	19	351	2009
1	2	18	328	2008
1	1	4	330	2006
2	2	20	0	2005
1	2	0	353	2009
1	1	42	353	2009
1	1	13	340	2007
1	2	33	357	2007
1	1	4	0	2006
1	1	31	355	2009
1	1	0	351	2009
1	2	9	335	2008
1	0	0	0	0
1	1	5	350	2006
2	0	0	0	0
2	2	9	351	2004
1	1	5	0	2007
1	2	10	352	2009
2	2	18	336	2005
2	2	40	0	2005
1	2	49	352	2008
1	2	31	341	2008
2	2	14	352	2003
2	0	0	0	0
4	2	43	0	0
1	1	0	353	2009
1	1	4	0	2006
1	2	18	348	2008
1	2	9	334	2008
2	2	9	353	0
1	1	36	0	2010
1	1	10	344	2008
2	1	19	0	2004
1	1	5	351	2009
1	1	41	344	2008
1	2	8	352	2009
2	2	24	0	2005
1	1	0	353	2009
2	2	9	345	2005
1	2	39	334	2007
1	2	33	330	2007
2	0	0	0	0
1	1	42	338	0
1	1	42	0	2006
1	0	18	0	0
1	2	33	348	2008
1	1	33	339	2008
1	2	39	0	2006
1	2	38	0	2010
1	1	37	333	2006
1	1	33	339	2008
2	1	19	0	2005
1	1	24	0	2006
2	1	0	0	2003
1	1	41	334	2008
1	2	0	341	2008
2	1	13	345	2003
2	0	0	0	0
2	2	41	341	2004
1	1	41	330	2006
2	1	41	0	2004
1	2	37	328	2008
2	1	40	0	2005
1	1	5	334	2008
1	2	0	351	2009
1	2	0	347	0
2	1	9	0	2005
1	0	0	0	0
2	1	4	352	2004
1	1	33	354	2009
1	1	19	344	2007
1	1	5	328	2008
2	1	52	0	2005
1	2	9	344	2007
1	2	9	331	2006
1	2	18	352	2008
2	1	24	0	2004
1	0	0	339	0
1	1	0	348	2008
2	1	0	0	2004
1	2	24	327	2006
1	2	18	328	2008
1	2	14	336	2004
1	2	18	338	2006
1	1	18	334	2007
1	1	5	0	2007
1	1	9	333	2006
2	1	41	344	2004
1	1	9	352	2009
1	1	24	349	2006
1	1	5	341	2008
1	1	33	353	2008
1	1	9	0	2006
1	1	0	344	2008
1	2	18	338	2005
2	2	24	0	2003
2	1	42	0	2004
1	0	0	0	0
1	2	41	344	2007
1	2	9	331	2007
2	2	18	0	2002
1	1	19	357	2007
1	2	41	0	2006
1	1	24	331	2006
2	1	19	0	2004
1	0	0	0	0
2	0	0	0	0
1	1	9	353	2006
1	0	0	0	2007
1	2	41	335	2008
2	1	42	0	2004
1	2	33	352	2009
2	2	18	0	2005
2	2	41	0	2004
1	2	18	328	2008
1	2	18	0	2006
1	2	42	328	2008
1	1	0	343	2008
1	0	0	0	0
1	2	0	355	2008
2	1	42	0	2003
1	2	19	335	2006
1	1	5	331	2007
2	1	42	0	2004
1	1	8	352	2009
1	2	37	328	2008
1	1	5	338	2007
1	2	33	352	2009
1	2	22	351	2007
1	2	49	0	0
2	2	24	0	2005
2	1	13	0	2004
1	2	9	349	2006
1	2	40	338	2007
2	2	41	337	2005
1	1	19	0	2007
1	2	39	352	2009
1	1	9	344	2008
1	1	0	357	2009
2	2	53	0	2005
1	0	0	0	0
1	1	44	331	2007
1	1	5	350	2005
2	2	9	342	2004
2	0	0	0	0
1	1	42	353	2009
6	1	34	0	0
1	2	0	355	2008
1	1	19	344	2007
2	2	4	0	2005
2	2	24	335	2005
1	1	9	328	2008
1	1	0	336	2008
1	1	0	355	2009
1	0	7	357	2010
1	1	0	331	2007
1	1	0	0	2007
1	1	20	336	0
1	1	5	355	2009
1	2	1	343	2007
2	1	9	0	2002
1	1	10	328	2007
1	1	19	343	2007
1	2	18	344	2007
1	2	18	328	2007
1	2	5	338	2006
1	2	18	0	2007
1	0	42	328	2008
1	2	0	343	2008
1	2	34	353	2009
1	2	0	341	2008
2	1	42	0	2005
1	1	0	353	2009
1	1	0	346	2007
1	1	0	329	0
1	2	18	340	2008
1	2	0	355	2008
1	2	9	350	2006
1	2	18	338	2007
1	1	24	334	2008
1	2	0	346	2008
5	2	10	346	2010
2	2	37	0	2005
2	2	42	0	2004
1	1	9	353	2006
1	2	41	340	2007
1	1	0	352	2009
1	1	40	0	2006
2	2	42	0	2005
1	1	0	334	2008
1	2	10	340	2007
1	1	0	343	2008
4	2	21	0	0
2	0	41	339	2005
2	1	5	0	2004
1	2	0	334	2007
1	2	18	328	2008
1	1	5	338	2006
2	2	24	0	2005
1	2	0	357	2008
1	1	42	0	2006
1	1	42	340	2006
2	2	9	342	0
2	1	50	348	1900
1	2	24	352	2009
2	1	7	0	2004
1	1	13	0	2006
1	2	18	351	2009
2	2	11	349	2005
1	2	24	330	2006
1	2	18	344	2007
2	1	0	0	2004
1	1	24	0	2007
4	0	0	0	0
1	2	18	351	2009
2	1	4	0	2005
1	1	9	348	2008
1	1	4	0	2007
1	1	0	0	0
2	1	42	0	2004
1	1	5	338	2007
1	1	9	353	2009
1	2	34	341	2008
1	1	33	0	2007
2	2	14	0	2005
2	1	5	0	2004
1	1	18	351	2009
2	1	41	0	2004
1	2	18	331	2007
2	1	42	0	2004
1	2	18	338	2007
1	0	0	0	0
1	2	19	340	2007
1	2	41	331	2007
2	2	41	0	2005
1	1	42	348	2008
2	2	9	358	2005
1	1	0	353	2009
1	0	24	339	2006
1	2	18	338	2006
2	2	0	343	2004
1	1	5	349	2006
1	2	9	0	0
1	1	42	341	2008
1	1	0	352	2007
1	2	9	333	2007
1	2	39	352	2007
2	1	41	0	2005
2	1	18	0	2004
1	2	39	353	2006
1	1	18	351	2009
2	1	0	0	2005
1	2	0	352	2009
2	0	0	0	2004
2	2	43	346	2003
2	1	3	347	2005
1	1	33	343	2008
1	1	41	351	2007
2	2	11	0	2005
1	2	14	333	2007
5	1	41	336	0
1	1	42	0	2006
1	1	0	354	2009
1	0	41	0	2007
1	2	35	351	2009
2	1	10	0	2003
1	1	40	328	2008
1	0	0	343	2007
2	0	0	0	2005
1	2	37	353	2009
1	1	41	353	2009
1	1	9	357	2008
1	2	0	346	2008
1	2	19	334	2008
1	1	48	338	2007
1	2	5	0	2008
1	1	0	343	2008
1	1	9	353	2009
1	2	37	327	2008
1	1	0	345	2008
1	1	0	352	2009
1	2	18	338	2006
2	2	0	0	2002
1	1	42	353	2009
1	0	9	0	2008
5	2	10	0	0
1	1	18	337	2006
4	2	43	0	0
2	1	5	339	2005
1	2	0	351	2009
1	1	0	354	2009
1	2	18	0	2008
2	1	42	0	2003
2	1	5	351	2005
1	2	17	353	2008
1	1	9	337	2006
1	1	41	352	2009
2	2	39	330	2005
2	2	18	0	2005
1	2	34	351	2009
1	2	18	341	2008
1	2	9	348	2008
2	2	19	0	2005
1	1	0	328	2008
1	1	0	353	2009
1	2	24	344	2006
1	0	0	0	0
1	2	19	353	2009
2	2	41	0	2003
2	1	18	0	2004
1	1	30	351	2009
1	0	0	0	0
1	2	18	329	2008
1	2	0	328	2008
1	2	0	0	2006
2	1	5	0	0
1	2	10	351	2008
2	1	3	0	2005
1	2	3	342	2006
1	1	42	351	2009
1	1	5	348	2007
1	1	0	354	2009
1	2	24	357	2009
1	2	0	343	2008
1	1	0	0	0
1	1	0	355	2009
2	1	40	0	0
1	2	18	0	2006
1	2	40	331	2007
1	1	5	333	2007
2	1	19	339	2005
1	2	0	352	2009
1	2	41	357	2009
1	1	19	344	2006
2	1	19	0	2003
1	1	44	351	2009
1	1	5	331	2006
2	1	41	0	2005
1	1	3	0	2007
1	0	4	0	2006
1	2	19	0	0
1	2	8	351	2008
1	1	3	353	2008
2	1	7	0	2004
2	2	33	0	2004
1	1	0	0	2006
1	0	0	0	0
1	1	17	339	2008
1	2	9	0	0
1	1	9	348	2008
2	1	5	0	2005
1	2	14	355	2007
1	1	41	338	2007
1	2	0	353	2008
1	2	36	0	2007
1	1	11	334	2007
1	1	42	344	2007
1	1	18	344	2007
1	2	6	349	2004
2	2	5	0	2005
2	1	19	0	2003
1	2	40	328	2008
1	1	18	0	2008
2	0	0	0	0
2	2	14	347	2003
1	1	0	328	2007
2	2	16	0	0
2	2	41	337	2004
1	1	41	328	2007
1	1	19	0	2007
1	2	42	350	2006
1	2	33	0	2007
1	2	5	333	2006
4	2	0	0	0
1	2	0	337	2010
1	1	0	344	2007
1	1	9	342	2006
2	2	19	0	2003
1	2	0	0	2006
1	0	0	0	0
1	1	19	0	2005
1	0	35	0	0
1	2	17	0	2007
1	1	0	352	2009
2	2	18	0	2004
1	0	0	0	0
1	2	10	344	2006
1	2	8	358	2006
1	1	0	353	2009
1	1	19	0	0
1	2	0	353	2009
1	1	45	332	2006
1	0	0	0	0
1	2	10	346	2006
1	1	19	338	2007
2	2	19	337	2005
1	1	17	332	0
2	1	22	0	2005
1	1	5	338	2006
1	2	18	338	2007
2	2	24	347	2004
1	1	9	351	2008
4	2	0	0	0
1	1	37	335	2007
1	1	0	327	2007
1	2	19	0	0
1	2	0	351	2008
2	1	24	0	2004
1	1	22	330	2006
1	2	0	343	2007
1	0	0	0	0
6	0	0	0	0
1	0	5	331	2007
1	1	37	358	2006
1	2	9	346	2008
1	0	44	333	2006
2	1	42	0	2005
1	2	24	353	2009
2	1	42	345	2003
1	2	18	336	2006
1	0	9	357	2009
1	1	19	352	2009
1	2	7	341	2008
1	2	9	0	2006
2	1	41	329	2005
2	2	33	0	2005
1	2	18	351	2009
2	2	37	0	2005
1	1	19	334	2008
1	1	33	340	2008
1	0	10	344	2006
4	0	0	0	0
1	1	0	353	2008
1	2	0	328	2008
1	1	42	330	2007
1	1	5	349	2007
1	1	18	353	2008
1	1	9	353	2009
2	2	18	351	2005
2	1	0	0	2005
1	2	10	0	2007
2	2	8	0	2005
1	2	34	344	2006
1	2	41	344	2008
1	1	5	344	2006
1	2	18	0	2007
1	0	0	0	0
1	1	45	342	2006
2	0	0	0	0
1	2	22	328	2007
1	1	24	0	2007
1	2	22	331	2007
1	1	41	347	2008
1	1	9	344	2006
4	2	0	0	0
1	1	9	0	2006
1	0	0	0	2009
1	1	3	335	2006
1	1	0	352	2009
1	0	0	0	0
1	1	0	338	2007
1	1	0	353	2009
2	2	5	337	2005
1	1	44	339	2006
1	1	0	333	2007
1	1	18	352	2009
1	1	11	349	2006
2	1	39	330	2004
1	2	24	0	2007
1	1	19	341	2008
2	2	33	338	2005
1	2	0	351	2009
2	1	41	0	2005
1	1	19	338	2007
1	1	19	338	0
1	2	37	346	2008
1	2	53	353	2009
1	1	0	353	2009
4	0	0	0	0
1	1	9	351	2009
1	2	18	345	2006
1	2	39	353	2007
1	2	34	336	2006
1	1	19	352	2007
1	0	0	351	2008
2	1	19	0	2005
1	1	0	335	2008
1	1	9	351	2009
1	2	18	354	2008
1	2	43	335	2008
1	1	44	0	2005
2	1	18	0	2004
1	1	18	0	2005
1	1	9	351	2007
1	2	37	352	2009
1	1	42	340	2007
1	2	10	334	2008
1	2	18	338	2006
1	0	18	0	2006
2	2	0	0	1973
1	0	0	0	0
1	2	0	331	2007
1	2	0	353	2008
1	2	15	0	2007
1	2	14	351	2009
1	2	0	351	2009
1	2	18	0	2007
2	2	0	0	2003
1	2	37	328	2007
2	2	41	0	2005
1	1	42	0	2007
1	1	22	344	2007
1	2	0	335	2006
1	1	0	353	2009
6	2	12	0	2007
2	1	0	0	2003
2	2	34	0	2004
2	2	19	337	2005
1	2	41	0	2006
1	1	4	359	2006
1	2	0	334	2008
1	1	19	348	2007
1	1	19	352	2009
1	1	4	0	2006
1	1	41	328	2008
2	2	18	0	2005
2	0	0	0	0
1	2	18	352	2009
1	1	0	341	2008
1	1	9	327	2006
2	2	24	0	2003
1	1	0	352	2009
1	2	0	355	2009
1	1	18	0	2006
1	1	0	338	0
1	2	4	0	2006
2	2	42	0	2004
1	1	24	344	2006
1	2	0	352	2009
2	2	24	0	2004
2	2	19	349	2005
1	2	33	331	2007
1	2	24	0	2006
2	2	19	0	2004
1	1	0	354	2009
1	2	11	354	2009
2	0	0	0	0
1	2	0	351	2009
2	2	0	0	0
2	2	33	0	2004
1	2	43	350	2006
1	1	0	352	2008
1	1	0	343	2008
2	1	41	0	2004
1	1	0	357	2009
1	1	10	355	2006
1	1	10	333	2006
1	0	0	0	0
1	1	9	355	2009
1	2	18	351	2009
1	1	0	334	2008
1	1	19	348	2007
1	2	41	334	2008
2	2	42	0	2002
1	1	24	338	2006
1	1	41	349	2006
2	2	41	0	2004
1	0	24	0	2006
2	0	0	0	0
1	1	0	353	2009
2	2	18	0	2005
1	2	0	357	2009
2	2	19	0	2004
1	2	18	352	2009
1	2	18	333	2008
4	2	24	0	0
1	2	13	334	2007
1	2	41	338	2006
1	1	40	353	2009
1	1	24	331	2007
3	2	49	327	2006
1	0	0	0	2007
1	2	24	0	2005
2	1	41	0	2005
1	2	10	354	2009
2	1	48	332	2003
1	1	43	0	2006
1	2	33	352	2009
1	2	9	352	2009
1	2	40	340	2007
1	1	0	354	2009
1	2	19	339	2008
1	1	33	338	2006
2	2	41	0	2005
1	1	0	348	2008
1	2	0	338	2006
1	2	0	355	2009
1	1	9	353	2009
2	1	5	336	2003
1	2	24	347	2007
2	2	19	0	2005
1	1	9	353	2006
1	1	42	334	2008
1	1	0	346	2007
1	1	0	348	2008
1	2	18	327	2006
1	1	45	0	2007
2	2	19	0	2005
1	2	42	352	2009
1	1	52	337	2006
1	1	0	0	2009
2	1	42	0	2004
1	1	5	0	2007
1	1	10	355	2009
1	0	43	354	2007
1	1	9	0	2007
1	1	0	351	2009
1	2	24	0	0
1	1	19	0	2007
1	2	18	0	2006
1	1	10	331	2007
1	1	9	331	2006
1	2	18	342	2006
1	2	35	342	0
1	2	0	354	2009
1	1	13	340	2007
1	1	0	0	2007
2	2	24	335	2005
1	1	0	341	2008
1	1	19	349	2006
1	1	24	351	0
2	2	18	0	2004
1	1	0	351	2009
2	1	42	0	2003
1	1	34	347	2006
1	1	19	352	2009
1	2	41	350	2006
1	1	9	328	2008
1	1	0	353	2009
1	1	5	0	2007
1	1	0	346	2008
2	2	42	347	2005
1	1	19	0	2006
1	2	0	339	2008
2	1	5	0	2004
1	2	41	331	0
1	1	5	344	2007
1	2	37	344	2008
1	2	0	327	2008
2	2	40	349	2001
1	1	10	327	2008
1	1	0	0	2009
2	1	19	353	2004
1	2	0	353	2009
1	1	24	0	2007
1	2	0	0	2007
1	0	0	0	0
1	1	42	335	2008
1	2	37	0	2006
2	1	41	0	2005
1	1	18	340	2008
2	2	5	0	2004
1	1	0	339	2008
1	2	18	338	2006
1	1	40	341	2007
4	0	0	0	0
2	2	9	0	2005
1	1	22	355	2009
1	2	33	334	2007
1	0	24	328	2007
1	1	0	354	2009
3	1	48	0	0
2	2	14	330	2005
1	2	41	351	2006
1	1	0	355	2009
2	1	0	0	2005
1	1	42	352	2009
1	2	18	351	2007
1	1	18	330	2006
1	2	17	340	2006
1	2	24	338	2006
1	2	33	352	2009
2	1	0	0	2002
2	2	18	0	2004
2	1	18	0	2005
1	2	19	334	2008
1	0	0	359	2008
2	2	24	329	2003
4	2	0	0	0
2	2	7	353	2002
1	1	9	349	2006
2	2	0	0	2004
1	1	18	338	2007
1	2	10	327	2007
1	2	18	334	2007
2	2	14	0	2003
2	1	4	0	2004
1	2	0	327	2008
1	0	42	0	2005
1	2	38	346	2008
1	2	0	339	2008
2	2	9	347	2004
2	1	19	336	2005
1	2	9	352	2007
2	0	0	0	0
1	0	19	351	2007
2	1	13	352	2005
2	2	41	0	2005
2	2	10	333	2005
1	1	33	0	2007
1	2	18	0	2007
1	2	5	344	2007
1	1	9	331	2007
1	2	0	352	2009
2	2	18	0	2005
1	2	0	352	2008
1	2	24	333	2008
2	2	33	0	2004
1	2	10	347	2007
1	1	37	0	2008
2	1	19	0	2005
1	2	0	335	2008
2	0	0	0	0
1	0	0	328	0
1	0	18	0	2006
1	2	18	331	2006
1	2	10	353	2008
1	2	52	334	2008
1	2	41	0	2006
1	2	0	354	2009
1	1	19	351	2009
2	1	42	0	2004
1	2	24	341	2007
1	2	0	352	2009
1	2	41	0	2007
1	2	24	353	2007
1	2	18	344	2007
1	1	7	331	2007
2	2	23	0	2003
1	1	0	339	2008
1	1	33	327	2008
1	0	0	357	0
1	2	18	355	2009
2	2	34	0	1950
1	2	24	334	2007
1	1	0	351	2009
1	2	37	359	2005
1	2	34	328	2008
1	2	33	351	2006
1	1	33	333	2004
1	2	42	353	2009
3	0	0	0	0
6	1	27	334	2007
1	2	41	0	0
2	1	24	0	2005
1	1	33	337	2006
1	1	3	334	2006
1	1	0	351	2009
1	0	0	0	0
2	2	19	336	2004
1	2	19	352	2007
1	1	24	341	2008
2	2	41	0	2005
1	1	0	357	2008
4	0	0	0	0
2	2	33	347	2005
2	2	41	0	2005
1	2	42	343	2007
1	1	5	341	2007
1	2	9	339	2007
4	0	0	0	0
1	1	7	344	2010
1	0	5	0	2005
1	1	19	350	2005
1	1	5	0	2006
2	1	4	352	2004
1	2	0	355	2009
2	1	19	0	2003
1	1	41	335	2006
1	2	19	330	2006
2	0	44	0	2005
1	2	22	0	2007
1	0	10	0	0
1	0	0	0	0
1	1	33	343	2008
1	2	9	328	2007
1	2	39	330	2006
1	2	18	351	2009
1	2	18	342	2007
3	0	34	0	0
1	2	34	351	2007
1	1	0	0	2009
1	1	42	0	2006
1	2	0	352	2009
1	1	19	353	2009
1	0	19	334	2007
2	1	42	351	2004
1	2	24	0	2005
1	1	0	351	2009
1	1	18	343	2006
2	1	24	0	2005
1	1	0	328	2008
1	0	0	353	2008
1	1	0	353	2009
1	2	0	352	2009
1	2	24	331	2007
1	1	5	357	2007
1	1	20	341	2008
4	2	17	0	0
1	2	39	353	2009
1	0	0	354	2009
2	1	0	0	0
1	2	0	353	2009
1	2	0	352	2008
1	1	42	351	2007
1	2	18	348	2008
1	2	41	340	2008
1	2	24	0	2006
1	1	10	0	2005
1	0	18	348	2008
1	2	0	348	2008
1	2	19	335	2008
2	1	18	353	2003
1	2	9	351	2009
2	1	0	0	2004
1	1	0	357	2008
1	1	44	352	2009
2	2	41	0	2002
1	2	0	0	2006
1	2	17	347	2008
2	2	41	0	2003
2	1	19	0	2004
1	2	9	355	2008
1	1	3	329	2006
1	1	44	339	2008
1	1	18	0	2005
2	1	9	330	2004
1	1	0	334	2008
2	1	19	0	2004
1	0	0	0	0
2	1	9	0	2005
1	1	19	334	2007
1	1	0	357	2009
1	2	40	331	2007
1	2	39	351	2009
2	1	41	0	2004
1	2	42	340	2006
1	1	9	348	2008
1	1	0	355	2009
2	1	18	0	0
1	2	42	349	2006
1	2	0	353	2009
1	1	34	351	2009
1	1	0	0	2009
1	2	39	351	2009
1	1	0	343	2008
5	1	0	348	0
1	1	18	334	2008
1	2	19	0	2007
1	2	24	340	2008
1	1	9	352	2008
2	1	18	357	2005
1	1	9	343	2008
1	0	0	0	0
1	2	19	0	2005
1	1	10	355	2009
2	2	18	0	2004
1	2	35	353	2009
1	1	0	353	2009
2	2	19	0	2005
2	1	19	339	2005
2	2	14	0	2004
2	1	19	0	2004
1	1	0	343	2008
1	2	18	331	2007
1	2	41	327	2007
1	1	9	346	2006
1	1	0	339	2008
1	2	0	0	2008
1	2	0	351	2009
1	2	15	351	2009
1	1	0	348	2008
2	0	40	0	2004
2	1	19	340	2004
1	1	18	343	2008
1	2	42	328	2007
1	2	40	343	2008
2	0	0	0	0
2	1	24	0	2004
1	2	18	340	2006
1	2	9	352	2009
1	2	22	352	2008
1	2	18	338	2006
2	1	20	0	2005
1	1	0	343	2008
2	1	5	336	2004
1	2	18	355	2009
1	2	41	350	2006
2	1	42	332	2005
1	2	8	333	2005
2	0	18	0	2005
2	2	18	0	2004
1	1	40	337	2006
1	2	18	352	2009
1	2	39	354	2009
1	1	9	0	2007
1	2	41	338	2006
1	2	52	346	2008
1	0	0	0	0
2	1	42	330	2004
1	1	19	342	2006
1	2	11	0	2007
1	1	0	355	2009
1	2	42	338	2007
1	2	33	346	2006
1	1	19	339	0
2	2	19	357	2004
2	2	9	349	2005
2	2	19	330	2005
1	1	0	348	2008
1	1	35	352	2008
1	2	40	352	2009
1	1	33	331	2006
2	1	39	351	2004
1	2	0	340	2008
1	1	38	0	2006
2	1	41	0	0
1	1	24	334	2007
1	2	5	0	2006
2	1	19	0	2003
1	2	24	357	2009
1	1	5	0	2005
1	0	0	328	0
2	2	19	0	2005
1	1	0	352	2009
1	1	0	0	2007
2	2	0	0	2004
1	2	33	346	2006
1	1	0	353	2008
1	1	41	346	2006
1	2	41	330	2006
1	2	41	352	2009
2	2	0	0	2004
1	2	9	330	2006
1	1	42	0	2006
1	1	0	338	2007
1	2	39	352	2009
1	2	41	355	2006
2	0	0	0	0
1	2	0	328	2008
1	1	9	343	2007
1	2	19	352	2009
1	1	41	329	2006
1	2	0	352	2008
1	2	0	0	2007
1	2	10	340	2006
1	2	17	353	2007
1	0	18	344	2006
1	2	39	351	2009
1	2	31	334	2008
2	2	0	343	2003
2	1	39	0	2004
1	2	0	343	2008
1	2	40	0	2006
2	1	41	0	2005
1	1	5	331	2007
1	1	3	0	2006
2	2	19	0	2004
1	2	0	357	2009
1	2	9	351	2009
2	2	9	0	2003
1	1	0	352	2008
2	2	0	0	0
2	1	33	0	2005
1	2	18	341	2008
1	1	0	352	2009
1	1	0	341	2007
1	2	0	0	2007
1	1	42	328	2008
1	2	18	357	2009
2	2	5	0	2004
2	2	43	336	2005
2	1	5	0	2005
1	1	19	344	2007
2	1	19	354	2004
1	1	5	0	2006
1	1	44	338	2007
1	2	39	354	2009
1	2	4	351	2008
1	2	48	0	0
2	1	4	0	2005
1	1	5	345	2008
1	0	30	338	2007
1	1	9	344	2006
1	2	0	354	2009
1	1	18	340	0
2	1	18	0	2004
2	0	0	0	0
1	1	42	0	2006
1	1	10	344	2007
1	2	18	341	2008
2	0	0	0	0
1	1	0	351	2009
1	2	18	350	2006
2	1	4	0	2005
2	2	39	0	2005
4	0	0	0	0
2	1	42	0	2005
1	0	0	0	0
2	2	9	0	2005
1	2	17	328	2007
1	1	42	338	2007
3	0	0	0	0
1	1	10	354	2006
1	2	0	348	2008
1	0	0	0	0
1	1	0	0	2006
2	0	0	0	0
2	1	42	335	2005
1	2	24	339	2006
1	1	41	341	2007
2	1	18	0	2005
2	1	19	332	2003
2	2	18	0	2003
2	2	19	358	2005
1	0	24	0	2005
1	0	0	0	0
1	2	19	353	2009
1	1	9	0	2007
1	1	9	353	2009
2	0	0	0	0
1	1	10	351	2008
1	1	0	0	2008
1	1	19	340	0
1	0	0	0	0
2	2	19	337	2005
2	1	24	335	2005
1	1	0	357	2009
2	1	48	350	2005
5	0	21	358	1904
1	2	9	352	2009
1	1	4	352	2009
1	2	41	352	2008
1	0	0	0	0
1	1	0	351	2008
2	2	19	0	2001
1	1	35	354	2009
1	1	5	341	2008
1	2	24	0	2007
2	1	5	0	2004
1	2	18	344	2008
1	1	19	335	2006
1	1	18	344	2006
2	2	19	0	2004
1	2	23	347	2007
1	2	33	329	2006
2	1	18	0	2004
1	0	0	0	0
2	2	0	0	2003
1	1	5	0	2006
1	1	41	353	2009
1	1	0	340	2007
1	2	0	351	2008
1	2	24	352	2008
1	1	24	352	2009
2	1	10	0	2005
1	2	12	355	0
1	1	41	344	2007
1	2	0	328	2008
1	2	9	0	2006
2	1	5	333	2005
1	1	5	0	2007
2	1	41	0	2004
1	1	0	351	2009
4	0	0	0	0
1	1	18	353	2009
1	2	41	338	0
1	2	0	355	2009
1	1	18	338	2007
1	2	14	354	2009
1	1	5	0	2006
3	2	18	338	2007
1	1	42	343	2008
1	1	18	343	2007
1	1	0	353	2009
1	2	18	331	2006
1	1	24	350	2005
1	1	24	0	2006
1	1	0	352	2009
