status	gender	major	dorm	year
1	2	0	332	2009
1	2	129	335	2007
1	1	129	347	2006
1	1	135	333	2007
2	2	118	0	2005
2	2	122	0	2005
1	1	117	341	2009
1	1	122	345	2006
1	0	138	0	2007
1	1	0	340	2008
1	2	0	335	2008
1	1	0	333	2008
1	2	118	337	2006
2	2	129	0	2005
1	1	0	0	2006
2	1	117	337	2005
1	2	99	346	2008
1	2	108	341	2009
1	2	122	341	2007
1	1	122	339	2008
1	2	115	332	2007
1	1	122	333	2007
1	0	0	0	0
5	2	0	0	0
2	2	118	349	2005
1	1	125	339	2008
2	1	0	0	0
1	0	118	336	2006
1	2	0	341	2008
1	1	129	338	2009
1	1	97	0	2009
1	1	95	328	2008
1	2	108	0	2007
1	1	108	0	2007
2	0	129	0	2005
1	2	128	338	2009
1	1	122	343	2006
1	2	0	334	2008
1	2	95	338	2009
2	1	137	0	2005
1	2	117	339	2007
1	1	0	341	2008
1	2	0	338	2009
1	2	108	0	2007
1	1	105	345	2006
1	1	0	332	2009
1	2	108	334	2007
1	0	135	333	2007
1	1	125	0	2007
1	1	97	334	2007
1	1	122	337	2007
1	2	97	337	2006
1	1	0	0	2009
1	2	0	0	0
1	2	97	341	2009
1	1	106	335	2008
1	2	117	0	2006
1	2	108	328	2009
1	2	130	345	2007
1	2	130	0	0
1	2	117	348	2007
1	1	0	335	2008
2	0	117	0	2005
1	1	125	337	2006
1	1	125	339	2007
1	1	97	341	2007
1	1	0	335	2008
1	1	0	0	2009
1	1	125	333	2006
1	1	102	341	2009
1	2	110	333	2007
1	1	97	0	2007
2	1	101	348	2004
1	2	108	0	2007
1	2	110	335	2007
1	1	115	336	2009
1	1	96	341	2006
1	1	103	334	2004
1	1	0	340	2007
1	2	108	343	2006
1	1	129	341	2008
1	1	0	351	2009
2	1	138	345	2005
2	2	117	332	1969
1	1	122	343	2006
1	1	108	345	2007
1	1	117	0	2007
1	2	119	352	2006
1	2	0	335	2008
1	2	117	333	2005
1	0	93	0	2005
1	1	119	347	2006
2	1	122	0	2004
2	0	129	0	0
1	2	130	335	2007
1	2	127	0	2006
1	1	0	341	2009
5	2	0	0	0
1	1	0	351	2009
1	0	0	0	0
1	1	127	0	2006
1	1	117	335	2008
1	2	117	336	2008
1	1	97	334	2007
2	1	94	0	0
1	0	0	346	2008
1	1	138	0	2006
1	2	0	341	2009
2	1	129	0	2004
1	2	0	335	2008
1	2	99	351	2008
1	2	118	0	2006
1	2	117	333	2008
1	0	0	0	0
1	2	127	344	2009
5	2	90	341	2008
1	1	110	334	2008
1	1	0	0	2009
1	1	110	333	2008
1	2	102	339	2007
1	2	122	341	2009
1	1	115	340	2006
1	1	0	348	2009
1	2	133	349	2006
1	2	128	344	2008
1	0	108	346	0
1	1	90	0	2007
1	1	0	348	2009
1	2	97	336	0
2	1	110	345	2005
1	1	129	0	2006
2	1	110	0	2002
2	1	134	0	2005
2	1	117	0	2004
1	1	133	335	2006
1	2	108	348	2006
1	1	97	347	2006
1	1	0	330	2008
2	1	133	0	2005
2	1	108	349	2005
1	1	97	341	2008
1	1	133	342	2007
1	1	108	341	2006
1	1	118	330	2009
1	2	99	338	2009
1	1	110	341	2008
2	1	97	349	2005
1	1	125	348	2006
2	1	103	0	2005
1	2	0	341	2009
1	2	97	332	2009
2	1	129	347	2004
1	2	0	336	2009
2	1	105	0	2005
1	2	0	334	2006
2	2	108	0	2005
1	2	129	337	2006
1	2	0	344	2009
5	1	130	345	2007
2	2	108	337	2005
1	1	97	333	2007
1	2	115	352	2006
2	1	117	0	2005
1	2	128	0	2009
4	2	112	0	0
1	1	97	335	2008
1	1	0	344	2009
1	2	118	330	2009
2	1	117	0	2004
1	0	0	0	0
1	1	0	338	2009
1	1	119	0	2007
1	2	129	0	2007
6	2	117	331	2005
1	2	96	331	2008
1	1	0	341	2007
1	0	0	0	2008
1	2	127	344	2009
1	1	110	344	2009
1	0	92	333	2007
1	0	0	0	0
1	2	0	341	2009
1	1	91	343	2006
2	1	0	0	2004
1	1	127	341	2009
3	2	118	0	0
2	1	122	0	2005
1	2	117	343	2007
1	1	0	333	2008
2	2	110	0	2005
1	1	97	344	2008
1	1	125	351	2007
1	1	93	348	2007
2	0	131	0	2004
1	2	0	341	2009
1	1	134	340	2006
2	1	103	0	2005
1	1	0	338	2009
4	0	0	0	0
1	1	104	344	2008
1	2	113	339	2008
1	1	0	341	2008
2	1	134	0	2003
1	2	0	331	2008
1	1	100	338	2009
2	1	108	0	2003
2	0	0	0	0
2	2	0	0	2004
2	1	117	0	2005
1	1	129	333	2007
2	2	130	347	2005
1	1	105	343	2007
1	1	0	0	2008
1	2	117	348	2008
1	1	0	0	2006
1	1	124	347	2006
2	1	129	0	2005
1	2	93	332	2009
1	1	108	348	2009
2	2	108	352	2005
1	2	122	334	2006
1	2	128	341	2009
1	2	108	340	2006
1	1	102	0	2005
1	0	0	0	0
1	2	102	0	2005
1	1	129	337	2006
1	2	108	347	2008
1	1	0	351	2009
1	2	0	0	0
1	1	0	328	2009
2	2	130	337	2005
1	1	117	328	2008
1	1	137	330	2006
1	2	138	341	2008
1	2	97	347	2006
2	2	104	0	2003
1	1	138	0	2006
1	1	0	340	2008
1	1	125	335	2005
1	1	92	334	2008
1	2	0	336	2008
1	1	0	336	2009
1	2	117	335	2007
1	2	107	348	2007
1	2	108	348	2007
1	2	0	335	2008
1	0	138	0	0
2	1	122	0	2003
1	2	127	342	2006
1	1	134	341	2006
1	1	90	328	2006
1	2	135	0	0
1	1	118	335	2007
1	1	0	350	2008
1	1	93	346	2005
2	2	127	0	2004
1	2	110	332	2008
1	1	122	347	2006
1	2	138	0	2006
2	0	0	0	0
1	1	96	338	2009
2	2	130	0	2005
1	2	138	349	2006
1	2	108	339	2007
1	1	0	341	2008
1	1	0	341	2009
1	1	125	334	2006
2	1	137	0	2005
1	1	92	334	2006
1	1	108	337	2005
1	2	129	341	2009
1	2	0	339	2008
1	2	0	335	2008
1	1	117	0	2007
2	0	0	0	0
1	2	108	350	2006
1	2	0	341	2009
1	2	104	333	2006
2	1	117	0	2005
1	1	92	333	2006
1	1	109	335	2007
1	2	117	0	2007
1	2	108	343	2005
1	1	114	332	2006
1	0	0	0	0
1	2	0	348	2008
2	1	0	0	2000
1	2	117	0	2007
1	2	122	344	2006
2	2	99	0	2004
1	0	0	0	0
1	2	112	0	2009
2	1	106	0	2004
2	2	0	0	2004
1	0	0	0	0
2	1	0	0	2004
1	2	0	341	2009
2	1	129	0	2005
1	1	97	0	2006
1	1	97	333	2007
1	2	117	0	2007
1	2	108	330	2009
1	1	138	352	2008
1	2	0	0	2007
2	2	108	0	2005
1	2	0	341	2008
1	1	112	338	2009
2	2	128	0	2005
1	1	0	336	2009
2	1	127	0	2005
1	2	0	0	2008
1	0	105	341	2008
1	1	0	348	2007
2	2	117	0	2005
1	1	131	337	2006
1	1	118	334	2007
1	1	129	0	2007
1	1	97	333	2007
2	1	0	0	2005
1	0	110	0	2007
2	1	115	0	2005
1	1	118	340	2006
1	1	110	0	2006
1	1	138	341	0
1	1	129	331	2008
1	2	122	351	2008
1	2	0	341	2008
1	1	92	338	2009
1	2	96	343	2008
1	0	110	0	2006
1	1	122	351	2008
1	1	108	337	2007
1	1	99	328	2009
1	2	110	333	2006
2	2	117	340	2005
1	1	0	351	2009
1	1	0	351	2009
1	2	132	0	2007
1	2	99	336	2009
1	2	0	341	2009
2	1	122	347	2005
1	1	108	344	2007
1	1	0	332	2008
1	2	134	335	2007
2	1	110	0	2005
1	2	110	337	2006
1	1	125	337	2008
1	1	130	341	2007
1	1	0	341	2009
1	1	108	0	2007
1	2	0	341	2008
1	2	110	0	0
1	2	138	335	2008
1	1	92	334	2007
1	2	105	334	2005
1	2	136	335	2008
1	1	117	328	2009
2	1	129	0	2005
1	1	92	333	2008
2	1	0	0	2005
1	1	128	0	2006
1	2	117	335	2008
2	1	117	333	2005
1	2	0	344	2008
1	2	0	341	2007
1	2	108	333	2007
1	2	104	328	2009
1	0	0	0	0
1	1	92	334	2008
1	1	94	335	2008
1	1	102	348	2009
1	2	115	338	2008
2	1	94	0	2005
1	2	138	0	2006
1	1	133	350	2008
1	1	127	336	2007
1	1	117	341	2009
1	1	0	0	2009
1	1	122	348	2007
1	1	92	333	2006
1	2	118	0	2008
1	2	119	335	2007
1	1	129	334	2007
1	1	118	341	2009
1	1	92	341	2006
1	1	0	0	2007
1	2	0	334	2008
2	2	110	0	2005
1	1	118	0	2007
1	0	0	337	2006
2	2	117	0	2004
1	1	137	333	2007
1	1	125	341	2009
1	2	129	330	2009
1	2	122	341	2006
2	2	128	333	2005
1	1	94	335	2007
1	1	108	341	2009
1	1	0	341	2007
1	2	128	351	2009
1	0	93	333	2008
1	2	108	328	2009
1	1	92	333	2007
1	1	108	335	2008
1	2	128	334	2006
1	2	122	338	2006
1	2	117	334	2008
1	1	0	333	2008
1	2	108	334	2006
2	2	129	337	2005
1	1	95	333	0
2	2	122	0	2004
1	0	127	0	2006
1	0	133	328	2006
1	1	0	334	2008
1	2	117	337	2006
1	1	108	337	2006
1	2	129	341	2007
1	1	127	335	2008
1	2	108	328	2009
1	1	127	0	2006
1	2	99	343	2005
1	2	127	333	2007
1	1	0	348	2009
1	2	108	342	2006
2	1	110	0	2005
2	1	101	0	2004
1	1	110	336	2009
1	2	124	0	2007
1	2	0	334	2008
2	1	95	340	2005
1	1	105	333	2005
1	2	97	330	2008
1	2	108	340	2008
1	2	118	0	2007
1	1	102	341	2009
1	2	135	0	2007
1	1	0	334	2007
1	2	125	341	2007
1	2	0	0	0
1	1	129	335	2008
1	2	127	341	2006
1	2	0	340	0
1	1	108	335	2007
1	2	117	340	2007
1	2	108	334	2008
1	2	108	343	2005
1	1	0	328	2009
1	2	127	0	2007
1	1	0	340	2008
1	1	99	348	2009
1	1	130	333	2008
2	2	104	0	2005
2	2	99	0	2005
1	2	130	341	2008
2	1	117	0	2004
1	1	0	348	2009
1	2	117	340	2008
1	2	108	348	2006
1	2	99	340	2008
2	2	93	0	2005
1	1	110	347	2005
1	2	118	334	2006
1	0	0	0	0
1	1	0	335	2008
2	2	108	0	2004
1	0	110	0	2006
1	2	108	351	2007
2	2	128	0	2004
1	0	0	333	2007
1	0	0	0	0
1	2	138	334	2008
1	1	117	337	2006
1	1	0	341	2009
2	1	0	0	2004
1	1	0	0	2007
1	0	0	0	0
1	2	92	0	2008
1	1	110	334	2007
1	2	117	337	2007
1	1	110	341	2008
1	2	108	0	2006
1	2	117	341	2009
1	2	117	0	2008
1	1	0	330	2009
1	2	134	344	2009
1	0	122	0	2006
1	2	0	344	2009
1	2	102	341	2009
2	0	0	0	0
1	2	108	338	2008
1	2	0	333	2008
1	1	93	0	0
1	0	138	0	2007
1	2	100	341	2009
1	1	128	0	2007
1	1	0	0	2006
1	1	0	340	2008
1	2	122	340	2006
1	1	129	0	2006
1	2	99	0	2006
1	2	97	336	2008
2	1	108	0	2004
1	2	122	338	2007
1	2	122	341	2008
1	2	118	335	2008
1	2	131	338	2009
1	2	133	338	2009
1	2	108	335	2008
1	1	99	348	2008
1	1	105	341	2008
1	2	122	345	2006
1	1	122	333	2006
1	1	94	336	2006
2	1	102	0	2005
1	1	118	0	2008
2	2	108	337	2005
1	0	110	0	2007
1	1	110	347	2006
1	2	0	0	2008
1	1	129	0	2006
2	1	124	0	2005
1	1	0	341	2008
2	2	104	0	2004
1	2	122	334	2006
1	2	0	334	0
2	2	129	0	2004
1	2	119	0	2006
2	1	0	0	0
1	0	110	0	2006
1	2	127	0	2006
1	1	0	339	2008
1	1	117	0	2005
2	1	0	0	2005
1	2	125	341	2008
1	0	0	0	0
3	2	106	0	0
1	2	102	335	2008
2	2	122	329	2004
1	2	0	0	2006
1	1	117	348	0
1	0	119	0	0
2	1	129	0	2004
1	2	97	344	2006
1	2	129	0	0
1	1	95	330	2008
1	2	99	339	2007
1	1	108	341	2007
1	1	122	341	2006
1	2	108	343	2006
2	2	134	0	2005
1	1	97	348	2009
1	1	102	348	2007
1	0	105	335	2008
1	1	0	335	2008
2	1	92	0	2004
1	2	110	0	2006
1	2	108	0	2006
1	2	117	335	2008
1	1	0	341	2009
1	1	117	328	2009
1	1	0	347	2008
2	1	110	0	2004
1	2	98	344	2008
1	2	0	334	2008
2	1	92	0	2003
1	2	133	349	2006
2	1	103	0	2004
1	2	122	336	2008
1	2	138	0	2007
2	2	117	0	2005
2	1	133	0	2004
1	1	0	328	2009
1	1	110	341	2009
1	2	100	327	2006
1	1	133	336	2007
1	2	108	334	2006
1	1	96	328	2008
1	1	93	333	2006
2	2	0	0	2005
1	2	135	351	2006
1	1	97	328	2009
1	1	0	332	2009
1	2	117	334	2006
1	2	127	332	2008
1	2	127	333	2006
1	2	93	342	2006
1	2	0	330	2007
1	2	117	0	2007
1	1	97	347	2006
1	1	127	0	2006
1	1	108	335	2008
2	2	117	337	2005
2	2	0	0	2004
1	1	117	348	2009
1	1	0	335	2008
2	1	129	341	2003
1	1	106	341	2009
1	2	108	0	2007
1	1	118	341	2009
2	1	108	0	2004
1	1	108	334	2006
1	2	122	334	2005
1	1	0	332	2008
1	0	110	0	0
1	2	108	334	2008
2	0	131	0	2005
4	1	0	0	0
2	2	118	0	2004
1	1	129	348	2006
1	1	127	347	2006
1	2	97	341	2009
1	2	122	333	2006
1	0	0	0	0
1	1	127	0	0
1	2	117	335	2008
2	2	105	0	2004
1	2	97	341	2009
2	2	108	334	2005
1	2	115	331	2008
1	2	111	332	2009
1	2	108	338	2009
1	2	117	334	2006
1	0	127	341	2008
1	2	0	348	2009
1	2	108	336	2009
1	1	111	351	2009
1	1	0	0	2009
1	2	127	333	2007
1	1	129	340	2008
1	2	134	328	2007
1	2	122	331	2007
1	1	117	349	2007
1	2	106	341	2009
2	2	117	343	2004
2	2	129	0	2005
1	1	92	334	2007
2	2	92	0	0
1	1	122	340	2006
2	2	117	349	2005
2	2	130	0	2005
1	1	0	328	2007
1	2	99	334	2008
2	1	110	333	2005
2	2	117	0	2005
1	1	111	351	2009
1	1	129	333	2007
1	1	122	334	2008
1	2	0	341	2008
1	2	128	344	2009
2	0	117	0	2004
1	1	127	0	2006
1	2	99	0	2009
1	2	118	334	2007
1	1	110	0	2007
1	1	118	327	2006
1	1	129	328	2009
1	1	0	344	2008
2	1	131	0	2005
1	2	128	341	2007
1	1	129	0	2008
2	1	130	0	2005
1	2	108	333	2006
1	1	97	341	2009
1	2	108	343	2006
2	1	133	341	2004
1	2	0	0	2008
2	2	91	0	2005
2	2	0	0	2004
2	1	97	347	2005
1	2	0	332	2009
2	1	103	0	2005
1	2	108	334	2006
1	1	133	348	2007
1	1	92	327	2005
2	1	108	0	2005
1	2	108	343	2007
1	1	113	338	2009
1	1	0	335	2008
1	1	117	338	2009
1	2	117	0	2006
2	2	108	336	2005
1	2	96	333	2008
2	1	97	345	2005
2	2	130	334	2005
1	2	0	335	2008
1	1	96	328	2007
1	1	0	335	2008
1	1	0	347	2008
1	1	129	334	2008
1	1	108	333	2008
1	1	101	344	2008
1	2	137	338	2008
1	2	129	333	2007
1	2	108	0	2006
1	1	105	348	2009
1	2	125	341	2009
1	1	108	0	2008
1	1	0	0	0
1	2	0	338	2009
2	2	105	0	2005
2	1	130	0	2005
1	1	99	335	2008
1	1	129	348	2008
1	1	133	347	2006
1	2	130	0	0
1	1	0	0	0
1	2	130	349	2006
1	1	133	341	2007
3	2	111	0	2006
2	1	133	337	2005
1	1	119	337	2006
1	1	0	351	2009
1	2	102	345	2007
1	2	96	348	2006
2	2	104	0	2003
1	1	0	330	2009
1	2	108	335	2008
2	1	134	0	2004
2	2	129	0	2001
1	2	122	336	2006
1	1	108	335	2008
2	0	105	0	2005
1	2	117	0	2006
1	1	110	334	2008
1	2	108	0	2007
1	0	97	344	0
1	2	108	341	2008
1	2	108	0	2006
1	1	129	335	2007
2	1	127	0	2003
1	1	125	337	2006
2	2	104	0	2005
2	2	104	0	2005
1	2	119	333	2006
1	1	125	335	2008
2	2	0	0	2005
1	1	100	348	2006
1	2	122	0	0
1	2	108	336	2009
1	2	131	333	2007
1	2	108	344	0
1	1	118	0	2006
1	2	108	347	2006
1	2	111	341	2009
1	1	105	333	2006
1	2	0	0	2007
1	2	131	341	2006
1	1	103	344	2009
2	1	100	347	2005
1	1	125	348	2006
1	1	117	335	2008
2	2	125	0	2005
1	1	117	337	2006
1	2	108	343	2007
1	1	93	0	2006
1	1	99	348	2009
1	2	117	334	2008
1	2	121	330	2006
1	2	127	337	2006
1	2	138	345	0
1	1	97	334	2007
1	1	97	333	2007
1	1	129	0	2007
1	1	115	0	2006
1	0	0	0	0
1	2	133	340	2006
2	2	108	334	2005
2	1	0	0	1998
1	0	108	341	0
1	1	138	344	2009
1	2	122	335	2007
1	2	106	0	2005
5	1	0	0	2004
1	2	0	340	2008
1	2	128	338	2006
1	1	0	335	2008
1	0	128	343	2007
1	1	0	0	0
1	0	0	0	0
1	2	93	335	2008
1	2	130	334	2006
1	1	97	332	2009
2	1	134	0	2004
1	1	108	337	2006
1	1	94	339	2008
1	2	108	335	2008
1	1	130	335	2008
1	1	92	338	0
1	1	111	348	2009
1	2	138	0	2007
1	2	97	0	2007
2	1	133	0	2005
1	2	115	335	2008
1	1	132	341	2009
1	0	0	0	0
1	0	0	334	2008
1	1	0	348	2008
1	1	118	341	2009
1	1	108	0	2006
2	2	122	333	2005
1	1	0	339	2008
1	2	118	333	2008
1	2	122	338	2006
2	1	110	0	2005
1	1	92	338	2009
1	1	0	335	2008
1	2	138	348	2007
2	0	129	0	2004
1	2	115	0	2006
1	2	102	0	2007
1	1	110	333	2006
1	1	130	347	2006
1	1	127	334	2006
2	1	134	0	2005
1	2	127	332	2007
1	1	0	341	2009
1	2	0	341	2007
2	2	96	0	2005
4	1	119	345	2010
1	2	99	352	2007
1	1	0	0	2005
2	1	106	0	2005
1	1	110	344	2008
5	0	127	349	0
2	1	111	0	2005
1	1	92	0	2006
1	2	108	341	2009
1	2	118	335	2008
1	1	0	335	2008
1	2	108	337	2006
1	2	94	333	2007
1	1	0	0	2008
1	2	97	341	2009
2	1	124	0	2005
1	2	108	335	2007
1	1	117	0	2007
1	2	0	341	2009
1	2	0	349	2006
2	2	102	340	2005
1	2	117	334	2007
1	2	108	341	2009
1	2	129	330	2007
1	2	0	330	2009
2	1	115	0	2004
2	0	117	0	2005
2	2	125	0	2001
1	1	117	0	2006
2	1	117	333	2005
1	1	129	0	2007
1	2	122	335	2008
1	1	97	0	2007
2	2	110	0	2005
1	2	112	336	2009
1	1	133	337	2007
1	1	0	338	2009
1	2	108	341	2009
2	2	102	0	2005
1	1	125	328	2009
1	2	108	341	2008
1	2	0	336	2006
1	1	0	0	2008
1	1	0	328	2008
1	2	117	333	2006
1	1	135	0	2006
2	0	133	0	0
1	1	117	348	2009
1	2	124	333	2006
1	2	117	0	2006
1	1	105	328	2009
1	1	110	335	2007
1	2	104	346	2006
1	2	134	337	2006
1	1	122	346	2006
1	1	105	343	2006
1	2	129	343	2007
1	1	0	334	2008
1	2	127	334	2006
1	1	124	333	2006
2	1	110	0	2005
1	1	97	343	2007
1	2	108	348	2009
1	2	130	0	2008
1	1	117	0	2007
1	1	97	0	0
1	1	110	344	2007
1	0	0	0	0
1	1	117	334	2006
1	1	138	0	2009
1	1	115	341	2008
1	2	93	341	2009
1	0	0	350	2006
1	1	122	333	2007
1	2	108	341	2007
1	1	105	338	2009
1	1	0	341	2005
2	0	0	0	0
1	1	93	337	2007
1	2	122	341	2009
1	0	94	335	2008
1	1	0	334	2008
2	1	101	0	2005
1	0	130	337	2005
1	1	0	0	2008
1	2	0	351	2009
1	1	129	335	2007
1	2	130	350	2007
2	1	106	347	2005
1	2	108	335	2008
2	2	135	0	2005
1	1	0	341	2009
2	2	113	0	2003
2	1	97	0	2005
1	1	108	0	2009
2	1	125	0	2005
2	2	118	0	2005
1	2	127	348	2005
1	1	138	343	2006
1	1	105	0	2006
1	2	0	334	2007
1	1	129	341	2009
1	1	115	333	2007
1	1	130	335	2008
1	1	118	335	2008
1	1	0	338	2009
2	1	97	0	2005
2	1	129	0	2004
1	2	125	335	2008
1	2	0	338	2009
2	2	129	332	2005
1	1	108	0	2007
1	1	92	0	2006
1	1	138	336	2009
2	2	108	337	2005
1	1	110	345	2005
5	2	96	347	2005
1	1	0	333	2008
1	1	0	350	0
1	0	108	334	2006
1	1	125	332	2009
1	1	122	341	0
1	2	99	344	2007
1	1	0	0	0
1	1	117	342	2006
2	1	117	0	2005
1	2	97	351	2009
1	2	138	335	2007
1	2	115	0	2007
1	1	137	345	2007
1	1	0	0	2007
1	1	0	335	2008
1	1	110	0	2006
1	1	108	352	2007
1	2	117	340	2006
1	0	0	0	0
1	2	100	0	2006
1	2	0	348	2009
1	2	110	349	2007
1	2	99	333	2008
1	1	0	340	2008
2	2	117	339	2004
1	2	117	341	2009
1	1	138	333	2006
1	2	104	344	2009
1	2	117	0	2007
4	0	0	0	0
1	1	0	332	2009
2	1	129	0	2005
2	2	105	0	2005
1	2	119	0	2007
1	2	96	0	0
1	1	129	333	2006
1	2	117	338	2009
1	2	104	0	2009
1	2	138	0	2006
1	0	0	342	2005
1	2	97	347	2006
1	2	101	348	2008
1	1	0	328	2009
1	2	133	334	2007
1	2	117	337	2007
2	1	133	0	2005
1	0	0	335	2008
1	1	105	333	2006
2	2	97	0	2003
2	1	110	0	2005
1	2	125	0	2009
2	1	110	0	2005
1	1	97	332	2009
2	2	95	0	2004
1	2	108	334	2008
1	1	118	335	2006
1	1	0	335	2008
2	0	0	0	0
1	1	0	341	2009
1	1	102	0	2007
1	2	0	0	2007
1	1	133	343	2006
1	2	92	336	2009
2	0	0	0	0
1	2	110	334	2008
1	0	0	0	0
2	0	115	0	2005
2	1	130	0	2005
1	2	118	349	2007
1	2	0	328	2007
1	0	0	0	0
1	2	108	335	2008
1	1	92	334	2008
1	2	117	344	2008
2	1	122	0	2005
2	0	0	0	0
1	2	118	348	2008
1	0	0	0	0
1	2	0	334	2008
1	2	110	341	2007
2	2	108	348	1996
1	2	0	338	2009
1	1	97	337	2007
1	2	117	341	2007
2	1	117	0	2005
1	2	0	339	2008
1	0	138	348	2007
1	1	114	333	2007
1	1	0	328	2009
1	1	115	330	2009
1	1	0	333	2008
1	2	105	330	2009
1	2	108	334	2007
1	2	95	332	2008
1	2	108	348	2006
1	2	0	0	0
1	2	117	336	2009
1	2	137	332	2009
1	2	108	0	2007
1	2	100	343	2006
2	1	127	0	2005
1	1	127	352	2006
2	2	117	0	2005
2	2	0	0	2004
2	2	118	0	2002
1	2	0	348	2008
1	2	128	0	2006
1	2	0	0	2006
1	1	127	351	2008
1	1	97	334	2008
1	2	130	351	2009
2	1	117	0	2004
2	1	133	0	2005
1	0	130	348	2006
1	1	110	333	2006
1	1	100	338	2009
1	2	0	341	2008
1	2	104	351	2007
1	0	0	343	2006
1	1	0	334	2008
1	2	99	334	2006
1	2	117	0	2006
1	1	105	336	2008
2	2	134	338	1999
2	0	0	0	0
1	2	118	330	2006
1	1	97	351	2006
1	1	129	347	2006
1	2	129	341	2007
1	1	108	336	2009
1	2	108	337	2007
1	2	0	0	2008
1	1	105	335	2007
1	1	138	0	2006
1	0	138	0	2006
1	1	129	334	2008
2	1	135	336	2005
2	1	129	0	2005
1	2	0	335	2008
1	1	108	347	2007
1	2	0	341	2009
2	1	108	0	2005
1	2	117	0	2006
1	1	134	332	2008
1	1	0	344	2009
1	1	0	332	2009
1	1	122	0	2007
1	1	110	344	2009
1	1	94	335	2007
1	1	128	334	2008
1	1	130	349	2006
2	2	115	336	2002
1	2	0	341	2009
5	1	113	0	0
1	1	118	332	2008
1	1	99	0	2007
1	1	108	335	2008
1	2	110	345	2006
1	2	92	332	2008
1	2	130	341	2006
1	1	138	332	2007
2	1	117	0	2004
1	2	129	0	2006
1	2	0	348	2009
1	1	99	341	2009
1	1	94	335	2008
1	1	135	0	2007
1	2	100	332	2008
1	2	108	345	2006
2	1	103	0	2005
2	0	0	0	2004
1	1	110	341	2009
1	1	125	0	2008
1	2	0	341	2009
1	1	0	335	2008
1	1	105	0	2006
1	1	129	342	2005
2	1	112	0	2005
1	2	117	336	2009
5	1	90	0	2010
1	2	118	333	2007
1	2	133	340	2006
1	1	128	334	2006
1	1	124	349	2010
2	2	117	0	2005
2	2	104	0	2005
1	1	133	336	2007
1	2	0	338	2009
1	2	108	341	2006
2	1	110	0	2005
1	1	0	348	2009
1	0	108	0	2006
2	1	103	0	2005
1	2	130	350	2008
1	1	99	335	2008
1	2	0	341	2009
1	1	99	0	2006
1	1	102	335	2008
1	2	133	328	2009
2	1	93	0	0
1	2	117	348	2006
1	0	0	0	0
1	1	110	341	0
1	1	97	335	2008
1	2	108	0	2008
1	1	108	341	2009
1	1	129	0	2007
1	2	0	330	2007
1	0	138	341	2007
1	1	0	335	0
1	1	0	341	2009
1	1	108	0	2006
2	1	102	0	2004
1	2	93	344	2007
1	1	108	348	2007
1	2	115	340	2007
1	2	108	341	2006
2	1	133	0	2004
1	2	0	348	2009
1	2	122	0	2006
2	2	118	0	2005
1	2	124	336	2009
2	2	108	343	2005
1	2	99	0	2007
1	0	117	341	2008
1	2	0	348	2006
2	1	118	327	2004
1	1	129	328	2006
1	1	92	333	2006
2	2	128	0	2004
1	1	134	0	2006
1	1	129	333	2006
1	1	129	348	2006
1	2	104	346	2008
1	0	94	0	2006
1	1	129	0	2006
1	0	118	0	2007
1	0	0	0	0
1	1	105	334	2008
2	2	129	343	2005
2	1	129	337	2005
1	0	125	334	2008
1	2	0	0	2009
1	2	127	338	2009
1	1	129	344	2008
1	2	112	341	2007
1	2	122	341	2009
1	2	0	341	2009
1	1	94	0	2006
1	2	108	337	2008
1	1	108	333	2006
1	2	108	328	2009
2	2	118	0	2005
2	0	118	0	2005
1	1	0	328	2009
1	2	124	332	2006
1	2	0	328	2009
2	1	118	0	2005
1	1	0	351	2008
1	1	0	341	2009
1	1	108	349	2007
1	1	108	348	2009
1	0	108	338	2008
1	2	104	330	2009
1	2	118	335	2008
2	1	108	0	2005
1	1	0	351	2009
1	2	97	343	2007
1	1	117	0	2006
1	2	127	348	2008
1	0	108	0	0
1	2	118	330	2009
1	1	133	340	2006
1	1	108	341	2009
1	1	117	330	2008
1	2	92	330	2007
1	2	138	341	2008
1	2	107	341	2009
1	2	94	334	2007
1	2	117	334	2006
1	1	129	0	2008
1	0	0	0	0
1	1	129	349	2006
2	2	99	347	2005
5	2	0	0	2005
2	1	117	337	2005
1	2	108	335	2008
1	0	124	0	2010
1	1	105	347	2006
1	1	110	349	2006
1	2	0	341	2009
1	2	0	338	2009
1	1	117	341	2007
2	1	129	0	2002
1	1	117	338	2009
1	1	110	341	2009
2	1	125	0	2005
1	1	125	337	2006
1	1	129	349	2006
1	1	0	348	2009
1	1	110	0	2005
1	1	0	341	2009
1	0	108	352	2006
1	1	0	341	2009
1	1	112	338	2009
1	2	108	335	2008
1	1	125	333	2007
1	1	102	348	2009
1	0	105	334	2006
2	1	118	0	2005
1	1	105	332	2008
1	2	118	333	2007
1	1	96	336	2009
1	1	108	337	2006
1	2	97	342	2007
1	1	0	351	2008
1	1	133	333	2008
1	1	0	335	2008
1	1	0	333	2008
1	1	117	348	2009
2	2	130	335	2005
1	1	0	351	2009
1	1	117	0	2005
1	1	130	348	2008
2	2	118	0	2005
2	0	0	0	0
1	2	122	340	2008
1	2	0	330	2009
2	2	0	0	2003
1	2	117	0	2006
1	1	0	332	2009
1	2	117	334	2005
2	2	102	0	2005
1	2	0	340	2008
1	1	0	335	2007
1	1	0	335	2008
1	1	133	328	2009
1	2	108	341	2006
1	2	0	341	2007
1	1	129	331	2008
1	2	108	0	2006
2	2	127	332	2004
1	2	127	0	2009
2	2	110	0	2005
2	1	130	0	2005
1	2	138	344	2008
1	1	99	334	2007
1	2	122	0	2006
1	2	0	338	2009
1	1	93	344	2007
1	1	133	341	2009
1	1	112	332	2009
2	2	0	0	2005
1	1	99	341	2007
1	2	97	336	2009
1	1	0	330	0
1	1	90	0	2007
1	1	129	348	2009
1	0	0	0	0
1	1	0	341	2009
1	2	105	328	2007
1	1	117	341	2007
1	1	112	344	2008
1	2	119	343	2006
2	1	133	0	2005
1	1	117	348	2007
2	2	104	0	0
1	2	110	348	2007
1	1	125	333	2007
1	2	130	0	2006
1	1	91	348	2009
1	1	110	344	2009
1	2	108	343	2006
1	1	0	338	2008
1	1	129	342	2007
1	1	125	336	2006
1	2	108	340	2008
1	1	0	338	2009
1	1	97	344	2009
1	2	100	333	2006
1	1	130	332	2009
1	2	108	0	0
2	1	122	0	2005
1	1	0	351	2009
1	2	102	332	2009
1	1	103	0	2007
2	2	95	0	2004
1	2	97	334	2008
2	1	99	0	2005
1	1	99	0	2007
2	1	135	333	2005
2	2	93	352	2005
1	2	108	0	2005
1	1	103	0	2006
1	1	110	344	2008
1	2	117	335	2008
1	1	0	339	2008
1	1	0	341	2008
2	0	118	0	2005
1	1	108	0	2007
1	1	117	0	2007
1	1	108	349	2006
1	2	0	351	2009
2	1	115	352	2005
1	2	118	349	2006
1	1	99	336	2008
1	1	97	330	2009
1	1	94	334	2006
2	1	92	0	2005
1	2	117	348	2007
1	2	0	344	2009
1	1	0	348	2008
1	2	117	335	2008
1	1	133	341	2009
1	2	129	338	2009
1	1	0	336	2009
1	1	129	337	2007
2	2	124	0	2004
2	1	93	334	2005
1	1	99	341	2007
1	2	108	352	2008
1	2	0	341	2008
2	1	102	330	2005
1	1	138	335	2008
2	1	125	0	2003
1	1	133	335	2007
1	1	122	345	2008
1	2	129	346	0
1	0	125	0	2007
1	2	95	330	2009
1	2	96	335	2007
2	2	97	0	2002
1	2	130	347	2006
1	1	99	328	2005
1	1	125	332	2009
1	1	112	333	2008
1	1	131	347	2006
1	2	137	333	2008
1	2	117	328	2009
1	2	0	337	2007
1	2	105	348	2009
1	1	133	330	2006
1	2	125	343	2007
1	1	0	341	2009
1	1	101	349	2007
1	2	117	341	2009
1	2	0	341	2009
1	2	108	333	2006
1	1	135	333	2006
1	1	101	335	2008
1	1	110	332	2009
2	1	133	333	2005
1	2	97	0	2008
2	1	102	0	2002
2	2	108	334	2005
1	2	124	338	2009
1	1	117	335	2008
1	2	138	335	2007
1	1	135	333	2006
1	1	0	338	2009
1	2	97	335	2008
1	2	110	340	2006
1	1	0	348	2008
1	1	129	343	2007
2	2	134	0	2005
2	1	117	0	2005
1	2	97	341	2009
1	2	118	0	2007
1	2	96	348	2007
1	2	133	341	2008
1	1	128	341	2007
1	1	0	0	0
1	1	110	351	2009
2	1	122	347	2005
1	2	117	337	2008
2	2	124	330	0
1	1	97	338	2009
2	2	102	337	2005
1	2	108	332	2009
2	1	133	347	2005
2	1	138	0	2005
1	2	0	344	2009
1	2	0	350	2006
3	0	0	0	0
1	2	117	335	2008
1	0	0	0	0
2	2	92	0	2000
1	1	95	0	2006
1	2	118	333	2008
1	1	110	334	2006
2	0	0	0	0
1	2	0	332	2008
1	2	108	350	2006
1	2	0	335	2008
1	1	93	333	2007
1	2	124	341	2009
1	1	117	333	2007
1	2	118	335	2007
1	1	0	341	2008
1	1	97	345	2007
1	2	0	338	2009
1	0	102	335	2008
2	2	118	0	2005
1	1	113	338	2006
1	1	0	335	2007
1	1	0	336	2009
2	2	108	0	2005
1	1	122	332	2008
2	1	117	0	2005
1	2	0	344	2009
1	2	97	0	2006
1	1	130	335	2008
1	2	0	341	2007
1	2	108	344	2008
1	2	108	349	2007
2	1	0	0	2005
1	2	0	341	2009
1	2	0	332	2009
1	0	0	0	0
1	1	0	339	0
1	0	0	0	0
1	1	117	335	2008
1	1	129	0	2007
1	1	103	0	2006
1	2	110	0	2007
1	1	97	328	2009
2	1	118	0	2004
1	2	119	350	0
2	1	108	0	2005
2	1	110	333	2004
1	0	0	335	2008
1	1	97	333	2007
1	1	0	341	2009
1	1	133	336	2008
1	1	0	334	2008
1	1	114	342	2006
1	2	96	344	2009
1	1	101	333	0
1	2	127	330	2006
1	0	131	348	2007
1	2	111	338	2009
1	1	0	328	2009
2	2	0	0	2003
5	1	0	0	2006
1	2	108	0	2008
2	2	0	0	0
2	2	130	0	2005
1	2	0	348	2008
1	1	0	330	2005
1	1	137	332	2006
1	2	108	332	2009
1	1	125	339	2008
1	2	97	343	2007
1	1	108	335	2008
1	2	110	337	2006
1	1	124	333	2007
1	1	0	0	2008
1	2	133	340	2007
1	0	0	0	0
2	1	117	0	2005
2	1	105	0	2005
1	2	123	0	2006
1	2	111	332	2009
1	1	129	341	2007
2	1	130	0	2005
2	2	108	0	2005
1	2	138	0	2006
2	2	122	0	2005
1	2	108	335	0
1	0	94	0	2006
1	2	96	336	2009
1	2	129	351	2009
1	2	108	348	2007
1	1	118	336	2009
2	2	101	0	2004
1	1	97	333	0
2	2	104	0	2005
1	1	0	334	2008
1	1	133	328	2007
2	1	108	0	2005
1	0	0	0	0
1	1	138	0	2006
1	0	0	0	0
1	0	99	0	0
2	1	92	0	2005
1	2	122	336	2007
1	2	97	328	2009
1	1	129	0	2006
1	2	122	0	2010
1	1	0	341	2009
2	0	0	0	0
1	2	99	0	2009
1	2	108	349	2006
2	2	115	0	2003
2	1	97	0	2005
1	1	107	333	2007
1	1	0	341	2009
1	1	105	348	2006
1	2	117	341	2009
2	1	118	347	2005
1	2	0	336	2009
2	1	115	0	2005
1	1	127	338	2007
2	2	122	343	2005
2	0	108	0	2005
2	2	117	350	2005
1	1	110	0	2008
1	1	0	341	2009
1	1	129	0	2007
1	2	118	0	2007
1	2	128	0	2006
1	1	97	341	2007
1	2	0	0	2008
2	2	108	0	2004
1	1	0	333	2008
1	1	110	351	2009
1	1	99	330	2009
1	1	110	338	2009
2	2	135	0	2005
1	1	105	341	2009
2	2	134	0	2004
1	1	129	328	2006
1	1	133	347	2006
1	1	0	335	2008
1	1	94	336	2007
1	1	117	335	2007
1	1	115	340	2005
1	1	118	335	2008
1	1	129	337	2006
1	2	0	344	2008
1	1	129	339	2008
1	2	0	341	2007
2	1	94	0	2005
1	2	0	338	0
1	1	0	334	2008
1	2	0	339	2007
1	2	127	333	2007
1	2	129	334	2006
1	2	97	344	2009
1	2	118	0	2006
1	1	0	335	2008
2	1	135	0	2004
2	1	94	0	2005
1	2	108	341	2008
1	2	115	334	2008
1	1	110	347	2006
1	1	92	341	2009
1	2	127	0	2006
1	1	122	336	2006
1	2	108	341	2009
1	1	108	333	2007
1	2	117	351	2005
1	2	117	334	2008
1	2	0	338	2009
1	1	108	337	2006
1	2	0	336	2009
1	2	117	348	2009
1	2	138	341	2009
1	1	0	343	2008
1	1	125	333	2006
1	1	117	341	2009
1	1	99	328	2009
1	1	129	334	2007
1	2	125	341	2008
1	1	133	333	2007
2	1	94	0	2004
1	1	121	348	2009
1	1	0	335	2008
1	1	105	341	2009
1	1	0	340	0
1	2	127	334	2008
3	2	0	0	2006
1	2	117	328	2009
2	2	108	0	2004
1	2	0	341	2009
2	2	128	0	2005
1	1	110	333	2008
1	2	108	344	2009
1	1	0	0	2008
1	1	129	341	2008
1	2	138	328	2009
1	1	125	330	2009
1	2	0	348	2008
1	2	122	341	2006
1	1	133	336	2006
1	1	106	334	2007
1	2	127	330	2009
1	1	115	333	2008
1	1	0	0	2005
1	2	134	332	2006
2	1	124	345	2005
2	0	0	0	0
1	2	104	334	2007
2	1	125	0	2004
2	1	122	0	2005
1	0	0	0	0
1	2	92	333	2005
1	1	122	350	2007
2	1	110	350	2005
1	1	0	349	2007
1	2	0	336	2009
1	1	99	334	2006
1	1	110	339	2008
1	2	110	347	2006
1	2	95	0	2007
1	1	99	0	0
1	2	104	351	2007
2	1	130	0	2004
2	1	117	0	2003
1	2	0	347	2008
1	1	97	334	2008
1	1	97	336	2009
1	2	130	341	2007
1	2	104	0	2006
1	1	0	343	2007
1	2	92	341	2009
1	1	118	344	2009
1	2	127	341	2007
2	1	117	0	2002
1	2	0	338	2008
1	1	0	344	2009
1	0	0	0	0
2	1	133	333	2005
1	1	103	333	2007
2	1	129	0	0
1	1	108	332	2009
1	1	99	328	2009
1	1	138	327	2006
1	1	109	341	2007
1	1	0	348	2009
1	1	0	341	2009
1	1	129	337	2006
2	2	127	334	2004
1	1	97	0	2006
1	2	0	0	2008
1	1	110	337	2006
1	0	110	334	2008
1	2	0	0	0
1	1	130	335	2008
1	1	132	343	2006
1	2	122	341	2007
2	2	108	337	2005
1	2	118	330	2009
1	2	122	335	2008
1	0	0	336	0
1	1	94	0	2006
1	1	110	332	2009
1	1	108	336	0
1	2	108	335	2008
1	1	0	348	2008
1	1	0	332	2009
2	2	104	0	2004
2	1	114	0	2004
1	1	138	328	2006
1	1	97	335	2008
1	1	108	344	2009
1	0	0	0	0
1	1	128	333	2008
1	1	92	328	2009
1	1	97	341	2009
1	1	102	338	2009
1	1	102	0	2007
2	0	0	0	2002
1	2	117	333	2008
1	1	117	333	2007
2	2	0	0	2005
1	1	108	335	2008
2	1	133	0	2005
1	1	122	343	2006
1	1	0	351	2009
1	1	125	329	2006
2	2	0	0	2004
1	1	129	0	2006
1	1	0	348	2008
1	1	109	330	2009
1	1	102	336	2009
1	2	0	341	2009
1	1	92	333	0
1	2	0	348	2009
1	1	122	343	2006
1	1	131	334	2008
1	1	133	347	2006
1	1	103	333	2007
1	1	0	344	2008
1	1	0	348	2009
1	1	0	348	2009
1	1	108	344	2009
1	2	117	0	2006
2	1	129	0	2005
1	2	109	0	2009
1	2	117	346	2006
1	1	102	335	2007
1	1	110	334	2006
1	2	0	348	2009
1	2	108	347	2005
1	1	97	341	2009
1	1	110	334	2007
1	1	110	330	2009
1	2	117	337	2007
1	2	0	335	2008
1	2	138	341	2009
1	1	94	341	2006
1	1	92	333	2006
1	2	128	338	2009
2	1	133	0	2004
1	1	0	0	0
2	1	93	0	2005
1	1	97	0	2007
1	2	117	334	2007
1	1	92	343	2006
1	1	127	347	2006
1	2	117	341	2009
2	1	138	0	2004
1	0	0	0	0
2	1	108	0	2004
2	2	122	0	2005
1	1	110	347	2006
1	2	95	0	2006
1	2	108	351	2008
1	1	122	348	2007
1	2	108	336	2009
1	1	96	338	2009
1	1	97	336	2009
1	1	93	341	2009
1	2	135	336	2007
1	2	108	349	2005
1	0	0	0	0
1	2	0	335	2008
3	1	0	0	0
1	1	138	0	2006
2	2	97	0	2002
1	1	125	341	2007
1	2	0	335	2008
1	1	125	0	2008
2	1	130	0	0
1	2	117	341	2007
2	1	103	0	2005
1	2	0	338	2009
2	1	110	347	2005
2	2	124	0	2004
1	2	93	347	2006
1	1	115	333	2005
1	1	127	333	2008
1	2	108	339	2007
1	1	134	335	2008
1	2	105	333	2008
1	1	0	337	2007
1	1	110	340	2006
1	1	129	0	2005
1	2	118	340	2006
1	1	108	335	2007
2	2	97	0	2005
2	1	129	0	2004
2	2	130	337	2005
1	1	129	337	2007
1	1	117	328	2009
1	2	127	342	2006
1	1	0	341	2007
1	2	0	330	2009
1	1	135	334	2007
1	1	130	348	2007
1	1	0	344	2009
1	2	108	333	2006
2	2	122	0	2005
1	2	91	0	2009
1	2	117	0	2009
1	1	0	348	2008
1	1	102	0	0
1	1	0	335	2008
1	2	118	337	2007
1	1	99	333	2007
1	2	108	334	2007
1	0	118	0	0
2	1	103	0	2005
1	0	113	0	2007
1	0	0	0	0
1	2	117	335	2008
1	2	108	337	2007
1	2	108	334	2006
2	1	108	345	0
1	2	130	338	2009
1	1	113	0	2008
1	2	122	337	2007
1	1	0	351	2009
1	2	0	332	2009
4	1	103	0	2005
1	2	108	335	2008
1	2	132	333	2007
1	0	0	333	2008
1	2	130	349	2006
1	2	110	344	2009
2	2	104	342	2004
1	2	138	0	2008
1	2	130	334	2007
1	2	0	338	2009
2	1	130	345	2004
1	2	117	338	2009
1	1	111	348	2008
1	2	127	348	2008
1	2	108	343	2006
1	1	129	0	2006
2	1	108	341	2003
1	2	108	341	2009
1	1	90	0	2006
1	2	0	335	2008
1	2	0	333	2008
1	2	108	333	2006
1	2	122	333	2006
1	2	118	0	2006
1	1	134	335	2008
1	2	0	328	2009
1	1	101	328	2009
1	1	117	337	2007
1	1	133	334	2006
1	1	129	335	2008
2	1	129	0	2005
1	2	117	335	2008
1	2	129	349	2006
2	1	129	0	2005
1	1	0	330	2009
2	2	0	0	2002
1	2	138	0	2006
1	2	122	341	2007
1	0	133	337	2006
1	1	95	347	2006
1	1	0	341	2009
1	1	0	351	2009
1	2	0	341	2008
1	1	93	328	2006
1	2	0	348	2009
1	2	108	333	2006
1	0	122	0	0
1	2	0	341	2008
1	1	0	348	2008
1	1	138	352	2006
2	0	0	0	0
2	2	129	0	2005
1	2	122	346	2007
1	2	117	335	2007
1	2	0	338	2009
2	0	102	0	2004
1	0	0	0	0
2	2	117	0	2005
1	2	117	0	2006
1	2	108	339	2007
2	2	117	0	2004
1	0	127	349	2006
1	1	0	335	2008
1	0	0	0	0
2	1	110	0	2004
1	1	125	334	2008
3	1	0	0	0
1	1	110	0	2006
1	2	108	348	2009
1	2	101	344	2008
2	2	129	337	2005
1	1	93	328	2009
1	1	0	0	0
1	1	138	333	2007
1	2	110	0	2007
1	1	99	348	2008
1	1	125	341	0
1	1	0	338	2009
1	2	108	339	2007
1	1	97	333	2008
1	1	129	345	2006
1	1	129	351	2009
2	2	130	0	2005
2	1	94	0	2005
1	2	0	338	2009
1	2	108	334	2008
1	0	0	335	2008
1	1	101	334	2006
2	2	117	347	2005
1	2	0	341	2008
2	1	101	347	2005
1	2	127	334	2008
1	1	108	0	2007
1	1	0	330	2009
1	1	125	341	2008
1	0	94	348	2006
1	2	94	0	2006
1	2	137	335	2008
1	1	108	350	2008
1	1	138	335	2008
1	1	110	343	2006
1	2	0	351	2008
1	0	0	0	0
1	0	0	335	0
2	2	108	0	2004
2	1	117	0	2005
1	1	97	346	2006
1	2	115	333	2006
4	1	0	0	0
1	1	125	0	2009
2	2	0	0	2005
1	2	108	332	2008
1	2	125	336	2009
1	2	117	338	2009
1	2	117	349	0
2	2	108	349	2005
1	1	0	332	2009
1	1	135	0	2009
1	2	137	335	2007
1	1	138	0	2006
2	1	0	0	0
1	0	0	0	0
1	2	97	336	2009
2	2	108	350	2005
1	2	108	348	0
2	1	129	347	2005
1	1	0	341	2009
1	2	122	338	2007
1	1	0	335	2008
1	1	102	334	2007
1	1	115	333	2006
1	2	0	336	2009
1	2	117	0	2007
1	2	108	337	2007
3	0	0	0	0
1	1	0	333	2008
1	1	129	0	2006
1	1	131	333	2007
1	1	102	351	2008
2	0	0	0	0
1	2	117	334	2006
1	1	99	347	2006
1	1	129	350	2008
1	1	130	333	2007
1	2	108	0	2006
1	2	0	344	2008
1	2	115	342	2006
2	1	103	0	2004
1	1	117	0	2007
1	1	0	351	2009
1	1	97	341	2007
1	1	118	0	2009
1	0	0	0	0
1	0	0	333	2007
1	1	133	335	2008
2	1	110	0	0
1	1	99	0	2008
1	2	100	348	2009
1	0	0	341	2007
1	2	0	334	2008
1	2	0	341	2009
5	1	0	335	0
2	2	96	0	2005
2	1	102	0	2005
1	1	135	330	2009
1	1	97	333	2006
1	1	0	337	2007
1	1	94	333	2008
1	1	130	335	0
2	1	110	0	2004
1	2	0	341	2006
2	1	94	0	2005
1	2	117	0	2008
1	2	119	330	2006
1	2	134	0	2007
2	2	117	0	0
4	0	0	0	0
1	2	108	348	2008
1	1	111	333	2008
2	2	132	0	0
1	1	96	341	2009
1	1	0	0	2009
1	1	110	334	2008
1	1	105	336	2009
1	2	0	344	2008
1	1	0	351	2009
2	1	108	0	2005
1	2	117	0	2006
1	1	0	328	2009
2	0	0	0	0
1	2	105	348	2009
2	1	138	0	2005
1	2	0	341	2008
1	1	106	343	2005
2	1	125	0	2004
1	1	135	336	2006
2	1	135	0	2003
1	2	130	338	2009
1	1	0	335	2008
1	2	0	328	2009
1	1	0	335	2008
1	0	0	348	0
1	2	117	0	2006
1	2	0	335	2008
2	2	125	0	2005
1	2	0	348	2009
2	1	90	0	2005
1	1	118	344	2009
1	2	0	335	2008
1	1	0	348	2008
2	2	127	0	2005
2	2	108	0	2003
2	2	127	0	2004
1	1	133	339	2008
1	2	118	334	2007
1	1	129	0	0
1	1	108	335	2007
1	1	108	341	0
2	0	128	333	0
1	1	90	0	2007
1	2	0	351	2009
2	2	102	0	2004
1	2	90	341	2006
1	2	117	341	2009
1	1	108	335	2008
1	1	0	0	2006
2	0	0	0	2004
2	1	97	0	2005
1	1	122	347	2006
4	0	0	0	0
1	1	0	333	2008
1	1	110	348	2009
1	1	0	338	2009
2	2	0	0	2003
1	1	110	334	2007
1	2	117	341	2007
2	1	101	0	2004
1	1	118	340	2008
1	2	100	335	2008
1	1	0	341	2008
1	1	0	330	2009
1	1	0	335	2008
1	1	138	335	2006
1	2	130	341	2009
1	2	108	328	2008
1	0	0	341	0
2	1	135	0	2005
1	2	117	0	0
1	2	118	334	2007
1	1	118	335	2007
1	2	108	333	2006
1	1	0	335	0
1	1	110	341	2008
1	2	0	335	2008
1	2	110	0	2008
1	1	94	335	2007
1	2	117	332	2009
1	1	0	333	2008
1	2	117	333	2007
1	2	97	344	2009
2	1	115	0	2005
1	2	118	343	2008
1	1	97	344	2007
1	0	113	343	2006
1	0	0	0	0
1	0	0	0	0
2	1	99	334	2005
1	1	131	343	2006
1	2	108	334	2006
1	2	0	0	0
1	2	0	332	2009
2	2	104	0	2003
1	2	118	341	2008
2	2	93	0	2005
2	1	108	0	2002
1	0	122	338	2007
1	1	94	341	2006
2	2	93	333	2004
1	2	0	351	2009
1	1	129	334	2006
1	1	94	0	2007
1	2	118	0	2009
1	1	118	0	2006
1	1	0	335	2008
1	1	110	333	2006
2	1	93	344	2005
1	1	97	341	2009
1	1	97	341	2007
2	2	108	343	2004
1	2	0	0	0
1	1	97	333	2007
1	0	0	0	0
1	2	117	0	2006
1	1	125	348	2009
1	1	99	345	2007
1	2	0	334	2008
1	2	122	337	2006
1	1	103	333	2006
1	2	0	341	2009
1	2	108	339	2007
2	0	99	0	0
1	1	116	333	2006
1	1	0	341	2008
1	1	97	327	2006
1	2	108	334	2006
1	2	0	348	2006
2	2	91	0	2004
1	1	0	335	2007
1	2	138	345	2006
1	1	125	333	2007
2	1	113	0	2001
1	2	101	333	2008
1	2	122	334	2006
1	0	0	0	0
2	2	99	0	2004
1	2	111	351	2008
1	2	117	341	2009
2	1	134	0	2005
2	2	122	0	2005
1	1	130	348	2008
1	0	0	0	0
1	1	118	341	2009
1	2	98	343	2008
1	1	129	339	2008
1	1	103	0	2007
5	2	106	0	0
1	2	102	340	2008
2	2	108	0	0
1	2	0	337	2007
1	1	138	0	2004
1	2	108	345	2006
1	1	0	348	2009
1	1	129	348	2009
1	2	104	334	2007
1	1	97	0	2009
1	1	130	343	2007
2	1	129	0	2004
1	2	0	335	2008
1	2	102	333	2005
1	1	129	341	2006
2	1	91	0	0
1	1	94	341	2006
1	1	0	0	0
1	1	117	352	2008
1	1	110	338	2009
1	1	138	334	2007
1	2	117	347	2006
1	2	94	335	2007
1	0	0	0	0
2	2	117	0	2004
1	2	108	337	0
2	2	93	0	2005
1	2	0	344	2009
1	2	124	0	2006
1	2	115	340	2007
1	2	108	0	2006
1	2	93	343	2006
1	1	97	328	2009
1	2	97	350	2004
2	1	97	333	2004
1	0	0	0	0
2	2	122	0	2005
2	2	95	0	2005
1	2	100	345	2006
1	2	0	349	2006
1	2	113	343	2006
1	2	0	332	2008
1	2	0	341	2009
2	1	113	0	2004
2	2	97	333	2005
1	2	108	334	2008
1	1	118	351	2008
1	1	138	0	2006
1	0	0	0	0
1	1	99	335	2008
1	1	125	344	2007
1	2	127	334	2007
1	2	128	328	2008
1	2	108	328	2009
1	1	115	332	2007
2	1	105	0	2004
1	0	0	335	0
2	1	129	349	2005
1	2	118	334	2007
1	0	0	0	0
1	2	108	334	2006
1	1	0	341	0
1	1	117	327	2007
1	2	122	344	2008
1	2	122	339	2008
2	1	134	0	0
2	2	95	0	2005
1	1	99	334	2007
1	1	0	335	2008
1	1	117	0	2005
1	0	0	0	0
1	1	129	348	2009
1	2	122	0	2009
1	1	127	0	2004
1	1	129	347	2007
1	2	128	347	2006
2	2	0	0	2004
1	2	0	348	2006
3	0	0	0	0
1	2	127	341	2007
2	0	0	0	0
1	2	117	337	2007
1	2	0	341	2008
2	2	112	0	2005
1	2	0	341	2009
1	2	103	333	2007
2	2	138	0	2005
1	1	130	331	2008
1	0	0	0	2007
2	1	122	337	2005
2	1	117	334	2005
1	1	132	334	2006
4	0	0	0	0
1	1	129	338	2009
1	1	117	0	2006
1	2	0	348	2008
1	2	117	0	2006
1	2	0	341	2009
1	2	108	337	2008
1	1	103	343	2006
1	2	138	344	2008
1	2	117	337	2007
1	2	131	0	2007
1	2	99	334	2006
2	0	0	0	0
1	2	104	333	2008
1	1	93	336	2008
1	1	102	344	2009
1	1	94	341	2006
1	2	131	0	2006
1	1	138	348	2009
5	1	93	0	2004
1	1	110	0	2006
1	2	0	0	2007
1	2	103	0	2006
1	1	108	343	2006
2	2	117	0	2004
1	2	0	335	2007
1	1	110	0	2006
1	1	94	337	2007
2	0	91	0	2004
2	1	93	0	2004
1	2	122	341	2007
1	0	0	0	0
2	1	137	0	2004
2	1	134	333	2005
1	1	0	335	2008
1	1	129	340	2008
1	1	130	341	2006
1	2	117	333	2008
2	0	93	0	2005
2	2	108	348	2005
1	2	0	348	2009
2	2	108	0	2005
1	1	0	337	2006
1	1	125	0	2006
3	0	0	0	0
1	2	97	341	2009
1	1	127	336	2008
1	2	127	334	2007
2	2	93	0	0
1	1	0	348	2009
2	1	129	0	2004
1	1	129	334	2004
2	1	134	0	2003
1	2	92	328	2009
2	1	99	0	2005
1	2	123	332	2009
1	2	108	341	2009
1	0	0	334	2008
1	2	0	335	2008
1	2	99	341	2009
1	0	122	0	2006
2	2	108	0	2004
2	2	0	0	0
1	2	95	329	2006
1	1	0	348	2009
1	2	138	0	2007
1	2	110	340	2007
1	2	122	0	2008
1	1	105	348	2008
1	1	122	334	2007
1	1	108	343	2006
1	1	110	351	2008
1	2	0	334	2008
1	2	0	334	2007
1	2	0	0	2008
