status	gender	major	dorm	year
1	0	123	209	2008
2	1	131	202	2004
1	0	137	208	2007
1	1	131	205	2006
1	2	112	204	2009
2	0	152	208	2003
1	1	112	203	2008
1	2	122	210	2007
1	1	0	203	2007
1	1	148	209	2007
2	1	113	209	2004
2	1	136	208	2004
2	1	113	209	2005
2	1	131	208	2004
2	2	139	203	2003
2	1	137	204	2004
1	1	123	207	2007
1	1	113	203	2008
1	1	135	205	2009
2	1	119	202	2004
1	2	149	208	2005
2	1	123	205	2005
1	2	142	202	2005
1	1	108	0	0
1	2	132	207	2006
1	2	119	202	2008
1	0	0	0	2005
2	1	131	210	2005
2	2	136	202	2005
1	1	124	209	2006
1	1	108	203	2006
1	2	136	208	2006
1	2	112	209	2007
1	1	125	207	0
1	2	136	206	2009
1	2	120	202	2007
1	2	142	209	2008
1	2	112	206	2009
1	0	0	0	0
1	0	0	0	0
5	2	141	203	2004
1	1	123	209	2006
5	1	131	209	2003
1	1	109	208	2007
1	2	112	208	2009
2	2	143	202	2003
2	1	114	206	2005
1	2	143	206	2008
1	2	111	204	2007
2	1	111	0	2003
2	0	0	0	0
1	2	122	203	2008
1	1	122	203	2009
1	2	118	207	2007
1	2	124	204	2008
5	2	142	0	2010
1	1	135	204	0
2	2	112	204	2004
1	1	131	208	2007
4	1	0	0	0
1	1	131	202	2009
2	1	108	208	2004
1	1	143	205	2007
1	1	132	202	2006
1	2	148	207	2008
2	1	127	210	2004
2	2	143	209	2004
1	1	124	206	2009
1	2	143	203	2009
1	1	111	206	2008
1	0	0	0	0
2	2	142	203	2004
1	1	136	205	2006
1	2	113	203	2008
1	2	139	206	2009
2	2	131	0	2005
2	1	120	205	2005
2	2	132	206	2005
1	1	120	207	2008
2	2	138	203	2001
5	1	125	205	2005
2	0	0	0	0
2	1	120	207	2004
1	2	120	204	2007
1	1	143	206	2008
2	1	131	208	2003
4	1	149	210	2006
4	1	0	0	0
1	1	131	207	2008
1	2	0	203	2009
1	2	0	208	2009
1	0	125	0	0
1	1	108	206	2007
1	1	131	205	2008
1	1	143	209	2008
1	2	121	202	2008
1	1	137	202	2005
1	1	125	203	2009
2	2	141	210	2005
1	1	127	0	2006
2	2	139	202	2005
1	2	123	206	2007
1	1	108	210	0
1	1	139	202	0
1	2	122	208	2009
1	1	131	204	2007
1	1	119	206	2007
1	2	120	204	2009
1	2	113	207	2007
2	2	0	0	2003
1	2	131	205	2009
1	0	123	209	2008
2	1	131	203	2005
1	2	0	0	2008
2	2	131	0	2005
2	2	131	204	2005
2	1	143	0	0
2	1	108	210	2005
2	2	141	205	2003
1	2	120	209	2007
1	2	125	210	2008
1	2	120	205	2006
2	2	143	203	2005
1	2	131	205	2005
2	2	131	210	0
1	2	141	209	2006
1	2	135	208	2006
2	1	131	210	2005
2	2	142	205	2005
1	2	145	202	2008
1	1	120	203	2006
1	1	125	208	2009
1	2	139	204	2009
1	1	127	202	2009
1	2	149	203	2009
1	2	128	0	0
1	1	108	205	2008
1	2	143	207	2007
1	2	133	208	2008
1	2	112	204	2008
1	1	121	205	2007
1	1	127	205	2007
1	2	142	209	2009
2	1	108	209	2005
1	2	108	202	0
1	2	127	202	0
1	2	142	208	2008
1	1	131	202	2008
2	2	143	204	2005
1	1	139	205	2009
1	1	108	209	2009
2	2	110	206	2004
1	1	114	202	2007
1	2	108	204	2006
1	2	142	205	2006
1	1	0	205	2009
2	1	131	210	2005
1	2	127	206	2009
1	2	122	207	2009
1	2	122	208	2007
1	2	123	202	2007
4	0	0	0	0
1	2	148	210	2008
1	1	120	207	2008
1	2	112	208	2010
1	1	140	204	2007
1	2	152	202	0
1	2	124	202	2007
2	1	119	203	2004
2	2	131	205	2004
1	2	141	0	0
2	2	142	209	2005
1	2	108	202	2006
1	2	141	203	2008
2	2	143	202	2003
2	0	0	0	2004
1	1	131	208	2008
1	1	122	208	2008
1	2	111	203	2007
1	2	123	208	2009
1	0	148	205	2008
1	2	142	207	2007
1	1	113	207	2006
1	1	111	206	2009
2	2	120	207	2004
2	1	112	204	2005
2	2	122	206	2005
1	0	0	0	0
2	2	112	210	2005
2	1	148	209	2005
1	2	131	207	2009
1	1	148	207	2009
1	2	136	208	2007
1	0	0	0	0
1	2	122	206	2007
2	2	127	0	2005
2	2	120	206	2004
1	2	127	205	2007
1	1	124	203	2006
1	1	108	202	2009
1	2	152	205	2009
1	2	120	202	2008
2	2	131	205	2003
1	0	0	202	0
1	2	142	203	2007
1	1	143	204	2007
2	2	138	207	2005
2	2	115	203	2005
1	1	107	207	2009
1	2	0	0	2007
1	2	131	206	2008
1	2	152	0	0
2	1	142	209	2005
1	1	0	204	2007
2	1	131	208	2005
1	1	0	203	2008
1	2	141	206	2007
1	2	127	0	2006
1	2	141	206	2007
1	2	136	208	2009
1	2	143	205	2006
2	1	131	205	2005
1	1	131	203	2007
2	1	131	208	2005
1	2	119	209	2009
1	2	131	210	2007
1	1	122	207	2009
2	2	143	210	2004
1	2	120	209	2009
1	2	115	208	2006
1	2	112	204	2006
1	1	132	202	2009
1	2	143	204	2008
1	2	136	204	2006
1	1	139	205	2006
1	1	131	204	2008
1	1	142	202	2006
2	2	143	207	2004
1	1	131	203	2005
1	1	0	202	2007
1	1	147	206	2007
1	1	124	204	2009
1	1	125	210	2009
1	2	146	206	2007
1	1	122	208	2009
1	1	131	205	2008
1	2	0	206	2009
1	2	113	202	2006
1	2	123	0	2006
1	2	131	203	2007
2	1	151	208	2003
1	2	142	206	2009
1	2	116	0	2006
1	1	0	0	2007
1	2	136	208	2009
1	2	120	203	2006
2	1	123	209	2005
1	1	125	202	2006
1	1	123	205	2007
1	1	131	204	2008
1	1	137	208	2006
1	2	123	204	2007
1	2	112	208	2006
1	2	0	0	2008
2	0	0	0	0
3	2	132	203	2008
1	1	125	204	2008
1	2	112	203	2007
2	1	132	209	2005
1	1	121	209	2007
2	2	137	203	2004
1	2	116	210	2004
2	2	142	209	2004
1	2	0	0	0
1	2	143	206	2009
1	1	124	209	2007
1	2	131	206	2007
1	2	136	206	2006
1	0	0	0	0
1	1	132	202	2009
2	2	141	203	2001
1	1	108	208	2008
1	1	126	205	2007
1	1	121	207	2007
2	2	137	204	2005
2	1	127	210	2003
1	1	108	205	2008
1	1	121	208	2006
1	1	112	206	2006
1	2	142	209	2009
2	2	123	0	2005
1	2	137	204	2009
5	2	125	0	2007
1	2	131	203	0
1	1	137	202	2008
1	2	135	203	2006
1	2	142	203	0
3	0	112	0	0
2	1	108	205	2003
1	2	136	210	2009
1	1	131	204	2007
1	1	0	206	2009
1	2	120	209	2008
1	1	108	204	2006
1	2	143	0	2007
1	1	122	203	2006
1	1	112	210	2008
1	2	120	205	2008
2	2	140	210	2005
2	1	110	202	2005
2	2	138	206	2005
1	1	0	205	2009
5	0	0	0	0
1	1	131	206	2009
1	0	142	210	2009
1	2	142	206	2009
1	2	135	207	2008
1	1	131	206	2007
2	1	125	204	2001
1	2	135	205	2006
1	1	112	206	2008
1	1	137	210	2008
1	1	112	210	2009
1	2	132	206	2008
1	1	112	202	2008
1	2	120	209	0
2	1	112	206	2004
5	0	0	0	0
5	2	116	210	2005
5	2	0	0	0
1	2	142	210	2006
1	2	138	210	2007
1	1	148	209	2008
1	1	123	208	2006
1	2	115	202	2009
1	2	143	202	2007
1	2	143	205	2008
1	2	122	204	2006
1	1	137	206	2009
1	2	143	205	2007
1	2	125	204	2009
1	2	142	202	2009
1	1	0	208	2009
1	1	123	208	2007
1	1	137	205	2005
2	0	0	0	0
2	1	124	205	2005
1	1	124	205	2007
2	1	123	209	2004
1	1	122	210	2008
1	2	120	203	2005
1	2	134	207	2006
1	1	137	205	2006
1	1	123	205	2007
5	2	136	0	2010
1	2	131	206	2007
1	2	142	203	2008
1	2	123	206	2006
1	1	118	203	2007
2	2	142	208	2003
1	1	131	204	2009
1	2	120	209	2008
2	2	123	210	2004
1	2	131	0	0
2	2	142	208	2004
1	2	142	210	2006
2	2	122	208	2004
2	2	141	0	2005
2	1	113	207	2004
3	0	114	0	0
1	1	133	209	2006
1	1	133	207	2006
1	0	0	0	0
1	1	122	208	2007
1	0	0	0	0
1	1	0	205	2006
1	1	148	207	2008
1	2	131	203	2007
1	2	122	206	2009
2	2	142	209	0
1	2	131	204	2007
1	1	0	0	2009
1	2	131	203	2006
1	2	142	204	2007
2	1	120	209	2004
2	1	123	205	0
1	1	123	210	2008
1	1	119	206	0
1	1	131	210	2007
2	1	137	207	2005
2	1	119	203	2004
1	1	108	203	0
1	2	120	205	2007
1	2	137	210	2008
1	2	120	207	2007
2	2	137	209	2005
1	1	108	210	0
1	1	124	207	2008
1	1	131	206	2008
1	0	124	203	2008
1	1	149	203	2009
2	2	142	207	2005
5	1	0	0	2008
1	2	131	209	2007
1	2	112	210	2007
1	1	132	209	2009
2	2	141	205	2004
1	2	122	0	2007
1	1	143	206	2007
1	1	108	202	2007
2	0	0	0	0
1	2	141	202	2006
2	0	0	0	0
1	2	115	202	2006
1	2	0	207	2006
2	2	113	208	2004
1	2	123	205	2008
1	1	131	205	2007
1	1	108	206	2008
1	2	140	204	2007
1	2	125	210	2009
1	1	122	204	2006
1	2	143	202	2006
2	1	137	209	2004
1	2	131	204	2007
5	2	132	0	2008
2	1	0	0	2005
2	1	108	202	2005
1	2	113	0	2008
1	1	131	206	2009
1	2	0	0	2006
2	0	0	0	0
1	0	0	0	0
1	1	123	207	2008
1	1	137	204	2008
2	1	108	209	2004
1	1	127	209	0
1	2	112	204	2006
1	2	127	207	2007
1	2	143	209	2006
5	2	131	0	0
1	1	112	206	2008
1	2	142	207	2007
1	2	131	207	2008
1	1	116	205	2005
2	1	0	0	2003
1	2	127	209	2007
2	2	143	205	2004
2	2	149	0	2005
2	2	112	203	2005
1	1	132	205	2008
1	1	139	202	2009
2	2	132	206	2000
1	2	143	207	2008
1	2	148	204	2007
1	2	139	203	2008
1	2	125	203	2009
2	1	122	210	2004
2	1	123	0	2005
1	1	108	206	2008
1	1	131	203	2007
1	2	0	209	2009
1	1	122	210	2009
1	1	108	210	2009
1	1	108	207	2008
1	1	0	205	2007
1	2	132	205	2008
1	1	127	202	2009
1	1	122	203	2007
1	2	132	208	2005
2	2	133	205	2004
1	1	125	206	2007
2	2	115	208	2005
2	0	142	205	2005
2	2	122	206	2005
1	1	131	203	2009
2	1	118	0	2005
1	2	112	0	2005
1	2	121	208	2006
2	1	142	202	2000
2	2	115	208	2004
1	2	143	202	2007
1	2	113	207	2007
1	1	131	207	0
1	0	112	203	2006
1	1	121	206	2008
1	0	0	0	0
1	1	0	210	2008
2	2	142	205	2001
2	2	132	203	2005
1	2	120	207	2007
1	2	125	208	2008
2	1	138	207	2004
1	2	120	209	2006
2	2	108	210	2004
1	2	142	204	2007
1	1	131	209	2009
1	2	123	209	2007
1	2	108	207	2006
1	2	141	206	2005
1	2	142	208	2008
1	2	131	205	2009
1	1	124	208	2007
1	1	131	203	2008
1	1	108	209	2008
1	1	148	203	2008
1	1	108	209	2007
1	2	143	206	2009
1	2	137	208	2007
1	2	108	203	2006
1	0	125	0	0
1	2	108	0	2006
1	2	138	209	2009
2	2	122	206	2004
1	1	0	208	2008
1	1	127	204	2006
1	2	131	208	2009
2	2	112	207	2002
1	1	114	209	2006
1	1	131	206	2006
1	1	137	207	2009
2	2	138	0	2005
1	1	125	205	2009
2	2	112	202	2005
2	2	113	208	2004
1	2	119	0	0
1	2	121	203	2007
1	2	143	210	2007
1	1	138	202	2006
1	2	120	202	2007
1	1	0	205	2008
1	2	139	205	2008
1	2	112	205	0
1	1	0	207	2007
1	2	108	203	2008
1	1	131	209	2009
1	2	128	205	0
1	1	131	202	2007
5	2	137	0	2009
1	1	131	204	2008
1	1	0	202	2007
1	1	111	204	2008
1	1	122	210	2008
1	1	127	0	2008
1	1	0	203	2007
1	1	116	210	2008
2	2	142	205	2000
2	1	129	204	2005
1	2	143	206	2006
2	2	131	205	0
1	2	137	204	2009
1	1	113	207	2006
2	2	137	207	2005
2	1	119	0	2005
1	2	132	203	2009
1	1	136	205	2008
1	1	114	203	2008
1	2	123	209	2006
1	2	136	207	2009
1	2	122	207	2007
2	2	116	208	2005
1	2	136	209	2009
1	1	108	210	2009
1	0	0	0	0
2	1	143	202	2005
1	2	144	207	2007
1	1	125	207	2006
2	1	108	205	2004
2	2	143	202	2004
2	2	131	0	2005
1	2	131	205	2008
1	2	114	204	2007
1	1	123	203	2006
2	2	137	208	2005
1	2	141	204	2009
1	2	123	207	2006
1	1	123	208	2007
2	2	112	208	2004
1	1	123	202	2009
2	1	133	208	2003
1	1	122	210	2008
1	1	137	202	2009
3	2	112	0	0
1	2	143	202	2008
4	2	0	0	0
1	1	138	204	2006
2	2	133	208	2004
1	1	108	207	2008
1	2	143	204	2007
1	2	143	209	2006
1	1	0	205	2008
2	2	123	210	2005
1	1	131	207	2006
1	1	0	202	2009
1	1	122	207	2009
1	1	120	210	2006
5	2	132	0	2008
1	2	125	209	2009
1	1	122	206	2007
2	1	108	205	2004
1	2	142	205	2006
1	2	121	202	2008
1	1	136	210	2009
1	1	124	210	2006
1	1	127	208	2009
5	1	123	209	2002
4	1	0	0	0
1	1	139	203	2007
1	0	0	0	0
1	1	113	207	2009
1	2	121	207	2006
1	1	111	206	2008
1	2	125	204	2006
1	2	142	210	2007
2	2	112	204	2005
1	2	149	203	2006
1	1	108	210	2006
1	1	142	205	2009
2	1	112	0	2004
1	2	132	202	2009
2	1	124	202	2002
1	1	118	209	2005
1	1	120	206	2007
1	2	120	209	2008
1	2	127	207	2008
1	2	142	202	2006
1	2	122	203	2009
2	2	141	208	2004
1	1	121	206	2009
2	1	122	204	2004
1	1	134	204	2009
1	2	108	204	2009
2	2	139	210	2005
1	1	133	205	2006
2	2	127	209	0
1	2	108	210	2006
1	1	127	210	2009
1	1	106	208	2008
2	1	122	203	2005
1	1	141	0	2004
1	2	143	202	0
1	0	143	207	2008
1	2	131	208	0
1	1	131	207	2007
1	1	114	209	2008
1	2	0	210	2008
1	2	127	210	2007
1	2	142	203	2008
1	1	131	202	2007
1	2	131	203	0
1	1	131	206	2008
2	1	125	204	2004
1	1	114	210	0
1	2	120	0	2008
1	1	131	206	2007
2	1	134	0	2005
1	1	0	208	2009
1	2	137	0	2008
1	2	131	203	2008
2	2	142	207	2004
1	2	141	205	2009
2	1	108	206	2004
1	2	108	203	2007
2	1	124	210	2005
1	2	136	203	2007
1	1	143	204	2008
1	2	122	207	2008
1	0	0	0	0
2	2	142	208	2005
2	1	133	207	2004
1	0	131	207	2006
2	2	131	208	2005
5	2	111	0	0
1	2	131	207	2007
1	2	131	203	2007
2	2	141	204	2001
1	2	136	206	2005
1	1	108	208	2006
2	2	142	209	2004
1	2	142	206	2006
1	2	137	204	2007
1	2	131	204	2008
1	1	136	206	2007
2	2	137	202	2004
1	1	133	210	2008
1	2	116	206	2006
1	1	131	202	2008
1	2	138	203	2008
1	2	124	204	2006
1	2	138	203	2006
1	2	139	207	2008
2	2	142	202	2004
2	2	141	203	2003
5	1	125	0	2007
1	2	137	205	2006
1	2	131	205	2007
1	0	0	0	0
1	1	113	204	2006
1	1	131	207	2007
1	1	125	202	2007
1	1	142	205	2007
1	2	119	210	2007
1	2	149	203	2007
1	1	125	204	2006
1	2	120	206	2008
1	1	127	0	2008
5	2	114	0	0
2	2	113	208	2004
2	2	138	210	1980
1	1	144	203	2007
1	2	120	205	2008
1	1	138	207	2007
1	0	0	0	0
1	2	125	204	2009
2	2	138	210	2005
1	2	120	210	2009
1	2	143	203	2009
5	2	135	0	2005
1	1	123	203	0
2	2	109	206	2004
2	1	123	206	2001
1	2	131	205	2009
1	2	108	207	2005
1	2	137	209	0
1	2	114	202	2006
2	1	143	203	2005
1	0	0	0	0
2	2	138	202	2002
1	2	126	204	2005
1	1	120	207	2006
1	2	123	207	2007
1	2	131	205	2007
1	0	0	0	0
2	2	136	207	2004
2	2	125	208	1973
1	2	120	209	2005
1	1	137	207	2009
2	1	122	202	0
2	1	149	204	2005
1	1	137	204	2009
1	1	137	202	2008
1	2	143	206	2008
2	2	0	206	2003
2	2	136	203	2005
2	1	112	210	2003
2	1	109	204	2004
1	2	131	206	2008
2	1	108	208	2005
2	1	108	0	2005
1	1	125	210	2008
1	1	0	203	2009
1	1	123	208	2006
2	1	138	208	2005
2	2	142	206	0
2	1	113	207	0
1	2	112	208	2006
1	1	132	208	2007
1	1	112	205	2006
1	1	143	205	2006
1	2	136	203	2007
2	0	120	206	2004
1	1	122	209	2006
2	1	113	203	2004
2	1	114	205	2003
1	0	137	209	0
1	1	134	210	2006
2	1	112	0	2004
1	2	136	207	2009
3	0	0	0	0
1	2	113	202	2009
1	2	131	204	2006
1	1	137	205	2006
1	2	120	202	2007
1	2	135	206	2007
1	1	112	207	2007
1	2	122	207	2008
1	2	122	205	2009
1	2	108	205	2007
1	2	113	203	2009
1	2	134	208	2006
1	2	121	210	2008
1	1	131	205	0
2	2	120	202	2004
1	2	121	206	2007
1	1	114	204	2009
1	2	122	205	2007
1	1	108	204	2008
1	1	143	203	2006
2	1	112	205	2004
2	1	123	202	2005
1	0	0	0	0
1	2	143	210	2009
5	2	142	0	2010
1	1	131	210	2007
1	2	139	203	2005
2	1	131	204	2005
1	1	123	209	2006
1	2	141	205	2009
2	2	141	206	2005
2	1	120	202	2003
1	0	0	0	0
1	1	112	204	2008
1	2	0	210	2007
1	2	119	204	2007
2	2	118	203	2004
1	1	139	203	2007
1	2	0	208	2008
1	2	0	202	2007
1	1	131	203	2008
1	1	106	205	2007
1	1	124	206	2009
2	1	127	0	2005
1	0	0	0	0
1	1	113	203	2007
1	2	123	204	2009
1	2	149	204	2009
1	2	0	209	2008
1	2	135	209	2006
2	1	113	202	2003
1	1	123	203	2009
1	2	143	204	2008
1	2	141	203	2007
1	1	131	209	2008
1	1	108	210	2009
1	2	135	210	2006
1	2	136	207	2007
1	1	124	205	2005
5	1	109	0	0
1	1	131	203	2006
1	1	114	205	2007
2	2	142	203	2004
1	2	131	205	2009
1	0	0	0	0
2	1	142	209	2004
1	2	106	209	2007
5	2	127	0	2007
2	2	142	210	2002
2	2	142	207	2005
2	2	112	208	2005
1	1	148	203	2007
5	0	140	0	0
2	0	0	203	2005
5	1	134	0	0
2	1	108	209	2004
1	2	142	207	2007
1	2	139	208	2007
2	1	131	205	2005
1	1	127	205	2006
2	2	122	204	2005
1	2	137	207	2006
1	1	137	202	2009
1	2	123	207	2007
1	2	127	205	2008
1	2	143	204	2006
1	2	136	208	2009
1	1	0	202	2009
1	0	141	202	2007
1	1	143	204	2007
1	2	137	210	2009
1	2	0	204	2009
1	2	120	206	2008
1	2	152	208	2009
2	2	151	208	2005
1	2	120	203	0
1	2	120	205	2006
2	2	141	205	2003
5	1	136	209	2004
1	1	115	207	2007
1	2	142	207	2007
1	0	0	0	0
1	2	131	206	2006
1	1	131	0	2007
1	2	142	206	2009
2	2	0	208	2004
5	2	0	0	0
5	1	114	0	2010
2	2	136	205	2005
1	1	122	206	2006
2	1	137	206	2005
1	2	143	205	2008
1	1	108	204	2007
1	2	120	0	0
2	1	119	203	2004
1	1	0	205	2009
1	2	122	208	2007
3	2	122	0	0
1	2	142	203	2006
1	2	122	207	2007
1	1	0	210	2007
1	2	138	205	2008
1	1	113	202	2006
2	1	122	209	2004
1	1	148	208	2007
1	1	0	0	0
2	1	141	208	2004
2	2	135	0	0
2	1	124	0	2005
1	1	108	202	2007
1	2	143	204	2009
1	1	131	208	2007
1	1	139	205	2005
2	1	124	203	2004
2	1	137	207	2004
1	1	0	205	2008
2	1	133	210	2003
1	2	125	206	2005
2	1	143	206	2003
2	1	124	0	2004
2	1	122	202	2005
1	1	137	208	2009
1	1	138	210	2007
1	2	0	207	2008
1	2	0	210	2007
1	1	108	207	2007
2	0	123	206	2004
2	2	143	202	2005
1	1	112	207	2005
1	1	138	204	2006
2	2	108	210	2003
1	1	139	209	2007
1	1	131	210	0
1	2	142	203	2005
1	1	121	209	2006
1	1	146	205	2008
1	2	131	206	2006
2	1	119	209	2005
1	2	120	202	2008
2	1	123	0	2005
1	1	121	205	2007
2	2	131	204	2005
1	1	121	202	2006
1	2	141	209	2006
2	1	133	202	2003
1	2	143	208	2008
2	1	0	0	2005
1	1	132	0	2006
1	1	132	209	2009
1	1	123	205	2006
1	1	112	207	2007
1	1	131	210	2007
2	2	114	202	2005
1	1	106	206	2005
5	2	131	0	2006
1	2	143	203	2010
2	0	0	0	0
1	1	143	206	2006
1	2	122	209	2007
1	1	0	206	2007
2	2	133	205	2005
1	1	125	202	2008
2	2	141	209	1997
2	0	0	0	0
2	2	143	209	2003
1	2	113	205	2007
1	1	131	205	0
1	2	132	210	2006
1	1	112	203	2007
5	2	137	207	2004
1	2	120	204	2007
2	2	121	210	2005
2	1	139	209	2001
1	1	113	206	2007
1	2	135	206	2008
1	1	144	0	2006
2	1	112	207	2005
2	2	142	208	2003
1	2	0	210	2009
1	0	131	206	2008
1	2	136	203	2009
1	2	112	203	2007
2	1	112	209	2004
1	1	113	202	2008
1	2	143	203	2009
1	1	131	204	2006
1	1	138	203	2007
1	2	0	203	2009
1	2	143	205	2009
2	1	122	207	2003
1	2	137	210	2006
1	2	0	203	0
1	1	122	207	2007
2	0	0	0	0
1	0	0	0	0
2	2	124	203	2004
1	2	108	0	2005
1	1	131	207	2008
1	2	138	208	2008
1	1	139	203	2007
1	2	135	205	2008
1	2	108	0	2006
1	2	143	203	2007
1	2	121	205	2007
1	1	124	206	2008
1	2	142	208	2009
1	2	127	0	0
1	0	106	0	0
1	1	112	203	2006
2	0	119	204	2005
1	1	127	207	2008
1	2	151	205	2009
1	2	143	209	2008
2	0	0	0	0
1	2	122	209	2009
1	2	122	203	2008
1	1	139	208	2006
2	0	0	204	0
1	1	136	209	2005
2	2	131	208	2005
1	1	115	203	2007
2	1	131	206	0
1	1	138	209	2006
1	2	143	209	2009
1	1	131	204	2007
2	2	122	208	2003
1	2	142	205	2007
2	1	112	202	2003
5	2	108	0	2004
3	1	152	210	2010
2	1	139	208	2004
2	1	112	205	2005
1	2	120	207	2009
2	1	140	208	2004
1	2	0	206	2007
2	2	108	210	2003
1	2	143	207	2007
1	1	125	203	2007
2	1	122	207	2004
4	1	0	0	0
1	2	122	206	2006
1	2	135	209	2007
1	1	119	210	2006
1	1	116	207	2007
1	1	0	209	2007
1	0	0	207	2006
2	2	137	206	2005
1	2	0	0	0
1	1	113	202	2009
1	1	137	206	2009
1	1	148	206	2009
1	2	131	208	2009
1	1	0	206	2009
4	0	0	0	0
2	2	115	208	2004
1	0	122	0	2005
1	2	138	207	2006
3	2	134	0	0
1	1	137	203	2009
1	1	137	209	2006
1	0	0	0	0
1	0	0	0	0
2	2	137	210	2004
1	2	137	207	2006
1	2	0	207	2009
1	1	124	210	2007
1	1	148	210	2009
1	1	131	206	2007
1	1	138	208	2009
1	2	136	206	2006
1	1	108	208	2008
1	2	138	207	2008
2	1	131	0	2005
1	2	143	202	2008
1	1	132	204	2006
1	2	132	207	2007
1	2	111	207	2007
1	2	0	207	2006
1	1	125	208	2008
1	2	0	0	2006
1	1	106	205	2007
1	2	125	206	2009
1	2	115	210	2006
1	1	132	208	2007
1	1	138	203	2007
1	2	152	208	0
2	2	120	0	2005
1	0	112	208	0
1	2	143	210	2009
1	1	125	0	2007
1	1	148	210	2008
1	2	108	0	0
1	2	113	202	2009
1	2	143	208	2006
1	1	131	207	2007
1	1	147	204	2007
1	1	108	210	2007
1	2	142	207	2006
2	1	133	210	2005
2	1	133	205	2004
1	2	120	208	2006
1	1	150	204	2007
1	1	135	0	2006
1	2	120	207	2008
1	1	141	203	2007
1	2	138	210	2007
2	2	108	203	2004
1	1	127	202	2008
1	1	108	205	2008
1	1	108	208	2007
1	2	120	205	2005
1	2	120	210	2007
2	2	135	205	2004
1	0	139	208	2009
1	1	132	207	2008
2	1	146	206	2005
1	2	125	203	2007
2	0	0	0	0
2	2	0	205	0
1	0	137	208	2006
5	2	136	0	0
1	2	139	207	2006
1	2	0	210	2009
1	2	113	203	2006
1	1	120	202	2009
2	0	0	0	0
1	1	137	209	2008
1	1	122	210	2009
1	1	131	204	2008
2	1	123	208	2002
2	2	142	0	0
1	1	138	207	2007
1	1	143	207	2009
1	2	151	206	2006
1	2	131	203	2009
1	1	115	210	2008
2	1	119	208	2004
2	1	143	210	2005
5	1	112	0	2008
2	2	135	203	2005
2	2	131	208	2000
1	1	112	207	2008
1	2	0	206	2009
1	2	136	205	2009
2	2	123	202	2004
2	2	136	203	2003
1	0	152	204	2006
1	1	123	208	2007
1	2	121	209	2008
2	2	137	204	2004
1	1	123	208	2007
2	0	0	0	0
5	0	0	0	0
1	2	140	209	2009
1	2	141	206	2006
1	1	133	202	2009
1	1	136	0	2004
1	2	141	206	2006
1	1	124	207	2006
2	1	120	0	2004
1	0	0	209	0
1	2	142	209	2008
1	1	132	210	2006
2	1	131	210	2005
1	2	121	205	2009
2	2	127	0	2004
1	1	138	203	2006
1	2	131	210	0
1	2	125	204	2007
2	2	131	204	2004
2	2	136	0	2005
1	1	122	205	2005
1	2	147	205	2008
1	1	138	207	2006
1	2	127	203	2008
2	1	108	0	2005
1	1	131	204	2006
3	2	109	0	0
1	1	137	203	2006
1	1	137	203	2008
2	2	123	208	2004
1	2	141	206	2007
1	2	131	207	2007
1	2	0	206	2009
2	1	120	205	2005
2	1	124	0	2005
1	1	119	206	2009
1	2	137	207	2007
1	1	121	203	0
1	2	142	207	2007
1	1	150	207	2009
1	2	141	209	2008
1	1	148	210	2009
1	0	0	207	2008
5	2	141	0	2004
1	2	139	210	2006
1	1	112	203	2007
1	2	137	207	2006
1	1	142	204	2007
1	1	131	209	2009
1	1	131	202	2008
4	2	138	0	0
1	1	139	205	2007
1	1	108	202	2008
1	1	114	205	2008
2	2	142	210	2004
1	2	112	206	2007
1	2	113	205	2008
2	1	137	208	2004
1	1	127	206	2007
1	2	131	209	2009
1	1	0	202	0
2	1	108	209	2005
1	2	137	207	2008
1	1	113	202	2008
1	2	136	202	2006
2	2	138	0	0
1	2	112	208	2008
1	2	131	204	2007
1	0	138	207	2008
1	2	0	210	2007
1	2	120	0	2004
1	1	108	206	2007
1	2	143	210	2008
1	1	122	209	0
1	1	142	210	2008
1	2	0	209	2008
1	1	112	202	2006
1	2	137	210	2008
2	2	141	205	2004
1	1	112	208	2008
1	2	108	204	2006
5	2	143	0	0
1	2	115	206	2009
1	2	122	206	2007
2	1	124	208	2005
1	2	0	208	2008
1	1	138	203	2006
1	1	123	203	2006
1	1	108	204	2007
1	1	108	210	2008
1	2	147	202	2007
2	2	0	206	2005
1	2	140	208	2008
1	2	122	210	2008
1	2	143	206	2009
1	2	149	0	2006
1	2	142	205	2009
2	1	114	208	0
1	1	122	202	2007
1	1	120	207	2007
1	2	123	202	2009
1	1	122	206	2007
1	1	123	203	2007
1	2	120	208	2007
1	2	143	205	2007
2	1	114	209	2005
2	2	120	204	2002
1	2	143	210	2009
1	2	127	0	0
1	1	108	204	2006
2	1	113	0	2004
1	1	123	204	2009
2	2	111	202	1999
1	2	142	210	2007
1	1	108	203	2008
1	0	0	0	0
1	2	108	205	0
1	2	122	210	2008
1	1	108	205	2005
2	1	120	208	2004
1	0	127	207	2007
1	0	0	0	0
2	2	142	209	2005
1	1	127	203	2007
2	2	112	209	2005
1	2	115	209	2008
1	1	0	205	2008
1	2	131	204	2008
2	2	127	207	2005
2	1	131	203	2004
2	0	0	0	0
1	1	119	206	2007
1	2	137	206	2009
2	1	108	205	2004
1	1	113	206	2006
1	1	131	208	2008
1	1	142	0	0
2	1	0	204	0
2	1	123	210	2005
1	1	143	209	2008
1	2	120	204	2006
1	2	121	202	2006
1	1	137	208	2009
1	2	135	207	2008
1	2	0	0	0
1	0	0	204	0
2	2	131	203	2004
5	2	112	209	2005
1	2	113	210	2009
1	2	138	210	2008
1	1	122	209	2009
1	2	113	207	2006
1	1	113	208	2008
1	2	120	0	2007
1	1	113	205	2006
2	1	112	208	2005
1	1	108	208	2006
1	1	106	207	2006
2	1	112	204	2004
1	2	131	203	2009
1	2	137	209	2007
1	1	137	208	2009
1	2	108	209	2007
1	1	127	0	2006
2	1	122	209	2001
1	2	106	206	2006
2	2	127	209	2004
1	1	122	209	2006
1	2	143	202	2006
1	2	143	207	2005
1	1	122	203	2007
1	2	137	202	2009
2	2	112	205	2005
2	1	137	210	2005
1	2	143	207	2009
2	0	114	0	2004
1	2	143	202	2009
2	1	122	202	2004
1	1	123	208	2007
1	0	0	203	2006
1	0	0	0	0
1	1	135	205	2007
1	0	148	209	2006
1	1	135	208	2007
1	2	120	206	2008
1	1	112	204	2009
1	1	123	204	2007
1	2	132	203	2007
2	2	115	205	1995
1	2	131	209	2007
1	2	144	204	2005
2	2	0	206	2002
1	1	125	0	2006
1	1	123	205	2007
1	2	131	0	2008
3	1	134	0	0
2	0	0	0	0
1	2	0	0	0
1	1	119	209	2007
1	2	132	206	2009
2	1	124	202	2005
1	2	135	203	2007
1	1	0	207	2009
2	2	132	208	2005
2	1	127	0	2005
1	1	131	207	2008
1	2	143	209	2009
1	2	127	204	2007
2	2	108	0	2005
2	2	123	204	2005
1	2	137	207	2005
4	1	124	0	1995
1	1	108	206	2007
1	2	122	210	2006
1	0	120	203	0
1	2	121	207	2007
1	1	0	208	2004
1	2	0	202	2008
1	2	137	210	2007
1	0	0	210	0
1	1	127	205	2009
1	1	123	210	2009
4	0	0	0	0
2	1	123	202	2002
1	2	137	209	2008
1	1	133	203	2005
1	2	135	205	2007
2	2	120	209	2003
1	1	135	208	2007
1	2	138	210	2006
1	1	131	210	2009
1	2	142	209	2005
1	2	135	208	2009
1	1	133	208	2009
1	1	124	204	2008
1	1	106	203	2008
1	2	136	206	2009
5	0	0	0	0
1	2	0	208	2009
2	1	0	0	2005
2	1	123	210	2005
2	1	114	204	2004
1	1	112	210	2007
5	1	0	0	2006
1	2	135	207	2008
2	0	124	209	2003
2	0	0	0	0
1	1	144	210	2006
2	2	138	205	2004
1	1	131	208	2006
5	2	149	204	2006
2	1	123	202	2004
1	1	123	207	0
1	2	137	205	2008
1	1	127	202	2008
1	0	0	0	0
1	1	131	203	2007
2	1	151	209	2005
1	1	0	206	2008
2	1	118	202	2005
1	1	125	207	2005
1	2	120	204	2005
1	1	148	209	2008
1	1	0	207	2007
1	1	0	209	2009
1	2	0	207	2008
1	2	141	209	2006
1	1	137	203	2006
2	1	127	0	2005
1	2	131	204	2008
2	1	108	208	2004
1	1	134	208	2007
1	1	125	206	2007
2	0	137	209	2005
1	1	127	203	2009
1	2	120	0	0
5	2	143	0	2005
1	2	141	203	2009
2	1	119	210	2005
5	2	136	0	0
1	2	0	210	2009
1	2	127	204	2009
1	2	152	204	2009
1	1	131	205	2008
1	1	120	204	2006
2	1	135	205	2005
1	1	119	209	2006
1	2	122	203	2008
2	2	131	207	0
2	0	0	0	0
1	1	108	208	2009
1	1	127	0	2006
1	1	113	204	2009
5	2	136	0	2008
1	2	121	205	2008
1	1	123	207	2008
1	1	118	209	2008
1	2	142	210	2008
1	1	123	209	2008
1	2	148	202	2008
5	2	140	204	2005
1	1	120	202	2008
1	2	143	0	2005
1	2	131	205	2006
1	2	120	205	2006
2	0	144	210	2005
1	2	138	210	2008
1	2	123	203	2006
1	2	115	203	2008
1	1	124	208	2008
1	2	138	202	2009
1	1	106	208	2007
1	2	0	203	2009
1	2	138	209	2006
1	1	136	203	2009
1	2	132	205	2006
1	2	123	207	2007
2	1	152	205	2004
1	2	131	203	2006
1	1	131	209	2008
2	1	112	210	2004
1	1	108	209	2009
2	2	141	202	2002
1	2	121	208	2006
1	1	119	205	2009
1	1	108	209	2008
2	2	142	208	2004
1	2	119	210	2007
1	2	127	206	0
1	2	0	204	2007
1	2	149	210	2007
1	2	141	203	2008
1	1	123	203	2007
2	1	112	204	2005
2	1	113	204	2005
1	2	120	205	2007
1	1	131	202	2007
4	2	0	0	0
1	2	122	202	2007
1	1	122	208	2008
2	2	120	206	2005
2	2	143	204	2005
1	2	0	206	2009
2	0	131	206	0
2	1	140	203	2004
1	1	131	202	2006
4	2	0	0	0
2	2	120	202	2004
1	1	0	209	2008
1	2	113	202	2007
2	2	113	205	2005
2	1	151	205	2004
1	0	0	0	0
1	1	139	202	2008
2	2	124	205	2005
2	1	143	203	2005
2	1	132	202	2005
1	1	141	206	2008
1	1	123	208	2006
1	1	113	204	2008
1	1	132	203	2007
1	2	114	209	2008
1	2	113	204	0
1	2	131	208	2007
1	2	141	206	2007
1	1	143	202	2008
5	1	109	0	2009
1	1	143	206	2008
2	2	122	203	2004
1	2	122	206	2009
2	2	141	205	2004
1	2	127	202	2008
1	2	131	209	2008
2	1	123	202	2005
1	2	138	202	2008
4	2	0	204	0
1	1	115	210	2005
1	2	0	203	2008
1	1	131	203	2006
1	1	137	206	2009
1	2	140	208	2008
1	1	131	209	2006
1	1	110	204	2007
1	2	0	207	0
2	1	124	206	2005
1	2	143	204	2009
1	0	137	0	0
1	2	123	202	2008
2	1	0	0	2004
2	1	131	207	2005
1	2	121	205	2007
1	2	143	209	2007
1	2	143	209	2008
1	1	131	204	2009
1	1	139	0	2006
1	1	131	202	2009
2	1	127	209	2004
1	2	141	203	2007
1	2	120	207	2005
1	1	118	205	2008
1	0	152	206	0
1	2	136	205	2006
1	1	139	210	2005
1	1	112	206	2006
1	1	120	204	0
1	2	145	204	2006
1	2	137	210	2009
2	2	131	205	2004
1	2	113	204	2005
1	2	131	208	2008
1	1	123	204	2008
1	2	138	203	0
1	1	143	207	2007
1	2	147	202	2008
1	2	141	203	2006
2	1	122	202	2005
2	2	120	207	2005
1	2	143	204	2008
1	2	122	207	2009
1	2	133	210	2006
2	2	0	204	2004
1	1	119	209	2009
1	2	0	209	2008
1	2	137	202	2009
3	1	146	0	0
1	1	119	0	2008
1	1	120	203	2007
1	2	121	202	2008
1	2	122	203	2008
1	2	0	208	2009
1	1	148	208	2008
1	2	113	206	2006
1	1	0	208	2007
1	2	115	207	2008
5	2	115	0	0
1	2	143	207	2007
2	1	127	209	0
1	2	149	204	2007
1	2	112	205	2007
1	1	131	203	0
1	1	148	205	2007
1	2	142	206	2006
1	2	122	204	2006
2	1	121	0	2005
1	2	141	210	2008
2	2	143	208	1997
1	2	120	202	2008
2	2	120	205	2000
1	2	141	210	2009
1	2	149	0	0
1	2	122	209	2008
1	2	137	203	2009
1	1	127	207	2006
1	1	123	202	2007
1	2	143	204	2006
1	1	108	208	2008
1	1	0	208	2009
1	2	147	210	2008
1	2	131	208	2006
1	1	148	207	2006
1	0	137	208	0
2	1	119	207	2005
1	1	131	205	2006
2	2	0	204	2004
1	2	142	206	2009
1	1	0	204	0
1	1	0	209	2007
3	2	127	0	0
1	2	0	210	2009
1	2	115	204	0
1	1	124	202	2008
1	1	120	206	2009
2	2	125	210	2004
1	2	120	210	2008
1	1	108	207	2007
1	2	120	202	2007
1	1	134	208	2008
1	2	131	207	2007
1	2	113	0	2006
2	1	137	204	2005
1	2	0	206	2008
1	2	120	209	2005
2	2	142	202	2005
1	1	0	205	2009
1	2	131	209	2006
1	1	108	205	0
1	2	121	205	2006
1	2	123	202	2008
1	2	143	208	2009
1	2	142	202	2009
5	2	136	0	2010
1	1	137	210	2009
1	2	115	207	2006
1	2	123	202	2009
1	2	137	210	2006
1	2	137	205	2007
1	2	120	205	2007
1	1	120	207	2006
1	1	122	207	2005
2	2	142	202	2004
1	2	112	202	2006
1	1	123	202	2008
1	1	131	209	2009
1	1	123	208	2006
1	2	125	206	2006
2	1	122	204	2004
2	2	136	0	0
1	1	142	209	0
1	2	120	208	2007
1	2	135	202	2007
2	2	131	207	2004
1	1	123	203	2007
1	1	132	205	2007
2	2	120	205	2004
2	1	123	0	2005
5	2	149	206	2006
1	1	151	203	2006
1	2	135	203	2006
1	1	121	202	2006
1	2	113	207	2008
2	2	141	207	2005
1	2	125	208	2007
2	0	0	0	0
1	1	132	210	2008
1	1	123	209	2009
1	1	122	209	2007
2	2	138	204	2003
1	0	116	0	2007
2	2	143	202	2004
2	2	115	210	2003
1	0	0	0	0
1	1	131	209	2009
1	1	124	202	2006
1	2	108	205	2009
2	1	139	209	2005
1	2	138	206	2009
1	2	120	203	2006
1	0	0	0	0
1	1	0	208	2009
1	0	0	0	0
1	2	122	204	2006
1	1	131	203	2008
1	1	147	205	2006
1	0	0	0	0
1	2	108	208	0
1	2	142	206	2008
1	1	131	206	2006
1	1	120	208	0
1	2	131	204	2008
2	1	111	206	2005
1	1	108	202	2008
1	2	149	203	0
1	2	121	0	2005
1	2	127	208	2006
2	0	0	0	0
2	2	142	203	2003
1	1	136	203	2008
1	2	114	209	2006
2	1	0	210	2005
1	1	122	203	2009
2	2	120	209	2004
1	2	143	203	2009
1	1	113	205	2009
1	2	151	206	2007
1	1	127	202	2005
1	1	131	202	2007
1	2	137	207	2009
2	2	141	202	1999
1	2	142	204	2009
1	1	131	202	2009
2	2	121	204	2002
1	1	138	207	2008
1	0	0	0	0
1	2	120	203	2006
2	0	0	0	0
1	2	131	206	0
1	2	137	207	2008
5	2	131	0	2008
1	1	125	207	2007
1	2	132	207	2009
2	2	142	203	2004
1	1	143	202	2008
1	1	137	206	2009
2	1	110	208	2005
1	2	120	210	2007
1	2	149	209	2008
1	1	138	205	2009
1	1	133	206	2009
2	1	143	209	2005
1	2	107	202	2006
1	1	137	205	2006
1	2	0	207	2008
1	2	108	0	2006
1	1	137	206	2009
1	1	127	208	2008
2	1	137	208	2002
1	1	120	202	2008
2	2	132	207	2003
1	1	137	203	2008
1	2	139	207	2009
1	2	120	210	2009
1	2	0	207	2008
1	2	121	205	2006
2	1	137	205	2004
1	1	136	203	2007
2	0	0	0	0
5	1	131	209	0
1	2	127	209	2009
1	1	0	206	2009
1	1	113	209	0
2	2	142	208	2004
1	1	122	208	2007
4	2	0	0	0
1	1	108	202	2005
1	1	131	208	2009
1	2	133	206	2008
1	2	143	207	2009
1	1	123	203	2008
1	2	140	208	2006
1	2	142	202	2009
2	1	108	204	2003
1	2	127	208	2006
2	2	141	202	2005
1	1	123	202	2008
1	2	115	204	2006
1	2	0	210	2009
1	1	120	202	2007
1	2	146	203	2008
1	2	143	206	2006
2	1	127	205	2005
1	1	141	204	2009
1	2	122	210	2007
1	1	125	202	2005
1	0	122	203	2008
1	1	0	203	2009
2	2	134	206	2005
1	1	119	204	2008
1	2	115	0	2007
1	2	123	206	2005
1	1	108	208	2006
1	2	120	0	0
1	1	118	209	2007
1	1	106	203	2007
1	1	0	207	2009
1	2	125	202	2005
1	2	120	204	2006
2	1	0	0	2005
1	1	131	202	2006
2	2	108	207	2004
1	2	115	204	2006
2	2	119	203	2004
5	2	127	0	0
1	2	131	206	2008
1	2	142	207	2009
1	1	124	208	2007
1	1	124	204	2007
1	2	140	209	2008
2	1	122	207	2004
1	1	122	206	2008
5	2	136	0	0
1	0	130	202	0
1	2	143	205	2006
2	2	120	0	2005
1	2	141	204	2008
2	1	108	210	2005
1	2	0	206	2009
1	2	108	206	2005
1	1	149	209	2006
1	2	142	203	2007
1	2	142	204	2008
1	2	0	207	2008
2	1	119	202	2005
2	2	124	210	2004
1	1	120	210	2007
1	1	113	207	2007
2	2	136	210	2003
1	2	139	207	2006
2	2	120	209	2005
1	1	120	207	2006
1	2	121	202	2009
1	2	143	208	2009
1	2	131	208	2006
1	1	150	206	2006
2	1	131	210	2004
5	2	142	204	2004
1	1	122	202	2006
5	2	136	0	0
2	0	0	0	0
1	0	0	203	0
1	2	122	208	2009
1	2	120	203	2006
4	1	126	0	0
1	1	131	202	2009
4	1	0	0	0
2	1	108	210	2004
2	2	124	205	2005
1	1	127	206	2008
2	2	139	207	2004
1	1	108	209	2009
1	2	142	210	2005
1	2	143	203	2006
2	0	0	210	0
1	2	141	210	2007
1	1	122	210	2009
5	0	0	0	0
1	2	123	206	2009
2	2	131	0	2005
1	2	131	205	2006
2	1	119	209	2005
1	0	0	0	0
2	2	143	207	2005
1	2	121	204	2008
1	0	125	207	2008
2	2	0	209	2004
1	1	0	210	2009
2	2	0	210	2005
2	2	113	204	2003
1	2	142	210	2009
1	2	140	204	2005
1	1	138	210	2009
1	1	106	208	2007
1	1	132	210	2008
1	1	133	207	2007
1	1	113	210	2007
1	2	136	206	2007
1	0	0	0	0
1	1	124	202	2007
1	2	0	208	2009
2	0	0	0	0
1	2	123	205	2007
2	2	142	210	2004
1	1	0	204	2006
1	2	141	208	2009
1	1	127	204	2007
1	1	123	204	2008
1	2	135	202	2008
2	1	108	203	2005
1	1	0	202	2009
1	2	108	209	2006
2	2	142	209	2005
1	1	127	208	2009
1	2	138	202	2008
2	1	137	207	2004
1	2	0	204	2009
1	1	127	202	2008
5	2	142	208	2004
1	2	145	207	2008
1	1	127	0	2008
1	2	139	204	2008
2	2	120	202	2002
1	1	121	210	2006
1	1	131	203	2006
1	2	133	203	2007
1	1	124	206	2006
1	2	137	208	2008
1	2	131	210	2007
1	2	120	208	2006
1	1	120	206	2007
1	2	121	202	2006
1	1	131	202	2006
5	1	127	0	0
1	1	125	210	2007
1	1	112	206	2008
1	1	108	203	2008
1	1	137	209	2007
2	1	136	210	2004
2	2	115	209	2005
1	2	143	207	2006
1	1	112	204	2009
1	2	122	210	2008
1	2	121	209	2008
2	2	143	202	2003
1	2	138	205	2006
2	1	113	0	0
1	2	113	208	2009
1	2	124	209	2006
1	2	112	209	2007
1	2	131	204	2008
2	2	141	210	0
1	1	124	204	2008
1	1	138	202	2006
1	2	127	203	2006
1	1	0	204	2006
1	2	0	209	2009
1	1	123	203	2006
2	1	125	206	2005
2	2	142	205	2005
2	1	121	208	2004
1	2	137	203	2009
1	2	113	0	0
1	1	122	204	2008
1	2	136	206	2008
2	1	111	0	2005
1	1	112	202	2007
1	1	108	202	2006
1	2	135	202	2007
1	2	142	204	2009
1	2	143	209	2009
1	2	120	203	2006
2	2	141	208	2004
4	2	112	0	0
1	2	124	210	2008
2	1	133	209	2005
1	2	143	207	2009
4	0	0	0	0
5	1	132	0	0
2	1	119	210	2004
2	1	131	202	2005
2	1	132	204	2005
1	1	137	207	0
1	2	131	203	2007
1	1	120	208	2008
1	2	131	208	2009
1	1	131	206	2009
1	1	122	205	2009
2	0	0	0	0
2	1	142	204	2005
1	0	0	0	0
1	1	134	204	2005
1	1	0	206	2008
1	2	142	204	2008
1	2	132	205	2009
1	1	135	203	2009
1	2	140	208	2007
1	0	122	0	2007
1	2	135	202	2008
1	1	122	204	2009
1	1	123	203	2006
2	1	108	209	2005
1	2	138	203	2007
2	0	108	208	2005
1	2	143	210	2008
1	1	143	202	2007
1	2	138	207	2007
1	1	0	207	0
1	2	108	206	0
1	1	112	205	2007
2	2	138	202	0
1	1	127	205	2009
2	1	119	209	2005
1	2	131	203	0
2	2	131	203	2005
2	2	138	205	2005
1	2	137	205	2006
1	0	0	0	0
1	2	131	210	2008
2	2	127	0	2004
1	2	145	202	2007
1	1	120	203	2008
1	2	143	206	2008
1	2	138	208	2007
2	1	123	204	2005
1	1	124	208	2006
2	1	137	208	2005
1	1	123	204	2007
1	2	141	210	2008
2	2	132	209	2005
2	2	142	202	2004
1	2	138	206	2007
1	1	131	210	2006
1	1	0	210	2009
1	2	134	206	2008
1	1	132	210	2009
1	1	113	207	2008
1	2	0	0	2007
2	2	106	210	2005
1	2	143	203	2009
1	2	137	210	2009
1	1	132	209	2008
1	1	0	207	2007
2	1	131	210	1999
1	2	138	202	0
1	2	146	205	2007
1	1	125	209	2006
2	2	112	205	2004
1	2	139	204	2008
4	2	0	0	0
2	1	123	208	0
1	1	139	204	2008
1	1	113	209	2008
1	1	113	202	2005
5	2	137	0	2007
1	1	137	206	2008
5	2	120	0	0
1	1	124	202	0
1	2	148	202	2009
2	1	125	0	2005
1	2	132	210	2009
1	1	138	208	2006
1	1	131	210	2006
1	1	136	205	2009
2	2	116	209	2005
2	1	131	206	2005
2	1	127	0	0
1	2	120	203	2006
1	2	122	205	2008
1	1	125	206	2005
1	2	119	203	2006
1	1	137	203	2009
1	1	0	203	2008
1	1	108	207	2007
5	2	142	0	0
1	1	120	204	2006
1	1	122	205	2006
1	2	132	203	2009
1	2	143	206	2006
1	1	112	209	2009
1	2	131	204	2009
1	2	131	210	2007
5	2	112	0	0
1	2	120	208	2007
1	2	115	203	2006
1	2	121	209	0
1	1	108	204	2009
1	2	123	205	2006
1	2	127	204	2008
2	1	108	202	2004
2	0	118	0	2005
2	2	131	209	2004
1	1	120	206	2009
1	2	143	205	2006
1	1	112	205	2007
2	0	0	0	0
2	2	132	210	2004
1	1	111	202	2007
1	2	120	203	2009
1	2	142	206	0
1	2	108	207	2007
1	1	123	209	2007
1	2	141	210	2008
1	2	123	207	0
1	2	137	204	2008
1	2	135	207	2008
2	2	112	210	2005
1	1	131	203	2006
1	2	142	210	2008
2	2	131	203	2004
1	1	119	202	2007
1	1	143	208	2007
1	1	125	205	2007
2	2	113	208	2003
1	1	123	207	2006
2	2	120	202	2005
2	2	141	202	2003
1	1	132	210	2007
1	2	139	203	2009
1	1	124	205	2005
2	2	152	209	2004
2	1	148	206	2003
1	2	131	205	2006
2	1	135	206	2003
1	0	128	203	2004
2	1	131	0	2005
1	2	143	209	2007
1	1	106	203	2009
2	1	127	0	2005
4	2	142	210	2005
2	2	131	204	2003
1	2	108	205	2008
1	1	131	205	2009
1	2	112	0	2009
1	1	133	202	2006
2	2	135	210	2005
1	0	0	0	0
1	0	0	0	0
1	1	108	205	2008
1	2	113	209	2006
1	2	121	202	2006
1	2	112	209	2009
1	1	131	207	2008
2	2	120	203	2004
2	1	137	208	2004
1	1	133	204	2006
1	1	119	209	2007
2	2	142	203	2004
1	2	138	0	2005
1	1	127	206	2009
1	2	131	205	2006
2	2	136	209	2005
2	1	0	209	2004
2	1	138	0	2005
2	1	135	206	2005
2	0	0	0	0
1	0	0	0	0
1	2	139	202	2009
1	1	108	208	2006
2	1	122	204	2004
1	2	131	206	2008
1	2	140	205	2007
1	2	0	0	0
1	0	0	0	0
2	2	152	0	2008
1	1	129	210	2006
2	2	141	205	2005
1	1	121	206	2008
1	2	141	204	2009
2	2	138	207	2005
1	2	121	203	0
1	1	139	208	2006
1	1	108	206	2007
2	2	0	202	2004
1	2	136	210	2008
2	2	141	202	2003
1	2	131	206	2009
2	1	108	202	2005
1	1	125	209	2006
4	1	113	0	0
2	0	0	202	0
1	1	108	205	2004
1	1	142	209	2007
2	2	128	0	0
1	1	125	203	2006
1	1	114	209	2008
1	1	137	206	2008
1	1	124	204	2007
1	2	120	207	2008
1	2	138	205	2006
1	1	113	208	2008
1	2	113	207	2006
1	1	136	210	2008
1	2	122	203	2009
1	2	125	206	2008
1	2	112	205	2005
1	1	120	203	2009
5	2	143	0	0
1	1	136	205	2009
1	1	120	209	2008
1	2	139	202	2006
2	1	120	202	0
2	1	123	0	2004
1	2	112	204	2009
1	1	0	209	2009
1	2	143	203	2007
1	1	141	0	2006
1	2	143	206	2008
1	2	113	203	2009
1	2	112	206	2008
1	1	140	210	2006
1	1	143	207	2006
2	2	127	0	0
1	1	0	206	2007
1	2	0	206	2008
1	2	112	207	2009
1	1	136	204	2008
1	2	143	204	2007
1	1	127	203	2007
1	1	138	203	2005
1	0	0	0	0
1	0	0	0	0
1	2	113	206	2006
2	2	122	209	2005
1	1	0	208	2007
2	1	119	208	2004
5	0	0	0	0
1	2	120	209	2009
2	0	141	207	2003
2	2	139	205	2004
1	1	116	208	2006
1	2	131	209	2009
2	1	122	206	2005
1	2	125	208	2006
2	2	142	210	2003
1	2	110	203	2005
1	1	137	203	2009
1	1	124	204	2006
1	1	127	209	2007
5	2	125	206	2005
3	2	0	0	0
2	2	120	208	2002
1	2	0	204	2009
1	1	116	204	2006
1	1	0	0	0
1	0	123	0	2007
1	1	125	208	2008
1	2	108	209	2008
1	2	141	210	2008
2	1	111	206	2005
1	2	136	0	2009
1	2	136	205	2006
3	2	136	0	0
1	1	0	202	2008
1	1	127	204	2006
1	2	142	203	2008
1	1	131	204	2008
2	2	142	210	2003
1	2	123	206	2007
1	1	152	202	2009
5	2	141	208	2004
1	1	106	210	2006
2	2	141	206	2001
1	1	123	209	2006
1	1	111	208	2008
5	2	122	0	2005
2	2	143	206	2004
1	1	125	205	2007
1	1	113	210	2008
2	1	108	0	2005
4	1	0	0	0
1	2	133	203	2006
2	1	131	208	2005
5	2	136	0	0
2	1	124	207	2004
2	0	0	0	0
1	2	137	210	2007
2	0	0	210	2005
2	2	131	205	2004
2	1	0	204	0
1	2	122	206	2009
1	2	112	210	2009
1	2	139	203	2007
1	2	0	206	2006
1	2	122	202	2009
2	2	127	208	2005
1	0	0	202	0
5	1	135	0	2010
1	2	143	203	2009
1	1	136	0	2007
2	1	136	204	2005
2	2	136	210	2005
1	1	131	202	2006
1	1	108	203	2009
1	2	127	210	2005
2	2	142	208	2003
1	2	120	0	2006
5	2	144	204	2001
2	1	122	205	0
1	1	131	203	2008
1	2	137	204	2009
2	0	142	206	2005
1	2	148	204	2006
1	1	122	205	2008
1	1	119	204	2008
1	2	136	206	2007
1	1	108	208	2009
1	1	118	205	2008
1	1	0	209	2008
2	1	125	204	2005
1	1	108	203	2006
2	2	133	210	2004
1	1	131	207	2008
2	1	131	204	2004
2	2	139	205	2005
1	2	142	207	2009
2	1	131	210	2004
1	1	108	207	2008
2	2	122	207	2005
1	1	123	0	2006
1	1	141	205	2008
1	1	148	202	2009
2	2	145	204	2004
1	0	113	205	2007
1	0	0	0	0
1	1	123	204	2007
1	2	108	0	0
1	2	122	204	0
2	2	120	209	2001
1	1	123	208	2007
1	2	142	210	2006
2	2	0	0	0
1	1	140	203	2008
1	2	137	208	2008
1	2	138	209	2006
1	2	122	204	2007
2	2	142	204	2004
1	1	121	202	2007
1	1	124	203	2006
1	1	131	202	2008
1	1	131	202	2007
2	2	108	0	2004
1	2	121	203	2008
1	1	0	208	2006
1	1	122	205	2009
1	1	124	210	2006
5	2	127	0	2007
2	1	123	203	2005
1	2	137	203	2008
1	1	108	207	2008
1	2	131	203	2007
2	1	123	206	2004
1	2	120	205	2006
1	2	122	205	2007
1	1	147	205	2008
1	0	0	0	0
1	1	131	210	2008
2	1	127	204	2004
2	2	141	204	2005
1	1	124	202	2007
1	1	121	208	2006
1	2	143	205	2007
1	2	138	209	2006
2	2	133	205	2000
1	1	138	203	2007
1	1	123	203	2008
1	0	0	0	0
1	2	0	0	0
1	2	137	207	2006
5	2	142	207	2003
1	1	131	203	2008
1	1	148	204	2007
1	2	0	202	2008
2	1	120	210	2000
1	2	143	204	2008
1	2	143	0	2008
1	2	112	209	2006
1	1	112	204	2009
2	2	108	206	2004
1	2	142	206	2007
1	0	120	0	2007
1	1	124	202	2008
1	2	121	209	2006
1	1	137	209	2007
2	0	123	204	2005
1	1	106	204	2008
1	1	0	203	2009
2	1	121	0	2005
2	2	115	203	2005
1	2	108	203	2006
1	2	131	209	2007
1	1	141	210	2006
2	2	127	0	2005
1	1	127	210	2007
1	1	133	203	2007
1	2	120	206	2008
1	1	123	206	0
1	2	0	202	2009
1	0	113	203	2007
1	2	143	0	2008
2	0	140	0	2005
2	2	122	207	2004
1	1	121	205	2006
2	1	108	206	2004
1	2	128	206	2008
1	1	120	205	2007
1	1	108	0	0
1	1	142	210	2008
2	2	138	208	2004
1	0	142	203	2007
1	2	112	208	2008
2	2	120	202	2004
1	1	0	204	2009
1	2	139	204	2006
2	2	131	208	2005
2	1	111	204	2004
1	2	108	206	2005
1	2	143	207	2008
1	1	131	208	2009
1	1	140	203	2008
1	1	113	206	2007
1	1	137	209	2009
1	2	121	202	2006
1	1	131	208	2008
1	1	0	207	0
5	0	123	0	2005
2	2	131	202	2005
1	1	108	206	2009
1	2	137	203	2006
1	1	0	209	2006
2	1	108	209	2003
1	2	122	209	2007
1	2	125	208	2009
1	2	138	204	2008
1	1	131	208	2009
2	1	148	204	2003
2	1	0	0	2005
5	0	0	0	0
2	1	112	0	2005
2	2	121	208	2005
2	1	133	209	2005
1	1	138	210	2008
4	1	0	0	0
2	2	143	204	2005
1	2	131	207	2009
2	1	115	205	2002
1	2	121	209	2008
1	1	137	210	2006
2	2	137	204	2005
1	2	143	207	2009
1	1	148	210	2008
4	2	142	206	0
2	1	112	204	2004
2	2	113	202	2005
2	2	112	206	2002
2	2	142	0	2004
1	2	141	209	2004
2	1	0	204	2003
1	1	112	210	0
2	2	131	204	2000
5	1	109	0	0
1	1	137	204	2007
1	2	131	208	2008
1	2	119	203	2008
2	1	124	207	2005
2	2	108	202	2004
1	2	108	204	2008
1	1	142	210	2005
1	1	109	204	2007
2	1	124	205	2005
1	1	138	208	2008
1	2	120	207	2006
2	1	120	210	2004
1	0	0	0	0
1	1	123	207	2007
1	2	113	208	2009
2	2	142	208	2001
2	1	108	206	2005
2	1	119	206	2004
1	2	141	204	2009
1	0	120	207	0
1	1	113	203	2008
2	0	106	202	2004
1	1	116	210	2008
1	2	132	209	2008
2	2	148	202	2005
1	2	131	207	2006
5	2	120	206	2005
1	1	131	203	2009
1	2	125	207	2009
2	1	138	206	2003
1	1	143	209	2008
1	1	127	0	2008
2	2	116	208	2005
1	1	122	205	2007
1	1	148	209	2009
2	1	122	204	2004
1	1	131	209	2008
2	1	149	210	2005
1	2	141	209	2005
1	1	112	203	2006
5	2	115	206	2008
2	1	141	208	2004
1	2	142	209	2006
1	1	143	207	2009
1	1	125	206	2007
1	2	111	208	2008
1	1	124	205	2007
1	1	107	205	2006
2	2	142	210	2002
1	1	122	206	2008
5	2	144	204	2003
2	2	143	208	0
5	2	140	0	0
1	1	141	208	2007
2	2	139	203	2005
1	2	123	203	2006
1	1	106	203	0
1	0	0	0	0
1	1	123	209	2008
1	2	142	205	2005
2	1	123	205	2003
2	0	0	205	0
1	2	142	207	2006
2	1	142	0	2005
1	1	0	209	2009
2	1	150	0	2005
1	1	121	205	2007
1	2	125	208	2007
1	2	128	205	2006
1	2	127	206	2004
1	1	149	206	2007
2	2	113	206	2004
1	2	137	202	2006
1	2	120	208	2007
1	1	137	208	2009
1	2	136	204	2006
2	1	123	209	0
1	2	142	207	2008
1	1	145	204	2008
1	1	120	203	2008
1	1	131	210	2009
1	1	0	204	2008
1	2	0	0	2005
1	2	149	208	2007
2	2	131	205	2005
1	2	136	205	2008
1	1	139	203	2008
2	2	142	202	2005
2	0	142	207	2003
2	2	122	207	2005
1	2	122	208	2007
1	2	137	202	2006
1	2	137	207	2007
1	2	138	206	2008
1	2	115	206	2009
1	2	136	205	2007
2	1	122	204	2005
1	1	125	202	2005
2	2	120	0	2005
1	1	138	208	2008
1	1	123	207	2007
1	1	145	210	2008
1	1	106	205	2008
1	1	108	209	2008
1	2	138	207	2009
1	2	115	204	2007
2	1	114	208	2003
1	2	141	205	2006
2	2	120	208	2005
2	1	125	206	2004
2	1	124	209	2005
1	0	120	210	2007
2	2	141	209	2005
1	2	132	205	2009
1	1	112	209	2008
1	1	121	202	2008
2	1	106	206	2005
1	2	148	207	2009
1	2	123	208	2006
1	2	125	203	2005
1	1	123	209	2008
1	2	0	207	2009
5	2	109	0	0
1	0	112	202	0
1	1	131	207	2007
1	1	119	208	2006
1	2	131	205	2006
1	2	0	208	2008
1	2	142	209	2008
2	1	122	208	2005
1	1	113	208	2006
5	2	133	0	2007
1	2	138	203	2007
1	2	138	210	2008
1	2	113	210	2007
2	1	123	209	2002
1	1	143	203	2006
1	2	147	207	2009
2	1	131	203	2004
1	2	136	207	2008
2	2	135	210	2004
3	2	149	202	2008
1	2	137	210	2005
1	2	112	208	2008
2	2	137	209	2005
1	2	124	207	2006
1	1	115	204	2007
1	1	131	203	2008
1	2	143	202	2008
2	1	124	208	2003
1	1	0	205	2008
2	2	135	205	2005
1	1	108	208	2006
1	1	125	208	0
2	1	142	205	2005
1	2	143	210	2009
1	1	123	206	2007
1	0	108	202	0
1	1	131	202	2008
1	1	120	207	2006
4	0	0	0	0
1	2	139	206	2006
1	2	108	206	2007
1	2	113	206	2006
1	2	0	0	2006
3	2	146	0	2010
1	1	120	204	2008
2	2	108	203	2005
1	2	112	0	2007
1	1	151	205	2008
1	2	121	208	2007
1	1	112	206	2007
1	1	0	206	2008
1	2	131	202	2008
2	0	0	0	0
5	1	123	0	2008
1	2	131	206	2005
2	2	137	207	2005
1	1	124	210	2008
1	1	112	203	2009
1	2	141	205	2008
1	2	119	209	2007
1	2	131	207	2007
2	2	121	202	2004
1	2	127	0	2008
1	1	138	210	2007
2	2	138	203	2004
1	1	127	202	2006
2	2	141	209	2004
1	2	0	203	2007
1	1	131	0	0
1	1	125	203	2008
1	1	124	204	2007
1	2	132	202	2006
1	2	142	210	2006
2	1	122	207	2005
1	2	142	208	2007
1	2	142	210	2006
1	2	112	209	2009
1	2	142	204	2006
1	2	122	202	2009
1	2	120	206	2008
1	1	0	203	2009
1	1	124	206	2008
1	2	143	209	2009
1	2	141	204	2009
1	2	136	205	2007
2	1	120	0	2005
2	2	127	0	2005
1	2	135	205	2006
1	2	123	202	2009
2	1	131	207	2005
1	1	112	203	2007
1	1	113	205	2007
1	2	112	204	2007
1	2	0	205	2009
1	1	152	206	2006
1	1	0	203	2008
1	2	141	0	2007
1	2	138	208	2008
1	2	108	205	2008
1	1	123	208	2006
1	2	121	205	2008
1	1	124	204	2007
1	1	110	209	2007
1	2	120	203	2006
2	0	0	0	0
1	2	137	207	2009
2	2	127	204	2003
1	2	143	204	2009
1	1	122	210	2006
1	2	136	203	2008
1	2	108	204	2007
1	2	143	209	2009
1	1	106	202	2009
1	2	146	210	2008
2	1	111	204	2004
2	2	0	0	2005
2	2	122	207	2005
1	2	143	210	2009
1	2	132	209	2009
1	1	0	207	2007
1	1	124	203	2008
1	2	0	206	2006
2	2	112	203	2004
2	1	123	206	2004
1	1	114	204	2009
1	2	146	205	2007
1	1	0	0	0
2	1	118	206	2004
1	2	142	205	2006
1	2	140	210	2008
1	2	131	204	2007
1	1	139	204	2009
1	1	131	210	2007
1	2	131	205	2007
1	2	0	205	0
1	1	131	204	2008
1	1	127	207	2009
1	1	108	207	0
1	2	125	209	2006
1	2	131	204	2007
1	1	136	204	2008
1	2	121	206	2006
1	1	127	203	2006
1	1	131	208	2006
1	2	138	203	2007
2	2	141	206	2004
2	1	122	208	2005
1	2	137	207	2008
1	1	143	204	2009
1	1	120	203	2006
1	2	121	204	2006
2	2	131	206	2001
1	0	0	0	0
2	1	131	203	2005
1	2	138	204	2009
5	2	148	0	0
2	1	123	202	2005
1	1	120	205	2005
1	1	127	209	2009
2	1	124	209	2005
1	1	127	204	2009
1	1	111	210	2006
1	1	0	204	2007
1	1	137	207	2006
1	1	124	208	2009
1	2	137	206	2007
1	2	113	209	2007
2	2	142	210	2002
1	1	123	204	2008
1	1	121	202	2007
2	1	123	202	2004
1	1	139	206	2008
2	1	106	0	2005
1	2	0	209	2009
1	1	139	209	0
1	2	108	209	2007
1	1	0	208	2009
1	1	125	205	2008
1	1	112	206	2007
1	1	120	205	2007
1	1	127	208	2009
1	2	0	0	0
1	2	131	210	2008
2	0	0	0	0
1	2	142	206	2008
2	1	134	206	2005
1	1	131	210	2007
1	0	123	203	2006
1	1	108	209	2007
1	1	125	207	2008
2	2	125	208	2004
1	1	115	206	2008
2	2	122	208	2005
5	2	127	0	2006
2	1	0	209	2004
2	1	122	210	2005
1	1	136	206	2007
1	1	143	207	2007
2	2	122	209	2005
2	1	138	202	2005
1	1	108	209	2006
1	2	120	208	2007
1	2	120	202	2009
1	2	131	202	2009
1	2	143	207	0
1	2	122	207	2009
1	1	131	203	2009
1	1	123	202	2008
2	2	121	205	2004
1	1	125	209	2005
1	1	133	203	2009
1	2	137	206	2009
1	2	127	207	2008
2	2	131	205	2004
1	2	142	202	2007
1	0	0	0	0
1	2	138	204	2006
1	0	0	0	0
1	1	118	206	2007
1	2	135	205	2007
1	1	131	206	2008
1	1	142	208	2007
1	2	120	208	2006
1	2	143	203	2007
1	2	137	205	2006
1	1	137	210	2008
2	0	131	203	2006
2	0	0	0	0
1	1	131	208	2008
1	2	140	210	2008
1	1	125	209	2006
1	1	116	206	2007
1	1	120	206	2006
1	1	125	208	2006
1	2	132	209	2006
1	2	131	202	2009
1	2	131	209	2007
1	1	127	210	2006
1	1	124	202	2008
1	1	118	210	2006
1	2	120	203	2008
1	2	122	209	2009
1	1	0	206	2009
2	2	124	202	2004
2	1	119	0	2005
1	1	131	204	2007
1	1	123	207	2007
1	2	138	210	2009
2	1	122	208	2005
1	2	116	205	2006
2	2	118	205	2002
1	2	113	206	2008
1	1	0	205	2008
1	1	139	207	2009
1	1	131	207	2008
1	2	143	204	2007
1	2	122	209	2005
1	2	115	207	0
1	2	143	209	2008
5	0	0	0	0
2	1	113	209	2004
1	2	112	207	2009
1	2	143	204	2007
4	2	0	0	0
1	2	113	0	2005
1	0	0	0	0
2	1	137	204	2004
1	1	119	202	2009
1	1	143	208	2008
2	2	131	205	2003
1	2	132	205	2005
2	2	141	208	0
1	2	137	210	2006
1	2	139	206	2007
1	2	142	203	2009
1	0	0	0	0
2	2	112	0	2005
1	1	123	207	2008
2	2	122	204	2005
2	2	0	209	2001
1	2	127	208	2008
1	1	133	204	2006
1	1	127	204	2009
2	2	143	205	2005
1	2	142	206	2006
2	1	141	205	2000
1	1	131	210	2008
5	0	0	0	0
1	2	138	205	2009
1	2	113	207	2007
1	1	131	205	2008
2	1	131	207	2004
2	0	124	0	2005
1	2	112	208	2006
1	1	138	207	0
1	1	113	205	2007
1	2	131	203	2008
1	1	112	209	2007
1	1	131	0	2009
1	1	139	206	2008
1	1	112	0	2008
1	2	131	203	2009
2	1	120	202	2004
1	1	120	208	2009
1	1	143	208	0
1	1	121	202	2008
1	2	139	206	2009
2	1	113	208	2005
2	2	122	202	2003
2	1	127	208	2004
2	1	123	203	2005
2	1	108	206	1996
1	1	121	206	2009
1	2	120	206	2008
1	2	119	207	2006
1	2	127	205	2008
2	2	108	210	2005
1	2	123	208	2006
1	1	122	202	2008
1	1	148	207	2009
1	2	120	204	2007
1	1	149	204	2008
2	1	127	206	2005
1	2	143	210	2009
1	0	0	0	0
1	2	143	208	2006
1	1	112	0	2008
1	2	108	207	2009
2	2	112	206	2004
2	2	127	208	2003
1	1	106	203	2007
5	0	0	0	0
2	2	114	0	2005
1	1	106	202	2008
1	2	142	205	2007
1	2	142	208	2006
2	2	139	203	2004
4	2	146	206	2005
2	1	131	202	2005
1	1	124	206	2008
1	1	123	210	0
2	2	152	207	2004
1	1	133	209	2006
1	1	131	203	2009
1	1	138	206	2008
1	2	127	209	2006
1	2	141	203	2009
1	1	121	202	2006
1	1	108	210	2008
1	2	114	206	2008
2	2	120	204	2005
1	1	131	210	2009
1	1	123	209	2008
1	1	112	205	2008
1	1	127	205	2008
1	1	0	208	2009
1	1	143	0	2006
2	2	141	206	0
1	2	0	203	2009
4	0	0	0	0
1	2	127	205	2009
1	1	138	210	2009
2	2	113	209	2005
1	1	118	207	2005
1	1	127	204	2008
1	0	125	210	2007
2	2	108	202	2005
1	1	108	0	2008
1	0	0	0	0
1	1	139	209	2008
2	1	131	204	0
2	2	149	204	2004
1	2	120	210	2007
1	1	0	208	2009
1	2	137	205	2009
2	1	118	206	2005
1	2	142	205	2008
1	2	131	203	2009
1	2	0	204	2008
1	1	137	206	2007
1	2	136	205	2009
1	1	127	207	2008
1	2	141	208	2005
1	2	125	202	2008
2	1	122	205	2004
1	1	143	204	2007
2	1	108	209	0
2	1	135	206	2005
1	2	142	206	2008
2	2	147	208	2005
1	1	112	206	2008
1	2	137	202	2008
1	2	119	204	2006
1	2	122	210	2008
1	1	137	204	0
1	2	137	209	2006
2	0	0	0	0
1	1	108	202	2007
1	1	131	205	2007
2	1	124	208	2005
1	1	131	205	2009
1	1	123	204	2008
1	2	138	205	2008
1	2	137	209	2009
1	1	131	205	2009
1	2	122	204	2006
1	1	108	206	2006
1	0	133	203	2005
2	2	112	209	2004
1	2	127	0	2007
1	2	135	208	2009
2	2	120	210	2005
1	0	0	0	0
1	1	113	209	2006
1	2	141	208	2009
1	1	108	207	2008
1	2	136	0	2007
5	2	131	0	2008
1	1	124	205	2009
2	2	0	0	0
2	2	116	204	2003
2	1	142	208	0
1	1	112	207	2008
1	2	0	210	2009
1	1	112	204	2009
1	2	120	207	2006
5	0	0	0	0
1	1	133	209	2008
1	1	127	206	2008
1	1	111	203	2009
1	2	136	209	2008
2	2	123	0	2005
1	1	112	210	2007
1	1	133	204	2009
2	1	148	209	2004
1	1	143	204	2007
1	2	150	0	2007
2	2	148	202	2004
2	1	0	204	2005
1	1	127	207	2009
1	1	138	208	2009
1	2	112	206	2008
1	0	0	0	0
2	1	122	205	2005
1	2	142	210	2009
1	1	114	206	2008
1	0	138	202	2006
2	1	125	210	2004
1	1	136	209	2009
1	1	106	202	2008
1	1	106	209	2006
3	0	0	0	0
1	2	137	209	2006
1	1	120	208	2008
1	2	123	203	2009
3	2	112	0	1900
3	0	0	0	0
1	1	127	202	2007
1	2	137	207	2006
1	1	0	210	2007
1	2	131	203	2007
1	1	132	203	2009
2	1	108	206	2005
1	2	142	203	2006
1	1	132	209	2006
1	1	0	208	2007
5	2	127	0	2006
1	0	0	0	0
1	2	136	210	2007
1	1	0	207	0
1	2	121	202	2006
2	1	108	208	2004
1	1	119	202	2007
1	2	0	208	2008
2	1	137	207	2005
2	2	131	204	2005
1	2	143	203	2009
1	1	108	203	2006
1	1	122	206	2008
2	1	122	208	2004
1	2	137	208	2008
2	2	132	210	2003
1	0	122	203	2006
5	1	109	0	2007
1	1	122	207	2005
2	1	152	204	2005
2	0	0	0	0
1	1	121	204	2008
1	1	123	202	2007
1	0	125	207	2005
1	2	137	209	2008
1	2	108	205	2006
1	2	120	202	2009
1	2	120	206	2009
2	2	142	209	2001
2	1	139	206	2005
2	2	115	209	2005
1	1	148	206	2009
1	1	123	206	2008
2	2	127	203	2005
1	1	131	202	2008
1	1	127	210	2009
1	2	112	204	2006
1	1	127	209	2008
1	1	146	206	2008
2	2	142	210	2004
2	2	120	206	2002
2	2	142	206	2004
2	2	122	202	2005
1	2	122	206	2006
1	1	113	205	2009
5	1	136	0	0
1	1	119	210	2007
1	1	131	204	2007
1	1	131	209	2009
1	2	149	202	2008
2	2	113	210	2004
1	2	142	206	0
1	1	138	205	2008
1	1	122	210	2007
1	2	120	208	2006
1	2	142	203	2009
1	1	108	202	2005
1	1	123	205	2006
4	2	0	0	0
1	1	122	207	2007
1	2	0	209	2006
1	1	141	210	2006
2	1	113	202	2003
1	1	120	209	2008
1	2	142	206	2009
2	2	136	202	2005
3	2	122	202	0
2	1	131	209	2004
1	2	143	210	2009
2	1	131	208	2004
1	2	120	0	2005
2	2	120	205	0
2	1	0	209	2004
1	1	0	209	2008
1	2	132	209	2006
2	1	141	204	1996
1	1	111	206	2006
2	2	137	207	2003
1	1	137	209	2009
1	2	148	204	2009
1	1	143	207	2008
1	2	122	206	2008
2	2	141	207	2004
1	2	137	210	2008
1	1	148	207	2009
2	2	120	202	2005
1	1	133	206	2009
1	1	131	210	2007
1	2	122	205	2007
1	2	107	207	2008
2	1	112	0	2005
1	2	138	210	2009
1	2	138	208	2008
1	2	142	202	2007
1	1	122	204	2005
1	2	137	208	2009
1	1	127	207	2008
1	2	134	203	2008
1	1	109	202	2006
1	1	123	205	2006
1	2	0	203	0
1	2	136	208	2009
1	2	121	209	2006
2	2	142	209	2001
1	2	122	202	2009
1	1	0	205	2008
1	2	137	202	2008
5	2	114	0	2007
1	2	121	202	2008
1	1	108	208	2005
1	1	127	205	2008
2	2	131	208	2005
1	1	108	203	2009
1	2	136	203	2008
1	0	0	0	0
2	2	124	204	2005
1	1	122	204	2009
1	2	124	205	2006
1	2	127	207	2009
1	2	149	207	2008
2	2	138	210	2004
2	2	0	207	2004
1	2	0	208	0
1	2	141	206	2007
1	2	149	208	2006
1	2	142	203	2005
1	2	142	206	2007
1	2	131	206	2006
1	2	148	210	2005
1	2	131	208	2008
1	1	137	207	2008
1	2	113	202	2009
2	2	147	204	2001
1	2	112	208	2006
1	0	0	0	0
2	1	122	0	2005
1	0	0	0	0
2	2	108	210	2005
2	1	123	202	2005
1	2	120	207	2008
1	1	122	210	2006
1	0	124	209	2007
1	1	122	204	2009
1	1	118	210	2005
2	1	123	203	2002
2	2	131	204	0
1	2	135	202	2007
1	1	108	205	2007
1	2	142	209	2008
1	2	122	209	2008
1	2	132	0	2008
1	1	131	210	2007
1	1	0	203	2008
1	1	131	208	2007
1	2	141	208	2006
1	2	131	204	0
1	1	131	209	2008
5	2	137	0	0
1	2	152	0	2006
2	2	142	206	2005
1	2	113	208	2007
1	1	0	204	2008
5	0	0	0	0
2	0	0	0	0
1	0	115	203	0
1	1	131	210	2006
1	1	0	203	2007
2	2	128	210	2005
1	1	148	207	2006
1	1	131	209	2006
1	1	123	208	2006
1	2	122	204	2008
2	1	131	206	2005
1	2	143	206	2006
1	1	108	209	2008
1	2	137	209	2009
5	0	0	0	0
1	2	113	202	2006
1	1	127	204	2008
1	1	131	210	2009
2	1	123	203	2005
1	2	131	210	2006
1	1	139	205	2005
1	2	152	209	2007
1	2	120	0	2008
1	2	121	202	2009
1	2	127	206	2007
1	1	119	206	2006
1	2	149	209	2008
1	2	148	208	2007
1	2	0	209	2007
1	1	137	209	0
2	1	0	0	2005
1	2	122	208	2006
1	1	123	207	2008
1	0	0	0	0
1	2	138	208	2009
2	2	143	0	2002
1	2	132	203	2007
1	2	0	202	2008
1	2	125	209	2008
2	2	115	204	2004
1	2	143	204	2009
1	1	136	206	0
1	0	0	0	0
1	1	127	210	2008
1	1	122	209	2006
1	2	120	203	2005
1	2	135	203	2009
2	1	137	204	2004
1	2	118	202	2005
1	1	127	208	2007
1	1	143	209	2009
2	2	138	204	0
1	2	136	207	2009
1	2	136	204	2008
1	1	139	204	2008
1	1	131	210	2007
1	1	137	204	2009
1	1	131	202	2009
1	2	142	206	2007
1	1	108	0	2007
1	1	124	202	0
2	1	139	210	2005
5	1	111	0	2006
1	1	106	210	2008
1	0	0	0	0
2	0	0	0	0
1	1	119	205	2009
1	0	0	0	0
1	1	131	203	2008
2	1	108	206	2000
1	1	112	210	2007
2	2	136	205	2004
2	0	0	0	2005
2	1	146	202	2003
1	1	125	208	2005
1	2	112	205	2006
2	1	108	209	2004
1	1	141	208	2006
1	1	124	204	2006
1	2	113	204	2009
1	1	111	207	2006
1	2	139	210	2006
1	0	136	0	2007
2	1	131	204	2005
2	2	139	203	2005
1	2	148	207	2008
1	2	120	210	2008
1	1	145	207	0
1	1	131	209	2006
2	1	139	208	2004
1	2	128	202	2007
1	2	141	208	2009
2	1	112	203	2004
2	1	123	205	2004
1	1	115	207	2007
1	1	131	203	2008
1	2	122	205	2007
1	1	120	206	2007
1	2	142	206	2006
2	1	142	207	2004
1	2	122	208	2007
2	1	127	210	0
1	2	124	208	2005
1	1	143	203	2009
4	2	0	0	0
1	2	116	210	2008
1	1	131	204	2006
2	1	127	210	2003
1	2	112	207	2008
2	1	112	209	2001
1	1	133	204	2006
2	2	135	206	2005
1	0	0	0	0
1	0	124	208	2007
2	1	112	204	2001
1	1	139	209	2009
1	2	125	202	2009
2	2	124	204	2005
1	2	108	202	2007
1	1	120	210	2007
1	2	142	203	2005
2	1	120	206	2004
1	2	142	202	2009
1	1	135	202	2009
1	1	135	207	2009
1	1	127	207	2009
2	2	135	208	2005
1	2	132	203	0
1	2	140	210	2008
1	2	121	209	2006
1	1	137	205	2009
1	1	123	206	2009
1	1	142	209	0
1	2	148	202	2007
1	2	135	210	2005
2	2	131	0	2005
1	2	122	210	2006
1	1	131	204	2009
1	2	136	207	2009
1	1	123	208	2007
1	2	139	207	2008
5	2	142	204	2006
2	2	0	0	2004
1	0	0	0	0
1	1	136	205	2008
1	2	131	207	2009
2	0	0	0	0
2	2	120	0	2005
1	2	115	206	2006
1	1	131	210	2007
1	2	143	204	2006
2	2	141	205	2004
1	2	112	209	2007
1	1	131	210	2007
1	1	131	203	2009
1	2	148	210	2007
5	1	0	210	0
1	1	112	207	2007
1	1	108	204	0
1	1	124	0	2006
2	0	0	0	0
2	2	120	209	2004
1	2	131	204	2008
1	2	143	208	2008
2	1	122	204	2005
2	0	124	0	2005
2	1	131	204	2005
5	0	0	0	0
2	2	143	210	2005
1	1	123	210	2007
2	2	108	208	2004
1	2	148	204	0
1	1	127	207	2006
2	2	141	205	2005
1	2	112	205	2008
3	2	0	0	0
1	2	122	205	2007
5	2	0	206	2006
1	2	137	205	2009
1	1	134	204	2006
1	1	112	210	2006
1	2	138	202	2009
2	2	112	206	2005
2	1	106	209	2005
1	2	143	207	2009
1	2	137	207	2007
1	2	137	202	2008
1	1	0	203	2009
1	1	108	210	2009
1	0	106	204	2006
1	1	140	206	2009
2	1	114	210	2005
1	2	115	203	2009
2	1	122	205	2005
1	1	112	205	2008
1	2	108	210	2006
2	2	125	208	2004
1	1	115	209	2007
2	0	0	0	0
2	1	131	208	2005
1	2	123	207	2009
1	2	0	203	2008
1	2	0	206	0
1	2	139	202	2006
1	2	131	202	2007
1	2	131	208	2009
2	1	123	207	2005
1	2	141	202	2009
2	1	121	206	2003
1	2	141	208	2006
2	1	133	206	2005
2	2	113	206	2003
1	1	127	205	2009
2	1	111	204	2003
1	2	142	209	2007
1	2	113	209	2008
2	1	127	206	2003
1	1	125	209	2008
1	1	121	208	2006
1	1	131	202	2007
2	2	141	207	2004
1	1	115	208	2006
1	2	108	205	0
1	1	125	208	0
1	2	113	209	2008
2	2	132	206	2004
1	1	0	205	2009
2	1	138	208	2004
1	2	136	204	2009
5	2	139	0	0
1	1	131	207	2008
1	1	125	204	2009
2	2	115	0	2005
2	1	131	203	2004
1	2	113	204	2006
2	1	120	0	2004
1	2	141	202	2007
1	1	116	204	2006
1	1	148	202	2006
1	1	137	207	2009
1	1	142	208	2006
1	1	119	204	2008
1	1	124	205	2008
1	1	131	204	2009
2	0	0	0	0
1	2	122	210	2007
1	1	0	205	2009
2	2	122	204	0
1	1	131	210	2009
1	2	136	210	2009
2	1	119	0	0
5	1	144	0	0
1	1	132	205	2006
1	2	138	207	2009
1	2	136	208	2006
1	1	123	209	2007
1	2	141	208	2008
1	1	111	203	2006
1	1	143	210	2007
2	0	0	0	0
1	2	125	210	2007
5	2	122	0	0
1	1	123	206	2008
2	1	110	207	2003
1	1	108	0	2008
2	2	0	0	2004
1	2	138	210	2009
2	2	0	210	2005
1	1	122	203	2007
2	2	125	206	2002
1	1	132	206	2007
1	2	125	203	2006
1	2	0	202	2009
1	1	122	207	2006
2	2	108	0	2005
1	2	107	203	2006
1	1	125	203	2007
1	2	142	210	2006
1	1	0	205	2009
1	1	123	203	2006
5	2	137	205	2004
1	2	134	202	2007
1	1	108	202	2008
2	2	137	206	2005
1	2	108	204	2006
1	2	141	205	2009
1	2	149	202	2009
1	1	132	205	2006
2	1	133	208	2005
1	1	120	202	2008
1	1	115	209	2007
1	2	124	204	2004
1	1	108	207	2008
2	2	120	205	2005
1	2	118	207	2006
1	2	142	206	2006
5	2	0	0	2005
1	1	142	208	2007
1	1	0	204	2007
1	1	120	207	2009
1	2	131	209	2009
1	2	142	207	2006
5	2	135	207	2003
2	2	122	210	2003
5	2	124	210	0
2	2	138	205	2005
1	1	148	210	2008
1	1	143	210	2008
2	2	152	0	0
2	2	120	204	2004
1	1	124	210	2009
1	2	131	208	2005
1	2	120	207	2007
1	0	0	0	0
1	1	125	206	2008
1	1	133	206	2008
1	1	122	210	2006
2	1	137	203	2004
1	2	121	0	2006
2	1	152	202	0
1	2	112	206	2006
2	2	123	208	2005
1	2	121	203	2006
1	1	131	209	2006
1	2	142	203	2007
1	2	0	202	2007
1	2	0	209	2007
1	1	119	206	2009
2	2	143	205	2005
1	1	141	208	2007
1	2	0	0	0
1	1	131	207	2009
1	2	143	205	2006
1	1	111	202	2009
2	1	0	0	2005
1	2	138	205	2008
2	1	141	202	2004
1	2	135	203	2009
2	2	122	209	2001
2	2	138	209	2005
1	2	143	207	2008
1	2	0	205	2009
2	2	132	206	2004
1	1	123	206	2007
1	1	131	209	2005
1	1	137	208	2008
1	1	0	210	2009
1	1	131	209	2006
2	1	139	204	2005
2	2	122	205	2004
1	2	123	202	2006
2	1	108	203	2004
1	2	140	204	2007
1	1	0	202	0
1	1	125	210	2005
2	2	113	205	2005
1	1	135	204	2009
1	2	122	205	2008
2	2	141	209	2001
1	1	122	204	2007
1	1	125	209	2009
1	2	115	210	2006
1	1	109	205	2008
2	1	138	206	2005
1	2	127	0	2005
2	2	138	205	2004
1	2	120	208	0
1	2	108	205	2006
1	2	138	210	2007
1	1	137	204	2008
2	2	145	204	1904
2	2	120	206	2005
1	1	125	202	2006
2	2	131	205	2004
1	0	0	0	0
1	2	142	202	2008
1	2	123	202	2007
1	2	125	202	2009
1	1	112	209	2007
2	2	142	203	2002
1	2	131	202	2007
1	1	133	202	2006
1	1	137	203	2008
1	1	111	208	2007
1	2	124	207	2006
1	2	136	206	2006
2	2	113	0	2004
1	1	125	207	2009
1	2	142	210	2006
1	2	137	203	2006
1	2	120	208	2009
1	1	127	203	2008
1	2	112	208	2007
2	1	122	207	2004
1	2	138	206	2006
1	1	113	206	2006
1	1	113	202	2006
1	0	0	209	2006
1	2	118	209	2007
2	1	141	203	0
1	2	122	209	2006
1	1	144	208	2008
1	2	108	204	2009
1	2	131	208	2007
1	1	138	205	2009
1	1	125	210	2009
2	2	141	206	2003
2	1	108	210	2004
2	1	133	204	2005
1	2	126	210	2008
1	1	131	210	2009
1	0	0	0	0
1	1	141	206	2008
1	0	131	207	2008
5	2	131	0	0
1	2	131	207	2009
2	2	112	202	2004
2	2	142	202	2001
2	2	0	209	2003
1	2	121	204	2006
1	1	123	203	2006
1	1	118	208	2009
2	0	0	0	0
1	0	115	209	2008
1	2	123	210	2006
1	1	131	206	2008
1	2	135	205	2009
1	1	127	203	2008
1	2	112	210	2008
1	2	113	0	2007
1	2	148	204	2008
1	2	128	0	0
2	2	142	210	2003
1	2	0	209	2007
1	1	148	205	2006
1	2	137	204	2009
1	2	141	202	2006
2	2	120	210	2004
1	2	120	205	2008
2	2	143	207	2003
1	1	120	206	2008
1	1	124	206	2008
1	2	148	208	2008
1	0	0	0	0
1	2	120	0	2006
5	0	0	0	0
1	2	116	209	2009
2	1	112	209	2005
2	2	135	202	2005
1	2	136	206	2007
1	1	131	205	2008
1	2	138	204	2008
1	2	131	204	2006
2	2	143	209	2005
1	2	143	210	2007
1	1	149	0	2009
1	2	127	210	2006
1	2	138	205	2007
1	2	112	208	2007
1	1	149	208	2009
1	2	135	208	0
1	1	148	210	2008
2	1	124	202	2005
1	2	120	204	2005
1	1	136	205	2009
2	2	120	209	2005
1	1	131	203	2008
1	2	136	204	2009
2	2	113	0	2005
1	0	0	0	0
1	2	0	202	2009
1	1	119	207	2007
2	0	0	0	0
1	2	136	204	2009
1	2	120	203	2006
1	2	135	209	2008
1	1	142	205	2006
1	1	131	205	2006
1	2	121	208	2008
5	0	0	0	0
1	2	137	208	2008
1	2	122	205	2008
1	2	0	0	0
1	2	142	203	2008
1	2	142	208	2008
1	1	137	207	2009
1	1	142	210	2007
1	1	0	0	0
1	2	0	204	2008
1	2	136	210	2008
1	2	131	204	2006
2	1	122	0	2005
1	1	0	207	2008
2	1	106	204	2005
1	1	141	204	2009
2	2	141	208	2002
1	1	113	206	2006
2	2	140	205	2005
2	2	122	208	2005
2	2	141	207	2004
1	1	113	208	2006
1	2	143	209	2008
1	1	106	203	2007
1	1	122	203	2008
1	1	131	207	2009
1	1	131	206	2009
1	1	135	208	2009
1	1	138	205	2008
1	2	0	0	2008
1	2	143	208	2006
1	1	127	210	2006
2	2	143	202	2005
1	1	137	206	2006
5	2	127	0	0
1	1	145	210	2008
1	2	138	205	2009
2	2	143	203	2005
1	2	137	209	2009
1	2	149	204	2008
1	1	0	0	0
2	1	133	208	2005
1	0	0	0	0
5	2	137	0	2005
1	1	131	207	2009
1	2	122	204	2009
1	1	123	209	2008
1	1	143	209	2006
4	0	0	0	1990
2	1	122	0	2005
5	2	136	203	2005
1	2	143	208	2007
2	1	124	204	2005
2	2	131	203	2004
1	1	120	208	2007
1	2	142	209	2008
2	1	120	207	2004
1	1	127	202	2007
1	1	124	209	2006
1	2	122	204	2008
1	1	116	206	2009
1	1	119	204	2006
1	2	136	205	2007
1	2	131	204	2006
2	2	134	208	2004
2	2	123	205	2004
2	1	140	205	2005
5	1	125	0	0
1	2	120	205	2006
1	2	113	206	2007
1	2	134	208	2007
1	2	131	202	2009
1	1	120	204	2007
1	2	138	205	2008
1	2	127	203	2005
2	1	125	204	2003
1	1	120	0	0
1	2	137	208	2006
1	2	137	202	2006
1	1	113	209	2006
1	2	120	202	2008
2	0	0	0	0
1	1	140	210	2006
2	2	121	204	2003
1	0	0	0	0
1	1	118	203	2006
2	2	143	203	2005
1	2	120	203	2006
1	1	142	204	2009
1	2	141	207	2009
1	1	123	210	2006
1	2	108	204	2007
1	1	136	204	2008
1	2	141	208	2009
1	2	141	204	2007
2	2	142	207	2003
1	1	125	204	2007
2	1	123	209	2004
1	2	123	210	2009
1	2	125	0	2006
5	1	123	0	2009
1	2	136	0	0
2	0	0	0	0
1	1	125	202	2009
1	1	136	203	2006
1	1	0	209	2007
1	2	0	0	0
1	2	131	209	2007
1	1	123	205	2008
1	1	137	202	2007
2	1	131	0	2005
1	2	137	204	2006
1	2	115	204	2006
1	2	143	209	2007
2	2	120	205	2004
1	0	142	0	0
1	2	123	202	2004
2	2	112	209	2004
1	1	138	205	2007
1	1	148	204	2009
1	2	125	203	2008
1	1	144	207	2007
1	2	142	203	2008
1	1	0	207	2007
2	1	106	203	2004
1	2	138	207	2008
1	1	108	207	2005
2	2	142	203	2003
1	2	125	210	2006
1	2	112	0	0
1	1	124	208	2006
1	1	0	0	2006
5	0	0	0	0
1	1	131	202	2009
1	1	108	209	2005
2	1	148	205	2002
1	1	0	202	2009
2	1	0	209	2000
2	2	127	209	2005
1	1	108	206	2009
1	2	143	209	2007
1	1	108	203	2009
2	1	124	207	2004
1	0	0	0	0
1	2	127	210	2008
1	1	120	204	2007
1	1	122	205	2009
2	1	141	207	2003
2	1	148	206	2005
2	2	143	205	2004
5	1	136	0	2009
1	2	142	203	0
1	2	145	210	2007
1	2	112	203	2006
2	0	0	0	0
1	2	0	208	2009
1	2	131	0	2007
1	1	125	209	2009
1	2	122	210	2006
2	1	137	203	2005
1	1	0	207	2007
1	2	112	206	2008
1	1	113	202	2006
1	1	131	207	2007
5	2	144	0	0
1	1	123	205	2006
1	1	131	205	2007
1	2	118	205	2008
1	0	0	0	0
1	2	141	202	2008
2	1	152	203	2005
1	2	131	203	2008
2	1	120	204	2005
1	2	0	203	2008
1	1	133	204	2007
1	1	0	205	2008
2	1	132	208	2001
2	2	120	202	2003
2	2	108	0	2005
2	2	122	0	2005
1	1	139	208	2008
1	1	137	205	2008
1	2	131	207	2008
1	1	132	203	2007
1	2	125	205	2009
1	1	122	207	0
1	2	121	203	2007
1	1	137	205	2008
1	1	137	210	2006
2	2	0	0	2005
1	2	0	0	2007
2	1	119	207	2004
1	2	142	208	2009
2	2	141	206	2005
1	1	108	203	2008
2	2	137	207	2005
1	2	0	203	2009
1	2	135	205	2007
2	1	131	206	2004
1	2	131	204	2008
1	1	108	209	2005
1	1	131	209	2006
1	2	125	202	2006
1	2	122	203	2006
4	2	129	207	2005
2	2	142	208	2004
1	1	121	204	2008
1	2	118	203	0
1	2	143	204	2009
1	2	142	205	2009
1	2	132	208	2005
1	1	149	206	2008
1	1	120	204	2006
1	1	139	208	2007
1	2	143	209	2009
1	2	127	203	2009
1	1	120	203	2009
2	2	137	206	2005
2	2	143	210	2005
1	2	0	206	2009
1	2	142	202	2006
2	2	142	210	2004
2	2	115	202	2005
1	1	0	210	2007
2	1	139	0	2005
2	1	131	205	2003
1	1	131	204	2007
1	1	131	208	2007
1	1	133	208	2007
1	2	137	208	2007
1	1	127	202	2007
2	2	142	206	2004
1	1	108	205	2007
2	2	131	207	2003
2	2	120	206	2003
1	0	0	209	0
1	2	140	204	2007
1	1	137	205	2007
1	1	123	202	2008
2	1	131	210	2005
2	1	122	205	2005
2	0	115	0	2004
2	1	137	205	2005
1	0	123	210	0
2	1	109	202	1993
1	2	136	203	2007
1	1	123	202	2008
1	2	137	205	2007
1	1	137	204	2007
2	1	0	205	2004
2	1	118	203	2003
1	1	113	210	2008
1	2	124	209	2008
1	2	141	207	2009
1	1	123	202	2007
1	1	122	205	2007
1	2	122	209	2007
2	1	127	0	0
1	2	120	0	2007
1	2	123	207	2006
2	1	137	208	2004
2	1	123	208	2002
1	2	125	202	2007
4	0	0	0	0
1	1	127	208	2008
1	1	123	205	2007
1	2	127	209	2005
1	2	122	209	2008
1	2	143	205	2008
1	1	131	208	2007
1	2	108	202	2006
1	1	131	205	2009
1	2	136	208	2006
2	1	122	210	2004
2	2	131	207	2005
5	2	0	0	2007
1	2	142	208	2006
1	1	112	207	2009
1	2	125	210	2008
1	1	133	210	2006
1	2	135	205	2008
1	2	124	207	2006
2	2	122	203	2005
1	1	0	203	2007
2	1	118	209	2004
1	1	132	210	2007
1	2	143	203	2007
2	2	141	204	2005
2	1	138	0	2004
1	2	133	206	2008
1	1	133	208	2009
1	2	143	207	2007
1	0	0	0	0
2	2	143	202	2003
2	1	123	202	2005
1	1	124	207	2005
2	2	148	208	2005
1	0	0	210	0
2	0	120	0	2005
1	1	131	210	2008
5	2	141	0	0
2	1	137	208	2004
1	1	137	209	2008
1	1	123	207	2006
1	1	112	204	2005
1	2	122	207	2006
1	1	123	210	2008
1	2	120	207	2009
1	1	122	208	2007
1	2	141	205	2009
2	0	106	202	2005
1	1	113	210	2008
1	1	131	208	2008
2	2	142	202	2005
1	1	120	207	2007
1	2	123	210	2009
1	1	120	207	2008
1	2	121	208	2007
1	1	136	208	2008
1	2	142	209	2009
2	1	127	203	2004
1	2	0	210	2009
1	0	142	0	2005
1	1	0	204	2008
2	1	148	207	2005
1	2	115	208	2006
2	1	141	204	0
1	1	123	210	2007
1	2	108	0	2007
1	1	0	203	2008
2	1	122	208	2004
2	1	142	210	0
1	1	0	207	2010
2	1	124	207	2005
2	2	113	210	2004
2	2	131	210	2005
1	1	123	209	2009
1	1	143	205	2007
1	2	106	203	2008
1	1	122	202	2008
1	2	133	202	2006
2	1	118	207	2004
2	1	142	206	2004
1	2	147	209	2006
1	2	149	208	2007
1	1	0	207	2009
1	1	137	203	2009
1	2	141	203	2006
1	2	136	208	2008
1	2	135	208	2009
2	1	119	209	2004
1	1	127	209	2009
1	2	131	204	2006
2	2	113	0	0
5	2	133	0	2007
2	1	115	208	2005
2	2	145	206	2005
1	2	127	202	2008
1	1	119	203	2009
1	2	0	208	2008
1	1	0	204	2009
1	2	147	208	2007
1	0	0	0	0
1	2	120	208	2007
1	2	0	210	2008
1	0	0	0	0
1	1	106	206	2008
2	1	123	0	2005
1	1	0	208	2008
1	1	132	208	2009
1	2	120	210	2005
1	1	120	207	2009
1	2	143	205	2009
1	2	122	207	2009
2	1	108	206	2004
1	2	139	210	2009
1	1	108	207	2006
1	1	148	203	2008
1	1	120	204	2007
1	1	108	210	2007
1	1	124	204	2006
2	1	137	0	2005
1	1	0	210	2009
2	1	123	208	2005
1	2	121	206	2006
2	1	131	210	2002
2	2	126	209	2004
2	2	136	209	2004
2	2	113	202	2004
1	2	140	204	2007
2	2	120	204	2004
1	2	143	207	2008
2	2	120	0	2005
1	2	142	203	2008
2	1	148	202	0
1	0	137	206	2006
2	2	124	202	2004
1	2	120	208	2008
2	1	123	209	2002
1	2	136	202	2007
2	1	131	210	2004
2	2	113	0	2005
2	2	148	204	2005
1	2	143	205	2009
2	2	143	208	2000
2	1	108	205	2004
2	1	126	209	2004
1	2	0	210	2006
1	2	122	204	2008
1	1	125	207	2007
5	1	137	204	2006
1	1	120	210	2009
2	2	0	0	0
1	2	122	207	2008
2	2	142	210	2004
1	1	122	205	2006
2	1	124	204	2005
1	2	141	208	2009
2	2	136	205	2005
1	2	120	210	2006
1	2	142	206	2008
1	1	127	204	2009
1	1	139	202	2007
1	1	123	207	2007
2	2	132	202	2005
5	2	143	206	2005
1	1	122	208	2007
1	2	123	210	2006
1	2	121	207	2007
1	2	108	202	2006
1	2	142	204	2007
