status	gender	major	dorm	year
1	2	246	105	2005
1	1	235	113	2007
1	1	268	94	2006
2	1	258	0	2004
1	2	278	95	2009
1	1	245	0	2007
1	1	272	93	2008
1	1	268	109	2008
1	1	268	0	0
1	1	250	0	2006
1	1	0	92	2008
1	2	0	90	2008
1	2	255	103	2006
1	1	0	92	2008
1	2	262	94	2008
1	1	245	0	2009
5	0	0	0	0
2	1	257	0	2005
1	1	275	89	2009
1	1	278	90	2009
1	1	257	0	2008
1	2	257	98	2006
2	2	244	0	2002
1	1	235	103	2006
1	1	249	94	2006
1	2	267	94	2008
5	0	0	0	2007
1	1	260	89	2009
1	1	244	115	2007
1	1	260	0	0
1	1	258	95	2008
2	2	235	0	2005
1	1	260	102	2007
1	2	241	89	2007
1	1	261	0	2008
2	1	260	89	2005
1	1	248	103	2008
1	1	267	92	2009
1	2	255	118	2006
2	1	252	102	2005
1	1	238	0	2006
5	0	0	0	0
1	1	245	0	2006
1	1	278	95	2009
1	1	257	0	2006
1	1	244	0	0
1	2	0	90	0
1	1	235	0	2006
1	2	262	99	2006
1	1	239	89	2009
1	2	0	90	2008
1	1	235	0	2007
1	1	238	116	2007
1	1	268	0	2007
1	1	238	95	2009
1	1	239	95	2009
1	2	0	125	2008
1	1	260	100	2007
1	1	245	0	2007
1	1	0	88	2008
1	1	257	107	2006
1	1	239	99	2007
1	2	0	91	2009
3	2	260	0	0
1	1	239	93	2008
1	2	266	105	2007
1	2	246	89	2008
2	1	271	0	2005
1	2	255	0	2007
1	1	271	94	2007
1	2	255	90	2008
1	2	266	89	2007
2	1	255	89	2005
1	1	268	91	2008
1	2	244	91	2009
1	1	268	129	2005
1	2	260	105	2006
2	1	245	0	2005
1	1	268	90	2008
2	2	250	0	2005
1	2	0	0	2008
1	1	274	0	2006
2	1	245	138	2005
5	2	246	103	0
1	2	241	99	2006
1	1	240	109	2006
1	1	244	95	2009
1	2	255	111	2008
1	1	268	0	2008
1	1	267	103	2007
1	0	235	0	2005
1	1	235	92	0
1	1	0	90	2009
1	1	260	90	2008
1	2	260	112	2006
1	2	278	88	2008
1	1	268	89	2009
1	1	252	91	2009
1	2	262	89	2006
1	1	235	102	2007
1	2	260	90	2008
1	2	0	91	2009
2	2	247	86	2005
2	1	260	100	2005
2	1	235	94	2005
1	1	239	157	2007
2	1	255	107	2005
1	1	268	93	2008
1	1	260	89	2008
1	1	245	98	2008
2	1	0	0	2005
1	1	245	123	2007
1	2	262	90	2008
1	1	268	91	2009
1	1	259	107	2006
1	1	268	89	2008
1	2	242	91	2008
1	2	278	90	2009
2	1	252	0	2005
1	2	249	0	2006
1	2	260	0	2008
1	2	255	0	2006
1	2	246	92	2009
1	1	267	89	2008
1	2	235	94	2006
1	0	255	90	0
1	2	240	90	2009
2	1	268	89	2005
1	2	262	89	2009
1	1	267	103	2006
1	1	268	0	2006
1	2	235	102	2006
1	2	242	89	2008
1	1	235	136	2006
1	1	239	89	2006
1	0	0	107	2006
1	2	0	89	2008
1	1	278	90	2009
1	1	245	0	0
1	2	249	91	2008
1	1	244	90	2009
1	2	245	94	2007
1	2	249	104	2006
1	2	235	95	2008
1	2	240	89	2008
2	1	268	107	2005
1	0	245	0	2007
1	2	266	91	2006
1	1	237	0	2007
2	1	260	108	2005
2	2	257	0	2004
1	1	0	89	2009
2	2	257	0	2004
1	2	262	0	2008
1	2	249	0	2007
1	1	265	103	2007
1	2	262	89	2009
1	2	0	95	2008
1	1	245	88	2008
5	2	279	0	2005
1	1	257	0	2007
1	2	255	0	2007
1	1	245	92	2007
1	0	0	0	0
2	1	268	0	2005
1	2	0	91	2008
1	2	255	101	2007
1	1	0	88	2009
1	0	237	0	2007
1	1	252	0	2006
1	2	0	88	2009
1	1	239	92	2009
1	2	239	0	2008
1	1	244	93	2008
1	2	255	102	0
1	1	260	95	2009
2	2	235	0	2005
1	0	252	0	0
1	2	255	0	2007
1	2	255	93	2007
2	2	255	103	2005
1	1	245	0	2008
1	1	238	0	2005
1	2	0	95	2009
1	2	267	90	2009
1	0	0	119	0
1	1	257	88	2008
1	1	244	90	2009
2	1	268	89	2005
1	1	0	88	2008
1	1	260	90	2008
1	1	0	0	2008
1	2	260	145	2006
1	2	247	102	2006
1	2	241	0	2004
1	2	255	101	2006
1	1	239	90	2009
1	1	0	91	0
1	2	260	0	2007
1	1	259	94	2008
1	1	257	90	2009
1	2	250	99	2007
1	1	244	0	2007
1	2	267	95	2008
1	2	267	140	2007
1	1	278	88	2009
1	1	239	88	0
1	1	244	89	2006
1	0	0	0	0
1	2	255	101	2006
1	2	235	93	2008
1	2	268	89	2006
1	2	0	93	2008
1	1	260	95	2009
1	1	260	107	2006
1	1	0	0	0
1	1	260	91	2008
2	2	262	0	2004
2	2	255	132	2005
1	1	270	90	2008
1	2	267	88	2007
1	2	255	141	2005
1	2	255	129	2006
1	1	269	94	2008
1	0	0	0	0
1	1	238	124	2007
1	2	255	94	2006
1	1	0	119	2008
1	1	268	101	0
1	2	255	90	2008
1	2	255	125	2007
1	2	0	0	0
1	2	235	0	0
2	2	249	0	2005
5	2	250	0	2006
1	1	267	88	2007
2	2	246	0	0
1	1	235	92	2008
5	0	0	0	0
1	1	260	90	2007
1	1	245	126	2006
1	2	272	88	2008
1	1	244	95	2009
1	1	255	0	2008
1	1	245	88	2008
1	1	0	93	2009
1	2	260	0	2007
1	2	267	90	2008
1	1	255	0	2006
1	2	260	0	2006
1	1	245	95	2008
1	2	250	0	0
1	2	0	0	2008
1	2	235	89	2007
1	1	0	103	2007
2	1	235	0	2005
1	1	245	95	2008
2	1	260	0	2004
1	2	244	0	2007
1	1	245	0	2006
1	2	250	93	2008
1	1	258	94	2007
1	1	249	112	2008
1	2	278	88	2008
1	2	262	87	2007
1	1	0	90	2008
1	0	0	0	0
1	2	244	0	2006
1	1	245	95	2009
1	1	0	88	2008
1	1	267	94	2009
1	1	0	91	2009
1	1	268	94	2007
1	1	239	100	0
1	2	241	89	2008
1	1	0	93	2009
2	2	267	99	2005
1	2	0	89	2008
2	2	264	0	0
1	2	0	95	2008
1	1	0	91	2008
1	1	260	92	2008
2	2	264	0	2005
1	1	268	95	2009
1	2	237	103	2006
1	1	239	92	2008
1	1	0	95	2009
1	1	245	0	2007
1	1	268	122	2006
1	2	235	0	2006
1	1	260	94	2008
1	2	259	102	2006
1	2	260	90	2009
1	1	0	94	2008
2	1	248	0	2005
1	2	251	93	2007
1	1	259	0	0
2	2	260	110	2005
1	1	0	93	2009
1	1	252	94	2008
1	2	268	0	2006
1	1	257	107	2005
1	1	268	0	2007
1	2	263	0	2007
1	1	235	99	2006
1	1	257	94	2006
1	2	268	95	0
1	1	268	89	2007
1	1	237	89	2008
1	2	263	90	2008
1	1	260	113	2007
1	1	267	93	2008
1	2	248	95	2008
1	2	246	0	2007
1	2	235	0	2007
1	0	0	0	0
1	2	267	89	2008
1	1	260	91	2007
1	2	0	92	0
1	1	252	0	2008
1	1	258	94	2008
1	2	252	0	2009
1	1	245	93	2008
2	1	260	0	2004
5	1	0	0	0
1	2	255	104	2008
1	1	0	93	2008
1	2	262	95	2009
1	2	0	90	2008
1	1	249	0	2009
1	2	0	0	0
1	1	249	90	2008
1	2	251	0	2008
1	1	267	101	0
1	2	267	0	0
1	0	0	0	0
1	2	0	93	2008
1	0	235	136	2006
1	2	241	0	2007
1	1	255	0	2009
1	2	260	0	2007
1	2	0	91	2008
1	1	268	88	2007
1	0	0	0	0
1	1	268	95	2009
1	1	257	103	2006
2	2	255	125	2004
1	1	239	126	2006
1	2	0	88	2009
1	1	245	98	2004
1	1	239	130	2007
2	2	255	0	2005
1	0	272	0	2006
4	1	0	0	0
1	2	278	88	2008
2	1	244	0	2005
1	0	0	0	0
1	2	269	101	2006
1	1	270	92	2008
1	2	250	89	2008
1	2	278	93	2009
1	1	245	122	2006
2	1	236	0	2005
1	2	247	0	2009
2	2	235	114	2005
1	1	245	0	2009
1	1	258	90	2007
1	1	245	89	2007
1	2	255	156	0
1	1	260	0	2007
1	1	239	0	2005
1	1	249	0	0
1	0	0	0	0
1	1	268	95	2008
2	2	255	0	2005
1	1	269	0	0
1	1	259	91	2007
1	1	0	0	2007
1	2	260	91	2007
1	1	260	0	2007
2	1	235	0	2005
1	2	267	93	2008
1	1	267	95	2009
1	1	0	95	2009
2	1	268	107	2005
1	1	268	88	2008
1	1	278	88	2008
1	2	260	109	2006
1	2	245	102	2008
1	1	249	93	2005
2	2	264	0	1999
1	2	255	93	2007
1	1	245	126	2006
1	1	252	90	2008
1	1	267	93	2007
1	1	260	0	2007
1	2	247	89	2006
1	1	268	90	0
1	2	255	103	0
1	1	260	146	2007
1	1	267	94	2006
1	1	253	0	2006
1	1	278	93	2009
1	1	278	88	2009
1	1	260	0	2006
5	0	0	97	0
1	2	246	103	2006
1	1	235	90	2006
1	1	268	101	2004
1	2	277	93	2008
1	1	0	90	2008
1	1	260	124	2007
1	1	245	103	2006
1	1	246	103	2007
1	1	235	0	2007
1	1	268	89	2006
1	1	252	102	2007
1	1	245	86	2006
1	1	0	90	2009
1	2	259	99	2007
1	2	267	0	2007
1	2	0	95	2009
1	1	267	103	2006
1	1	252	89	2008
1	0	269	107	2008
1	1	250	0	2007
1	1	245	89	2006
1	1	272	0	2006
1	0	0	0	0
1	1	259	0	2007
1	2	255	98	2009
1	2	235	99	2007
2	2	245	0	2004
1	1	0	93	2009
1	2	0	102	2008
2	1	257	99	2005
1	2	249	0	2006
1	2	239	94	2006
1	1	272	0	2006
1	2	255	92	2006
1	1	0	95	2009
2	2	257	90	2005
1	1	255	93	2006
1	1	0	89	0
1	1	268	90	2009
1	1	254	95	2009
2	2	259	0	2005
1	2	255	99	2007
1	0	0	0	0
1	1	268	89	2008
5	1	239	99	2005
1	2	244	98	2009
1	2	262	154	2007
1	2	262	0	2008
1	2	262	101	2006
1	2	246	89	2007
1	2	245	95	2007
1	1	259	103	2006
1	2	268	95	2008
1	2	239	0	2007
1	1	260	93	2008
2	1	248	0	2005
1	1	238	0	2007
1	1	0	0	2008
2	2	262	89	2005
2	2	270	148	2005
1	2	0	0	0
1	1	245	152	2006
1	2	262	91	0
1	1	0	92	2009
1	2	0	89	2009
1	1	255	116	0
2	1	245	103	2005
1	1	267	0	2008
1	2	245	93	2009
2	1	257	89	2005
1	2	255	144	2006
1	1	0	93	2008
1	2	262	90	2009
1	1	245	0	2006
1	1	250	92	2008
1	1	259	0	2005
1	2	263	95	2009
1	1	255	89	2008
1	1	245	91	2009
1	2	247	89	2006
1	2	278	98	2008
1	1	265	91	2007
2	2	235	128	2005
1	2	262	95	2009
1	1	267	103	2006
1	1	252	0	2006
1	2	250	93	2008
1	2	255	99	2006
1	2	267	104	2006
2	1	244	0	2005
1	2	278	90	2005
1	1	268	86	2006
1	1	235	91	2009
1	0	237	93	2007
2	1	259	0	2005
1	1	245	90	2008
1	1	268	91	2007
2	1	238	108	2005
1	2	239	89	2006
1	1	239	0	2007
1	1	252	103	2006
1	2	235	92	2007
1	1	235	103	2006
1	2	267	0	2008
1	1	0	90	2008
2	1	245	0	2005
1	1	235	102	2006
1	2	255	95	2007
1	1	235	99	2006
1	0	0	100	0
1	2	255	106	2007
1	2	0	89	2009
1	1	267	90	2009
1	1	268	98	2004
1	2	260	89	2008
1	2	260	91	2008
1	2	267	0	2008
1	1	237	0	2006
1	2	267	89	2005
1	2	262	156	2007
1	2	262	89	2009
1	2	0	95	2008
2	1	270	134	2005
2	2	235	0	2005
1	1	253	89	2006
1	1	0	95	2009
1	1	245	106	2006
1	2	262	88	2008
1	1	268	95	2009
1	1	252	91	2008
2	2	267	0	2005
1	2	0	94	0
1	2	267	94	2006
1	1	268	100	2008
1	1	269	0	2006
1	1	260	130	2006
1	0	259	90	2008
1	1	245	0	2006
2	2	255	0	2005
1	2	245	103	2006
1	2	259	0	2007
2	1	265	0	2005
1	0	269	94	2008
1	2	252	0	2006
1	1	255	0	2006
1	1	255	93	2008
1	2	277	0	2007
1	1	260	89	2008
2	1	252	86	2005
1	1	268	92	2007
1	2	267	95	2009
1	1	269	94	2008
2	2	246	0	2005
1	1	258	94	2006
2	1	276	0	2005
2	2	262	0	2003
1	1	245	97	2006
1	1	258	0	2005
1	2	267	91	2009
1	2	249	0	0
1	1	235	94	2008
1	1	249	90	2008
2	1	244	0	2005
1	2	245	90	2008
1	0	0	0	0
1	1	267	0	2006
1	2	239	89	2007
1	0	0	0	0
1	1	253	95	2009
1	2	249	0	0
2	2	240	89	2005
1	1	248	95	2008
1	2	241	93	2007
1	2	255	94	2007
1	2	248	0	2006
1	1	278	95	2009
1	1	0	93	2008
2	1	268	0	2005
1	2	241	102	2006
1	1	260	100	2007
1	2	278	93	2009
2	1	245	0	2005
1	1	235	0	2006
1	2	249	88	2009
1	1	255	88	2008
1	1	245	95	2007
5	2	277	96	2006
1	1	0	93	2009
1	1	0	95	2009
2	2	259	0	2004
2	2	255	103	2004
1	1	260	102	2007
1	0	0	0	0
1	1	268	103	2006
1	2	249	0	2007
1	1	258	95	2009
1	1	0	91	2009
1	1	268	92	2008
1	1	260	0	2007
1	1	267	86	2007
1	1	239	89	2009
1	1	266	93	2008
2	1	245	0	2005
2	0	270	0	2005
1	2	278	90	2009
1	2	249	89	0
1	2	268	99	2006
1	1	238	130	2006
1	1	250	0	2009
1	0	279	0	0
1	2	247	101	2008
1	2	278	95	2009
1	1	278	0	2008
1	2	277	0	2007
1	1	249	111	2006
5	1	279	0	2007
1	2	248	133	2007
1	1	241	89	2008
1	1	268	103	2006
1	1	235	108	2007
1	1	258	145	2006
1	1	0	91	2008
1	1	241	89	2008
1	1	268	126	2006
1	0	0	0	0
1	1	260	119	2007
1	2	235	90	2008
5	2	259	0	2004
1	1	0	91	2008
1	2	260	102	2006
1	1	267	122	2006
2	2	260	103	2005
1	1	260	89	2008
1	2	265	0	2008
1	2	262	95	2009
1	1	252	91	2009
1	2	239	94	2008
1	1	260	115	2007
3	2	252	105	2006
1	2	0	88	2008
1	2	249	102	2006
1	1	272	91	2008
1	2	267	98	2009
1	1	272	89	2009
1	1	268	86	2008
1	1	260	93	2008
1	1	0	0	2009
1	2	244	98	2008
2	0	250	0	2005
1	2	255	0	2005
1	2	244	88	2009
5	2	279	0	2007
1	2	0	91	2008
1	2	0	91	2009
1	2	260	0	2007
5	1	267	0	2004
1	1	245	0	2006
1	0	268	103	2006
1	1	0	0	2008
1	1	259	89	2009
1	2	245	105	2006
1	2	267	90	2008
1	2	257	94	2008
2	1	245	0	2005
1	2	249	0	2005
1	2	255	89	2004
1	2	241	89	2009
1	1	261	0	2006
1	2	255	0	0
2	1	0	0	2005
5	0	0	0	0
1	1	257	0	2006
1	1	267	0	2005
1	2	245	128	2006
1	2	260	0	2009
1	2	265	103	2007
1	2	0	95	2009
1	1	267	100	2006
1	1	252	95	2009
1	2	257	93	2008
1	1	278	95	2009
1	2	240	105	2007
1	2	0	95	2009
1	2	0	95	2009
1	1	245	95	0
5	2	250	0	2005
1	1	268	88	2009
1	2	249	94	2009
2	2	255	0	2004
1	1	267	91	2009
1	1	257	94	2006
1	1	268	122	2006
2	1	239	0	2005
1	1	244	88	2009
1	1	239	0	2009
1	2	0	91	2009
1	2	265	86	2006
1	1	0	95	2008
1	1	241	99	2006
1	1	0	95	2009
1	1	259	107	2006
1	2	249	103	2007
1	0	252	0	0
1	2	241	89	2006
1	2	246	101	2006
1	1	267	0	2006
1	2	262	0	2008
1	2	249	0	0
1	2	274	95	2008
1	2	244	95	2009
1	1	258	0	2009
2	0	235	0	0
1	1	259	94	2007
1	0	0	0	0
1	2	240	99	2007
1	2	278	89	2009
1	2	262	101	2006
1	2	265	94	2008
1	2	267	119	2007
1	2	262	89	2008
1	2	267	103	2006
1	1	267	103	2006
1	1	249	94	2005
1	2	241	104	2008
1	2	248	93	2008
2	1	245	94	2005
1	1	245	103	2006
1	1	260	130	2008
1	1	260	0	2007
1	2	245	89	2006
1	1	244	0	2007
1	1	255	98	2008
1	1	256	88	2009
1	1	235	103	2006
1	2	259	99	2007
1	1	0	0	2009
5	2	250	0	2005
1	1	268	112	2007
1	1	272	91	2007
1	1	252	0	2007
1	1	257	89	2006
1	2	262	89	2006
1	1	268	126	2007
1	2	278	90	2009
1	2	263	95	2008
1	1	252	0	2005
1	1	268	93	2009
1	1	0	103	2008
1	2	262	0	2006
1	2	0	95	2009
1	0	237	103	2007
2	2	249	120	2004
1	1	268	0	2009
1	1	268	138	2008
5	2	250	0	2004
1	1	245	86	2006
1	1	268	93	2009
1	2	255	105	2006
1	2	246	95	2007
1	2	241	0	2006
1	1	239	100	2008
1	0	0	0	0
1	1	0	91	2009
1	2	259	0	2006
1	2	235	0	0
2	1	271	0	2005
1	1	0	90	2008
1	1	260	90	2009
2	1	267	0	2005
1	2	0	93	2008
1	2	267	99	2005
1	2	266	89	2007
1	1	258	91	2009
1	2	239	89	2006
1	1	238	102	2007
1	1	245	90	2009
1	2	239	91	2009
1	0	0	0	0
1	1	263	137	2009
1	2	255	102	2006
1	1	255	88	2007
1	1	257	0	2007
1	2	244	89	2009
1	1	267	122	2006
1	2	262	0	2008
1	1	255	0	0
1	1	260	92	2009
1	1	235	88	2008
1	2	264	0	2006
1	2	252	117	2005
2	1	244	0	2005
1	2	250	89	2008
1	1	235	90	2007
1	2	239	95	2009
2	2	245	0	2004
1	1	271	0	2006
1	2	255	89	2007
1	1	240	89	2006
1	1	239	95	2009
1	2	247	91	2008
1	2	259	95	2009
2	1	253	102	2005
1	2	244	92	2008
1	2	235	114	2007
1	2	246	89	2005
1	1	267	0	2006
2	1	275	141	2005
2	1	260	138	2005
1	1	260	0	2007
1	1	241	0	2008
1	1	248	102	2007
1	2	267	90	2008
1	1	267	95	2009
1	1	267	89	2008
1	2	260	94	2009
2	2	255	106	2005
2	2	264	0	0
1	1	0	91	2008
1	1	0	93	2008
1	2	239	94	2008
1	1	249	109	2007
1	2	268	0	2007
1	2	267	0	2006
1	1	258	90	2008
1	2	259	95	2009
1	2	235	92	2006
1	1	259	0	2008
1	1	260	157	2007
2	2	245	86	2005
1	2	267	0	2006
1	1	252	138	2007
1	1	0	0	2008
1	1	252	0	2006
1	1	268	0	0
1	1	245	99	2007
1	1	245	137	2009
1	1	268	146	2007
1	1	256	88	2009
1	2	239	95	2008
1	1	245	90	2008
1	2	259	0	2007
2	1	255	0	2005
1	1	267	94	2007
1	1	268	90	2009
1	2	0	93	2009
1	2	0	90	2008
1	2	239	0	2009
2	1	270	0	2005
2	2	252	0	2004
1	2	249	0	2006
1	1	255	109	2006
2	1	252	0	2005
1	1	260	0	2007
1	2	248	139	2007
1	1	263	94	2006
2	1	252	140	2005
2	2	266	103	2005
1	1	0	91	0
1	1	239	95	2008
1	1	267	0	2007
1	1	0	95	0
2	2	260	0	2005
1	1	278	88	2009
1	2	252	0	2006
1	2	267	89	2008
1	1	258	90	2008
1	1	245	95	2008
1	1	272	100	2007
2	2	267	132	2005
1	1	0	92	2008
1	1	260	102	2006
1	2	238	0	2006
1	1	269	94	2007
1	1	256	90	2009
1	1	267	0	2006
1	2	255	90	2005
1	1	244	99	0
1	2	259	93	2008
1	0	0	0	0
1	1	257	0	2007
2	2	260	0	2005
1	1	269	89	2009
1	2	255	95	2008
1	1	0	95	2008
1	1	245	93	2008
1	2	235	94	0
2	2	260	0	2005
1	2	278	90	2009
1	2	0	92	2008
2	2	241	0	2005
1	1	245	112	2007
1	1	238	103	2006
1	1	0	91	2008
1	2	255	0	2006
1	1	0	91	2009
2	2	262	102	2005
4	0	0	0	0
1	2	0	0	0
1	2	267	0	0
1	2	0	147	2007
1	0	0	0	0
1	2	259	95	2008
1	2	235	93	2008
1	1	242	91	2009
1	2	0	0	2008
1	1	250	0	2006
1	1	249	0	2007
1	2	265	0	0
1	1	252	0	2005
1	1	270	91	2009
1	2	264	91	2008
1	1	238	98	2008
1	2	263	95	2009
1	2	255	0	2007
2	2	260	111	2005
1	1	263	91	2007
1	2	262	91	2008
1	2	0	89	2006
2	2	267	140	2005
1	2	0	90	2007
1	1	267	92	2009
2	2	261	0	2004
1	1	260	102	2008
1	2	245	0	2006
1	2	271	0	2008
1	1	268	90	2009
1	2	252	153	2008
2	1	260	102	2005
1	1	244	103	2006
1	2	260	95	2008
1	2	245	94	2009
1	1	0	89	2008
1	2	260	90	2008
1	1	0	95	2008
1	1	245	91	2008
1	1	243	0	2007
1	1	0	93	2008
1	2	268	121	2007
1	2	268	111	2007
1	1	0	89	2008
1	1	0	95	2008
1	1	0	94	2008
1	2	244	95	2009
1	2	268	93	2009
1	1	235	157	2007
1	2	235	94	2007
1	1	254	95	2009
1	0	260	0	2006
1	1	268	93	2008
1	1	244	93	2007
1	1	239	0	2006
1	1	245	112	2007
1	1	278	95	2009
1	2	278	0	2008
1	2	267	90	2007
1	2	250	103	2007
1	1	260	0	2006
1	1	244	90	2009
1	1	245	95	2007
1	2	267	138	2007
1	2	278	95	2009
1	2	268	92	2007
1	1	255	102	2007
1	2	247	0	2006
1	2	260	144	2005
1	2	262	88	2009
1	2	267	0	2007
2	1	267	0	2005
1	1	260	113	2006
1	0	0	0	0
5	1	279	0	2007
1	1	260	0	2006
2	2	249	89	2005
1	1	255	0	2006
2	2	0	0	0
1	2	244	105	2006
1	2	275	91	2008
1	2	241	89	2009
1	0	0	0	0
1	2	0	105	0
1	1	0	99	2007
1	1	0	89	2008
1	1	244	0	2007
1	1	237	0	0
2	1	268	0	2005
1	1	244	88	2007
1	1	270	91	2008
1	1	245	88	2008
1	1	249	100	2006
1	2	260	99	2006
1	2	252	0	2005
1	1	244	95	2009
1	2	255	0	2006
2	2	260	0	2005
1	1	243	0	2006
1	1	0	93	2008
1	2	252	94	2006
1	1	252	95	2008
1	2	250	0	2006
1	2	245	91	2009
1	1	245	95	2007
1	2	0	89	2008
2	2	249	0	2005
1	1	268	90	2009
1	1	235	0	2006
1	2	276	91	2008
1	2	267	0	2006
1	1	268	0	2008
1	1	267	122	2006
1	2	241	0	2007
1	0	0	0	0
1	1	252	89	2008
1	1	260	88	2004
1	1	260	0	2007
1	1	0	90	2008
1	2	235	89	2009
2	1	260	0	2004
1	2	249	94	2006
1	1	238	102	2007
1	1	257	90	2009
1	1	268	92	2008
1	2	250	0	2006
1	2	246	0	2004
1	2	235	111	2008
1	1	239	97	2007
1	1	235	0	2006
1	2	267	89	2009
2	1	265	0	2005
1	2	0	88	2008
1	1	239	95	2009
1	2	270	103	2006
1	1	265	90	2007
2	1	267	0	2005
1	1	235	88	2007
2	2	276	0	2005
1	1	244	0	2006
1	1	260	88	2007
1	1	235	94	2006
1	2	252	89	2007
1	2	278	89	2009
1	2	0	0	2009
1	1	244	90	2008
1	2	245	93	2009
1	2	265	95	2009
2	2	255	101	2005
1	2	262	0	2006
1	1	252	130	2007
1	1	255	0	2008
1	1	268	0	2008
1	1	241	98	2008
1	1	245	0	2006
2	1	245	102	2005
5	2	262	0	2004
1	0	267	103	2007
1	1	239	95	2009
1	1	244	0	2006
1	1	248	94	2009
1	1	0	0	2008
1	1	249	89	2007
2	2	257	0	2005
1	1	0	0	2008
5	2	265	97	2007
2	2	279	0	2005
1	1	276	94	2006
1	1	260	112	2007
1	2	255	129	2006
2	1	260	0	0
2	2	255	0	2005
1	1	260	98	2007
5	2	279	86	0
1	2	245	91	2008
1	1	238	95	2008
1	2	255	93	2008
1	0	0	0	0
2	2	0	0	2005
1	2	0	108	2009
1	2	257	98	2007
1	2	235	90	2009
1	2	249	101	2008
1	2	259	0	2005
1	2	267	99	2006
1	2	255	101	2007
1	1	252	95	2008
2	2	244	0	2004
1	1	272	90	2009
1	2	257	91	2008
1	1	257	103	2006
1	2	255	88	2009
1	2	268	94	2006
1	2	246	0	2008
1	2	267	88	2008
1	1	245	122	2006
2	1	255	0	2004
1	2	278	89	2009
1	0	276	95	2008
1	2	246	94	2005
1	1	0	93	2008
1	1	245	92	2008
1	1	252	0	2006
1	2	267	95	2009
2	2	267	0	2005
1	1	278	95	2009
1	1	241	0	0
1	1	0	90	0
1	2	267	94	2008
1	1	255	89	2009
1	2	259	90	2008
1	1	0	88	2008
1	1	268	115	2007
2	2	255	102	2004
1	1	259	93	2008
1	1	260	0	2007
1	2	268	99	2006
2	1	260	103	2005
1	1	271	100	2008
1	2	0	89	2009
1	1	278	95	2009
1	2	255	114	2005
1	0	0	0	0
2	1	267	99	2004
1	1	260	0	0
1	2	268	90	2008
1	2	278	91	2009
1	2	259	132	2007
1	0	268	91	2007
2	1	255	0	2005
1	2	257	94	2006
2	2	267	111	2005
1	1	258	112	2007
1	1	248	91	2008
2	1	0	0	2004
1	1	235	99	2007
1	2	267	86	2005
1	1	0	90	2008
1	2	260	105	0
1	1	276	98	2006
1	1	268	93	2009
1	2	254	94	2007
1	1	252	95	2009
5	2	0	87	2004
1	2	244	95	2009
1	1	244	91	2008
1	1	0	0	2008
1	1	268	93	2008
1	0	249	0	2007
1	2	240	89	2007
1	2	268	91	2009
2	2	262	111	2005
2	1	245	123	2005
1	1	244	94	2008
1	1	267	91	2007
1	1	267	127	0
3	2	0	0	0
2	2	241	0	2004
2	2	235	106	2005
1	2	246	103	2005
1	2	246	0	2004
1	1	268	94	2006
1	1	260	93	2008
1	2	239	89	2008
1	1	260	0	2006
1	1	252	90	2008
2	1	244	0	2005
1	1	262	89	2007
1	1	252	95	2007
1	1	249	103	2006
1	2	235	92	2009
1	1	255	95	2009
1	1	245	89	2006
1	2	239	88	2008
1	1	0	98	2008
1	1	260	89	2008
1	2	257	0	2006
2	2	267	0	2004
1	2	264	89	2006
1	1	268	122	2006
2	2	249	0	2004
1	2	267	90	2008
1	2	259	0	2006
1	0	260	0	2008
1	1	267	0	2008
1	1	267	0	2006
1	2	241	89	2007
2	2	245	0	2004
1	2	249	99	2006
1	1	245	0	2008
1	1	244	0	2008
1	1	245	90	2009
1	1	245	95	2008
1	2	267	89	2009
1	1	244	95	2008
2	2	241	0	2008
1	2	255	0	2006
1	2	278	88	2009
1	1	270	0	2006
1	1	261	95	2008
1	1	0	0	2008
1	1	0	95	2008
1	2	259	93	2009
1	1	260	130	2008
1	2	241	89	2005
6	2	272	0	2004
1	2	247	0	2007
1	2	249	0	2006
1	2	253	95	2008
2	2	255	0	2004
1	1	0	95	2009
1	1	260	90	2008
1	1	255	0	2009
1	0	0	0	0
2	1	244	138	2005
1	2	241	88	2008
1	2	239	94	2006
1	2	260	89	2006
1	1	268	112	2007
1	1	257	90	2008
1	1	248	95	2008
1	1	268	95	2008
1	1	255	92	0
1	2	267	125	2007
1	2	0	91	2008
1	1	239	92	2009
1	1	245	95	2009
1	1	240	0	2005
1	1	261	94	2009
1	1	272	0	2008
1	1	237	90	2006
2	2	246	0	2004
1	2	262	0	2006
2	2	0	0	2005
1	1	255	95	2008
1	2	260	88	2009
1	2	241	90	2008
1	1	268	0	2006
1	0	0	0	0
1	1	245	0	2006
1	2	0	0	2008
1	1	268	91	2008
1	2	241	0	2006
1	2	241	0	2006
1	1	0	94	2009
1	1	0	88	2009
1	2	255	0	2008
1	2	278	94	2009
1	2	249	101	2007
5	2	240	0	2007
1	2	249	90	2008
1	2	246	103	2005
1	2	255	0	2007
2	1	235	94	2005
4	1	0	0	0
1	1	260	108	2007
1	1	268	100	2006
1	1	244	95	2009
5	2	260	0	2004
1	2	0	100	2006
1	2	268	88	2007
1	2	246	92	2009
1	1	235	94	2006
1	1	0	156	2007
1	0	0	0	0
1	1	255	0	2006
1	1	268	0	2006
1	2	240	0	2005
1	2	260	0	2008
1	2	247	91	2009
1	2	0	90	2009
1	1	244	90	2008
2	1	271	0	2005
1	1	245	88	2009
1	1	268	0	2006
1	2	255	0	2006
1	2	249	86	2007
1	1	0	95	2009
1	1	260	95	2008
1	2	251	91	2009
1	1	260	0	2006
1	1	271	0	2007
1	2	267	93	2008
1	1	268	95	2009
1	2	255	0	0
1	1	245	102	2008
1	1	267	0	2006
2	1	268	0	2005
1	2	272	94	2007
1	2	235	99	2007
1	1	267	99	2006
1	1	260	91	2008
1	2	260	89	2006
1	2	252	103	2006
1	1	267	91	2007
2	1	247	0	2005
1	2	278	89	2009
1	1	239	90	2009
1	2	261	89	2007
2	0	257	0	2005
1	1	267	0	2006
1	2	259	0	2006
1	2	249	95	2008
1	1	245	88	2007
1	1	245	103	0
1	2	245	91	2009
1	1	245	92	2009
1	1	245	0	2007
2	1	257	0	2004
1	0	0	0	0
1	1	250	100	2005
1	1	0	91	2007
1	1	239	98	2009
2	2	235	112	2005
1	2	249	0	2007
1	1	260	0	2006
1	1	276	98	2008
1	2	0	153	2008
1	2	0	91	0
1	0	0	0	0
2	1	239	99	2005
1	2	262	111	2008
1	1	278	98	2009
5	2	279	0	2007
1	2	262	0	2006
1	1	244	0	2006
1	1	267	0	2006
1	0	0	0	0
1	1	278	90	2009
1	1	268	90	2009
1	0	255	94	2008
2	0	0	0	0
1	1	245	95	2008
2	1	235	0	2005
1	1	245	93	2009
1	1	245	95	2009
1	2	0	0	2008
1	2	246	0	2006
2	2	265	103	2005
1	1	238	88	2008
1	1	260	0	2006
1	1	0	92	2009
1	2	246	89	2007
1	2	250	0	2006
1	1	239	92	2009
1	0	276	97	2007
1	2	248	89	2008
1	2	260	93	2009
1	2	249	0	2006
1	0	260	92	2007
2	1	270	0	2005
5	1	258	0	2005
2	1	252	0	2005
1	2	249	0	2006
2	2	248	0	2003
1	1	245	0	2006
1	1	265	0	2006
1	1	245	0	2007
1	2	245	129	2006
1	2	268	0	2006
2	1	255	99	2005
1	1	0	93	2008
1	2	278	93	2009
1	1	255	0	0
1	2	272	86	2006
1	1	260	88	2008
1	1	260	157	2007
1	1	260	91	2008
1	1	257	91	2007
1	1	268	99	2006
1	2	260	88	2009
1	2	0	154	2008
5	1	279	0	2007
1	1	252	0	2006
1	1	262	89	2009
1	1	244	91	2009
2	1	267	0	2005
1	1	255	0	2006
1	1	237	0	2007
2	2	255	106	2005
1	1	245	0	0
2	1	269	94	2005
1	2	235	93	2007
1	2	278	88	2009
1	2	255	106	2007
1	2	250	114	2007
1	1	269	90	2008
1	2	249	0	0
2	1	259	123	2005
1	1	235	0	2008
2	1	268	0	2005
1	1	255	123	2007
1	1	245	94	2008
2	1	260	0	2004
1	2	260	93	2008
1	2	245	94	2006
1	1	239	89	2009
1	1	239	0	0
1	2	0	102	2008
1	0	0	0	0
1	1	272	95	2007
1	2	247	89	2006
1	1	267	0	2006
1	2	279	94	2009
2	2	235	99	2005
1	1	260	90	2008
2	1	260	0	2005
1	2	260	0	2008
1	2	259	0	2009
1	1	260	0	2008
1	1	235	103	2007
2	2	239	102	2005
1	1	260	0	0
1	2	255	88	2008
1	1	0	88	2009
1	1	268	137	2009
1	1	249	89	2007
1	1	268	0	2006
1	1	237	0	2006
1	0	268	0	2006
1	2	260	0	2006
1	1	235	94	2006
1	1	245	98	2009
2	1	252	0	2004
1	1	260	95	2009
1	1	241	90	2009
1	1	0	95	2008
1	2	268	95	2008
1	2	272	94	2006
1	2	251	0	2007
1	1	278	95	2009
1	2	259	121	2006
1	2	245	91	2009
2	2	262	0	0
2	1	268	0	2005
1	2	239	92	2009
1	1	239	89	2008
1	2	245	89	2007
1	1	244	0	2007
1	1	244	95	2009
1	2	253	132	2006
1	0	245	0	2007
1	1	271	103	2006
1	1	0	91	2008
1	1	260	0	2006
1	2	259	103	2007
1	2	245	104	2006
1	1	245	0	2008
1	2	252	0	2006
1	1	270	92	2009
2	1	268	0	2005
1	2	0	0	0
1	2	262	138	2007
1	1	245	91	2008
1	1	250	89	2008
1	2	260	0	2007
2	1	252	0	2005
1	1	268	116	2007
2	2	260	0	2004
1	2	264	0	2006
1	1	245	95	2008
1	2	255	0	2006
1	2	263	89	2008
1	1	270	95	2008
1	1	0	90	2008
1	1	262	89	2008
1	2	235	138	2006
1	1	259	0	2008
5	2	246	0	2005
1	2	245	92	2009
1	1	253	93	2008
1	2	255	106	2007
1	2	241	95	2007
1	2	262	89	2007
1	1	255	0	2005
1	1	267	99	2006
5	2	0	0	0
1	1	0	90	0
2	1	268	0	2004
2	1	267	0	2005
1	1	249	95	2008
1	1	255	92	2008
1	1	245	95	2008
1	2	245	95	2007
1	1	258	93	2009
1	1	260	90	2008
2	1	260	0	2005
1	1	245	90	2008
1	0	0	0	0
1	1	252	102	2007
1	1	260	103	2006
1	1	0	94	2008
1	2	0	90	2008
1	1	235	91	2008
1	2	278	95	2009
1	2	244	147	2007
1	1	239	88	2009
1	2	235	94	2006
1	1	0	0	2008
1	2	246	95	2009
1	1	278	95	2009
1	1	0	95	2008
1	1	271	103	2007
1	2	0	90	2009
5	0	0	0	0
1	2	250	89	2008
1	1	255	0	2006
1	1	235	90	2009
1	1	0	89	2008
1	1	267	93	2008
1	1	260	0	2007
1	2	267	95	2006
1	1	268	0	2006
1	2	0	102	2008
1	1	245	94	2007
1	1	278	91	2009
1	1	267	103	2006
1	1	255	156	2007
1	1	235	131	2007
1	1	0	88	2008
1	1	0	93	2008
1	2	267	0	2007
1	2	244	92	2009
1	2	249	0	2009
1	1	255	0	2006
1	1	268	94	2006
1	1	0	91	2009
1	1	239	89	2008
1	1	268	0	2006
1	1	0	98	2008
1	0	0	0	0
1	2	245	95	2008
1	2	255	95	2008
1	1	275	0	2007
1	2	261	0	2006
1	2	255	101	2006
2	2	246	104	2004
1	1	245	90	2006
1	1	278	0	2009
1	2	267	89	0
1	2	267	104	2006
1	1	256	92	2008
1	2	249	95	2009
1	2	0	88	2008
1	1	265	148	2006
1	2	0	93	2008
2	1	245	89	2005
1	2	252	139	2007
1	2	260	89	2009
1	1	245	95	2009
1	2	0	0	2008
1	1	0	88	2009
1	2	255	102	2007
2	2	235	99	2005
1	2	267	95	2009
1	1	277	97	0
1	1	260	88	2009
1	2	241	0	2007
1	1	239	92	2008
1	1	255	0	2008
2	1	245	0	2005
1	2	255	0	2006
1	1	268	0	2006
1	1	0	98	2009
1	2	244	108	2006
2	2	264	0	2005
1	1	268	91	2008
1	1	268	99	2005
1	2	245	99	2006
1	2	267	0	2006
1	2	267	102	2006
1	1	245	130	2006
1	2	255	0	2008
1	1	278	90	2009
1	1	0	88	2008
5	1	270	0	0
3	0	240	0	0
2	1	249	0	0
1	2	278	93	2008
1	2	235	103	2008
1	2	249	0	2005
1	0	0	103	0
2	1	257	0	2005
2	1	245	0	2005
1	1	248	90	2007
1	1	250	0	2008
1	1	238	88	2009
2	1	268	0	2005
2	1	260	0	2003
5	1	279	96	2005
1	1	259	90	2008
1	1	235	0	2006
1	2	255	89	2008
1	1	265	95	2008
1	2	250	0	2006
1	2	243	90	2007
1	1	267	131	2006
1	2	272	101	0
1	2	262	149	2006
1	1	267	0	2006
1	2	235	95	2008
5	2	279	0	2007
1	2	235	0	2006
1	1	268	100	2006
1	1	245	95	2008
1	1	278	91	2009
1	1	0	95	2009
1	1	255	0	2006
2	0	0	0	0
1	1	278	88	2009
1	2	252	153	2008
1	0	0	0	0
1	2	249	88	2009
1	1	252	93	2007
1	1	245	0	2009
1	2	0	0	2008
1	1	268	0	2006
1	1	235	108	2007
1	2	278	89	2009
1	1	258	95	2006
1	1	258	137	0
1	1	0	0	2008
1	2	235	129	2006
1	1	245	0	2006
1	1	239	0	2008
1	2	246	94	2009
1	0	0	0	0
2	2	267	103	2005
1	2	235	156	2006
1	2	255	91	2008
1	2	267	121	2008
2	0	244	108	0
1	0	239	89	2006
1	1	267	99	0
1	1	270	92	2007
1	0	0	0	0
1	1	252	98	2008
1	1	239	93	2008
2	2	246	99	2005
1	1	271	95	2008
2	2	255	117	2005
1	1	268	95	2009
2	1	245	108	2005
1	2	267	0	2008
1	1	252	88	2008
1	1	272	94	2006
2	1	271	140	2005
1	2	255	103	2006
1	1	245	88	2009
1	2	235	89	2009
1	1	235	0	2008
1	2	249	95	2009
1	1	257	89	2008
1	1	255	90	2008
1	2	278	95	2009
2	1	238	0	2005
1	1	278	94	2009
2	1	245	107	0
1	0	0	93	2008
1	2	268	91	2009
1	2	260	0	2009
1	1	255	0	2006
1	0	0	99	2006
1	2	245	0	2006
1	2	262	103	2006
1	1	268	88	2007
1	1	278	92	2009
1	1	0	90	2008
1	1	0	95	2009
1	2	255	0	2007
1	1	259	137	2009
1	1	260	90	2007
1	2	0	135	2008
2	1	0	0	2005
1	2	247	116	2007
1	1	246	0	2006
1	2	268	91	2009
1	2	255	114	2005
1	2	274	90	2007
1	1	260	138	0
3	2	269	0	0
5	2	0	0	2007
1	1	249	0	2008
1	2	255	108	2006
1	1	268	99	2006
1	0	255	148	2006
1	1	255	90	2008
1	1	260	90	2008
1	1	0	0	2008
1	2	245	95	2009
1	1	260	89	2008
1	1	259	0	2007
1	1	261	90	2008
1	2	247	0	2006
1	2	278	95	2009
1	2	267	89	2009
2	2	247	95	2002
1	2	267	91	2009
1	2	0	0	2006
2	2	252	0	2005
1	0	255	0	0
1	2	267	89	2006
1	1	259	0	2007
1	1	237	0	0
1	1	255	88	2008
1	2	239	93	2009
2	2	0	112	2005
1	1	239	89	2008
1	1	268	90	2008
1	2	267	89	2006
1	1	244	94	2009
1	1	245	90	2009
1	1	239	93	2009
1	1	245	107	2006
1	1	239	91	2009
1	2	259	95	2008
1	1	0	93	2008
1	2	255	0	2010
2	2	255	0	2005
2	1	268	0	2005
1	1	0	0	0
1	1	262	89	2009
1	1	275	93	2008
1	2	264	0	2007
1	2	239	94	2008
2	1	267	94	2005
1	1	245	86	2006
2	2	267	0	2005
1	2	239	93	2009
2	1	235	130	2005
1	2	278	90	2009
2	1	268	0	2004
1	1	278	89	2009
1	1	0	91	2008
5	0	0	0	0
2	2	255	0	2005
1	0	0	102	2007
2	1	0	0	2004
1	1	255	90	2007
1	2	278	93	2009
1	1	256	90	2009
1	2	235	95	2009
2	1	265	0	2005
1	2	268	0	2007
1	1	260	88	2009
1	1	268	95	2008
1	2	259	0	2006
1	1	249	94	2006
1	2	250	89	2008
1	1	260	92	2006
1	1	245	95	2007
1	0	268	94	0
1	1	260	0	2006
1	2	278	95	2009
1	1	255	115	2007
1	2	256	95	2008
2	2	268	0	2005
1	0	0	0	0
1	2	278	94	2009
5	1	0	0	2007
1	1	258	99	2006
1	1	278	95	2009
2	1	244	101	2005
1	2	255	0	2006
1	2	245	106	2007
1	2	271	88	2006
1	1	261	95	2008
1	1	260	99	2008
1	1	268	99	2007
1	1	268	98	2008
1	2	267	99	2006
1	1	244	0	2006
1	1	243	91	2007
1	2	0	118	2008
1	1	0	90	2008
1	1	252	92	2006
2	2	0	0	2004
1	2	239	89	2007
1	2	235	91	2008
1	1	260	94	2007
1	1	250	89	2008
2	2	249	0	2005
1	1	244	94	2009
1	2	256	95	2009
1	2	278	88	2009
1	1	245	0	2007
1	1	255	103	2007
2	2	235	102	0
1	2	262	0	2007
1	2	235	95	2008
1	1	255	137	2009
1	1	245	102	2007
1	2	267	102	2006
1	1	260	95	2008
1	2	255	0	2008
1	2	244	89	2009
1	1	268	0	2005
1	1	278	90	2008
1	1	269	89	2005
1	1	268	86	2006
1	1	260	0	2007
2	2	255	89	2005
1	2	267	0	2007
1	2	249	93	2009
1	1	245	95	2009
2	1	259	101	2005
1	2	255	0	2008
2	2	260	0	2005
1	2	249	0	0
1	1	262	0	2008
1	2	257	89	2006
1	2	268	98	2008
1	2	255	94	2006
1	1	267	0	2007
2	1	268	0	2005
1	1	269	88	2008
1	2	262	98	2009
1	2	267	88	2008
1	1	253	103	2008
1	2	235	94	2007
1	2	257	0	2008
1	2	235	92	2008
1	2	262	104	2008
1	1	267	92	2009
1	2	272	90	2009
1	1	268	88	2009
1	1	260	90	2008
5	2	0	0	2007
1	2	0	91	2009
2	1	268	0	2005
1	1	241	90	2008
1	0	0	0	0
1	1	245	99	2007
1	0	244	93	0
2	2	239	103	2005
1	2	252	0	2007
1	2	268	94	2008
1	1	268	93	2007
1	2	246	137	2009
1	2	262	95	2008
1	2	235	95	2009
2	1	270	108	2005
1	2	261	0	0
1	1	269	91	2008
2	2	246	94	2005
2	1	255	0	2004
1	1	239	90	2008
1	2	0	90	2008
1	1	271	0	2006
1	2	257	103	2006
1	1	268	91	2008
1	1	268	93	2005
1	1	268	119	2007
1	1	255	0	2006
1	2	245	90	2007
1	2	255	91	2008
1	1	260	94	2008
1	2	244	0	2009
1	1	243	94	2009
1	2	267	148	2006
1	2	260	101	2006
1	1	0	94	2008
2	2	260	0	2005
1	1	235	102	2007
2	1	237	0	2005
2	1	270	119	2005
1	1	245	92	2009
1	1	0	95	2009
1	1	239	155	2007
1	0	235	103	2006
2	2	250	101	2005
1	1	0	93	2009
1	2	257	0	2006
1	1	262	123	2007
1	2	267	0	2006
1	1	260	88	0
2	1	255	0	2004
1	2	255	89	2007
1	1	268	102	2007
1	2	259	101	2007
1	1	235	0	2006
1	1	245	88	2008
2	1	260	0	2005
5	2	0	0	2004
1	2	246	0	2007
1	1	235	94	2007
1	1	268	0	2005
1	2	267	129	2006
1	1	260	123	0
1	2	235	97	2008
1	1	246	95	2009
1	1	235	0	2006
1	2	0	100	2007
1	1	268	120	2007
1	1	246	93	2009
1	1	235	103	2007
1	0	262	0	0
1	2	239	90	2009
1	2	255	0	2007
1	2	245	154	2007
1	1	259	103	2006
1	2	249	90	2009
1	0	0	0	2008
1	1	260	0	0
1	1	267	93	2008
1	2	241	89	2009
1	1	268	109	2006
1	1	0	92	2009
2	2	265	94	2004
1	1	245	94	2009
1	1	245	137	2009
1	2	259	125	2008
1	2	235	0	2009
2	1	270	0	2005
1	2	254	90	2009
2	2	263	0	0
1	1	235	135	2006
1	1	257	0	2006
1	1	260	0	2007
1	2	235	0	0
1	1	245	93	2009
1	2	249	0	2006
1	1	278	92	2009
1	1	0	92	0
2	1	239	0	2005
1	2	260	103	2008
1	1	248	95	2008
1	1	0	93	2008
1	1	239	90	2009
1	0	0	0	0
1	1	271	90	2009
1	2	268	0	2006
1	1	244	88	2009
1	0	245	116	2007
1	1	0	103	2008
1	1	248	94	2008
1	2	247	91	2008
2	1	245	0	2004
2	2	239	99	2005
1	1	245	101	2006
1	2	267	129	2006
1	1	0	88	2009
1	2	245	0	2005
1	0	0	0	2006
1	1	239	0	2007
1	1	0	0	2009
2	1	239	0	2005
1	1	245	97	2006
1	1	245	90	2007
1	2	260	90	2009
1	2	266	89	2008
1	1	244	93	2008
1	2	262	94	2008
1	1	0	88	2008
1	1	244	0	2006
1	1	268	86	2006
2	1	255	103	2005
1	2	265	102	2006
2	1	253	0	2004
2	0	0	0	0
1	1	245	88	2007
1	1	0	95	2009
1	2	267	126	2006
1	1	0	98	2008
1	2	0	95	2009
1	2	262	95	2008
1	1	260	99	2007
1	2	257	135	2008
1	2	268	99	2006
1	1	256	88	2009
1	1	268	0	2005
1	1	245	92	2009
1	1	268	91	2009
1	2	255	91	2008
1	2	267	94	2008
1	2	239	0	2007
1	2	268	94	2009
1	2	268	89	2009
2	1	260	0	2005
1	1	0	90	2009
2	2	259	0	2005
1	1	239	0	2006
1	1	0	95	2009
1	1	239	90	2008
1	2	275	0	2007
1	1	272	91	2008
1	1	0	90	2008
1	1	0	88	2009
1	1	252	91	2008
1	1	278	90	2009
1	1	278	95	2009
1	1	263	95	2009
1	1	270	99	2007
1	2	255	0	0
1	2	255	102	2008
2	2	246	0	2005
1	2	267	135	0
1	2	255	0	2006
1	1	235	94	2006
1	2	249	0	2007
1	1	270	95	2009
1	1	245	100	2007
1	2	259	135	2008
1	1	252	0	2008
1	1	0	98	2008
1	0	238	0	2006
1	2	272	0	2006
5	1	258	0	2005
1	2	257	0	2006
2	2	235	0	2005
1	1	241	90	2008
1	1	245	95	2005
1	1	252	86	2006
1	2	244	0	2006
1	2	259	90	2008
2	2	262	103	2005
1	1	240	93	2007
1	2	239	95	2007
1	1	252	94	2006
2	2	257	101	2005
1	1	258	95	2008
1	2	278	95	2009
1	1	248	90	2007
1	1	259	138	2006
5	2	279	0	2007
2	1	268	0	2005
1	1	0	93	2008
1	1	235	97	2006
5	1	0	0	2007
1	1	268	93	2009
1	1	261	0	2006
1	2	255	0	2006
1	1	248	93	2009
1	1	268	88	2008
2	2	252	0	0
1	2	255	88	2008
1	1	278	100	2008
1	2	269	95	2006
2	2	246	89	2004
1	1	244	0	2006
1	1	268	95	2007
1	1	262	0	2009
1	2	245	0	2008
1	1	255	98	0
1	1	235	94	2007
1	2	264	0	2007
1	2	267	0	2006
1	2	267	0	2007
1	1	260	0	2008
1	2	269	127	2006
1	1	245	116	2007
1	1	260	0	2008
1	1	235	95	2008
1	2	235	103	2006
1	1	0	0	2007
2	1	237	0	2005
1	2	0	90	2008
1	2	0	95	2007
1	2	249	88	2007
5	1	0	97	2007
1	1	278	93	2008
1	2	267	92	2008
1	2	244	129	2006
2	1	235	0	2005
5	1	258	91	2005
1	1	268	91	2009
1	1	245	86	2006
1	1	252	0	2008
2	1	276	0	2005
1	1	255	94	2007
1	0	0	0	0
2	1	268	107	2005
1	1	260	116	2007
1	2	255	0	2006
1	2	260	90	2006
1	1	259	0	2008
1	2	268	100	2005
1	2	272	95	2009
1	1	238	0	2007
1	2	244	95	2008
1	2	262	95	2008
1	2	260	139	2006
1	1	0	95	2009
1	1	235	94	2006
1	2	0	94	2009
1	1	245	0	2006
1	1	261	92	2006
1	2	0	91	2009
1	1	259	101	2006
2	1	267	0	2005
1	1	260	0	2007
1	2	0	92	2007
1	0	0	0	0
1	1	260	0	2008
1	1	239	94	2008
1	2	259	88	2008
1	2	245	101	2008
1	1	0	98	0
1	1	275	0	2007
1	1	268	95	2008
1	1	249	97	2006
1	1	0	0	2007
1	2	267	0	2006
1	1	235	103	2007
1	1	260	0	2007
1	1	271	0	2006
1	2	245	90	2009
2	1	260	0	2005
1	1	278	94	2009
1	2	278	88	2009
1	1	255	0	2008
2	1	267	129	2005
2	2	255	111	2005
1	1	268	0	2009
1	0	255	86	2006
1	1	260	157	2006
2	1	238	0	2005
5	1	258	151	2005
2	2	252	89	2005
1	2	249	90	2008
2	2	235	0	2003
1	0	252	103	0
1	1	0	93	2009
5	1	279	0	2007
1	1	248	0	2007
1	2	250	89	2006
1	1	268	91	2006
1	2	252	0	2006
1	2	263	0	2008
1	1	0	0	0
1	1	0	93	2009
2	1	0	0	0
1	0	267	99	2006
1	1	268	98	2009
1	1	0	90	2009
1	2	267	0	2005
3	1	235	0	0
1	2	249	88	2008
1	2	241	88	2008
1	2	0	144	2006
1	1	257	90	2009
1	0	0	0	0
1	2	260	88	0
1	1	268	90	2008
1	2	259	98	2008
1	1	246	103	2007
1	2	260	0	2007
1	2	260	94	2008
1	1	0	89	2009
1	2	255	0	2007
2	2	268	0	2005
1	2	267	90	2006
3	2	262	90	2008
1	2	0	0	0
5	1	0	0	0
1	1	267	0	2008
1	2	245	0	2006
2	2	244	102	2005
1	2	246	114	2007
1	2	235	105	0
1	2	249	90	2009
1	2	272	154	2007
1	1	245	95	2009
2	1	260	0	2005
1	1	249	93	2007
1	1	244	95	2008
2	1	260	0	2005
1	2	240	0	2005
1	1	245	119	2007
1	1	260	88	2008
1	2	278	89	2009
1	0	0	0	0
1	1	239	93	2009
1	2	278	94	2009
5	1	0	97	2007
1	1	260	0	0
1	1	252	91	0
1	2	239	0	2006
1	1	260	150	2006
1	1	268	94	2008
1	1	261	129	2006
1	1	262	90	2009
1	1	0	93	2008
1	1	267	0	2006
1	1	259	0	2009
1	0	0	0	0
1	1	0	95	2009
1	0	276	0	0
1	0	260	0	2007
1	1	0	93	0
1	1	245	94	2007
1	2	253	94	2006
1	1	0	90	2008
1	1	252	0	2007
1	1	235	101	2006
1	1	239	0	2006
1	2	246	0	2006
1	2	241	0	2006
1	2	257	99	2007
1	2	265	95	2008
1	2	264	91	2007
1	2	255	0	2007
1	1	239	95	2009
1	2	246	88	2008
1	2	0	92	2009
5	2	260	0	2004
1	2	255	0	2006
2	2	255	111	2005
1	0	0	92	0
1	2	252	94	2009
1	2	245	90	2009
1	2	262	88	2009
1	2	268	0	2006
1	2	260	90	2008
2	1	270	0	2005
1	1	238	91	2009
1	2	255	153	2008
1	2	235	91	2008
1	2	250	89	2008
1	2	277	116	2008
1	2	247	102	2006
1	2	239	94	2009
1	2	260	95	2009
1	1	248	88	2007
1	1	0	90	2008
1	2	270	156	2007
2	2	246	0	2004
1	1	252	0	2005
1	2	235	0	0
1	1	258	100	2006
1	1	239	95	2009
1	1	268	93	2008
1	2	0	93	2008
1	1	240	0	2006
1	1	235	90	2008
1	1	264	98	2006
1	1	239	99	2006
1	1	235	94	0
1	2	255	0	2006
5	1	0	97	2007
1	2	262	89	2008
1	1	267	95	0
1	1	260	136	2006
1	2	262	98	2009
2	1	268	0	2005
1	1	278	0	2008
2	2	267	0	2005
1	1	260	95	2008
1	2	255	153	2008
1	1	239	0	2006
1	2	262	0	2009
1	1	0	0	2008
1	1	239	89	2009
1	2	257	91	2008
1	2	0	0	2008
1	2	260	0	2007
1	2	235	93	2008
1	1	269	90	2007
1	2	0	91	2008
1	1	259	0	2006
1	2	241	89	2005
1	1	0	90	2009
1	0	245	102	2007
2	1	268	123	2005
1	1	239	0	2006
1	2	255	112	2006
1	1	268	94	2007
1	1	261	89	2008
1	1	0	89	2009
1	1	235	94	2009
1	1	260	100	2006
1	2	0	90	2008
2	1	260	0	2005
2	2	264	0	2004
1	1	268	108	2006
2	1	0	0	0
1	1	267	89	2009
1	1	0	95	2008
1	2	235	0	2007
1	1	245	93	2008
1	1	255	130	2006
1	1	259	0	2006
1	2	250	0	2006
1	1	235	95	2008
1	1	239	0	2009
1	0	0	88	0
2	1	245	0	2005
1	1	260	137	0
1	2	0	94	2008
2	2	261	90	2005
1	1	260	94	2006
1	1	245	115	2007
2	2	264	94	2004
2	1	235	0	2005
5	2	264	86	2004
1	1	239	0	2008
1	2	238	94	2006
1	2	255	129	2006
1	1	245	120	2007
1	0	0	0	0
1	2	241	93	2008
1	1	238	0	2006
1	1	268	93	2009
1	1	272	0	2006
2	1	245	0	2005
1	2	264	98	2007
1	1	257	91	2008
1	1	255	0	2006
1	2	262	90	2009
1	1	0	91	2008
1	1	255	138	2006
1	2	249	0	2006
1	0	0	0	0
1	1	237	0	2007
1	2	250	0	2008
1	1	0	92	2008
2	2	250	0	2005
1	1	245	95	2007
1	1	0	91	2008
2	2	252	0	2005
1	1	257	102	2007
1	1	258	103	2007
2	1	260	107	2002
1	2	241	0	2006
1	2	265	0	2006
1	2	241	98	2006
1	2	262	0	2006
5	2	250	89	2006
1	1	278	88	2009
1	1	244	89	2006
2	1	258	0	2004
5	2	0	0	0
1	2	257	94	2006
1	2	0	129	2008
1	1	0	0	2008
1	0	0	0	0
1	2	255	93	2008
1	2	235	88	2008
1	2	244	90	2008
1	2	239	102	2006
1	2	277	135	2008
1	0	0	0	0
1	1	0	91	2009
1	2	252	112	2006
1	0	245	0	2008
1	1	268	88	2007
2	1	235	108	2005
1	1	252	90	2008
1	1	260	0	2007
1	1	260	88	2008
1	2	251	94	2007
1	2	241	0	0
1	2	235	89	2007
1	2	255	0	0
4	0	250	0	0
1	2	0	88	2009
1	1	235	0	2006
1	1	238	94	2007
1	2	245	99	2006
1	2	244	102	2006
1	1	268	100	2008
1	1	244	89	2008
1	2	0	94	2009
1	1	260	0	2006
1	1	244	93	2009
1	1	0	91	2009
1	2	277	95	2007
1	2	0	90	2008
2	1	240	0	2005
1	2	267	129	2006
1	1	249	0	2008
1	2	267	0	2006
1	1	244	0	2009
1	1	252	0	2006
1	1	267	93	2008
1	2	255	0	2007
1	2	250	98	2009
1	1	245	90	2008
1	1	270	102	2006
1	1	245	0	2007
2	2	255	0	2005
1	1	268	99	2007
1	2	257	0	2005
1	2	255	125	2006
1	2	239	0	2008
2	1	267	0	2005
1	1	257	91	2008
1	1	235	89	2006
1	1	239	0	2007
1	2	262	0	2007
1	2	249	0	2007
1	2	260	0	2006
2	2	249	0	2005
1	1	270	0	2006
1	2	235	129	2006
1	1	244	103	2008
2	0	245	0	2005
1	0	0	102	2008
5	2	235	0	2005
1	2	265	95	2007
1	1	253	95	2008
1	2	235	89	2006
1	2	260	0	0
1	1	245	100	2008
1	1	0	88	2009
1	2	246	0	2006
5	2	0	0	2006
2	2	239	0	2005
1	2	241	95	2009
1	2	279	103	2006
2	2	235	0	2003
1	1	278	90	2009
1	1	268	86	2007
1	2	249	104	2007
1	0	0	0	0
1	2	259	104	2006
1	1	268	102	2007
1	1	0	92	2008
1	1	0	89	2008
5	1	279	117	2007
2	1	270	0	2005
1	2	260	0	2009
1	1	245	0	2006
1	1	245	0	2007
1	2	0	0	2007
2	2	235	144	2005
2	1	263	129	2005
1	2	260	89	2008
1	1	259	100	2007
1	1	255	94	2008
1	2	268	0	2006
2	1	265	0	2003
2	2	250	0	2005
1	1	245	93	2009
1	1	238	99	2006
1	1	0	88	2008
1	2	250	0	2005
1	1	268	91	2008
1	1	239	93	2008
1	2	260	94	2008
1	1	245	0	2006
1	1	260	100	2007
1	2	0	90	2008
2	2	270	111	2005
2	1	268	0	2004
1	0	260	0	0
1	1	239	90	2006
1	1	252	0	2006
1	1	260	93	2009
1	1	250	130	2006
1	1	235	95	2008
1	1	252	91	2008
1	1	0	0	2007
1	1	239	0	2008
1	0	0	0	0
1	2	255	95	2008
2	2	262	0	2005
1	2	278	88	2009
1	1	268	109	2006
1	1	260	95	2009
1	1	0	95	2009
1	2	255	88	2008
2	1	260	109	2005
1	0	0	0	0
1	2	255	153	2008
2	2	257	0	2005
1	1	268	102	2007
1	2	268	116	2008
1	0	0	0	0
1	1	0	91	2008
1	2	259	95	2009
5	2	262	0	2005
1	2	262	94	2008
2	2	255	112	2005
1	1	268	93	2008
1	2	249	90	2008
1	1	267	100	2006
1	1	272	0	2007
1	1	252	91	2008
5	2	250	0	2005
1	1	244	91	2009
1	1	0	88	2009
2	1	245	103	2005
5	2	250	0	2005
1	2	235	91	2009
1	2	270	91	2008
1	2	241	94	2007
1	1	245	101	2006
1	2	246	98	2007
2	1	268	107	2005
1	1	240	100	2006
1	2	278	89	2009
2	2	245	106	2005
1	1	237	0	2006
1	1	268	113	2006
2	2	263	0	2004
1	2	246	89	2008
1	2	240	102	2008
1	2	0	95	2009
1	2	245	95	2009
1	0	267	0	2006
2	1	258	0	2005
1	0	245	0	2006
1	1	258	92	2009
1	2	252	156	2007
1	2	244	94	2008
1	1	254	101	2008
1	1	0	91	2008
2	1	260	115	2005
1	2	245	95	2009
1	2	249	0	2006
1	1	0	91	2009
1	1	237	112	2007
5	2	279	0	2007
1	1	0	89	2008
2	2	259	102	2005
2	2	264	0	2004
5	0	0	0	0
1	1	246	0	2005
1	2	245	100	2010
1	1	257	124	2007
1	1	267	91	2007
1	2	235	88	2008
2	1	267	89	2005
2	1	260	0	2005
1	1	235	0	2006
1	2	239	91	2008
2	1	260	102	2005
1	1	271	155	2006
1	2	278	91	2009
1	1	268	0	2008
1	1	268	95	2008
1	1	0	94	2008
1	2	255	118	2008
1	1	275	89	2008
2	2	267	102	2005
1	1	268	102	2007
1	2	0	93	2008
1	1	268	146	2007
1	1	267	109	2007
1	1	267	88	2008
1	2	257	0	2006
1	1	256	89	2009
1	2	246	0	2006
1	2	246	89	2009
1	1	260	0	2008
1	1	252	94	2007
1	1	245	101	2006
1	2	239	88	2008
1	2	265	95	0
1	2	267	0	2007
1	1	267	94	2006
1	1	272	101	2006
2	2	257	0	2005
1	2	268	86	2006
2	1	235	94	2005
1	0	0	0	0
1	2	250	0	2008
1	2	255	0	2008
1	1	271	95	2008
1	1	235	136	2006
1	1	0	0	2008
1	1	0	91	2009
1	1	278	94	2009
5	2	0	87	2007
1	1	0	93	2009
1	1	249	0	2006
1	1	255	0	2009
1	1	266	103	2006
1	1	239	89	2009
5	1	267	0	0
1	2	262	102	2006
1	2	235	92	2006
1	1	260	0	2008
1	2	260	118	0
1	2	245	95	2008
1	1	255	91	2008
1	1	255	95	2008
1	2	245	0	2005
1	2	268	94	2006
1	1	258	0	2009
1	2	278	0	2009
1	1	0	93	2009
2	1	255	102	2005
2	2	246	99	2005
1	2	267	125	2007
1	2	277	116	2008
1	2	268	93	2008
1	1	259	0	2006
1	1	245	0	2006
1	2	268	94	2008
2	1	260	120	2005
1	1	268	95	2009
1	1	255	91	2008
1	1	0	0	2008
1	1	260	90	2009
1	2	260	95	2009
1	1	278	90	2009
1	2	255	98	2008
2	2	255	146	2005
2	1	270	0	0
1	2	252	105	2006
1	1	235	0	2006
1	1	262	107	2006
1	1	252	93	2007
1	2	241	89	2008
1	2	246	89	2009
2	2	235	106	2005
1	2	235	0	2007
1	2	260	88	2008
1	1	245	123	2007
1	2	246	100	2006
1	1	0	92	2008
1	1	268	148	2006
1	2	267	99	2006
2	1	244	138	2005
2	2	255	0	2005
1	1	252	0	2005
1	2	245	95	2007
1	1	0	90	2009
1	2	270	92	2008
1	0	0	0	0
1	2	255	101	2006
1	2	260	104	2006
1	2	239	95	2007
1	2	235	95	2008
1	2	0	0	2008
1	2	239	95	2009
1	1	260	0	2005
1	1	0	91	2008
1	1	244	93	0
1	1	0	88	2009
1	1	235	88	2008
1	1	278	90	2009
5	2	0	87	2007
2	2	246	125	2005
1	1	268	92	2008
5	2	0	0	2005
1	1	260	90	2008
1	1	257	0	0
1	1	0	94	2008
1	2	0	95	2009
1	2	257	0	2006
1	1	244	89	2007
1	2	0	0	2008
1	1	249	103	2006
1	1	0	0	0
1	1	267	90	2008
1	1	255	0	2006
1	1	0	91	2008
1	1	249	0	2006
1	1	255	94	2008
1	2	0	91	2008
1	1	239	109	2006
1	2	260	102	2006
1	1	240	91	2009
1	1	267	0	2006
1	2	245	90	2009
1	1	244	88	2008
1	1	255	156	2005
1	2	239	89	2009
1	1	255	88	2009
1	1	278	90	2009
3	2	0	0	0
2	1	268	0	2005
1	2	262	0	2006
1	2	278	90	2009
1	1	244	156	2007
1	1	237	0	2006
1	1	245	88	2008
1	1	268	94	2007
1	2	241	89	2009
1	2	258	95	2009
2	1	258	140	2005
1	2	267	0	2007
1	2	260	125	2007
1	2	238	139	2006
1	1	0	90	0
1	1	0	93	2008
1	1	268	88	2008
1	1	269	94	2007
1	1	244	88	2007
1	1	245	111	2006
1	2	277	95	2009
2	2	252	0	2005
1	2	261	89	2009
1	1	0	90	2008
1	1	235	0	2008
1	2	255	94	0
1	1	0	0	0
1	2	0	98	2005
1	2	250	0	2006
1	2	259	95	2009
1	1	268	103	2006
1	1	260	95	2009
1	1	0	95	2009
1	1	238	0	2006
1	1	0	91	2008
1	1	239	0	2008
2	1	0	0	2004
1	2	0	0	2008
1	1	267	98	2008
1	2	0	92	2009
1	2	248	107	2008
1	1	240	119	2007
1	1	261	93	2009
1	2	255	103	2008
1	2	265	95	2008
1	1	252	88	2008
1	1	252	95	2008
1	2	267	128	2007
1	1	260	0	2008
1	2	0	88	2007
1	2	247	90	2007
1	2	263	90	2008
2	2	268	0	2004
1	2	264	89	2005
1	1	0	0	0
1	1	245	98	2009
1	2	251	93	2007
1	1	241	88	2008
1	1	268	0	2006
2	1	0	0	0
1	1	245	91	2008
2	2	264	0	2004
1	0	0	0	0
2	2	250	0	2005
1	1	248	95	2007
1	2	255	90	2008
1	1	252	88	2007
1	2	244	94	2006
1	1	268	107	2007
2	2	249	0	2005
1	1	0	88	2009
5	2	277	103	2007
2	2	264	0	2005
1	1	260	94	2008
1	1	260	0	2006
2	1	237	0	2004
1	2	267	0	2008
1	1	268	109	2006
1	1	260	0	2007
1	2	249	94	2004
1	0	252	0	2007
1	2	277	88	2008
1	2	246	91	2007
1	2	262	89	2007
1	2	240	102	2006
5	1	279	0	2008
2	1	239	0	2005
1	2	267	0	0
1	1	272	88	2009
5	0	0	0	0
1	1	268	95	2008
1	2	267	93	2009
1	1	268	0	2007
2	1	249	0	2004
1	2	250	95	2007
1	1	240	93	2008
1	1	0	91	2009
1	0	260	136	2006
1	1	0	95	2009
1	1	235	98	2007
1	2	265	99	2006
1	2	251	100	2007
1	1	245	99	2006
1	1	0	0	2008
2	2	268	101	2005
1	2	255	0	2005
1	0	235	94	2006
1	1	235	91	2008
1	1	235	89	2006
2	1	268	0	0
1	1	260	94	2006
1	1	0	0	0
1	1	271	89	2007
1	2	259	140	2007
1	1	252	0	2009
2	1	270	119	2005
1	2	260	91	2008
3	2	0	0	0
1	1	0	88	2008
1	2	235	0	2006
2	2	235	94	2005
2	1	260	0	2005
1	1	252	88	2008
1	1	259	93	0
1	2	259	104	2005
1	2	241	93	2007
1	2	235	91	2007
1	2	249	153	2008
1	2	245	154	2007
1	2	249	0	2006
1	2	0	90	2009
1	1	269	91	2008
1	1	260	115	2007
1	2	245	89	2008
1	2	0	89	2008
1	1	260	99	2006
2	1	270	0	2005
1	1	252	90	2008
1	2	267	147	2007
1	2	235	95	2009
1	1	0	88	2008
1	1	241	93	2009
1	1	0	95	2008
1	2	245	139	2006
2	2	255	0	2005
1	1	0	89	2008
1	2	248	93	2007
1	0	255	0	0
1	1	235	0	2007
1	2	0	154	2008
1	2	268	0	2006
2	2	255	0	2005
1	2	255	89	2006
1	2	262	89	2009
2	2	260	0	2004
1	2	245	0	2008
1	2	235	0	2006
2	1	255	0	0
1	1	0	93	2008
2	1	276	0	2005
1	2	255	102	2006
1	1	268	102	2007
5	2	276	0	2006
1	2	0	0	0
1	1	239	91	2009
1	2	260	0	2008
1	1	255	0	2006
1	0	260	103	2007
1	2	245	0	2006
2	1	267	0	2005
1	1	259	0	2007
1	2	239	0	0
1	1	256	89	2009
1	1	271	91	2008
1	1	271	0	2007
2	1	245	0	2004
1	1	252	103	2006
1	2	267	147	2007
1	1	239	89	2007
1	1	278	93	2009
1	0	267	0	0
1	1	0	93	2009
1	1	255	93	2008
1	1	270	92	2009
1	1	260	90	2008
1	1	269	94	2008
1	1	268	86	2006
1	2	0	118	2008
1	1	270	88	2009
1	1	268	94	2006
1	0	261	0	2008
1	0	264	90	2006
2	1	252	0	0
1	2	239	90	2009
2	2	268	0	2005
1	0	268	89	2006
1	2	0	90	2009
1	0	0	0	0
1	1	0	90	2008
1	2	252	89	2009
1	2	260	90	2008
1	1	256	89	2009
1	2	242	0	2007
2	2	255	0	2005
1	2	270	102	2007
1	1	268	90	2008
1	2	239	89	2007
1	1	239	93	2009
1	1	0	90	2009
1	1	259	94	2008
1	2	263	94	2009
1	1	260	101	2006
2	1	235	0	2005
1	1	239	95	2008
1	2	239	111	2005
1	2	249	88	2008
1	0	268	0	2005
1	2	249	90	2008
1	0	250	89	2007
1	2	0	90	2009
1	1	276	0	2007
1	1	268	90	2008
1	1	0	95	2009
1	1	238	91	2009
1	2	235	102	2008
1	1	245	89	2008
1	0	245	0	2006
1	1	253	101	2008
1	2	0	95	2008
1	2	262	0	2006
1	1	268	91	0
1	1	0	93	2009
1	2	259	92	2009
1	1	244	0	2008
2	1	245	0	2004
1	2	266	91	0
1	1	260	141	2007
1	2	245	103	2008
2	1	252	109	2005
1	1	260	103	2006
2	1	235	0	2005
1	2	235	102	2007
1	2	260	151	2007
1	2	278	88	2009
1	1	260	93	0
1	2	268	91	2009
1	2	262	95	2007
1	2	260	0	2007
2	1	238	0	2005
1	2	246	90	2008
1	1	265	0	2009
1	1	244	89	2006
1	2	255	0	2006
1	1	245	95	2009
1	1	0	99	2008
1	0	0	0	0
1	2	0	90	2008
5	2	279	87	2008
1	2	278	137	2009
1	1	259	90	2009
1	1	245	88	2008
1	2	241	89	2005
1	2	255	95	2009
1	2	249	0	2005
2	1	260	0	2005
1	2	260	102	2008
1	2	235	88	2008
1	1	260	91	2008
2	1	268	0	2005
1	1	268	0	2006
2	1	267	0	2005
2	2	255	0	2004
2	1	260	0	2005
1	2	264	102	2006
1	2	272	95	2008
1	2	249	95	2009
1	1	244	90	2009
1	1	239	90	2009
1	2	255	0	2006
1	0	239	93	2008
2	2	249	0	2005
1	1	0	90	2008
1	1	259	0	2006
1	2	255	0	2005
1	0	0	0	0
2	2	252	143	2005
1	2	0	0	0
1	2	255	116	2008
1	1	0	93	2009
1	2	268	98	2008
1	1	258	93	2008
1	2	245	103	2005
1	1	255	138	2005
4	1	245	0	2001
2	0	235	0	2005
2	2	255	0	2005
5	1	279	0	2005
1	1	257	0	2006
1	1	258	88	2007
1	1	260	99	2006
1	1	268	91	2009
1	1	267	89	2007
1	1	267	90	2008
2	1	268	0	2005
1	1	258	91	2009
1	2	272	0	2007
1	2	255	99	2006
1	2	249	118	2008
1	1	239	148	2006
1	2	259	102	2006
1	2	263	91	2009
1	2	267	99	2006
1	1	0	90	2009
1	1	267	0	2006
1	2	244	91	2006
1	1	259	92	2008
1	2	257	94	2009
2	1	268	101	2005
1	1	245	98	2008
1	2	255	0	2006
1	2	266	89	2007
2	1	268	0	2005
1	1	278	90	2009
2	1	260	102	2005
1	2	259	91	2009
1	1	239	95	2009
1	2	0	89	2008
1	2	241	0	2007
3	1	252	142	2006
1	2	249	0	0
1	2	245	95	2008
1	1	245	0	2006
1	2	0	98	0
1	1	244	101	2006
1	1	268	0	2007
1	1	0	0	2009
1	1	259	0	2007
1	2	250	0	2006
2	1	267	0	2005
1	2	267	0	2006
1	2	239	90	2008
2	1	239	153	2005
1	1	270	90	2008
1	2	255	0	2007
1	1	237	95	2008
1	1	0	90	2008
1	2	255	99	2006
1	2	239	89	2008
1	2	262	92	2009
1	1	260	0	2006
1	2	246	125	2007
1	2	252	0	2007
1	1	257	91	2009
1	1	244	94	2007
3	2	257	90	0
1	2	235	88	2007
1	1	267	138	2007
1	2	246	0	2008
1	1	0	0	2008
1	2	0	0	2008
1	2	250	99	0
1	1	244	0	2007
1	2	246	156	2007
1	2	272	88	2009
1	1	270	93	2007
1	1	245	95	2009
1	0	255	93	0
1	1	0	90	2008
1	2	235	89	2008
1	1	0	94	2009
2	2	245	0	2005
1	1	0	98	2008
1	1	237	91	2008
1	2	235	0	2006
1	1	272	120	2008
2	2	255	148	2005
1	2	0	90	2009
1	2	262	93	2006
2	1	268	0	2005
1	1	260	88	2009
1	2	250	0	0
1	0	260	93	2008
1	2	267	90	2009
1	1	0	0	0
2	1	252	99	2005
1	1	268	0	2008
5	1	279	0	0
1	2	260	93	2008
1	2	267	90	2008
1	2	252	139	2006
1	1	245	130	2006
5	0	0	0	0
1	1	239	86	2006
5	2	262	0	2005
1	2	272	0	2004
1	2	255	0	2006
1	2	265	93	2008
1	2	267	91	2008
1	2	241	0	2007
1	1	246	0	2009
1	1	249	92	2007
1	1	260	0	2007
1	0	0	0	0
1	1	235	107	2005
1	0	238	0	2006
1	1	268	93	2009
1	0	244	94	2007
1	0	260	0	2008
1	1	268	101	2006
2	2	0	0	2004
1	2	252	0	2006
1	2	259	142	2006
1	1	244	90	2009
1	1	237	155	2007
1	1	260	156	2007
1	2	255	88	2008
1	2	262	91	2009
2	1	245	0	2004
1	1	240	88	2008
2	1	267	107	2005
1	1	278	95	2009
2	1	245	115	2005
2	1	235	0	2005
1	1	238	94	2009
1	1	243	93	2007
1	1	245	122	2006
1	1	268	108	2008
1	1	239	0	2006
5	2	278	0	0
1	1	0	95	2008
4	1	0	0	0
1	1	260	100	2006
1	1	0	93	2009
1	2	268	90	2008
1	1	268	95	2009
1	1	268	0	2006
1	1	245	126	2006
1	1	244	89	2009
1	2	241	0	2006
1	1	260	0	2006
1	1	0	100	2008
1	2	240	0	2006
1	1	0	94	2007
1	0	0	0	0
1	2	245	86	2007
1	2	0	102	2007
1	1	237	88	2008
1	1	0	90	2009
2	2	235	99	2004
1	1	263	91	2009
1	0	239	0	2007
2	1	239	103	2005
1	0	0	0	0
1	1	0	93	2008
1	1	255	101	2006
2	1	260	119	2005
1	1	245	0	2006
1	1	257	90	2007
2	2	270	91	2005
2	2	244	129	2005
1	2	262	91	2009
1	2	237	0	2005
1	1	241	89	2007
1	2	252	91	2008
1	0	0	0	0
1	2	257	91	2008
2	2	248	0	2005
1	2	268	95	2007
2	2	249	0	2005
1	2	268	86	2005
2	1	268	0	2004
2	2	241	0	2005
1	1	259	0	2006
1	1	245	97	2006
1	1	245	0	2006
1	1	267	103	2006
1	2	251	89	2009
1	0	271	0	0
1	1	278	94	2008
1	1	238	88	2007
1	2	0	95	2009
1	1	245	95	2008
2	2	0	0	2004
1	1	278	90	2008
1	2	255	90	2007
1	0	239	0	0
1	1	257	94	2009
2	1	245	99	2005
2	2	252	0	2004
1	2	259	94	2009
1	1	261	0	2007
1	1	245	123	2007
1	1	259	89	2007
1	2	262	90	2009
1	1	252	0	2006
1	1	245	0	2007
1	2	262	93	2008
1	2	255	0	2008
1	1	267	89	2008
1	0	0	95	2007
1	1	268	99	2006
1	2	252	154	2007
1	1	267	103	2006
1	0	235	0	0
1	2	270	0	0
1	1	0	0	2006
1	1	0	94	2007
1	2	255	110	2005
1	1	245	130	2006
1	1	259	120	2007
1	2	235	90	2008
1	1	260	90	2008
1	2	262	95	2008
1	2	241	0	2008
1	1	270	92	2007
1	1	255	0	2007
1	2	239	0	2008
1	2	244	91	0
1	2	260	93	2009
1	1	0	0	2007
1	2	0	94	0
1	1	0	0	2009
1	1	0	90	2008
1	1	239	0	2006
1	1	252	113	2007
1	2	0	98	2009
1	1	239	91	2009
1	1	249	95	2008
1	2	247	94	2006
1	2	259	0	2007
1	1	260	88	2007
1	1	268	95	2009
1	2	267	94	2007
1	2	0	92	2009
1	1	0	90	2008
1	1	235	0	2007
1	1	258	103	2006
1	1	260	107	2006
1	1	268	0	2007
1	1	267	0	2008
1	1	278	94	2009
1	2	249	0	2006
1	1	260	0	2006
1	1	260	89	2007
1	1	278	0	2009
1	1	250	89	2008
1	2	250	98	2007
1	2	259	105	2006
1	1	267	134	2007
1	1	260	0	2006
5	2	246	0	2005
1	1	278	95	0
2	2	249	0	2004
1	2	239	98	2009
1	1	239	0	2006
5	1	249	103	0
1	1	257	94	2006
2	1	267	0	2005
1	1	245	137	2009
1	1	248	100	2006
1	1	239	148	2006
1	2	250	103	2006
1	1	268	95	2007
2	2	260	87	2004
1	1	245	88	2008
1	2	0	0	0
1	2	0	88	2007
1	1	257	0	2006
1	1	267	91	2009
1	2	262	89	2009
2	1	268	101	2005
1	2	245	0	2007
1	2	267	88	2007
1	2	268	0	2006
1	1	268	0	2008
1	1	235	90	2008
2	2	250	0	2005
2	2	235	0	2005
1	2	261	0	2006
1	1	260	0	0
1	1	278	88	2009
1	2	255	99	2006
1	1	260	92	2008
1	1	0	95	2009
1	1	239	0	2008
1	1	0	90	2008
1	1	270	103	2008
2	2	259	102	2005
1	1	0	95	2008
1	2	262	0	2007
1	2	255	93	2008
2	1	0	0	2005
1	1	260	123	2007
1	1	267	94	2006
1	1	0	94	2009
2	1	260	0	2005
1	1	239	89	2008
1	1	260	90	2009
1	1	267	0	2006
2	1	244	0	2005
5	2	262	0	2004
1	2	0	90	2008
5	1	267	115	2005
1	1	238	0	2007
1	1	245	0	2007
1	1	239	88	2008
1	1	270	91	2008
1	1	239	0	2005
1	2	255	88	2009
1	2	278	90	2009
1	2	235	92	2007
2	2	250	0	2004
1	1	0	91	2009
1	2	239	92	2009
1	1	268	92	2009
2	2	246	0	2005
1	1	260	100	2008
1	2	252	89	2006
1	1	267	0	2006
1	1	239	95	2009
1	1	239	99	2007
1	2	239	91	2008
1	1	239	0	2009
1	0	0	0	0
1	1	245	156	2006
1	1	239	103	2006
1	1	245	88	2009
1	2	278	95	2009
1	1	245	95	2009
1	1	0	95	2009
1	1	0	95	2009
1	2	267	95	2008
1	2	255	104	2006
1	2	262	0	2005
1	1	252	102	2006
1	1	279	0	2009
1	1	245	0	2008
1	2	235	0	2007
5	2	279	87	2007
1	1	235	0	2006
1	2	265	94	2006
1	1	260	0	2007
1	0	0	0	0
1	2	248	0	2006
1	1	239	93	2008
2	1	245	119	2005
1	0	262	0	0
1	1	0	90	2009
1	1	238	91	2008
1	1	260	0	2006
2	2	255	110	2005
1	1	0	0	2007
1	1	257	94	2009
1	2	246	88	2008
1	1	278	95	2009
1	1	0	88	2009
1	2	259	94	2006
1	1	0	91	2008
1	1	0	0	2006
1	1	261	155	2006
1	1	260	95	2009
1	1	239	0	2009
1	2	268	103	2005
1	2	278	98	2009
1	1	245	0	2007
1	1	255	98	2009
1	2	255	90	2008
1	1	0	93	2008
2	1	245	0	2005
1	1	235	102	2007
1	2	259	99	2007
1	2	255	90	2008
1	2	262	149	2006
1	1	249	99	2006
1	2	278	90	2009
1	2	255	0	2006
5	2	0	0	2005
1	1	258	0	2008
2	1	235	115	2005
1	1	245	102	2005
1	1	0	95	2009
1	1	260	89	2007
1	1	0	0	2007
1	1	268	92	2008
1	1	237	92	2008
2	1	245	0	2005
1	2	268	94	2009
1	0	259	90	2008
1	2	257	89	2007
5	1	0	0	2007
1	1	0	89	2009
1	2	235	88	2009
1	2	250	100	2006
1	1	278	88	2009
2	0	0	0	0
1	1	268	92	2008
1	2	245	94	2006
2	1	245	0	2005
1	1	275	0	2008
1	2	255	102	2007
1	2	244	90	2008
1	2	250	91	2009
2	1	235	0	2005
1	1	268	94	2009
1	1	260	88	2008
2	1	260	0	2005
1	1	0	95	2009
1	1	245	95	2007
1	1	245	95	2009
1	1	268	0	2007
5	1	279	87	2005
2	1	244	0	2005
1	1	239	0	2008
1	1	278	88	2009
1	2	235	140	2007
2	1	268	0	2003
1	1	269	93	2008
1	2	262	90	2009
2	2	252	0	2004
1	1	252	0	2007
1	1	268	91	2008
2	1	255	0	2004
2	1	252	134	2005
1	2	257	89	2006
1	2	249	133	2007
1	2	246	93	2009
1	2	235	88	2007
1	2	0	88	2009
1	1	262	90	2008
1	0	240	94	0
2	1	268	103	2004
1	1	235	94	2006
1	2	246	91	2009
1	1	268	100	2006
1	1	267	93	2009
1	2	245	0	2006
1	1	0	103	2006
1	2	237	93	2007
1	2	278	94	2009
1	2	267	0	2006
1	1	255	86	2006
1	1	268	99	2006
1	2	250	89	2007
1	2	266	89	2009
1	2	255	0	2007
1	2	241	91	2009
5	2	250	101	2005
1	1	267	94	2007
1	1	235	92	2006
1	2	249	0	2006
1	1	235	93	2009
1	1	0	92	2009
1	2	235	104	2007
1	1	269	94	2008
1	1	240	93	2006
1	1	271	88	2007
1	1	259	92	2009
1	1	242	121	2007
1	2	262	89	2009
1	2	262	99	2007
1	1	260	123	2007
1	1	259	95	2009
1	1	268	91	2008
1	1	259	101	2006
2	1	267	0	2005
1	1	258	93	2008
1	1	258	95	2009
2	1	267	0	2005
2	1	0	138	0
1	2	268	88	2009
1	1	260	93	2008
1	2	0	91	2008
1	1	268	0	2006
1	2	235	93	2009
1	1	0	0	2009
2	1	258	0	2004
1	2	0	118	2008
1	1	235	88	2008
1	2	0	0	2009
1	1	252	91	2008
1	2	0	0	0
1	1	268	95	2009
1	1	235	0	2006
5	2	279	0	2007
2	1	267	0	2003
1	2	268	92	0
2	2	250	0	0
1	1	245	95	2009
1	2	259	0	2006
1	2	239	90	2008
1	2	267	90	2007
2	1	245	0	2005
1	2	267	0	2005
1	1	260	136	2006
5	2	246	0	0
2	2	250	104	2003
1	1	235	0	2007
1	1	0	90	2008
1	1	275	0	2007
1	2	0	88	2009
1	2	262	144	2006
1	2	268	138	2007
1	1	244	91	2007
1	1	261	0	2006
1	2	255	105	2008
1	2	256	95	2009
1	1	267	95	2009
2	2	255	0	2004
1	2	262	0	2007
2	0	265	0	2005
1	1	235	116	2005
1	1	237	0	2005
1	2	260	0	2008
1	1	258	95	0
1	2	242	146	2010
1	1	240	88	0
1	2	0	90	2008
1	1	267	0	2008
1	1	237	95	2008
1	1	0	92	2008
1	1	255	0	2006
1	1	245	0	0
1	1	0	91	2009
1	1	239	0	2006
1	1	237	102	2006
1	1	0	95	2009
1	1	239	88	2009
1	2	0	90	2009
2	2	255	0	2004
1	1	0	89	2009
1	2	268	91	2009
1	1	0	91	2008
1	2	264	89	2007
1	1	268	0	2008
1	1	245	95	2009
1	1	241	98	2008
1	1	239	94	2006
1	0	0	0	0
2	2	263	0	2003
1	2	0	91	2008
1	2	259	0	2006
1	2	259	90	2008
1	2	259	0	2008
1	2	255	0	2005
1	2	268	89	2008
1	1	260	156	2006
1	1	235	0	0
1	1	0	94	2009
1	1	268	91	2007
2	1	264	0	0
1	2	267	0	2009
1	2	246	93	2009
5	2	0	0	2007
2	1	0	0	2004
1	1	245	100	2006
1	2	255	0	2007
1	2	260	103	2007
1	1	245	90	2008
1	1	0	99	0
1	1	260	88	2008
1	1	0	88	2008
1	1	269	155	2006
1	2	252	88	2008
1	2	267	93	2009
2	2	252	0	2005
2	2	245	0	2005
1	2	235	97	2008
1	1	257	108	0
1	1	272	91	2009
1	0	0	0	0
1	2	267	132	2005
1	2	235	93	2009
1	1	264	0	0
1	2	0	94	2009
1	1	260	90	2009
1	1	0	95	2009
1	2	278	95	2009
1	1	239	0	2006
1	1	239	94	2006
1	2	267	102	2006
1	1	272	95	2008
1	2	268	93	2009
1	1	238	0	2006
1	2	259	90	2008
1	2	267	90	2009
1	1	268	89	2008
1	1	267	98	2007
1	1	239	100	2006
1	1	268	123	2007
1	1	0	95	2009
1	2	255	118	2008
2	1	260	0	2004
1	1	0	91	2009
1	1	267	0	0
1	1	260	90	2008
1	1	245	95	2009
1	2	259	95	2009
1	2	248	86	2006
1	2	262	103	2008
1	1	0	95	2009
2	2	245	102	2005
1	1	0	95	2009
1	1	252	100	2006
1	1	267	0	2007
1	2	260	95	2008
1	2	268	95	2009
1	1	0	95	2009
1	2	255	0	2006
4	2	0	0	0
1	0	268	126	2006
1	0	0	143	0
1	1	0	88	2008
1	2	239	102	2008
