\relax 
\@writefile{toc}{\contentsline {section}{Notational Notes}{2}}
\@writefile{toc}{\contentsline {section}{Problem 1}{2}}
\newlabel{Adjacency Matrix}{{}{2}}
\@writefile{toc}{\contentsline {section}{Problem 2}{2}}
\@writefile{toc}{\contentsline {section}{Problem 3}{3}}
\@writefile{toc}{\contentsline {section}{Problem 4}{4}}
\@writefile{lof}{\contentsline {figure}{\numberline {1}{\ignorespaces Identifying the 3-core network}}{4}}
\@writefile{toc}{\contentsline {section}{Problem 5}{5}}
\@writefile{toc}{\contentsline {section}{Problem 6}{5}}
\@writefile{lof}{\contentsline {figure}{\numberline {2}{\ignorespaces Citation: Majority Illusion in Social Networks, Lerman, Yan, Wu}}{8}}
\newlabel{fig:majority_illusion}{{2}{8}}
